%!PS-Adobe-3.0 EPSF-3.0
%%Creator: (MATLAB, The Mathworks, Inc. Version 9.3.0.713579 \(R2017b\). Operating System: Windows 10)
%%Title: C:/Users/simon/Documents/Unief/M2/Wavelets/Project/report/plots/boldReconstr.eps
%%CreationDate: 2017-11-25T16:55:45
%%Pages: (atend)
%%BoundingBox: 0 0 1152 525
%%LanguageLevel: 3
%%EndComments
%%BeginProlog
%%BeginResource: procset (Apache XML Graphics Std ProcSet) 1.2 0
%%Version: 1.2 0
%%Copyright: (Copyright 2001-2003,2010 The Apache Software Foundation. License terms: http://www.apache.org/licenses/LICENSE-2.0)
/bd{bind def}bind def
/ld{load def}bd
/GR/grestore ld
/GS/gsave ld
/RM/rmoveto ld
/C/curveto ld
/t/show ld
/L/lineto ld
/ML/setmiterlimit ld
/CT/concat ld
/f/fill ld
/N/newpath ld
/S/stroke ld
/CC/setcmykcolor ld
/A/ashow ld
/cp/closepath ld
/RC/setrgbcolor ld
/LJ/setlinejoin ld
/GC/setgray ld
/LW/setlinewidth ld
/M/moveto ld
/re {4 2 roll M
1 index 0 rlineto
0 exch rlineto
neg 0 rlineto
cp } bd
/_ctm matrix def
/_tm matrix def
/BT { _ctm currentmatrix pop matrix _tm copy pop 0 0 moveto } bd
/ET { _ctm setmatrix } bd
/iTm { _ctm setmatrix _tm concat } bd
/Tm { _tm astore pop iTm 0 0 moveto } bd
/ux 0.0 def
/uy 0.0 def
/F {
  /Tp exch def
  /Tf exch def
  Tf findfont Tp scalefont setfont
  /cf Tf def  /cs Tp def
} bd
/ULS {currentpoint /uy exch def /ux exch def} bd
/ULE {
  /Tcx currentpoint pop def
  gsave
  newpath
  cf findfont cs scalefont dup
  /FontMatrix get 0 get /Ts exch def /FontInfo get dup
  /UnderlinePosition get Ts mul /To exch def
  /UnderlineThickness get Ts mul /Tt exch def
  ux uy To add moveto  Tcx uy To add lineto
  Tt setlinewidth stroke
  grestore
} bd
/OLE {
  /Tcx currentpoint pop def
  gsave
  newpath
  cf findfont cs scalefont dup
  /FontMatrix get 0 get /Ts exch def /FontInfo get dup
  /UnderlinePosition get Ts mul /To exch def
  /UnderlineThickness get Ts mul /Tt exch def
  ux uy To add cs add moveto Tcx uy To add cs add lineto
  Tt setlinewidth stroke
  grestore
} bd
/SOE {
  /Tcx currentpoint pop def
  gsave
  newpath
  cf findfont cs scalefont dup
  /FontMatrix get 0 get /Ts exch def /FontInfo get dup
  /UnderlinePosition get Ts mul /To exch def
  /UnderlineThickness get Ts mul /Tt exch def
  ux uy To add cs 10 mul 26 idiv add moveto Tcx uy To add cs 10 mul 26 idiv add lineto
  Tt setlinewidth stroke
  grestore
} bd
/QT {
/Y22 exch store
/X22 exch store
/Y21 exch store
/X21 exch store
currentpoint
/Y21 load 2 mul add 3 div exch
/X21 load 2 mul add 3 div exch
/X21 load 2 mul /X22 load add 3 div
/Y21 load 2 mul /Y22 load add 3 div
/X22 load /Y22 load curveto
} bd
/SSPD {
dup length /d exch dict def
{
/v exch def
/k exch def
currentpagedevice k known {
/cpdv currentpagedevice k get def
v cpdv ne {
/upd false def
/nullv v type /nulltype eq def
/nullcpdv cpdv type /nulltype eq def
nullv nullcpdv or
{
/upd true def
} {
/sametype v type cpdv type eq def
sametype {
v type /arraytype eq {
/vlen v length def
/cpdvlen cpdv length def
vlen cpdvlen eq {
0 1 vlen 1 sub {
/i exch def
/obj v i get def
/cpdobj cpdv i get def
obj cpdobj ne {
/upd true def
exit
} if
} for
} {
/upd true def
} ifelse
} {
v type /dicttype eq {
v {
/dv exch def
/dk exch def
/cpddv cpdv dk get def
dv cpddv ne {
/upd true def
exit
} if
} forall
} {
/upd true def
} ifelse
} ifelse
} if
} ifelse
upd true eq {
d k v put
} if
} if
} if
} forall
d length 0 gt {
d setpagedevice
} if
} bd
/RE { % /NewFontName [NewEncodingArray] /FontName RE -
  findfont dup length dict begin
  {
    1 index /FID ne
    {def} {pop pop} ifelse
  } forall
  /Encoding exch def
  /FontName 1 index def
  currentdict definefont pop
  end
} bind def
%%EndResource
%%BeginResource: procset (Apache XML Graphics EPS ProcSet) 1.0 0
%%Version: 1.0 0
%%Copyright: (Copyright 2002-2003 The Apache Software Foundation. License terms: http://www.apache.org/licenses/LICENSE-2.0)
/BeginEPSF { %def
/b4_Inc_state save def         % Save state for cleanup
/dict_count countdictstack def % Count objects on dict stack
/op_count count 1 sub def      % Count objects on operand stack
userdict begin                 % Push userdict on dict stack
/showpage { } def              % Redefine showpage, { } = null proc
0 setgray 0 setlinecap         % Prepare graphics state
1 setlinewidth 0 setlinejoin
10 setmiterlimit [ ] 0 setdash newpath
/languagelevel where           % If level not equal to 1 then
{pop languagelevel             % set strokeadjust and
1 ne                           % overprint to their defaults.
{false setstrokeadjust false setoverprint
} if
} if
} bd
/EndEPSF { %def
count op_count sub {pop} repeat            % Clean up stacks
countdictstack dict_count sub {end} repeat
b4_Inc_state restore
} bd
%%EndResource
%FOPBeginFontDict
%%IncludeResource: font Courier-Oblique
%%IncludeResource: font Courier-BoldOblique
%%IncludeResource: font Courier-Bold
%%IncludeResource: font ZapfDingbats
%%IncludeResource: font Symbol
%%IncludeResource: font Helvetica
%%IncludeResource: font Helvetica-Oblique
%%IncludeResource: font Helvetica-Bold
%%IncludeResource: font Helvetica-BoldOblique
%%IncludeResource: font Times-Roman
%%IncludeResource: font Times-Italic
%%IncludeResource: font Times-Bold
%%IncludeResource: font Times-BoldItalic
%%IncludeResource: font Courier
%FOPEndFontDict
%%BeginResource: encoding WinAnsiEncoding
/WinAnsiEncoding [
/.notdef /.notdef /.notdef /.notdef /.notdef
/.notdef /.notdef /.notdef /.notdef /.notdef
/.notdef /.notdef /.notdef /.notdef /.notdef
/.notdef /.notdef /.notdef /.notdef /.notdef
/.notdef /.notdef /.notdef /.notdef /.notdef
/.notdef /.notdef /.notdef /.notdef /.notdef
/.notdef /.notdef /space /exclam /quotedbl
/numbersign /dollar /percent /ampersand /quotesingle
/parenleft /parenright /asterisk /plus /comma
/hyphen /period /slash /zero /one
/two /three /four /five /six
/seven /eight /nine /colon /semicolon
/less /equal /greater /question /at
/A /B /C /D /E
/F /G /H /I /J
/K /L /M /N /O
/P /Q /R /S /T
/U /V /W /X /Y
/Z /bracketleft /backslash /bracketright /asciicircum
/underscore /quoteleft /a /b /c
/d /e /f /g /h
/i /j /k /l /m
/n /o /p /q /r
/s /t /u /v /w
/x /y /z /braceleft /bar
/braceright /asciitilde /bullet /Euro /bullet
/quotesinglbase /florin /quotedblbase /ellipsis /dagger
/daggerdbl /circumflex /perthousand /Scaron /guilsinglleft
/OE /bullet /Zcaron /bullet /bullet
/quoteleft /quoteright /quotedblleft /quotedblright /bullet
/endash /emdash /asciitilde /trademark /scaron
/guilsinglright /oe /bullet /zcaron /Ydieresis
/space /exclamdown /cent /sterling /currency
/yen /brokenbar /section /dieresis /copyright
/ordfeminine /guillemotleft /logicalnot /sfthyphen /registered
/macron /degree /plusminus /twosuperior /threesuperior
/acute /mu /paragraph /middot /cedilla
/onesuperior /ordmasculine /guillemotright /onequarter /onehalf
/threequarters /questiondown /Agrave /Aacute /Acircumflex
/Atilde /Adieresis /Aring /AE /Ccedilla
/Egrave /Eacute /Ecircumflex /Edieresis /Igrave
/Iacute /Icircumflex /Idieresis /Eth /Ntilde
/Ograve /Oacute /Ocircumflex /Otilde /Odieresis
/multiply /Oslash /Ugrave /Uacute /Ucircumflex
/Udieresis /Yacute /Thorn /germandbls /agrave
/aacute /acircumflex /atilde /adieresis /aring
/ae /ccedilla /egrave /eacute /ecircumflex
/edieresis /igrave /iacute /icircumflex /idieresis
/eth /ntilde /ograve /oacute /ocircumflex
/otilde /odieresis /divide /oslash /ugrave
/uacute /ucircumflex /udieresis /yacute /thorn
/ydieresis
] def
%%EndResource
%FOPBeginFontReencode
/Courier-Oblique findfont
dup length dict begin
  {1 index /FID ne {def} {pop pop} ifelse} forall
  /Encoding WinAnsiEncoding def
  currentdict
end
/Courier-Oblique exch definefont pop
/Courier-BoldOblique findfont
dup length dict begin
  {1 index /FID ne {def} {pop pop} ifelse} forall
  /Encoding WinAnsiEncoding def
  currentdict
end
/Courier-BoldOblique exch definefont pop
/Courier-Bold findfont
dup length dict begin
  {1 index /FID ne {def} {pop pop} ifelse} forall
  /Encoding WinAnsiEncoding def
  currentdict
end
/Courier-Bold exch definefont pop
/Helvetica findfont
dup length dict begin
  {1 index /FID ne {def} {pop pop} ifelse} forall
  /Encoding WinAnsiEncoding def
  currentdict
end
/Helvetica exch definefont pop
/Helvetica-Oblique findfont
dup length dict begin
  {1 index /FID ne {def} {pop pop} ifelse} forall
  /Encoding WinAnsiEncoding def
  currentdict
end
/Helvetica-Oblique exch definefont pop
/Helvetica-Bold findfont
dup length dict begin
  {1 index /FID ne {def} {pop pop} ifelse} forall
  /Encoding WinAnsiEncoding def
  currentdict
end
/Helvetica-Bold exch definefont pop
/Helvetica-BoldOblique findfont
dup length dict begin
  {1 index /FID ne {def} {pop pop} ifelse} forall
  /Encoding WinAnsiEncoding def
  currentdict
end
/Helvetica-BoldOblique exch definefont pop
/Times-Roman findfont
dup length dict begin
  {1 index /FID ne {def} {pop pop} ifelse} forall
  /Encoding WinAnsiEncoding def
  currentdict
end
/Times-Roman exch definefont pop
/Times-Italic findfont
dup length dict begin
  {1 index /FID ne {def} {pop pop} ifelse} forall
  /Encoding WinAnsiEncoding def
  currentdict
end
/Times-Italic exch definefont pop
/Times-Bold findfont
dup length dict begin
  {1 index /FID ne {def} {pop pop} ifelse} forall
  /Encoding WinAnsiEncoding def
  currentdict
end
/Times-Bold exch definefont pop
/Times-BoldItalic findfont
dup length dict begin
  {1 index /FID ne {def} {pop pop} ifelse} forall
  /Encoding WinAnsiEncoding def
  currentdict
end
/Times-BoldItalic exch definefont pop
/Courier findfont
dup length dict begin
  {1 index /FID ne {def} {pop pop} ifelse} forall
  /Encoding WinAnsiEncoding def
  currentdict
end
/Courier exch definefont pop
%FOPEndFontReencode
%%EndProlog
%%Page: 1 1
%%PageBoundingBox: 0 0 1152 525
%%BeginPageSetup
[1 0 0 -1 0 525] CT
%%EndPageSetup
GS
[0.75 0 0 0.75 0 0] CT
1 GC
N
0 0 1536 700 re
f
GR
GS
[0.75 0 0 0.75 0 0] CT
1 GC
N
0 0 1536 700 re
f
GR
GS
[0.75 0 0 0.75 0 0] CT
1 GC
N
200 623 M
1390 623 L
1390 52 L
200 52 L
cp
f
GR
GS
[0.75 0 0 0.75 0 0] CT
0.149 GC
2 setlinecap
1 LJ
0.667 LW
N
200 623 M
1390 623 L
S
GR
GS
[0.75 0 0 0.75 0 0] CT
0.149 GC
2 setlinecap
1 LJ
0.667 LW
N
200 52 M
1390 52 L
S
GR
GS
[0.75 0 0 0.75 0 0] CT
0.149 GC
2 setlinecap
1 LJ
0.667 LW
N
353.598 623 M
353.598 611.1 L
S
GR
GS
[0.75 0 0 0.75 0 0] CT
0.149 GC
2 setlinecap
1 LJ
0.667 LW
N
508.748 623 M
508.748 611.1 L
S
GR
GS
[0.75 0 0 0.75 0 0] CT
0.149 GC
2 setlinecap
1 LJ
0.667 LW
N
663.898 623 M
663.898 611.1 L
S
GR
GS
[0.75 0 0 0.75 0 0] CT
0.149 GC
2 setlinecap
1 LJ
0.667 LW
N
819.048 623 M
819.048 611.1 L
S
GR
GS
[0.75 0 0 0.75 0 0] CT
0.149 GC
2 setlinecap
1 LJ
0.667 LW
N
974.198 623 M
974.198 611.1 L
S
GR
GS
[0.75 0 0 0.75 0 0] CT
0.149 GC
2 setlinecap
1 LJ
0.667 LW
N
1129.348 623 M
1129.348 611.1 L
S
GR
GS
[0.75 0 0 0.75 0 0] CT
0.149 GC
2 setlinecap
1 LJ
0.667 LW
N
1284.498 623 M
1284.498 611.1 L
S
GR
GS
[0.75 0 0 0.75 0 0] CT
0.149 GC
2 setlinecap
1 LJ
0.667 LW
N
353.598 52 M
353.598 63.9 L
S
GR
GS
[0.75 0 0 0.75 0 0] CT
0.149 GC
2 setlinecap
1 LJ
0.667 LW
N
508.748 52 M
508.748 63.9 L
S
GR
GS
[0.75 0 0 0.75 0 0] CT
0.149 GC
2 setlinecap
1 LJ
0.667 LW
N
663.898 52 M
663.898 63.9 L
S
GR
GS
[0.75 0 0 0.75 0 0] CT
0.149 GC
2 setlinecap
1 LJ
0.667 LW
N
819.048 52 M
819.048 63.9 L
S
GR
GS
[0.75 0 0 0.75 0 0] CT
0.149 GC
2 setlinecap
1 LJ
0.667 LW
N
974.198 52 M
974.198 63.9 L
S
GR
GS
[0.75 0 0 0.75 0 0] CT
0.149 GC
2 setlinecap
1 LJ
0.667 LW
N
1129.348 52 M
1129.348 63.9 L
S
GR
GS
[0.75 0 0 0.75 0 0] CT
0.149 GC
2 setlinecap
1 LJ
0.667 LW
N
1284.498 52 M
1284.498 63.9 L
S
GR
GS
[0.75 0 0 0.75 265.19884 472.05002] CT
0.149 GC
/Helvetica 18.667 F
GS
[1 0 0 1 0 0] CT
-16 19 moveto 
1 -1 scale
(200) t 
GR
GR
GS
[0.75 0 0 0.75 381.56129 472.05002] CT
0.149 GC
/Helvetica 18.667 F
GS
[1 0 0 1 0 0] CT
-16 19 moveto 
1 -1 scale
(400) t 
GR
GR
GS
[0.75 0 0 0.75 497.92374 472.05002] CT
0.149 GC
/Helvetica 18.667 F
GS
[1 0 0 1 0 0] CT
-16 19 moveto 
1 -1 scale
(600) t 
GR
GR
GS
[0.75 0 0 0.75 614.28616 472.05002] CT
0.149 GC
/Helvetica 18.667 F
GS
[1 0 0 1 0 0] CT
-16 19 moveto 
1 -1 scale
(800) t 
GR
GR
GS
[0.75 0 0 0.75 730.64864 472.05002] CT
0.149 GC
/Helvetica 18.667 F
GS
[1 0 0 1 0 0] CT
-21 19 moveto 
1 -1 scale
(1000) t 
GR
GR
GS
[0.75 0 0 0.75 847.01111 472.05002] CT
0.149 GC
/Helvetica 18.667 F
GS
[1 0 0 1 0 0] CT
-21 19 moveto 
1 -1 scale
(1200) t 
GR
GR
GS
[0.75 0 0 0.75 963.37354 472.05002] CT
0.149 GC
/Helvetica 18.667 F
GS
[1 0 0 1 0 0] CT
-21 19 moveto 
1 -1 scale
(1400) t 
GR
GR
GS
[0.75 0 0 0.75 596.25041 491.05] CT
0.149 GC
N
-33.014 17.248 M
-33.014 16.514 L
-31.951 16.514 -30.959 16.396 QT
-29.967 16.279 -29.967 15.842 QT
-29.967 4.31 L
-29.967 3.857 -30.217 3.748 QT
-30.467 3.639 -31.03 3.639 QT
-31.92 3.639 L
-33.655 3.639 -34.373 4.404 QT
-34.748 4.779 -34.912 5.615 QT
-35.076 6.451 -35.201 7.717 QT
-35.795 7.717 L
-35.405 2.904 L
-22.576 2.904 L
-22.17 7.717 L
-22.795 7.717 L
-22.92 6.357 -23.069 5.56 QT
-23.217 4.764 -23.592 4.404 QT
-24.342 3.639 -26.061 3.639 QT
-26.936 3.639 L
-27.326 3.639 -27.537 3.67 QT
-27.748 3.701 -27.881 3.849 QT
-28.014 3.998 -28.014 4.31 QT
-28.014 15.842 L
-28.014 16.279 -27.014 16.396 QT
-26.014 16.514 -24.967 16.514 QT
-24.967 17.248 L
-33.014 17.248 L
cp
f
GR
GS
[0.75 0 0 0.75 596.25041 491.05] CT
0.149 GC
N
-21.091 17.248 M
-21.091 16.514 L
-20.372 16.514 -19.911 16.396 QT
-19.45 16.279 -19.45 15.842 QT
-19.45 10.107 L
-19.45 9.295 -19.762 9.115 QT
-20.075 8.935 -20.997 8.935 QT
-20.997 8.201 L
-17.966 7.967 L
-17.966 15.842 L
-17.966 16.279 -17.567 16.396 QT
-17.169 16.514 -16.497 16.514 QT
-16.497 17.248 L
-21.091 17.248 L
cp
-20.2 4.357 M
-20.2 3.904 -19.848 3.553 QT
-19.497 3.201 -19.044 3.201 QT
-18.747 3.201 -18.473 3.357 QT
-18.2 3.514 -18.044 3.787 QT
-17.887 4.06 -17.887 4.357 QT
-17.887 4.81 -18.239 5.162 QT
-18.591 5.514 -19.044 5.514 QT
-19.497 5.514 -19.848 5.162 QT
-20.2 4.81 -20.2 4.357 QT
cp
f
GR
GS
[0.75 0 0 0.75 596.25041 491.05] CT
0.149 GC
N
-15.402 17.248 M
-15.402 16.514 L
-14.684 16.514 -14.223 16.396 QT
-13.762 16.279 -13.762 15.842 QT
-13.762 10.107 L
-13.762 9.545 -13.934 9.295 QT
-14.106 9.045 -14.418 8.99 QT
-14.731 8.935 -15.402 8.935 QT
-15.402 8.201 L
-12.356 7.967 L
-12.356 10.014 L
-11.934 9.123 -11.106 8.545 QT
-10.277 7.967 -9.309 7.967 QT
-6.887 7.967 -6.465 9.935 QT
-6.043 9.06 -5.238 8.514 QT
-4.434 7.967 -3.465 7.967 QT
-2.512 7.967 -1.863 8.271 QT
-1.215 8.576 -0.887 9.209 QT
-0.559 9.842 -0.559 10.795 QT
-0.559 15.842 L
-0.559 16.279 -0.09 16.396 QT
0.379 16.514 1.082 16.514 QT
1.082 17.248 L
-3.715 17.248 L
-3.715 16.514 L
-3.012 16.514 -2.543 16.396 QT
-2.074 16.279 -2.074 15.842 QT
-2.074 10.857 L
-2.074 9.81 -2.379 9.162 QT
-2.684 8.514 -3.606 8.514 QT
-4.809 8.514 -5.598 9.49 QT
-6.387 10.467 -6.387 11.701 QT
-6.387 15.842 L
-6.387 16.279 -5.926 16.396 QT
-5.465 16.514 -4.746 16.514 QT
-4.746 17.248 L
-9.559 17.248 L
-9.559 16.514 L
-8.84 16.514 -8.379 16.396 QT
-7.918 16.279 -7.918 15.842 QT
-7.918 10.857 L
-7.918 9.842 -8.215 9.178 QT
-8.512 8.514 -9.434 8.514 QT
-10.652 8.514 -11.441 9.49 QT
-12.231 10.467 -12.231 11.701 QT
-12.231 15.842 L
-12.231 16.279 -11.762 16.396 QT
-11.293 16.514 -10.59 16.514 QT
-10.59 17.248 L
-15.402 17.248 L
cp
f
GR
GS
[0.75 0 0 0.75 596.25041 491.05] CT
0.149 GC
N
6.318 17.482 M
5.037 17.482 3.967 16.81 QT
2.896 16.139 2.279 15.014 QT
1.662 13.889 1.662 12.639 QT
1.662 11.42 2.224 10.31 QT
2.787 9.201 3.787 8.521 QT
4.787 7.842 6.021 7.842 QT
6.974 7.842 7.693 8.162 QT
8.412 8.482 8.873 9.053 QT
9.334 9.623 9.568 10.404 QT
9.803 11.185 9.803 12.123 QT
9.803 12.404 9.584 12.404 QT
3.506 12.404 L
3.506 12.623 L
3.506 14.373 4.209 15.623 QT
4.912 16.873 6.506 16.873 QT
7.146 16.873 7.693 16.584 QT
8.24 16.295 8.646 15.779 QT
9.053 15.264 9.193 14.685 QT
9.209 14.607 9.271 14.553 QT
9.334 14.498 9.396 14.498 QT
9.584 14.498 L
9.803 14.498 9.803 14.764 QT
9.506 15.951 8.521 16.717 QT
7.537 17.482 6.318 17.482 QT
cp
3.521 11.873 M
8.318 11.873 L
8.318 11.092 8.092 10.279 QT
7.865 9.467 7.357 8.928 QT
6.849 8.389 6.021 8.389 QT
4.834 8.389 4.178 9.498 QT
3.521 10.607 3.521 11.873 QT
cp
f
GR
GS
[0.75 0 0 0.75 596.25041 491.05] CT
0.149 GC
N
19.538 22.498 M
19.538 1.498 L
22.413 1.498 L
22.413 2.342 L
20.382 2.342 L
20.382 21.654 L
22.413 21.654 L
22.413 22.498 L
19.538 22.498 L
cp
f
GR
GS
[0.75 0 0 0.75 596.25041 491.05] CT
0.149 GC
N
23.461 17.31 M
23.461 13.889 L
23.461 13.717 23.633 13.717 QT
23.898 13.717 L
24.023 13.717 24.055 13.889 QT
24.648 16.935 26.883 16.935 QT
27.883 16.935 28.555 16.482 QT
29.227 16.029 29.227 15.092 QT
29.227 14.404 28.703 13.928 QT
28.18 13.451 27.461 13.279 QT
26.055 12.998 L
25.352 12.842 24.773 12.529 QT
24.195 12.217 23.828 11.685 QT
23.461 11.154 23.461 10.467 QT
23.461 9.529 23.945 8.943 QT
24.43 8.357 25.211 8.099 QT
25.992 7.842 26.883 7.842 QT
27.961 7.842 28.773 8.404 QT
29.367 7.889 L
29.367 7.842 29.477 7.842 QT
29.633 7.842 L
29.695 7.842 29.742 7.896 QT
29.789 7.951 29.789 8.014 QT
29.789 10.764 L
29.789 10.951 29.633 10.951 QT
29.367 10.951 L
29.18 10.951 29.18 10.764 QT
29.18 9.654 28.57 8.99 QT
27.961 8.326 26.867 8.326 QT
25.93 8.326 25.234 8.678 QT
24.539 9.029 24.539 9.873 QT
24.539 10.467 25.039 10.834 QT
25.539 11.201 26.211 11.373 QT
27.633 11.639 L
28.352 11.81 28.969 12.193 QT
29.586 12.576 29.953 13.178 QT
30.32 13.779 30.32 14.514 QT
30.32 15.279 30.055 15.842 QT
29.789 16.404 29.32 16.771 QT
28.852 17.139 28.219 17.31 QT
27.586 17.482 26.883 17.482 QT
25.57 17.482 24.648 16.607 QT
23.883 17.435 L
23.883 17.482 23.758 17.482 QT
23.633 17.482 L
23.461 17.482 23.461 17.31 QT
cp
f
GR
GS
[0.75 0 0 0.75 596.25041 491.05] CT
0.149 GC
N
31.326 22.498 M
31.326 21.654 L
33.357 21.654 L
33.357 2.342 L
31.326 2.342 L
31.326 1.498 L
34.201 1.498 L
34.201 22.498 L
31.326 22.498 L
cp
f
GR
GS
[0.75 0 0 0.75 0 0] CT
0.149 GC
2 setlinecap
1 LJ
0.667 LW
N
200 623 M
200 52 L
S
GR
GS
[0.75 0 0 0.75 0 0] CT
0.149 GC
2 setlinecap
1 LJ
0.667 LW
N
1390 623 M
1390 52 L
S
GR
GS
[0.75 0 0 0.75 0 0] CT
0.149 GC
2 setlinecap
1 LJ
0.667 LW
N
200 570.005 M
211.9 570.005 L
S
GR
GS
[0.75 0 0 0.75 0 0] CT
0.149 GC
2 setlinecap
1 LJ
0.667 LW
N
200 515.199 M
211.9 515.199 L
S
GR
GS
[0.75 0 0 0.75 0 0] CT
0.149 GC
2 setlinecap
1 LJ
0.667 LW
N
200 460.393 M
211.9 460.393 L
S
GR
GS
[0.75 0 0 0.75 0 0] CT
0.149 GC
2 setlinecap
1 LJ
0.667 LW
N
200 405.586 M
211.9 405.586 L
S
GR
GS
[0.75 0 0 0.75 0 0] CT
0.149 GC
2 setlinecap
1 LJ
0.667 LW
N
200 350.78 M
211.9 350.78 L
S
GR
GS
[0.75 0 0 0.75 0 0] CT
0.149 GC
2 setlinecap
1 LJ
0.667 LW
N
200 295.973 M
211.9 295.973 L
S
GR
GS
[0.75 0 0 0.75 0 0] CT
0.149 GC
2 setlinecap
1 LJ
0.667 LW
N
200 241.167 M
211.9 241.167 L
S
GR
GS
[0.75 0 0 0.75 0 0] CT
0.149 GC
2 setlinecap
1 LJ
0.667 LW
N
200 186.36 M
211.9 186.36 L
S
GR
GS
[0.75 0 0 0.75 0 0] CT
0.149 GC
2 setlinecap
1 LJ
0.667 LW
N
200 131.554 M
211.9 131.554 L
S
GR
GS
[0.75 0 0 0.75 0 0] CT
0.149 GC
2 setlinecap
1 LJ
0.667 LW
N
200 76.748 M
211.9 76.748 L
S
GR
GS
[0.75 0 0 0.75 0 0] CT
0.149 GC
2 setlinecap
1 LJ
0.667 LW
N
1390 570.005 M
1378.1 570.005 L
S
GR
GS
[0.75 0 0 0.75 0 0] CT
0.149 GC
2 setlinecap
1 LJ
0.667 LW
N
1390 515.199 M
1378.1 515.199 L
S
GR
GS
[0.75 0 0 0.75 0 0] CT
0.149 GC
2 setlinecap
1 LJ
0.667 LW
N
1390 460.393 M
1378.1 460.393 L
S
GR
GS
[0.75 0 0 0.75 0 0] CT
0.149 GC
2 setlinecap
1 LJ
0.667 LW
N
1390 405.586 M
1378.1 405.586 L
S
GR
GS
[0.75 0 0 0.75 0 0] CT
0.149 GC
2 setlinecap
1 LJ
0.667 LW
N
1390 350.78 M
1378.1 350.78 L
S
GR
GS
[0.75 0 0 0.75 0 0] CT
0.149 GC
2 setlinecap
1 LJ
0.667 LW
N
1390 295.973 M
1378.1 295.973 L
S
GR
GS
[0.75 0 0 0.75 0 0] CT
0.149 GC
2 setlinecap
1 LJ
0.667 LW
N
1390 241.167 M
1378.1 241.167 L
S
GR
GS
[0.75 0 0 0.75 0 0] CT
0.149 GC
2 setlinecap
1 LJ
0.667 LW
N
1390 186.36 M
1378.1 186.36 L
S
GR
GS
[0.75 0 0 0.75 0 0] CT
0.149 GC
2 setlinecap
1 LJ
0.667 LW
N
1390 131.554 M
1378.1 131.554 L
S
GR
GS
[0.75 0 0 0.75 0 0] CT
0.149 GC
2 setlinecap
1 LJ
0.667 LW
N
1390 76.748 M
1378.1 76.748 L
S
GR
GS
[0.75 0 0 0.75 145.2 427.50407] CT
0.149 GC
/Helvetica 18.667 F
GS
[1 0 0 1 0 0] CT
-26 7 moveto 
1 -1 scale
(0.5) t 
GR
GR
GS
[0.75 0 0 0.75 145.2 386.39928] CT
0.149 GC
/Helvetica 18.667 F
GS
[1 0 0 1 0 0] CT
-11 7 moveto 
1 -1 scale
(1) t 
GR
GR
GS
[0.75 0 0 0.75 145.2 345.29446] CT
0.149 GC
/Helvetica 18.667 F
GS
[1 0 0 1 0 0] CT
-26 7 moveto 
1 -1 scale
(1.5) t 
GR
GR
GS
[0.75 0 0 0.75 145.2 304.18964] CT
0.149 GC
/Helvetica 18.667 F
GS
[1 0 0 1 0 0] CT
-11 7 moveto 
1 -1 scale
(2) t 
GR
GR
GS
[0.75 0 0 0.75 145.2 263.08482] CT
0.149 GC
/Helvetica 18.667 F
GS
[1 0 0 1 0 0] CT
-26 7 moveto 
1 -1 scale
(2.5) t 
GR
GR
GS
[0.75 0 0 0.75 145.2 221.98] CT
0.149 GC
/Helvetica 18.667 F
GS
[1 0 0 1 0 0] CT
-11 7 moveto 
1 -1 scale
(3) t 
GR
GR
GS
[0.75 0 0 0.75 145.2 180.87518] CT
0.149 GC
/Helvetica 18.667 F
GS
[1 0 0 1 0 0] CT
-26 7 moveto 
1 -1 scale
(3.5) t 
GR
GR
GS
[0.75 0 0 0.75 145.2 139.77037] CT
0.149 GC
/Helvetica 18.667 F
GS
[1 0 0 1 0 0] CT
-11 7 moveto 
1 -1 scale
(4) t 
GR
GR
GS
[0.75 0 0 0.75 145.2 98.66555] CT
0.149 GC
/Helvetica 18.667 F
GS
[1 0 0 1 0 0] CT
-26 7 moveto 
1 -1 scale
(4.5) t 
GR
GR
GS
[0.75 0 0 0.75 145.2 57.56073] CT
0.149 GC
/Helvetica 18.667 F
GS
[1 0 0 1 0 0] CT
-11 7 moveto 
1 -1 scale
(5) t 
GR
GR
GS
[0 -0.75 0.75 0 122.7 253.12479] CT
0.149 GC
N
-83.839 -7.392 M
-83.839 -8.126 L
-81.683 -8.126 -81.683 -8.798 QT
-81.683 -20.33 L
-81.683 -21.001 -83.839 -21.001 QT
-83.839 -21.736 L
-76.12 -21.736 L
-75.058 -21.736 -73.972 -21.322 QT
-72.886 -20.908 -72.167 -20.095 QT
-71.448 -19.283 -71.448 -18.173 QT
-71.448 -16.892 -72.503 -16.025 QT
-73.558 -15.158 -74.964 -14.892 QT
-74.042 -14.892 -73.081 -14.384 QT
-72.12 -13.876 -71.503 -13.041 QT
-70.886 -12.205 -70.886 -11.251 QT
-70.886 -10.111 -71.565 -9.228 QT
-72.245 -8.345 -73.339 -7.869 QT
-74.433 -7.392 -75.526 -7.392 QT
-83.839 -7.392 L
cp
-79.854 -8.798 M
-79.854 -8.345 -79.597 -8.236 QT
-79.339 -8.126 -78.792 -8.126 QT
-76.12 -8.126 L
-75.292 -8.126 -74.589 -8.556 QT
-73.886 -8.986 -73.479 -9.712 QT
-73.073 -10.439 -73.073 -11.251 QT
-73.073 -12.064 -73.409 -12.822 QT
-73.745 -13.58 -74.378 -14.072 QT
-75.011 -14.564 -75.823 -14.564 QT
-79.854 -14.564 L
-79.854 -8.798 L
cp
-79.854 -15.126 M
-76.698 -15.126 L
-76.073 -15.126 -75.511 -15.353 QT
-74.948 -15.58 -74.503 -16.017 QT
-74.058 -16.455 -73.815 -17.001 QT
-73.573 -17.548 -73.573 -18.173 QT
-73.573 -18.72 -73.753 -19.22 QT
-73.933 -19.72 -74.284 -20.126 QT
-74.636 -20.533 -75.104 -20.767 QT
-75.573 -21.001 -76.12 -21.001 QT
-78.792 -21.001 L
-79.167 -21.001 -79.378 -20.97 QT
-79.589 -20.939 -79.722 -20.791 QT
-79.854 -20.642 -79.854 -20.33 QT
-79.854 -15.126 L
cp
f
GR
GS
[0 -0.75 0.75 0 122.7 253.12479] CT
0.149 GC
N
-69.372 -7.392 M
-69.372 -8.126 L
-68.654 -8.126 -68.193 -8.244 QT
-67.732 -8.361 -67.732 -8.798 QT
-67.732 -19.814 L
-67.732 -20.376 -67.896 -20.634 QT
-68.06 -20.892 -68.38 -20.947 QT
-68.701 -21.001 -69.372 -21.001 QT
-69.372 -21.736 L
-66.247 -21.97 L
-66.247 -8.798 L
-66.247 -8.361 -65.787 -8.244 QT
-65.326 -8.126 -64.622 -8.126 QT
-64.622 -7.392 L
-69.372 -7.392 L
cp
f
GR
GS
[0 -0.75 0.75 0 122.7 253.12479] CT
0.149 GC
N
-59.059 -7.158 M
-60.325 -7.158 -61.403 -7.798 QT
-62.481 -8.439 -63.106 -9.517 QT
-63.731 -10.595 -63.731 -11.861 QT
-63.731 -12.83 -63.388 -13.72 QT
-63.044 -14.611 -62.403 -15.314 QT
-61.763 -16.017 -60.911 -16.408 QT
-60.059 -16.798 -59.059 -16.798 QT
-57.763 -16.798 -56.7 -16.119 QT
-55.638 -15.439 -55.028 -14.298 QT
-54.419 -13.158 -54.419 -11.861 QT
-54.419 -10.595 -55.044 -9.517 QT
-55.669 -8.439 -56.739 -7.798 QT
-57.809 -7.158 -59.059 -7.158 QT
cp
-59.059 -7.767 M
-57.372 -7.767 -56.809 -8.986 QT
-56.247 -10.205 -56.247 -12.095 QT
-56.247 -13.158 -56.364 -13.845 QT
-56.481 -14.533 -56.856 -15.111 QT
-57.091 -15.455 -57.458 -15.712 QT
-57.825 -15.97 -58.223 -16.111 QT
-58.622 -16.251 -59.059 -16.251 QT
-59.716 -16.251 -60.302 -15.955 QT
-60.888 -15.658 -61.278 -15.111 QT
-61.669 -14.501 -61.778 -13.791 QT
-61.888 -13.08 -61.888 -12.095 QT
-61.888 -10.923 -61.684 -9.986 QT
-61.481 -9.048 -60.856 -8.408 QT
-60.231 -7.767 -59.059 -7.767 QT
cp
f
GR
GS
[0 -0.75 0.75 0 122.7 253.12479] CT
0.149 GC
N
-48.222 -7.158 M
-49.488 -7.158 -50.566 -7.798 QT
-51.644 -8.439 -52.269 -9.517 QT
-52.894 -10.595 -52.894 -11.861 QT
-52.894 -12.83 -52.55 -13.72 QT
-52.207 -14.611 -51.566 -15.314 QT
-50.925 -16.017 -50.074 -16.408 QT
-49.222 -16.798 -48.222 -16.798 QT
-46.925 -16.798 -45.863 -16.119 QT
-44.8 -15.439 -44.191 -14.298 QT
-43.582 -13.158 -43.582 -11.861 QT
-43.582 -10.595 -44.207 -9.517 QT
-44.832 -8.439 -45.902 -7.798 QT
-46.972 -7.158 -48.222 -7.158 QT
cp
-48.222 -7.767 M
-46.535 -7.767 -45.972 -8.986 QT
-45.41 -10.205 -45.41 -12.095 QT
-45.41 -13.158 -45.527 -13.845 QT
-45.644 -14.533 -46.019 -15.111 QT
-46.254 -15.455 -46.621 -15.712 QT
-46.988 -15.97 -47.386 -16.111 QT
-47.785 -16.251 -48.222 -16.251 QT
-48.879 -16.251 -49.464 -15.955 QT
-50.05 -15.658 -50.441 -15.111 QT
-50.832 -14.501 -50.941 -13.791 QT
-51.05 -13.08 -51.05 -12.095 QT
-51.05 -10.923 -50.847 -9.986 QT
-50.644 -9.048 -50.019 -8.408 QT
-49.394 -7.767 -48.222 -7.767 QT
cp
f
GR
GS
[0 -0.75 0.75 0 122.7 253.12479] CT
0.149 GC
N
-37.51 -7.158 M
-38.745 -7.158 -39.776 -7.83 QT
-40.807 -8.501 -41.37 -9.595 QT
-41.932 -10.689 -41.932 -11.923 QT
-41.932 -13.189 -41.315 -14.283 QT
-40.698 -15.376 -39.627 -16.025 QT
-38.557 -16.673 -37.276 -16.673 QT
-36.51 -16.673 -35.823 -16.353 QT
-35.135 -16.033 -34.635 -15.455 QT
-34.635 -19.814 L
-34.635 -20.376 -34.807 -20.634 QT
-34.979 -20.892 -35.291 -20.947 QT
-35.604 -21.001 -36.26 -21.001 QT
-36.26 -21.736 L
-33.166 -21.97 L
-33.166 -9.298 L
-33.166 -8.751 -32.995 -8.494 QT
-32.823 -8.236 -32.51 -8.181 QT
-32.198 -8.126 -31.526 -8.126 QT
-31.526 -7.392 L
-34.698 -7.158 L
-34.698 -8.486 L
-35.245 -7.861 -35.995 -7.509 QT
-36.745 -7.158 -37.51 -7.158 QT
cp
-39.651 -9.22 M
-39.291 -8.533 -38.69 -8.119 QT
-38.088 -7.705 -37.385 -7.705 QT
-36.51 -7.705 -35.784 -8.212 QT
-35.057 -8.72 -34.698 -9.517 QT
-34.698 -14.548 L
-34.948 -15.017 -35.323 -15.376 QT
-35.698 -15.736 -36.159 -15.931 QT
-36.62 -16.126 -37.151 -16.126 QT
-38.245 -16.126 -38.909 -15.509 QT
-39.573 -14.892 -39.846 -13.923 QT
-40.12 -12.955 -40.12 -11.908 QT
-40.12 -11.064 -40.026 -10.439 QT
-39.932 -9.814 -39.651 -9.22 QT
cp
f
GR
GS
[0 -0.75 0.75 0 122.7 253.12479] CT
0.149 GC
N
-19.133 -7.158 M
-20.399 -7.158 -21.477 -7.798 QT
-22.555 -8.439 -23.18 -9.517 QT
-23.805 -10.595 -23.805 -11.861 QT
-23.805 -12.83 -23.461 -13.72 QT
-23.118 -14.611 -22.477 -15.314 QT
-21.836 -16.017 -20.985 -16.408 QT
-20.133 -16.798 -19.133 -16.798 QT
-17.836 -16.798 -16.774 -16.119 QT
-15.711 -15.439 -15.102 -14.298 QT
-14.493 -13.158 -14.493 -11.861 QT
-14.493 -10.595 -15.118 -9.517 QT
-15.743 -8.439 -16.813 -7.798 QT
-17.883 -7.158 -19.133 -7.158 QT
cp
-19.133 -7.767 M
-17.446 -7.767 -16.883 -8.986 QT
-16.321 -10.205 -16.321 -12.095 QT
-16.321 -13.158 -16.438 -13.845 QT
-16.555 -14.533 -16.93 -15.111 QT
-17.165 -15.455 -17.532 -15.712 QT
-17.899 -15.97 -18.297 -16.111 QT
-18.696 -16.251 -19.133 -16.251 QT
-19.79 -16.251 -20.376 -15.955 QT
-20.961 -15.658 -21.352 -15.111 QT
-21.743 -14.501 -21.852 -13.791 QT
-21.961 -13.08 -21.961 -12.095 QT
-21.961 -10.923 -21.758 -9.986 QT
-21.555 -9.048 -20.93 -8.408 QT
-20.305 -7.767 -19.133 -7.767 QT
cp
f
GR
GS
[0 -0.75 0.75 0 122.7 253.12479] CT
0.149 GC
N
-14.437 -7.392 M
-14.437 -8.126 L
-13.625 -8.126 -12.921 -8.439 QT
-12.218 -8.751 -11.718 -9.376 QT
-9.812 -11.798 L
-12.296 -15.033 L
-12.671 -15.486 -13.101 -15.595 QT
-13.531 -15.705 -14.328 -15.705 QT
-14.328 -16.439 L
-9.953 -16.439 L
-9.953 -15.705 L
-10.234 -15.705 -10.476 -15.58 QT
-10.718 -15.455 -10.718 -15.22 QT
-10.718 -15.142 -10.656 -15.033 QT
-8.968 -12.845 L
-7.718 -14.47 L
-7.453 -14.783 -7.453 -15.08 QT
-7.453 -15.345 -7.625 -15.525 QT
-7.796 -15.705 -8.078 -15.705 QT
-8.078 -16.439 L
-4.203 -16.439 L
-4.203 -15.705 L
-5.015 -15.705 -5.726 -15.392 QT
-6.437 -15.08 -6.937 -14.47 QT
-8.593 -12.345 L
-5.906 -8.798 L
-5.515 -8.33 -5.085 -8.228 QT
-4.656 -8.126 -3.843 -8.126 QT
-3.843 -7.392 L
-8.218 -7.392 L
-8.218 -8.126 L
-7.953 -8.126 -7.718 -8.251 QT
-7.484 -8.376 -7.484 -8.611 QT
-7.484 -8.705 -7.546 -8.798 QT
-9.437 -11.298 L
-10.937 -9.376 L
-11.187 -9.111 -11.187 -8.751 QT
-11.187 -8.501 -11.007 -8.314 QT
-10.828 -8.126 -10.593 -8.126 QT
-10.593 -7.392 L
-14.437 -7.392 L
cp
f
GR
GS
[0 -0.75 0.75 0 122.7 253.12479] CT
0.149 GC
N
-2.397 -3.939 M
-2.006 -3.626 -1.522 -3.626 QT
-0.194 -3.626 0.634 -5.626 QT
1.353 -7.392 L
-1.787 -15.111 L
-1.991 -15.486 -2.389 -15.595 QT
-2.787 -15.705 -3.444 -15.705 QT
-3.444 -16.439 L
0.963 -16.439 L
0.963 -15.705 L
-0.194 -15.705 -0.194 -15.205 QT
-0.194 -15.126 -0.178 -15.08 QT
2.166 -9.345 L
4.259 -14.501 L
4.322 -14.673 4.322 -14.861 QT
4.322 -15.126 4.181 -15.314 QT
4.041 -15.501 3.822 -15.603 QT
3.603 -15.705 3.322 -15.705 QT
3.322 -16.439 L
6.822 -16.439 L
6.822 -15.705 L
6.166 -15.705 5.681 -15.408 QT
5.197 -15.111 4.931 -14.533 QT
1.291 -5.626 L
1.009 -4.955 0.627 -4.384 QT
0.244 -3.814 -0.311 -3.447 QT
-0.866 -3.08 -1.522 -3.08 QT
-2.287 -3.08 -2.866 -3.587 QT
-3.444 -4.095 -3.444 -4.845 QT
-3.444 -5.236 -3.178 -5.501 QT
-2.912 -5.767 -2.522 -5.767 QT
-2.256 -5.767 -2.045 -5.65 QT
-1.834 -5.533 -1.717 -5.33 QT
-1.6 -5.126 -1.6 -4.845 QT
-1.6 -4.517 -1.826 -4.244 QT
-2.053 -3.97 -2.397 -3.939 QT
cp
f
GR
GS
[0 -0.75 0.75 0 122.7 253.12479] CT
0.149 GC
N
7.565 -5.751 M
7.565 -6.501 8.112 -7.056 QT
8.659 -7.611 9.409 -7.861 QT
8.987 -8.173 8.768 -8.658 QT
8.55 -9.142 8.55 -9.673 QT
8.55 -10.658 9.175 -11.423 QT
8.206 -12.361 8.206 -13.58 QT
8.206 -14.236 8.487 -14.814 QT
8.768 -15.392 9.276 -15.814 QT
9.784 -16.236 10.393 -16.455 QT
11.003 -16.673 11.659 -16.673 QT
12.909 -16.673 13.893 -15.939 QT
14.331 -16.408 14.917 -16.658 QT
15.503 -16.908 16.143 -16.908 QT
16.597 -16.908 16.886 -16.587 QT
17.175 -16.267 17.175 -15.814 QT
17.175 -15.548 16.979 -15.353 QT
16.784 -15.158 16.518 -15.158 QT
16.253 -15.158 16.057 -15.353 QT
15.862 -15.548 15.862 -15.814 QT
15.862 -16.205 16.128 -16.361 QT
15.034 -16.361 14.253 -15.611 QT
14.643 -15.22 14.87 -14.673 QT
15.097 -14.126 15.097 -13.58 QT
15.097 -12.689 14.604 -11.978 QT
14.112 -11.267 13.307 -10.876 QT
12.503 -10.486 11.659 -10.486 QT
10.503 -10.486 9.55 -11.111 QT
9.253 -10.689 9.253 -10.189 QT
9.253 -9.626 9.62 -9.212 QT
9.987 -8.798 10.534 -8.798 QT
12.253 -8.798 L
13.503 -8.798 14.511 -8.572 QT
15.518 -8.345 16.198 -7.666 QT
16.878 -6.986 16.878 -5.751 QT
16.878 -4.83 16.104 -4.22 QT
15.331 -3.611 14.245 -3.337 QT
13.159 -3.064 12.237 -3.064 QT
11.3 -3.064 10.214 -3.337 QT
9.128 -3.611 8.347 -4.22 QT
7.565 -4.83 7.565 -5.751 QT
cp
8.753 -5.751 M
8.753 -5.048 9.323 -4.572 QT
9.893 -4.095 10.706 -3.861 QT
11.518 -3.626 12.237 -3.626 QT
12.94 -3.626 13.753 -3.861 QT
14.565 -4.095 15.136 -4.572 QT
15.706 -5.048 15.706 -5.751 QT
15.706 -6.845 14.698 -7.173 QT
13.69 -7.501 12.253 -7.501 QT
10.534 -7.501 L
10.05 -7.501 9.643 -7.267 QT
9.237 -7.033 8.995 -6.619 QT
8.753 -6.205 8.753 -5.751 QT
cp
11.659 -11.048 M
13.44 -11.048 13.44 -13.58 QT
13.44 -14.689 13.057 -15.4 QT
12.675 -16.111 11.659 -16.111 QT
10.628 -16.111 10.245 -15.4 QT
9.862 -14.689 9.862 -13.58 QT
9.862 -12.892 10.011 -12.33 QT
10.159 -11.767 10.55 -11.408 QT
10.94 -11.048 11.659 -11.048 QT
cp
f
GR
GS
[0 -0.75 0.75 0 122.7 253.12479] CT
0.149 GC
N
22.488 -7.158 M
21.207 -7.158 20.137 -7.83 QT
19.066 -8.501 18.449 -9.626 QT
17.832 -10.751 17.832 -12.001 QT
17.832 -13.22 18.394 -14.33 QT
18.957 -15.439 19.957 -16.119 QT
20.957 -16.798 22.191 -16.798 QT
23.144 -16.798 23.863 -16.478 QT
24.582 -16.158 25.043 -15.587 QT
25.504 -15.017 25.738 -14.236 QT
25.973 -13.455 25.973 -12.517 QT
25.973 -12.236 25.754 -12.236 QT
19.676 -12.236 L
19.676 -12.017 L
19.676 -10.267 20.379 -9.017 QT
21.082 -7.767 22.676 -7.767 QT
23.316 -7.767 23.863 -8.056 QT
24.41 -8.345 24.816 -8.861 QT
25.223 -9.376 25.363 -9.955 QT
25.379 -10.033 25.441 -10.087 QT
25.504 -10.142 25.566 -10.142 QT
25.754 -10.142 L
25.973 -10.142 25.973 -9.876 QT
25.676 -8.689 24.691 -7.923 QT
23.707 -7.158 22.488 -7.158 QT
cp
19.691 -12.767 M
24.488 -12.767 L
24.488 -13.548 24.262 -14.361 QT
24.035 -15.173 23.527 -15.712 QT
23.019 -16.251 22.191 -16.251 QT
21.004 -16.251 20.348 -15.142 QT
19.691 -14.033 19.691 -12.767 QT
cp
f
GR
GS
[0 -0.75 0.75 0 122.7 253.12479] CT
0.149 GC
N
27.005 -7.392 M
27.005 -8.126 L
27.724 -8.126 28.184 -8.244 QT
28.645 -8.361 28.645 -8.798 QT
28.645 -14.533 L
28.645 -15.095 28.474 -15.345 QT
28.302 -15.595 27.989 -15.65 QT
27.677 -15.705 27.005 -15.705 QT
27.005 -16.439 L
30.052 -16.673 L
30.052 -14.626 L
30.474 -15.517 31.302 -16.095 QT
32.13 -16.673 33.099 -16.673 QT
34.552 -16.673 35.286 -15.978 QT
36.02 -15.283 36.02 -13.845 QT
36.02 -8.798 L
36.02 -8.361 36.481 -8.244 QT
36.942 -8.126 37.661 -8.126 QT
37.661 -7.392 L
32.849 -7.392 L
32.849 -8.126 L
33.567 -8.126 34.028 -8.244 QT
34.489 -8.361 34.489 -8.798 QT
34.489 -13.783 L
34.489 -14.798 34.192 -15.462 QT
33.895 -16.126 32.974 -16.126 QT
31.755 -16.126 30.966 -15.15 QT
30.177 -14.173 30.177 -12.939 QT
30.177 -8.798 L
30.177 -8.361 30.645 -8.244 QT
31.114 -8.126 31.817 -8.126 QT
31.817 -7.392 L
27.005 -7.392 L
cp
f
GR
GS
[0 -0.75 0.75 0 122.7 253.12479] CT
0.149 GC
N
45.272 -7.392 M
45.272 -8.126 L
45.991 -8.126 46.452 -8.244 QT
46.913 -8.361 46.913 -8.798 QT
46.913 -19.814 L
46.913 -20.376 46.749 -20.634 QT
46.585 -20.892 46.264 -20.947 QT
45.944 -21.001 45.272 -21.001 QT
45.272 -21.736 L
48.397 -21.97 L
48.397 -8.798 L
48.397 -8.361 48.858 -8.244 QT
49.319 -8.126 50.022 -8.126 QT
50.022 -7.392 L
45.272 -7.392 L
cp
f
GR
GS
[0 -0.75 0.75 0 122.7 253.12479] CT
0.149 GC
N
55.57 -7.158 M
54.288 -7.158 53.218 -7.83 QT
52.148 -8.501 51.531 -9.626 QT
50.913 -10.751 50.913 -12.001 QT
50.913 -13.22 51.476 -14.33 QT
52.038 -15.439 53.038 -16.119 QT
54.038 -16.798 55.273 -16.798 QT
56.226 -16.798 56.945 -16.478 QT
57.663 -16.158 58.124 -15.587 QT
58.585 -15.017 58.82 -14.236 QT
59.054 -13.455 59.054 -12.517 QT
59.054 -12.236 58.835 -12.236 QT
52.757 -12.236 L
52.757 -12.017 L
52.757 -10.267 53.46 -9.017 QT
54.163 -7.767 55.757 -7.767 QT
56.398 -7.767 56.945 -8.056 QT
57.492 -8.345 57.898 -8.861 QT
58.304 -9.376 58.445 -9.955 QT
58.46 -10.033 58.523 -10.087 QT
58.585 -10.142 58.648 -10.142 QT
58.835 -10.142 L
59.054 -10.142 59.054 -9.876 QT
58.757 -8.689 57.773 -7.923 QT
56.788 -7.158 55.57 -7.158 QT
cp
52.773 -12.767 M
57.57 -12.767 L
57.57 -13.548 57.343 -14.361 QT
57.117 -15.173 56.609 -15.712 QT
56.101 -16.251 55.273 -16.251 QT
54.085 -16.251 53.429 -15.142 QT
52.773 -14.033 52.773 -12.767 QT
cp
f
GR
GS
[0 -0.75 0.75 0 122.7 253.12479] CT
0.149 GC
N
64.586 -7.392 M
61.524 -15.111 L
61.321 -15.486 60.922 -15.595 QT
60.524 -15.705 59.868 -15.705 QT
59.868 -16.439 L
64.274 -16.439 L
64.274 -15.705 L
63.086 -15.705 63.086 -15.205 QT
63.086 -15.126 63.118 -15.08 QT
65.477 -9.158 L
67.586 -14.501 L
67.649 -14.673 67.649 -14.845 QT
67.649 -15.251 67.352 -15.478 QT
67.055 -15.705 66.633 -15.705 QT
66.633 -16.439 L
70.133 -16.439 L
70.133 -15.705 L
69.477 -15.705 68.993 -15.408 QT
68.508 -15.111 68.243 -14.533 QT
65.414 -7.392 L
65.321 -7.158 65.071 -7.158 QT
64.914 -7.158 L
64.664 -7.158 64.586 -7.392 QT
cp
f
GR
GS
[0 -0.75 0.75 0 122.7 253.12479] CT
0.149 GC
N
74.962 -7.158 M
73.681 -7.158 72.611 -7.83 QT
71.54 -8.501 70.923 -9.626 QT
70.306 -10.751 70.306 -12.001 QT
70.306 -13.22 70.869 -14.33 QT
71.431 -15.439 72.431 -16.119 QT
73.431 -16.798 74.665 -16.798 QT
75.619 -16.798 76.337 -16.478 QT
77.056 -16.158 77.517 -15.587 QT
77.978 -15.017 78.212 -14.236 QT
78.447 -13.455 78.447 -12.517 QT
78.447 -12.236 78.228 -12.236 QT
72.15 -12.236 L
72.15 -12.017 L
72.15 -10.267 72.853 -9.017 QT
73.556 -7.767 75.15 -7.767 QT
75.79 -7.767 76.337 -8.056 QT
76.884 -8.345 77.29 -8.861 QT
77.697 -9.376 77.837 -9.955 QT
77.853 -10.033 77.915 -10.087 QT
77.978 -10.142 78.04 -10.142 QT
78.228 -10.142 L
78.447 -10.142 78.447 -9.876 QT
78.15 -8.689 77.165 -7.923 QT
76.181 -7.158 74.962 -7.158 QT
cp
72.165 -12.767 M
76.962 -12.767 L
76.962 -13.548 76.736 -14.361 QT
76.509 -15.173 76.001 -15.712 QT
75.494 -16.251 74.665 -16.251 QT
73.478 -16.251 72.822 -15.142 QT
72.165 -14.033 72.165 -12.767 QT
cp
f
GR
GS
[0 -0.75 0.75 0 122.7 253.12479] CT
0.149 GC
N
79.495 -7.392 M
79.495 -8.126 L
80.213 -8.126 80.674 -8.244 QT
81.135 -8.361 81.135 -8.798 QT
81.135 -19.814 L
81.135 -20.376 80.971 -20.634 QT
80.807 -20.892 80.487 -20.947 QT
80.166 -21.001 79.495 -21.001 QT
79.495 -21.736 L
82.62 -21.97 L
82.62 -8.798 L
82.62 -8.361 83.08 -8.244 QT
83.541 -8.126 84.245 -8.126 QT
84.245 -7.392 L
79.495 -7.392 L
cp
f
GR
GS
[0.75 0 0 0.75 150 35.25] CT
0.149 GC
N
2.797 -0.547 M
2.797 -0.703 2.891 -0.813 QT
6.844 -4.75 L
2.891 -8.703 L
2.797 -8.797 2.797 -8.953 QT
2.797 -9.094 2.906 -9.211 QT
3.016 -9.328 3.172 -9.328 QT
3.297 -9.328 3.453 -9.219 QT
7.391 -5.281 L
11.313 -9.219 L
11.469 -9.328 11.594 -9.328 QT
11.75 -9.328 11.859 -9.219 QT
11.969 -9.109 11.969 -8.953 QT
11.969 -8.797 11.875 -8.703 QT
7.922 -4.75 L
11.875 -0.813 L
11.969 -0.703 11.969 -0.547 QT
11.969 -0.391 11.859 -0.281 QT
11.75 -0.172 11.594 -0.172 QT
11.453 -0.172 11.313 -0.313 QT
7.391 -4.219 L
3.453 -0.313 L
3.328 -0.172 3.172 -0.172 QT
3.016 -0.172 2.906 -0.289 QT
2.797 -0.406 2.797 -0.547 QT
cp
f
GR
GS
[0.75 0 0 0.75 161.25 35.25] CT
0.149 GC
/Helvetica 18.667 F
GS
[1 0 0 1 0 0] CT
0 0 moveto 
1 -1 scale
(10) t 
GR
GR
GS
[0.75 0 0 0.75 177 28.5] CT
0.149 GC
/Helvetica 14.933 F
GS
[1 0 0 1 0 0] CT
0 0 moveto 
1 -1 scale
(5) t 
GR
GR
GS
[0.75 0 0 0.75 596.25055 36.11249] CT
N
-57.944 -7.392 M
-57.944 -8.126 L
-55.788 -8.126 -55.788 -8.798 QT
-55.788 -20.33 L
-55.788 -21.001 -57.944 -21.001 QT
-57.944 -21.736 L
-50.225 -21.736 L
-49.163 -21.736 -48.077 -21.322 QT
-46.991 -20.908 -46.272 -20.095 QT
-45.553 -19.283 -45.553 -18.173 QT
-45.553 -16.892 -46.608 -16.025 QT
-47.663 -15.158 -49.069 -14.892 QT
-48.147 -14.892 -47.186 -14.384 QT
-46.225 -13.876 -45.608 -13.041 QT
-44.991 -12.205 -44.991 -11.251 QT
-44.991 -10.111 -45.671 -9.228 QT
-46.35 -8.345 -47.444 -7.869 QT
-48.538 -7.392 -49.631 -7.392 QT
-57.944 -7.392 L
cp
-53.96 -8.798 M
-53.96 -8.345 -53.702 -8.236 QT
-53.444 -8.126 -52.897 -8.126 QT
-50.225 -8.126 L
-49.397 -8.126 -48.694 -8.556 QT
-47.991 -8.986 -47.585 -9.712 QT
-47.178 -10.439 -47.178 -11.251 QT
-47.178 -12.064 -47.514 -12.822 QT
-47.85 -13.58 -48.483 -14.072 QT
-49.116 -14.564 -49.928 -14.564 QT
-53.96 -14.564 L
-53.96 -8.798 L
cp
-53.96 -15.126 M
-50.803 -15.126 L
-50.178 -15.126 -49.616 -15.353 QT
-49.053 -15.58 -48.608 -16.017 QT
-48.163 -16.455 -47.921 -17.001 QT
-47.678 -17.548 -47.678 -18.173 QT
-47.678 -18.72 -47.858 -19.22 QT
-48.038 -19.72 -48.389 -20.126 QT
-48.741 -20.533 -49.21 -20.767 QT
-49.678 -21.001 -50.225 -21.001 QT
-52.897 -21.001 L
-53.272 -21.001 -53.483 -20.97 QT
-53.694 -20.939 -53.827 -20.791 QT
-53.96 -20.642 -53.96 -20.33 QT
-53.96 -15.126 L
cp
f
GR
GS
[0.75 0 0 0.75 596.25055 36.11249] CT
N
-35.946 -6.923 M
-37.946 -6.923 -39.54 -7.986 QT
-41.134 -9.048 -42.04 -10.806 QT
-42.946 -12.564 -42.946 -14.501 QT
-42.946 -15.939 -42.423 -17.345 QT
-41.899 -18.751 -40.97 -19.837 QT
-40.04 -20.923 -38.743 -21.564 QT
-37.446 -22.205 -35.946 -22.205 QT
-34.462 -22.205 -33.149 -21.564 QT
-31.837 -20.923 -30.907 -19.822 QT
-29.978 -18.72 -29.478 -17.361 QT
-28.978 -16.001 -28.978 -14.501 QT
-28.978 -12.564 -29.876 -10.806 QT
-30.774 -9.048 -32.376 -7.986 QT
-33.978 -6.923 -35.946 -6.923 QT
cp
-39.431 -9.658 M
-38.821 -8.689 -37.915 -8.126 QT
-37.009 -7.564 -35.946 -7.564 QT
-35.259 -7.564 -34.595 -7.837 QT
-33.931 -8.111 -33.392 -8.595 QT
-32.853 -9.08 -32.478 -9.658 QT
-31.228 -11.548 -31.228 -14.845 QT
-31.228 -17.876 -32.478 -19.642 QT
-33.103 -20.517 -34.017 -21.048 QT
-34.931 -21.58 -35.946 -21.58 QT
-36.978 -21.58 -37.899 -21.048 QT
-38.821 -20.517 -39.431 -19.642 QT
-39.931 -18.955 -40.196 -18.181 QT
-40.462 -17.408 -40.579 -16.572 QT
-40.696 -15.736 -40.696 -14.845 QT
-40.696 -13.892 -40.587 -12.986 QT
-40.478 -12.08 -40.189 -11.205 QT
-39.899 -10.33 -39.431 -9.658 QT
cp
f
GR
GS
[0.75 0 0 0.75 596.25055 36.11249] CT
N
-27.507 -7.392 M
-27.507 -8.126 L
-25.335 -8.126 -25.335 -8.798 QT
-25.335 -20.33 L
-25.335 -21.001 -27.507 -21.001 QT
-27.507 -21.736 L
-20.695 -21.736 L
-20.695 -21.001 L
-23.382 -21.001 -23.382 -20.33 QT
-23.382 -8.798 L
-23.382 -8.345 -23.124 -8.236 QT
-22.867 -8.126 -22.32 -8.126 QT
-20.695 -8.126 L
-19.117 -8.126 -18.273 -8.705 QT
-17.429 -9.283 -17.07 -10.267 QT
-16.71 -11.251 -16.523 -12.892 QT
-15.929 -12.892 L
-16.507 -7.392 L
-27.507 -7.392 L
cp
f
GR
GS
[0.75 0 0 0.75 596.25055 36.11249] CT
N
-14.611 -7.392 M
-14.611 -8.126 L
-12.455 -8.126 -12.455 -8.798 QT
-12.455 -20.33 L
-12.455 -21.001 -14.611 -21.001 QT
-14.611 -21.736 L
-6.877 -21.736 L
-5.439 -21.736 -4.252 -21.119 QT
-3.064 -20.501 -2.221 -19.462 QT
-1.377 -18.423 -0.924 -17.111 QT
-0.471 -15.798 -0.471 -14.423 QT
-0.471 -13.095 -0.932 -11.837 QT
-1.393 -10.58 -2.26 -9.572 QT
-3.127 -8.564 -4.307 -7.978 QT
-5.486 -7.392 -6.877 -7.392 QT
-14.611 -7.392 L
cp
-10.564 -8.798 M
-10.564 -8.345 -10.307 -8.236 QT
-10.049 -8.126 -9.502 -8.126 QT
-7.424 -8.126 L
-6.346 -8.126 -5.377 -8.595 QT
-4.408 -9.064 -3.768 -9.892 QT
-3.096 -10.783 -2.877 -11.869 QT
-2.658 -12.955 -2.658 -14.423 QT
-2.658 -15.955 -2.877 -17.103 QT
-3.096 -18.251 -3.768 -19.158 QT
-4.393 -20.048 -5.353 -20.525 QT
-6.314 -21.001 -7.424 -21.001 QT
-9.502 -21.001 L
-9.877 -21.001 -10.088 -20.97 QT
-10.299 -20.939 -10.432 -20.791 QT
-10.564 -20.642 -10.564 -20.33 QT
-10.564 -8.798 L
cp
f
GR
GS
[0.75 0 0 0.75 596.25055 36.11249] CT
N
7.918 -7.33 M
7.918 -10.751 L
7.918 -10.923 8.09 -10.923 QT
8.356 -10.923 L
8.481 -10.923 8.512 -10.751 QT
9.106 -7.705 11.34 -7.705 QT
12.34 -7.705 13.012 -8.158 QT
13.684 -8.611 13.684 -9.548 QT
13.684 -10.236 13.161 -10.712 QT
12.637 -11.189 11.918 -11.361 QT
10.512 -11.642 L
9.809 -11.798 9.231 -12.111 QT
8.653 -12.423 8.286 -12.955 QT
7.918 -13.486 7.918 -14.173 QT
7.918 -15.111 8.403 -15.697 QT
8.887 -16.283 9.668 -16.541 QT
10.45 -16.798 11.34 -16.798 QT
12.418 -16.798 13.231 -16.236 QT
13.825 -16.751 L
13.825 -16.798 13.934 -16.798 QT
14.09 -16.798 L
14.153 -16.798 14.2 -16.744 QT
14.246 -16.689 14.246 -16.626 QT
14.246 -13.876 L
14.246 -13.689 14.09 -13.689 QT
13.825 -13.689 L
13.637 -13.689 13.637 -13.876 QT
13.637 -14.986 13.028 -15.65 QT
12.418 -16.314 11.325 -16.314 QT
10.387 -16.314 9.692 -15.962 QT
8.996 -15.611 8.996 -14.767 QT
8.996 -14.173 9.496 -13.806 QT
9.996 -13.439 10.668 -13.267 QT
12.09 -13.001 L
12.809 -12.83 13.426 -12.447 QT
14.043 -12.064 14.411 -11.462 QT
14.778 -10.861 14.778 -10.126 QT
14.778 -9.361 14.512 -8.798 QT
14.246 -8.236 13.778 -7.869 QT
13.309 -7.501 12.676 -7.33 QT
12.043 -7.158 11.34 -7.158 QT
10.028 -7.158 9.106 -8.033 QT
8.34 -7.205 L
8.34 -7.158 8.215 -7.158 QT
8.09 -7.158 L
7.918 -7.158 7.918 -7.33 QT
cp
f
GR
GS
[0.75 0 0 0.75 596.25055 36.11249] CT
N
15.955 -7.392 M
15.955 -8.126 L
16.674 -8.126 17.135 -8.244 QT
17.596 -8.361 17.596 -8.798 QT
17.596 -14.533 L
17.596 -15.345 17.283 -15.525 QT
16.971 -15.705 16.049 -15.705 QT
16.049 -16.439 L
19.08 -16.673 L
19.08 -8.798 L
19.08 -8.361 19.479 -8.244 QT
19.877 -8.126 20.549 -8.126 QT
20.549 -7.392 L
15.955 -7.392 L
cp
16.846 -20.283 M
16.846 -20.736 17.197 -21.087 QT
17.549 -21.439 18.002 -21.439 QT
18.299 -21.439 18.572 -21.283 QT
18.846 -21.126 19.002 -20.853 QT
19.158 -20.58 19.158 -20.283 QT
19.158 -19.83 18.807 -19.478 QT
18.455 -19.126 18.002 -19.126 QT
17.549 -19.126 17.197 -19.478 QT
16.846 -19.83 16.846 -20.283 QT
cp
f
GR
GS
[0.75 0 0 0.75 596.25055 36.11249] CT
N
21.596 -5.751 M
21.596 -6.501 22.143 -7.056 QT
22.69 -7.611 23.44 -7.861 QT
23.018 -8.173 22.799 -8.658 QT
22.581 -9.142 22.581 -9.673 QT
22.581 -10.658 23.206 -11.423 QT
22.237 -12.361 22.237 -13.58 QT
22.237 -14.236 22.518 -14.814 QT
22.799 -15.392 23.307 -15.814 QT
23.815 -16.236 24.424 -16.455 QT
25.034 -16.673 25.69 -16.673 QT
26.94 -16.673 27.924 -15.939 QT
28.362 -16.408 28.948 -16.658 QT
29.534 -16.908 30.174 -16.908 QT
30.628 -16.908 30.917 -16.587 QT
31.206 -16.267 31.206 -15.814 QT
31.206 -15.548 31.01 -15.353 QT
30.815 -15.158 30.549 -15.158 QT
30.284 -15.158 30.088 -15.353 QT
29.893 -15.548 29.893 -15.814 QT
29.893 -16.205 30.159 -16.361 QT
29.065 -16.361 28.284 -15.611 QT
28.674 -15.22 28.901 -14.673 QT
29.128 -14.126 29.128 -13.58 QT
29.128 -12.689 28.635 -11.978 QT
28.143 -11.267 27.338 -10.876 QT
26.534 -10.486 25.69 -10.486 QT
24.534 -10.486 23.581 -11.111 QT
23.284 -10.689 23.284 -10.189 QT
23.284 -9.626 23.651 -9.212 QT
24.018 -8.798 24.565 -8.798 QT
26.284 -8.798 L
27.534 -8.798 28.542 -8.572 QT
29.549 -8.345 30.229 -7.666 QT
30.909 -6.986 30.909 -5.751 QT
30.909 -4.83 30.135 -4.22 QT
29.362 -3.611 28.276 -3.337 QT
27.19 -3.064 26.268 -3.064 QT
25.331 -3.064 24.245 -3.337 QT
23.159 -3.611 22.378 -4.22 QT
21.596 -4.83 21.596 -5.751 QT
cp
22.784 -5.751 M
22.784 -5.048 23.354 -4.572 QT
23.924 -4.095 24.737 -3.861 QT
25.549 -3.626 26.268 -3.626 QT
26.971 -3.626 27.784 -3.861 QT
28.596 -4.095 29.167 -4.572 QT
29.737 -5.048 29.737 -5.751 QT
29.737 -6.845 28.729 -7.173 QT
27.721 -7.501 26.284 -7.501 QT
24.565 -7.501 L
24.081 -7.501 23.674 -7.267 QT
23.268 -7.033 23.026 -6.619 QT
22.784 -6.205 22.784 -5.751 QT
cp
25.69 -11.048 M
27.471 -11.048 27.471 -13.58 QT
27.471 -14.689 27.088 -15.4 QT
26.706 -16.111 25.69 -16.111 QT
24.659 -16.111 24.276 -15.4 QT
23.893 -14.689 23.893 -13.58 QT
23.893 -12.892 24.042 -12.33 QT
24.19 -11.767 24.581 -11.408 QT
24.971 -11.048 25.69 -11.048 QT
cp
f
GR
GS
[0.75 0 0 0.75 596.25055 36.11249] CT
N
31.91 -7.392 M
31.91 -8.126 L
32.629 -8.126 33.09 -8.244 QT
33.551 -8.361 33.551 -8.798 QT
33.551 -14.533 L
33.551 -15.095 33.379 -15.345 QT
33.207 -15.595 32.894 -15.65 QT
32.582 -15.705 31.91 -15.705 QT
31.91 -16.439 L
34.957 -16.673 L
34.957 -14.626 L
35.379 -15.517 36.207 -16.095 QT
37.035 -16.673 38.004 -16.673 QT
39.457 -16.673 40.191 -15.978 QT
40.926 -15.283 40.926 -13.845 QT
40.926 -8.798 L
40.926 -8.361 41.386 -8.244 QT
41.847 -8.126 42.566 -8.126 QT
42.566 -7.392 L
37.754 -7.392 L
37.754 -8.126 L
38.472 -8.126 38.933 -8.244 QT
39.394 -8.361 39.394 -8.798 QT
39.394 -13.783 L
39.394 -14.798 39.097 -15.462 QT
38.801 -16.126 37.879 -16.126 QT
36.66 -16.126 35.871 -15.15 QT
35.082 -14.173 35.082 -12.939 QT
35.082 -8.798 L
35.082 -8.361 35.551 -8.244 QT
36.019 -8.126 36.722 -8.126 QT
36.722 -7.392 L
31.91 -7.392 L
cp
f
GR
GS
[0.75 0 0 0.75 596.25055 36.11249] CT
N
43.536 -9.455 M
43.536 -10.705 44.52 -11.486 QT
45.505 -12.267 46.88 -12.595 QT
48.255 -12.923 49.505 -12.923 QT
49.505 -13.783 L
49.505 -14.392 49.239 -14.955 QT
48.974 -15.517 48.466 -15.884 QT
47.958 -16.251 47.364 -16.251 QT
45.958 -16.251 45.239 -15.626 QT
45.63 -15.626 45.895 -15.322 QT
46.161 -15.017 46.161 -14.626 QT
46.161 -14.205 45.864 -13.908 QT
45.567 -13.611 45.161 -13.611 QT
44.739 -13.611 44.442 -13.908 QT
44.145 -14.205 44.145 -14.626 QT
44.145 -15.736 45.145 -16.267 QT
46.145 -16.798 47.364 -16.798 QT
48.208 -16.798 49.067 -16.439 QT
49.927 -16.08 50.481 -15.4 QT
51.036 -14.72 51.036 -13.814 QT
51.036 -9.095 L
51.036 -8.689 51.208 -8.345 QT
51.38 -8.001 51.739 -8.001 QT
52.099 -8.001 52.263 -8.345 QT
52.427 -8.689 52.427 -9.095 QT
52.427 -10.439 L
53.052 -10.439 L
53.052 -9.095 L
53.052 -8.626 52.802 -8.197 QT
52.552 -7.767 52.138 -7.517 QT
51.724 -7.267 51.239 -7.267 QT
50.63 -7.267 50.185 -7.744 QT
49.739 -8.22 49.692 -8.876 QT
49.302 -8.095 48.544 -7.626 QT
47.786 -7.158 46.911 -7.158 QT
46.114 -7.158 45.341 -7.392 QT
44.567 -7.626 44.052 -8.134 QT
43.536 -8.642 43.536 -9.455 QT
cp
45.239 -9.455 M
45.239 -8.72 45.778 -8.212 QT
46.317 -7.705 47.067 -7.705 QT
47.739 -7.705 48.294 -8.048 QT
48.849 -8.392 49.177 -8.97 QT
49.505 -9.548 49.505 -10.205 QT
49.505 -12.392 L
48.552 -12.392 47.552 -12.08 QT
46.552 -11.767 45.895 -11.095 QT
45.239 -10.423 45.239 -9.455 QT
cp
f
GR
GS
[0.75 0 0 0.75 596.25055 36.11249] CT
N
53.6 -7.392 M
53.6 -8.126 L
54.318 -8.126 54.779 -8.244 QT
55.24 -8.361 55.24 -8.798 QT
55.24 -19.814 L
55.24 -20.376 55.076 -20.634 QT
54.912 -20.892 54.592 -20.947 QT
54.272 -21.001 53.6 -21.001 QT
53.6 -21.736 L
56.725 -21.97 L
56.725 -8.798 L
56.725 -8.361 57.186 -8.244 QT
57.647 -8.126 58.35 -8.126 QT
58.35 -7.392 L
53.6 -7.392 L
cp
f
GR
GS
[0.75 0 0 0.75 0 0] CT
0 0.4 0.8 RC
1 LJ
1.333 LW
N
200 248.2 M
201.551 312.393 L
203.103 351.995 L
204.654 320.417 L
206.206 130.17 L
207.757 79.955 L
209.309 87.461 L
210.86 153.465 L
212.412 226.199 L
213.964 290.909 L
215.515 378.655 L
217.066 199.797 L
218.618 144.665 L
220.169 102.991 L
221.721 156.053 L
223.272 294.015 L
224.824 393.927 L
226.375 443.624 L
227.927 281.073 L
229.478 259.589 L
231.03 207.821 L
232.581 206.01 L
234.133 310.063 L
235.684 394.704 L
237.236 440 L
238.787 374.773 L
240.339 408.681 L
241.89 386.421 L
243.442 380.985 L
244.993 396.515 L
246.545 400.657 L
248.096 352.254 L
249.648 383.315 L
251.199 317.31 L
252.751 282.885 L
254.302 281.073 L
255.854 391.339 L
257.405 456.825 L
258.957 412.305 L
260.508 359.76 L
262.06 377.361 L
263.611 310.581 L
265.163 294.274 L
266.714 381.244 L
268.266 442.848 L
269.817 425.505 L
271.369 525.676 L
272.92 474.426 L
274.472 444.66 L
276.023 443.883 L
277.575 395.48 L
279.126 438.965 L
280.678 479.603 L
282.229 547.937 L
283.781 491.768 L
285.332 467.955 L
286.884 465.884 L
288.435 338.535 L
289.987 375.808 L
291.538 520.5 L
293.09 477.273 L
294.641 405.834 L
296.193 382.797 L
297.744 442.848 L
299.296 402.469 L
300.847 444.918 L
302.399 572.526 L
303.95 458.378 L
305.502 422.917 L
307.053 430.423 L
308.605 464.331 L
310.156 463.814 L
311.708 493.063 L
313.259 512.734 L
314.811 484.78 L
316.362 491.51 L
317.914 542.76 L
319.465 588.315 L
321.017 598.669 L
322.568 569.679 L
324.12 546.901 L
325.671 548.972 L
327.223 580.55 L
328.774 600.481 L
330.326 608.505 L
331.877 610.576 L
333.429 618.341 L
334.98 614.199 L
336.532 623 L
338.083 312.134 L
339.635 384.35 L
341.186 391.08 L
342.738 317.569 L
344.289 444.401 L
345.841 334.653 L
347.392 345.006 L
348.944 326.111 L
350.495 209.633 L
352.047 283.144 L
353.598 318.346 L
355.15 268.908 L
356.701 301.78 L
358.253 192.55 L
359.804 289.356 L
361.356 317.31 L
362.907 281.073 L
364.459 203.939 L
366.01 131.723 L
367.562 312.393 L
369.113 517.393 L
370.665 373.22 L
372.216 305.663 L
373.768 179.09 L
375.319 183.749 L
376.871 545.866 L
378.422 472.097 L
379.974 458.119 L
381.525 406.869 L
383.077 408.681 L
384.628 360.019 L
386.18 568.903 L
387.731 518.688 L
389.283 496.686 L
390.834 489.956 L
392.386 441.812 L
393.937 368.82 L
395.489 583.139 L
397.04 524.641 L
398.592 461.484 L
400.143 441.295 L
401.695 425.505 L
403.246 393.927 L
404.798 607.987 L
406.349 582.362 L
407.901 538.101 L
409.452 546.125 L
411.004 537.583 L
412.555 479.603 L
414.107 601.775 L
415.658 591.163 L
417.21 560.879 L
418.761 559.584 L
420.313 605.658 L
421.864 590.645 L
423.416 604.622 L
424.967 573.303 L
426.519 571.75 L
428.07 597.634 L
429.622 578.738 L
431.173 596.598 L
432.725 614.199 L
434.276 612.646 L
435.828 612.646 L
437.379 616.27 L
438.931 581.327 L
440.482 612.388 L
442.034 585.468 L
443.585 568.644 L
445.137 586.245 L
446.688 617.306 L
448.24 606.175 L
449.791 602.293 L
451.343 613.941 L
452.894 251.306 L
454.446 260.625 L
455.997 286.509 L
457.549 297.38 L
459.1 294.274 L
460.652 268.131 L
462.203 262.178 L
463.755 290.65 L
465.306 305.145 L
466.858 295.05 L
468.409 262.178 L
469.961 285.473 L
471.512 287.026 L
473.064 289.874 L
474.615 297.121 L
476.167 188.667 L
477.718 248.977 L
479.27 260.366 L
480.821 262.695 L
482.373 287.285 L
483.924 166.666 L
485.476 195.397 L
487.027 192.809 L
488.579 204.715 L
490.13 259.33 L
491.682 165.631 L
493.233 175.984 L
494.785 186.597 L
496.336 188.15 L
497.888 214.551 L
499.439 241.988 L
500.991 287.026 L
502.542 200.833 L
504.094 200.056 L
505.645 187.114 L
507.197 219.469 L
508.748 248.977 L
510.3 236.811 L
511.851 218.952 L
513.403 213.257 L
514.954 249.236 L
516.506 290.909 L
518.057 207.045 L
519.609 260.625 L
521.16 283.92 L
522.712 279.002 L
524.263 277.967 L
525.815 294.791 L
527.366 300.745 L
528.918 146.735 L
530.469 219.21 L
532.021 261.401 L
533.572 284.179 L
535.124 299.968 L
536.675 155.795 L
538.227 209.633 L
539.778 213.516 L
541.33 231.376 L
542.881 282.108 L
544.433 294.533 L
545.984 245.353 L
547.536 210.669 L
549.087 275.637 L
550.639 293.756 L
552.19 305.922 L
553.742 312.393 L
555.293 190.997 L
556.845 263.99 L
558.396 307.992 L
559.948 318.087 L
561.499 321.97 L
563.051 131.205 L
564.602 184.267 L
566.154 273.049 L
567.705 317.569 L
569.257 322.746 L
570.808 65.977 L
572.36 94.709 L
573.911 192.809 L
575.463 268.908 L
577.014 314.463 L
578.566 313.169 L
580.117 87.461 L
581.669 107.651 L
583.22 145.959 L
584.772 189.703 L
586.323 255.448 L
587.875 297.639 L
589.426 211.963 L
590.978 225.94 L
592.529 183.749 L
594.081 158.124 L
595.632 189.961 L
597.184 257.777 L
598.735 261.142 L
600.287 246.388 L
601.838 217.14 L
603.39 205.751 L
604.941 224.387 L
606.493 230.082 L
608.044 276.932 L
609.596 293.756 L
611.147 282.108 L
612.699 306.439 L
614.25 327.405 L
615.802 221.281 L
617.353 248.718 L
618.905 290.132 L
620.456 313.687 L
622.008 316.534 L
623.559 315.757 L
625.111 303.333 L
626.662 174.949 L
628.214 184.267 L
629.765 229.564 L
631.317 279.52 L
632.868 303.592 L
634.42 297.639 L
635.971 273.049 L
637.523 259.589 L
639.074 159.16 L
640.626 106.097 L
642.177 140.782 L
643.729 232.411 L
645.28 296.345 L
646.832 282.626 L
648.383 231.635 L
649.935 223.093 L
651.486 180.126 L
653.038 116.451 L
654.589 129.134 L
656.141 216.363 L
657.692 289.874 L
659.244 284.179 L
660.795 222.575 L
662.347 177.019 L
663.898 211.963 L
665.45 266.319 L
667.001 308.251 L
668.553 300.745 L
670.104 242.765 L
671.656 200.315 L
673.207 265.284 L
674.759 314.722 L
676.31 332.064 L
677.862 319.899 L
679.413 280.296 L
680.965 211.704 L
682.516 238.623 L
684.068 268.39 L
685.619 290.132 L
687.171 306.18 L
688.722 308.51 L
690.274 217.398 L
691.825 185.561 L
693.377 173.396 L
694.928 204.198 L
696.48 270.461 L
698.031 230.858 L
699.583 192.809 L
701.134 166.666 L
702.686 199.539 L
704.237 269.943 L
705.789 253.377 L
707.34 245.871 L
708.892 245.353 L
710.443 271.496 L
711.995 297.121 L
713.546 185.561 L
715.098 145.182 L
716.649 113.086 L
718.201 292.721 L
719.752 288.579 L
721.304 276.414 L
722.855 212.222 L
724.407 148.288 L
725.958 182.196 L
727.51 259.072 L
729.061 272.531 L
730.613 299.451 L
732.164 292.462 L
733.716 275.379 L
735.267 294.274 L
736.819 245.353 L
738.37 246.647 L
739.922 285.991 L
741.473 307.992 L
743.025 318.605 L
744.576 315.757 L
746.128 212.48 L
747.679 214.81 L
749.231 256.742 L
750.782 295.309 L
752.334 304.11 L
753.885 273.049 L
755.437 157.865 L
756.988 175.208 L
758.54 204.715 L
760.091 261.66 L
761.643 298.156 L
763.194 265.025 L
764.746 187.891 L
766.297 212.739 L
767.849 194.362 L
769.4 228.011 L
770.952 290.909 L
772.503 255.448 L
774.055 291.427 L
775.606 255.966 L
777.158 247.165 L
778.709 290.65 L
780.261 235.517 L
781.812 278.743 L
783.364 299.968 L
784.915 304.11 L
786.467 313.428 L
788.018 340.088 L
789.57 168.737 L
791.121 210.669 L
792.673 284.179 L
794.224 326.37 L
795.776 325.593 L
797.327 330.511 L
798.879 169.772 L
800.43 215.845 L
801.982 276.414 L
803.533 319.64 L
805.085 322.228 L
806.636 303.333 L
808.188 167.184 L
809.739 240.176 L
811.291 296.086 L
812.842 324.04 L
814.394 312.393 L
815.945 137.676 L
817.497 216.104 L
819.048 299.968 L
820.6 328.441 L
822.151 281.332 L
823.703 206.786 L
825.254 180.902 L
826.806 210.151 L
828.357 297.121 L
829.909 327.923 L
831.46 259.848 L
833.012 184.526 L
834.563 248.718 L
836.115 302.298 L
837.666 325.076 L
839.218 280.814 L
840.769 218.175 L
842.321 285.732 L
843.872 303.851 L
845.424 313.428 L
846.975 308.769 L
848.527 275.12 L
850.078 273.825 L
851.63 276.673 L
853.181 288.062 L
854.733 298.933 L
856.284 304.886 L
857.836 292.98 L
859.387 249.236 L
860.939 216.622 L
862.49 241.471 L
864.042 284.956 L
865.593 300.486 L
867.145 220.246 L
868.696 176.502 L
870.248 211.445 L
871.799 280.814 L
873.351 309.286 L
874.902 289.097 L
876.454 262.437 L
878.005 325.852 L
879.557 318.605 L
881.108 311.357 L
882.66 215.587 L
884.211 208.598 L
885.763 288.062 L
887.314 328.958 L
888.866 329.994 L
890.417 314.722 L
891.969 286.767 L
893.52 271.237 L
895.072 191.256 L
896.623 199.28 L
898.175 257.519 L
899.726 300.745 L
901.278 283.144 L
902.829 232.929 L
904.381 206.268 L
905.932 205.233 L
907.484 227.752 L
909.035 245.353 L
910.587 276.414 L
912.138 315.24 L
913.69 282.108 L
915.241 210.41 L
916.793 196.95 L
918.344 199.539 L
919.896 275.379 L
921.447 295.568 L
922.999 305.922 L
924.55 345.006 L
926.102 324.04 L
927.653 267.354 L
929.205 278.743 L
930.756 306.957 L
932.308 314.463 L
933.859 341.9 L
935.411 341.383 L
936.962 325.335 L
938.514 320.675 L
940.065 239.917 L
941.617 282.626 L
943.168 307.475 L
944.72 317.31 L
946.271 322.487 L
947.823 336.206 L
949.374 326.111 L
950.926 222.316 L
952.477 260.883 L
954.029 298.156 L
955.58 303.074 L
957.132 296.603 L
958.683 313.169 L
960.235 321.97 L
961.786 243.541 L
963.338 273.567 L
964.889 307.733 L
966.441 314.204 L
967.992 302.557 L
969.544 305.922 L
971.095 315.499 L
972.647 258.036 L
974.198 292.98 L
975.75 312.651 L
977.301 320.675 L
978.853 326.629 L
980.404 311.875 L
981.956 270.978 L
983.507 252.342 L
985.059 299.451 L
986.61 306.18 L
988.162 303.851 L
989.713 300.486 L
991.265 252.083 L
992.816 181.937 L
994.368 261.142 L
995.919 319.899 L
997.471 321.193 L
999.022 296.345 L
1000.574 245.871 L
1002.125 153.724 L
1003.677 91.344 L
1005.228 255.707 L
1006.78 296.603 L
1008.331 310.84 L
1009.883 304.11 L
1011.434 257.777 L
1012.986 157.865 L
1014.537 194.103 L
1016.089 200.056 L
1017.64 241.471 L
1019.192 275.896 L
1020.743 288.579 L
1022.295 250.012 L
1023.846 132.758 L
1025.398 209.374 L
1026.949 230.858 L
1028.501 259.072 L
1030.052 281.85 L
1031.604 112.31 L
1033.155 162.266 L
1034.707 248.459 L
1036.258 227.493 L
1037.81 215.845 L
1039.361 247.165 L
1040.913 128.875 L
1042.464 204.974 L
1044.016 277.449 L
1045.567 250.789 L
1047.119 228.011 L
1048.67 250.53 L
1050.222 302.815 L
1051.773 284.179 L
1053.325 277.19 L
1054.876 267.872 L
1056.428 261.919 L
1057.979 306.957 L
1059.531 352.513 L
1061.082 315.757 L
1062.634 244.318 L
1064.185 192.55 L
1065.737 191.773 L
1067.288 196.432 L
1068.84 160.971 L
1070.391 280.814 L
1071.943 309.804 L
1073.494 346.559 L
1075.046 340.606 L
1076.597 276.673 L
1078.149 199.28 L
1079.7 190.22 L
1081.252 182.973 L
1082.803 110.239 L
1084.355 302.815 L
1085.906 301.78 L
1087.458 298.156 L
1089.009 324.817 L
1090.561 314.981 L
1092.112 270.978 L
1093.664 267.613 L
1095.215 248.718 L
1096.767 153.724 L
1098.318 312.651 L
1099.87 292.462 L
1101.421 241.471 L
1102.973 271.755 L
1104.524 305.663 L
1106.076 307.992 L
1107.627 319.899 L
1109.179 292.462 L
1110.73 192.291 L
1112.282 318.087 L
1113.833 304.11 L
1115.385 227.234 L
1116.936 221.281 L
1118.488 256.224 L
1120.039 295.05 L
1121.591 323.781 L
1123.142 289.097 L
1124.694 317.052 L
1126.245 317.828 L
1127.797 254.671 L
1129.348 215.845 L
1130.9 221.54 L
1132.451 274.084 L
1134.003 321.452 L
1135.554 288.579 L
1137.106 285.473 L
1138.657 302.039 L
1140.209 289.615 L
1141.76 265.801 L
1143.312 247.424 L
1144.863 286.767 L
1146.415 338.535 L
1147.966 305.922 L
1149.518 270.719 L
1151.069 295.827 L
1152.621 298.933 L
1154.172 295.05 L
1155.724 288.838 L
1157.275 313.169 L
1158.827 321.711 L
1160.378 264.766 L
1161.93 262.437 L
1163.481 311.875 L
1165.033 295.568 L
1166.584 268.39 L
1168.136 281.591 L
1169.687 305.404 L
1171.239 262.437 L
1172.79 189.444 L
1174.342 236.035 L
1175.893 318.605 L
1177.445 312.91 L
1178.996 254.154 L
1180.548 224.905 L
1182.099 208.857 L
1183.651 168.478 L
1185.202 290.65 L
1186.754 310.84 L
1188.305 275.637 L
1189.857 201.868 L
1191.408 106.356 L
1192.96 52 L
1194.511 218.434 L
1196.063 238.106 L
1197.614 259.589 L
1199.166 227.752 L
1200.717 132.24 L
1202.269 72.448 L
1203.82 168.478 L
1205.372 154.242 L
1206.923 180.384 L
1208.475 215.328 L
1210.026 208.08 L
1211.578 185.302 L
1213.129 198.244 L
1214.681 168.995 L
1216.232 147.512 L
1217.784 164.854 L
1219.335 221.022 L
1220.887 273.308 L
1222.438 273.567 L
1223.99 279.52 L
1225.541 233.447 L
1227.093 588.574 L
1228.644 393.927 L
1230.196 335.947 L
1231.747 325.076 L
1233.299 274.084 L
1234.85 224.128 L
1236.402 546.383 L
1237.953 391.856 L
1239.505 305.922 L
1241.056 310.322 L
1242.608 286.767 L
1244.159 191.515 L
1245.711 507.816 L
1247.262 412.046 L
1248.814 328.699 L
1250.365 307.992 L
1251.917 305.922 L
1253.468 250.789 L
1255.02 449.578 L
1256.571 349.665 L
1258.123 312.393 L
1259.674 276.673 L
1261.226 272.531 L
1262.777 275.637 L
1264.329 339.312 L
1265.88 191.256 L
1267.432 179.09 L
1268.983 186.338 L
1270.535 213.516 L
1272.086 246.388 L
1273.638 312.393 L
1275.189 347.854 L
1276.741 324.817 L
1278.292 133.793 L
1279.844 80.472 L
1281.395 86.684 L
1282.947 151.136 L
1284.498 225.94 L
1286.05 290.65 L
1287.601 383.056 L
1289.153 201.868 L
1290.704 146.994 L
1292.255 106.615 L
1293.807 155.536 L
1295.359 289.356 L
1296.91 390.562 L
1298.462 450.354 L
1300.013 279.52 L
1301.565 254.413 L
1303.116 207.304 L
1304.667 207.304 L
1306.219 306.698 L
1307.771 386.68 L
1309.322 446.73 L
1310.874 372.443 L
1312.425 404.539 L
1313.977 385.385 L
1315.528 383.056 L
1317.08 395.739 L
1318.631 396.774 L
1320.182 349.148 L
1321.734 389.786 L
1323.286 317.052 L
1324.837 280.296 L
1326.389 277.19 L
1327.94 391.08 L
1329.492 455.531 L
1331.043 407.904 L
1332.594 357.689 L
1334.146 379.173 L
1335.698 312.393 L
1337.249 294.791 L
1338.801 384.35 L
1340.352 443.624 L
1341.904 421.623 L
1343.455 522.829 L
1345.006 477.532 L
1346.558 450.613 L
1348.109 453.978 L
1349.661 399.621 L
1351.213 428.094 L
1352.764 468.99 L
1354.316 546.125 L
1355.867 495.91 L
1357.418 474.167 L
1358.97 474.944 L
1360.521 343.194 L
1362.073 368.302 L
1363.625 510.922 L
1365.176 487.109 L
1366.728 418.517 L
1368.279 395.48 L
1369.831 456.307 L
1371.382 413.858 L
1372.933 449.578 L
1374.485 575.374 L
1376.036 473.391 L
1377.588 437.412 L
1379.14 444.401 L
1380.691 478.05 L
1382.243 475.461 L
1383.794 499.016 L
1385.345 522.311 L
1386.897 492.545 L
1388.448 500.051 L
1390 551.56 L
S
GR
GS
[0.75 0 0 0.75 0 0] CT
0.91 0.412 0.169 RC
[10 6] 0 setdash
2 LJ
1.333 LW
N
200 248.2 M
201.551 312.393 L
203.103 351.995 L
204.654 320.417 L
206.206 130.17 L
207.757 79.955 L
209.309 87.461 L
210.86 153.465 L
212.412 226.199 L
213.964 290.909 L
215.515 378.655 L
217.066 199.797 L
218.618 144.665 L
220.169 102.991 L
221.721 156.053 L
223.272 294.015 L
224.824 393.927 L
226.375 443.624 L
227.927 281.073 L
229.478 259.589 L
231.03 207.821 L
232.581 206.01 L
234.133 310.063 L
235.684 394.704 L
237.236 440 L
238.787 374.773 L
240.339 408.681 L
241.89 386.421 L
243.442 380.985 L
244.993 396.515 L
246.545 400.657 L
248.096 352.254 L
249.648 383.315 L
251.199 317.31 L
252.751 282.885 L
254.302 281.073 L
255.854 391.339 L
257.405 456.825 L
258.957 412.305 L
260.508 359.76 L
262.06 377.361 L
263.611 310.581 L
265.163 294.274 L
266.714 381.244 L
268.266 442.848 L
269.817 425.505 L
271.369 525.676 L
272.92 474.426 L
274.472 444.66 L
276.023 443.883 L
277.575 395.48 L
279.126 438.965 L
280.678 479.603 L
282.229 547.937 L
283.781 491.768 L
285.332 467.955 L
286.884 465.884 L
288.435 338.535 L
289.987 375.808 L
291.538 520.5 L
293.09 477.273 L
294.641 405.834 L
296.193 382.797 L
297.744 442.848 L
299.296 402.469 L
300.847 444.918 L
302.399 572.526 L
303.95 458.378 L
305.502 422.917 L
307.053 430.423 L
308.605 464.331 L
310.156 463.814 L
311.708 493.063 L
313.259 512.734 L
314.811 484.78 L
316.362 491.51 L
317.914 542.76 L
319.465 588.315 L
321.017 598.669 L
322.568 569.679 L
324.12 546.901 L
325.671 548.972 L
327.223 580.55 L
328.774 600.481 L
330.326 608.505 L
331.877 610.576 L
333.429 618.341 L
334.98 614.199 L
336.532 623 L
338.083 312.134 L
339.635 384.35 L
341.186 391.08 L
342.738 317.569 L
344.289 444.401 L
345.841 334.653 L
347.392 345.006 L
348.944 326.111 L
350.495 209.633 L
352.047 283.144 L
353.598 318.346 L
355.15 268.908 L
356.701 301.78 L
358.253 192.55 L
359.804 289.356 L
361.356 317.31 L
362.907 281.073 L
364.459 203.939 L
366.01 131.723 L
367.562 312.393 L
369.113 517.393 L
370.665 373.22 L
372.216 305.663 L
373.768 179.09 L
375.319 183.749 L
376.871 545.866 L
378.422 472.097 L
379.974 458.119 L
381.525 406.869 L
383.077 408.681 L
384.628 360.019 L
386.18 568.903 L
387.731 518.688 L
389.283 496.686 L
390.834 489.956 L
392.386 441.812 L
393.937 368.82 L
395.489 583.139 L
397.04 524.641 L
398.592 461.484 L
400.143 441.295 L
401.695 425.505 L
403.246 393.927 L
404.798 607.987 L
406.349 582.362 L
407.901 538.101 L
409.452 546.125 L
411.004 537.583 L
412.555 479.603 L
414.107 601.775 L
415.658 591.163 L
417.21 560.879 L
418.761 559.584 L
420.313 605.658 L
421.864 590.645 L
423.416 604.622 L
424.967 573.303 L
426.519 571.75 L
428.07 597.634 L
429.622 578.738 L
431.173 596.598 L
432.725 614.199 L
434.276 612.646 L
435.828 612.646 L
437.379 616.27 L
438.931 581.327 L
440.482 612.388 L
442.034 585.468 L
443.585 568.644 L
445.137 586.245 L
446.688 617.306 L
448.24 606.175 L
449.791 602.293 L
451.343 613.941 L
452.894 251.306 L
454.446 260.625 L
455.997 286.509 L
457.549 297.38 L
459.1 294.274 L
460.652 268.131 L
462.203 262.178 L
463.755 290.65 L
465.306 305.145 L
466.858 295.05 L
468.409 262.178 L
469.961 285.473 L
471.512 287.026 L
473.064 289.874 L
474.615 297.121 L
476.167 188.667 L
477.718 248.977 L
479.27 260.366 L
480.821 262.695 L
482.373 287.285 L
483.924 166.666 L
485.476 195.397 L
487.027 192.809 L
488.579 204.715 L
490.13 259.33 L
491.682 165.631 L
493.233 175.984 L
494.785 186.597 L
496.336 188.15 L
497.888 214.551 L
499.439 241.988 L
500.991 287.026 L
502.542 200.833 L
504.094 200.056 L
505.645 187.114 L
507.197 219.469 L
508.748 248.977 L
510.3 236.811 L
511.851 218.952 L
513.403 213.257 L
514.954 249.236 L
516.506 290.909 L
518.057 207.045 L
519.609 260.625 L
521.16 283.92 L
522.712 279.002 L
524.263 277.967 L
525.815 294.791 L
527.366 300.745 L
528.918 146.735 L
530.469 219.21 L
532.021 261.401 L
533.572 284.179 L
535.124 299.968 L
536.675 155.795 L
538.227 209.633 L
539.778 213.516 L
541.33 231.376 L
542.881 282.108 L
544.433 294.533 L
545.984 245.353 L
547.536 210.669 L
549.087 275.637 L
550.639 293.756 L
552.19 305.922 L
553.742 312.393 L
555.293 190.997 L
556.845 263.99 L
558.396 307.992 L
559.948 318.087 L
561.499 321.97 L
563.051 131.205 L
564.602 184.267 L
566.154 273.049 L
567.705 317.569 L
569.257 322.746 L
570.808 65.977 L
572.36 94.709 L
573.911 192.809 L
575.463 268.908 L
577.014 314.463 L
578.566 313.169 L
580.117 87.461 L
581.669 107.651 L
583.22 145.959 L
584.772 189.703 L
586.323 255.448 L
587.875 297.639 L
589.426 211.963 L
590.978 225.94 L
592.529 183.749 L
594.081 158.124 L
595.632 189.961 L
597.184 257.777 L
598.735 261.142 L
600.287 246.388 L
601.838 217.14 L
603.39 205.751 L
604.941 224.387 L
606.493 230.082 L
608.044 276.932 L
609.596 293.756 L
611.147 282.108 L
612.699 306.439 L
614.25 327.405 L
615.802 221.281 L
617.353 248.718 L
618.905 290.132 L
620.456 313.687 L
622.008 316.534 L
623.559 315.757 L
625.111 303.333 L
626.662 174.949 L
628.214 184.267 L
629.765 229.564 L
631.317 279.52 L
632.868 303.592 L
634.42 297.639 L
635.971 273.049 L
637.523 259.589 L
639.074 159.16 L
640.626 106.097 L
642.177 140.782 L
643.729 232.411 L
645.28 296.345 L
646.832 282.626 L
648.383 231.635 L
649.935 223.093 L
651.486 180.126 L
653.038 116.451 L
654.589 129.134 L
656.141 216.363 L
657.692 289.874 L
659.244 284.179 L
660.795 222.575 L
662.347 177.019 L
663.898 211.963 L
665.45 266.319 L
667.001 308.251 L
668.553 300.745 L
670.104 242.765 L
671.656 200.315 L
673.207 265.284 L
674.759 314.722 L
676.31 332.064 L
677.862 319.899 L
679.413 280.296 L
680.965 211.704 L
682.516 238.623 L
684.068 268.39 L
685.619 290.132 L
687.171 306.18 L
688.722 308.51 L
690.274 217.398 L
691.825 185.561 L
693.377 173.396 L
694.928 204.198 L
696.48 270.461 L
698.031 230.858 L
699.583 192.809 L
701.134 166.666 L
702.686 199.539 L
704.237 269.943 L
705.789 253.377 L
707.34 245.871 L
708.892 245.353 L
710.443 271.496 L
711.995 297.121 L
713.546 185.561 L
715.098 145.182 L
716.649 113.086 L
718.201 292.721 L
719.752 288.579 L
721.304 276.414 L
722.855 212.222 L
724.407 148.288 L
725.958 182.196 L
727.51 259.072 L
729.061 272.531 L
730.613 299.451 L
732.164 292.462 L
733.716 275.379 L
735.267 294.274 L
736.819 245.353 L
738.37 246.647 L
739.922 285.991 L
741.473 307.992 L
743.025 318.605 L
744.576 315.757 L
746.128 212.48 L
747.679 214.81 L
749.231 256.742 L
750.782 295.309 L
752.334 304.11 L
753.885 273.049 L
755.437 157.865 L
756.988 175.208 L
758.54 204.715 L
760.091 261.66 L
761.643 298.156 L
763.194 265.025 L
764.746 187.891 L
766.297 212.739 L
767.849 194.362 L
769.4 228.011 L
770.952 290.909 L
772.503 255.448 L
774.055 291.427 L
775.606 255.966 L
777.158 247.165 L
778.709 290.65 L
780.261 235.517 L
781.812 278.743 L
783.364 299.968 L
784.915 304.11 L
786.467 313.428 L
788.018 340.088 L
789.57 168.737 L
791.121 210.669 L
792.673 284.179 L
794.224 326.37 L
795.776 325.593 L
797.327 330.511 L
798.879 169.772 L
800.43 215.845 L
801.982 276.414 L
803.533 319.64 L
805.085 322.228 L
806.636 303.333 L
808.188 167.184 L
809.739 240.176 L
811.291 296.086 L
812.842 324.04 L
814.394 312.393 L
815.945 137.676 L
817.497 216.104 L
819.048 299.968 L
820.6 328.441 L
822.151 281.332 L
823.703 206.786 L
825.254 180.902 L
826.806 210.151 L
828.357 297.121 L
829.909 327.923 L
831.46 259.848 L
833.012 184.526 L
834.563 248.718 L
836.115 302.298 L
837.666 325.076 L
839.218 280.814 L
840.769 218.175 L
842.321 285.732 L
843.872 303.851 L
845.424 313.428 L
846.975 308.769 L
848.527 275.12 L
850.078 273.825 L
851.63 276.673 L
853.181 288.062 L
854.733 298.933 L
856.284 304.886 L
857.836 292.98 L
859.387 249.236 L
860.939 216.622 L
862.49 241.471 L
864.042 284.956 L
865.593 300.486 L
867.145 220.246 L
868.696 176.502 L
870.248 211.445 L
871.799 280.814 L
873.351 309.286 L
874.902 289.097 L
876.454 262.437 L
878.005 325.852 L
879.557 318.605 L
881.108 311.357 L
882.66 215.587 L
884.211 208.598 L
885.763 288.062 L
887.314 328.958 L
888.866 329.994 L
890.417 314.722 L
891.969 286.767 L
893.52 271.237 L
895.072 191.256 L
896.623 199.28 L
898.175 257.519 L
899.726 300.745 L
901.278 283.144 L
902.829 232.929 L
904.381 206.268 L
905.932 205.233 L
907.484 227.752 L
909.035 245.353 L
910.587 276.414 L
912.138 315.24 L
913.69 282.108 L
915.241 210.41 L
916.793 196.95 L
918.344 199.539 L
919.896 275.379 L
921.447 295.568 L
922.999 305.922 L
924.55 345.006 L
926.102 324.04 L
927.653 267.354 L
929.205 278.743 L
930.756 306.957 L
932.308 314.463 L
933.859 341.9 L
935.411 341.383 L
936.962 325.335 L
938.514 320.675 L
940.065 239.917 L
941.617 282.626 L
943.168 307.475 L
944.72 317.31 L
946.271 322.487 L
947.823 336.206 L
949.374 326.111 L
950.926 222.316 L
952.477 260.883 L
954.029 298.156 L
955.58 303.074 L
957.132 296.603 L
958.683 313.169 L
960.235 321.97 L
961.786 243.541 L
963.338 273.567 L
964.889 307.733 L
966.441 314.204 L
967.992 302.557 L
969.544 305.922 L
971.095 315.499 L
972.647 258.036 L
974.198 292.98 L
975.75 312.651 L
977.301 320.675 L
978.853 326.629 L
980.404 311.875 L
981.956 270.978 L
983.507 252.342 L
985.059 299.451 L
986.61 306.18 L
988.162 303.851 L
989.713 300.486 L
991.265 252.083 L
992.816 181.937 L
994.368 261.142 L
995.919 319.899 L
997.471 321.193 L
999.022 296.345 L
1000.574 245.871 L
1002.125 153.724 L
1003.677 91.344 L
1005.228 255.707 L
1006.78 296.603 L
1008.331 310.84 L
1009.883 304.11 L
1011.434 257.777 L
1012.986 157.865 L
1014.537 194.103 L
1016.089 200.056 L
1017.64 241.471 L
1019.192 275.896 L
1020.743 288.579 L
1022.295 250.012 L
1023.846 132.758 L
1025.398 209.374 L
1026.949 230.858 L
1028.501 259.072 L
1030.052 281.85 L
1031.604 112.31 L
1033.155 162.266 L
1034.707 248.459 L
1036.258 227.493 L
1037.81 215.845 L
1039.361 247.165 L
1040.913 128.875 L
1042.464 204.974 L
1044.016 277.449 L
1045.567 250.789 L
1047.119 228.011 L
1048.67 250.53 L
1050.222 302.815 L
1051.773 284.179 L
1053.325 277.19 L
1054.876 267.872 L
1056.428 261.919 L
1057.979 306.957 L
1059.531 352.513 L
1061.082 315.757 L
1062.634 244.318 L
1064.185 192.55 L
1065.737 191.773 L
1067.288 196.432 L
1068.84 160.971 L
1070.391 280.814 L
1071.943 309.804 L
1073.494 346.559 L
1075.046 340.606 L
1076.597 276.673 L
1078.149 199.28 L
1079.7 190.22 L
1081.252 182.973 L
1082.803 110.239 L
1084.355 302.815 L
1085.906 301.78 L
1087.458 298.156 L
1089.009 324.817 L
1090.561 314.981 L
1092.112 270.978 L
1093.664 267.613 L
1095.215 248.718 L
1096.767 153.724 L
1098.318 312.651 L
1099.87 292.462 L
1101.421 241.471 L
1102.973 271.755 L
1104.524 305.663 L
1106.076 307.992 L
1107.627 319.899 L
1109.179 292.462 L
1110.73 192.291 L
1112.282 318.087 L
1113.833 304.11 L
1115.385 227.234 L
1116.936 221.281 L
1118.488 256.224 L
1120.039 295.05 L
1121.591 323.781 L
1123.142 289.097 L
1124.694 317.052 L
1126.245 317.828 L
1127.797 254.671 L
1129.348 215.845 L
1130.9 221.54 L
1132.451 274.084 L
1134.003 321.452 L
1135.554 288.579 L
1137.106 285.473 L
1138.657 302.039 L
1140.209 289.615 L
1141.76 265.801 L
1143.312 247.424 L
1144.863 286.767 L
1146.415 338.535 L
1147.966 305.922 L
1149.518 270.719 L
1151.069 295.827 L
1152.621 298.933 L
1154.172 295.05 L
1155.724 288.838 L
1157.275 313.169 L
1158.827 321.711 L
1160.378 264.766 L
1161.93 262.437 L
1163.481 311.875 L
1165.033 295.568 L
1166.584 268.39 L
1168.136 281.591 L
1169.687 305.404 L
1171.239 262.437 L
1172.79 189.444 L
1174.342 236.035 L
1175.893 318.605 L
1177.445 312.91 L
1178.996 254.154 L
1180.548 224.905 L
1182.099 208.857 L
1183.651 168.478 L
1185.202 290.65 L
1186.754 310.84 L
1188.305 275.637 L
1189.857 201.868 L
1191.408 106.356 L
1192.96 52 L
1194.511 218.434 L
1196.063 238.106 L
1197.614 259.589 L
1199.166 227.752 L
1200.717 132.24 L
1202.269 72.448 L
1203.82 168.478 L
1205.372 154.242 L
1206.923 180.384 L
1208.475 215.328 L
1210.026 208.08 L
1211.578 185.302 L
1213.129 198.244 L
1214.681 168.995 L
1216.232 147.512 L
1217.784 164.854 L
1219.335 221.022 L
1220.887 273.308 L
1222.438 273.567 L
1223.99 279.52 L
1225.541 233.447 L
1227.093 588.574 L
1228.644 393.927 L
1230.196 335.947 L
1231.747 325.076 L
1233.299 274.084 L
1234.85 224.128 L
1236.402 546.383 L
1237.953 391.856 L
1239.505 305.922 L
1241.056 310.322 L
1242.608 286.767 L
1244.159 191.515 L
1245.711 507.816 L
1247.262 412.046 L
1248.814 328.699 L
1250.365 307.992 L
1251.917 305.922 L
1253.468 250.789 L
1255.02 449.578 L
1256.571 349.665 L
1258.123 312.393 L
1259.674 276.673 L
1261.226 272.531 L
1262.777 275.637 L
1264.329 339.312 L
1265.88 191.256 L
1267.432 179.09 L
1268.983 186.338 L
1270.535 213.516 L
1272.086 246.388 L
1273.638 312.393 L
1275.189 347.854 L
1276.741 324.817 L
1278.292 133.793 L
1279.844 80.472 L
1281.395 86.684 L
1282.947 151.136 L
1284.498 225.94 L
1286.05 290.65 L
1287.601 383.056 L
1289.153 201.868 L
1290.704 146.994 L
1292.255 106.615 L
1293.807 155.536 L
1295.359 289.356 L
1296.91 390.562 L
1298.462 450.354 L
1300.013 279.52 L
1301.565 254.413 L
1303.116 207.304 L
1304.667 207.304 L
1306.219 306.698 L
1307.771 386.68 L
1309.322 446.73 L
1310.874 372.443 L
1312.425 404.539 L
1313.977 385.385 L
1315.528 383.056 L
1317.08 395.739 L
1318.631 396.774 L
1320.182 349.148 L
1321.734 389.786 L
1323.286 317.052 L
1324.837 280.296 L
1326.389 277.19 L
1327.94 391.08 L
1329.492 455.531 L
1331.043 407.904 L
1332.594 357.689 L
1334.146 379.173 L
1335.698 312.393 L
1337.249 294.791 L
1338.801 384.35 L
1340.352 443.624 L
1341.904 421.623 L
1343.455 522.829 L
1345.006 477.532 L
1346.558 450.613 L
1348.109 453.978 L
1349.661 399.621 L
1351.213 428.094 L
1352.764 468.99 L
1354.316 546.125 L
1355.867 495.91 L
1357.418 474.167 L
1358.97 474.944 L
1360.521 343.194 L
1362.073 368.302 L
1363.625 510.922 L
1365.176 487.109 L
1366.728 418.517 L
1368.279 395.48 L
1369.831 456.307 L
1371.382 413.858 L
1372.933 449.578 L
1374.485 575.374 L
1376.036 473.391 L
1377.588 437.412 L
1379.14 444.401 L
1380.691 478.05 L
1382.243 475.461 L
1383.794 499.016 L
1385.345 522.311 L
1386.897 492.545 L
1388.448 500.051 L
1390 551.56 L
S
GR
GS
[0.75 0 0 0.75 0 0] CT
1 GC
N
1377 112 M
1377 65 L
1083 65 L
1083 112 L
cp
f
GR
GS
[0.75 0 0 0.75 847.5 58.22581] CT
/Helvetica 16.8 F
GS
[1 0 0 1 0 0] CT
0 6.5 moveto 
1 -1 scale
(Original BOLD signal) t 
GR
GR
GS
[0.75 0 0 0.75 0 0] CT
0 0.4 0.8 RC
1 LJ
1.333 LW
N
1087 77.634 M
1127 77.634 L
S
GR
GS
[0.75 0 0 0.75 847.5 74.52419] CT
/Helvetica 16.8 F
GS
[1 0 0 1 0 0] CT
0 6.5 moveto 
1 -1 scale
(BOLD signal after reconstruction) t 
GR
GR
GS
[0.75 0 0 0.75 0 0] CT
0.91 0.412 0.169 RC
[10 6] 0 setdash
2 LJ
1.333 LW
N
1087 99.366 M
1127 99.366 L
S
GR
GS
[0.75 0 0 0.75 0 0] CT
0.149 GC
10.0 ML
0.667 LW
N
1083 112 M
1083 65 L
1377 65 L
1377 112 L
cp
S
GR
%%Trailer
%%Pages: 1
%%EOF
