%!PS-Adobe-3.0 EPSF-3.0
%%Creator: (MATLAB, The Mathworks, Inc. Version 9.3.0.713579 \(R2017b\). Operating System: Windows 10)
%%Title: C:/Users/simon/Documents/Unief/M2/Wavelets/Project/report/plots/bold.eps
%%CreationDate: 2017-11-25T09:56:27
%%Pages: (atend)
%%BoundingBox: 0 0 1440 687
%%LanguageLevel: 3
%%EndComments
%%BeginProlog
%%BeginResource: procset (Apache XML Graphics Std ProcSet) 1.2 0
%%Version: 1.2 0
%%Copyright: (Copyright 2001-2003,2010 The Apache Software Foundation. License terms: http://www.apache.org/licenses/LICENSE-2.0)
/bd{bind def}bind def
/ld{load def}bd
/GR/grestore ld
/GS/gsave ld
/RM/rmoveto ld
/C/curveto ld
/t/show ld
/L/lineto ld
/ML/setmiterlimit ld
/CT/concat ld
/f/fill ld
/N/newpath ld
/S/stroke ld
/CC/setcmykcolor ld
/A/ashow ld
/cp/closepath ld
/RC/setrgbcolor ld
/LJ/setlinejoin ld
/GC/setgray ld
/LW/setlinewidth ld
/M/moveto ld
/re {4 2 roll M
1 index 0 rlineto
0 exch rlineto
neg 0 rlineto
cp } bd
/_ctm matrix def
/_tm matrix def
/BT { _ctm currentmatrix pop matrix _tm copy pop 0 0 moveto } bd
/ET { _ctm setmatrix } bd
/iTm { _ctm setmatrix _tm concat } bd
/Tm { _tm astore pop iTm 0 0 moveto } bd
/ux 0.0 def
/uy 0.0 def
/F {
  /Tp exch def
  /Tf exch def
  Tf findfont Tp scalefont setfont
  /cf Tf def  /cs Tp def
} bd
/ULS {currentpoint /uy exch def /ux exch def} bd
/ULE {
  /Tcx currentpoint pop def
  gsave
  newpath
  cf findfont cs scalefont dup
  /FontMatrix get 0 get /Ts exch def /FontInfo get dup
  /UnderlinePosition get Ts mul /To exch def
  /UnderlineThickness get Ts mul /Tt exch def
  ux uy To add moveto  Tcx uy To add lineto
  Tt setlinewidth stroke
  grestore
} bd
/OLE {
  /Tcx currentpoint pop def
  gsave
  newpath
  cf findfont cs scalefont dup
  /FontMatrix get 0 get /Ts exch def /FontInfo get dup
  /UnderlinePosition get Ts mul /To exch def
  /UnderlineThickness get Ts mul /Tt exch def
  ux uy To add cs add moveto Tcx uy To add cs add lineto
  Tt setlinewidth stroke
  grestore
} bd
/SOE {
  /Tcx currentpoint pop def
  gsave
  newpath
  cf findfont cs scalefont dup
  /FontMatrix get 0 get /Ts exch def /FontInfo get dup
  /UnderlinePosition get Ts mul /To exch def
  /UnderlineThickness get Ts mul /Tt exch def
  ux uy To add cs 10 mul 26 idiv add moveto Tcx uy To add cs 10 mul 26 idiv add lineto
  Tt setlinewidth stroke
  grestore
} bd
/QT {
/Y22 exch store
/X22 exch store
/Y21 exch store
/X21 exch store
currentpoint
/Y21 load 2 mul add 3 div exch
/X21 load 2 mul add 3 div exch
/X21 load 2 mul /X22 load add 3 div
/Y21 load 2 mul /Y22 load add 3 div
/X22 load /Y22 load curveto
} bd
/SSPD {
dup length /d exch dict def
{
/v exch def
/k exch def
currentpagedevice k known {
/cpdv currentpagedevice k get def
v cpdv ne {
/upd false def
/nullv v type /nulltype eq def
/nullcpdv cpdv type /nulltype eq def
nullv nullcpdv or
{
/upd true def
} {
/sametype v type cpdv type eq def
sametype {
v type /arraytype eq {
/vlen v length def
/cpdvlen cpdv length def
vlen cpdvlen eq {
0 1 vlen 1 sub {
/i exch def
/obj v i get def
/cpdobj cpdv i get def
obj cpdobj ne {
/upd true def
exit
} if
} for
} {
/upd true def
} ifelse
} {
v type /dicttype eq {
v {
/dv exch def
/dk exch def
/cpddv cpdv dk get def
dv cpddv ne {
/upd true def
exit
} if
} forall
} {
/upd true def
} ifelse
} ifelse
} if
} ifelse
upd true eq {
d k v put
} if
} if
} if
} forall
d length 0 gt {
d setpagedevice
} if
} bd
/RE { % /NewFontName [NewEncodingArray] /FontName RE -
  findfont dup length dict begin
  {
    1 index /FID ne
    {def} {pop pop} ifelse
  } forall
  /Encoding exch def
  /FontName 1 index def
  currentdict definefont pop
  end
} bind def
%%EndResource
%%BeginResource: procset (Apache XML Graphics EPS ProcSet) 1.0 0
%%Version: 1.0 0
%%Copyright: (Copyright 2002-2003 The Apache Software Foundation. License terms: http://www.apache.org/licenses/LICENSE-2.0)
/BeginEPSF { %def
/b4_Inc_state save def         % Save state for cleanup
/dict_count countdictstack def % Count objects on dict stack
/op_count count 1 sub def      % Count objects on operand stack
userdict begin                 % Push userdict on dict stack
/showpage { } def              % Redefine showpage, { } = null proc
0 setgray 0 setlinecap         % Prepare graphics state
1 setlinewidth 0 setlinejoin
10 setmiterlimit [ ] 0 setdash newpath
/languagelevel where           % If level not equal to 1 then
{pop languagelevel             % set strokeadjust and
1 ne                           % overprint to their defaults.
{false setstrokeadjust false setoverprint
} if
} if
} bd
/EndEPSF { %def
count op_count sub {pop} repeat            % Clean up stacks
countdictstack dict_count sub {end} repeat
b4_Inc_state restore
} bd
%%EndResource
%FOPBeginFontDict
%%IncludeResource: font Courier-Oblique
%%IncludeResource: font Courier-BoldOblique
%%IncludeResource: font Courier-Bold
%%IncludeResource: font ZapfDingbats
%%IncludeResource: font Symbol
%%IncludeResource: font Helvetica
%%IncludeResource: font Helvetica-Oblique
%%IncludeResource: font Helvetica-Bold
%%IncludeResource: font Helvetica-BoldOblique
%%IncludeResource: font Times-Roman
%%IncludeResource: font Times-Italic
%%IncludeResource: font Times-Bold
%%IncludeResource: font Times-BoldItalic
%%IncludeResource: font Courier
%FOPEndFontDict
%%BeginResource: encoding WinAnsiEncoding
/WinAnsiEncoding [
/.notdef /.notdef /.notdef /.notdef /.notdef
/.notdef /.notdef /.notdef /.notdef /.notdef
/.notdef /.notdef /.notdef /.notdef /.notdef
/.notdef /.notdef /.notdef /.notdef /.notdef
/.notdef /.notdef /.notdef /.notdef /.notdef
/.notdef /.notdef /.notdef /.notdef /.notdef
/.notdef /.notdef /space /exclam /quotedbl
/numbersign /dollar /percent /ampersand /quotesingle
/parenleft /parenright /asterisk /plus /comma
/hyphen /period /slash /zero /one
/two /three /four /five /six
/seven /eight /nine /colon /semicolon
/less /equal /greater /question /at
/A /B /C /D /E
/F /G /H /I /J
/K /L /M /N /O
/P /Q /R /S /T
/U /V /W /X /Y
/Z /bracketleft /backslash /bracketright /asciicircum
/underscore /quoteleft /a /b /c
/d /e /f /g /h
/i /j /k /l /m
/n /o /p /q /r
/s /t /u /v /w
/x /y /z /braceleft /bar
/braceright /asciitilde /bullet /Euro /bullet
/quotesinglbase /florin /quotedblbase /ellipsis /dagger
/daggerdbl /circumflex /perthousand /Scaron /guilsinglleft
/OE /bullet /Zcaron /bullet /bullet
/quoteleft /quoteright /quotedblleft /quotedblright /bullet
/endash /emdash /asciitilde /trademark /scaron
/guilsinglright /oe /bullet /zcaron /Ydieresis
/space /exclamdown /cent /sterling /currency
/yen /brokenbar /section /dieresis /copyright
/ordfeminine /guillemotleft /logicalnot /sfthyphen /registered
/macron /degree /plusminus /twosuperior /threesuperior
/acute /mu /paragraph /middot /cedilla
/onesuperior /ordmasculine /guillemotright /onequarter /onehalf
/threequarters /questiondown /Agrave /Aacute /Acircumflex
/Atilde /Adieresis /Aring /AE /Ccedilla
/Egrave /Eacute /Ecircumflex /Edieresis /Igrave
/Iacute /Icircumflex /Idieresis /Eth /Ntilde
/Ograve /Oacute /Ocircumflex /Otilde /Odieresis
/multiply /Oslash /Ugrave /Uacute /Ucircumflex
/Udieresis /Yacute /Thorn /germandbls /agrave
/aacute /acircumflex /atilde /adieresis /aring
/ae /ccedilla /egrave /eacute /ecircumflex
/edieresis /igrave /iacute /icircumflex /idieresis
/eth /ntilde /ograve /oacute /ocircumflex
/otilde /odieresis /divide /oslash /ugrave
/uacute /ucircumflex /udieresis /yacute /thorn
/ydieresis
] def
%%EndResource
%FOPBeginFontReencode
/Courier-Oblique findfont
dup length dict begin
  {1 index /FID ne {def} {pop pop} ifelse} forall
  /Encoding WinAnsiEncoding def
  currentdict
end
/Courier-Oblique exch definefont pop
/Courier-BoldOblique findfont
dup length dict begin
  {1 index /FID ne {def} {pop pop} ifelse} forall
  /Encoding WinAnsiEncoding def
  currentdict
end
/Courier-BoldOblique exch definefont pop
/Courier-Bold findfont
dup length dict begin
  {1 index /FID ne {def} {pop pop} ifelse} forall
  /Encoding WinAnsiEncoding def
  currentdict
end
/Courier-Bold exch definefont pop
/Helvetica findfont
dup length dict begin
  {1 index /FID ne {def} {pop pop} ifelse} forall
  /Encoding WinAnsiEncoding def
  currentdict
end
/Helvetica exch definefont pop
/Helvetica-Oblique findfont
dup length dict begin
  {1 index /FID ne {def} {pop pop} ifelse} forall
  /Encoding WinAnsiEncoding def
  currentdict
end
/Helvetica-Oblique exch definefont pop
/Helvetica-Bold findfont
dup length dict begin
  {1 index /FID ne {def} {pop pop} ifelse} forall
  /Encoding WinAnsiEncoding def
  currentdict
end
/Helvetica-Bold exch definefont pop
/Helvetica-BoldOblique findfont
dup length dict begin
  {1 index /FID ne {def} {pop pop} ifelse} forall
  /Encoding WinAnsiEncoding def
  currentdict
end
/Helvetica-BoldOblique exch definefont pop
/Times-Roman findfont
dup length dict begin
  {1 index /FID ne {def} {pop pop} ifelse} forall
  /Encoding WinAnsiEncoding def
  currentdict
end
/Times-Roman exch definefont pop
/Times-Italic findfont
dup length dict begin
  {1 index /FID ne {def} {pop pop} ifelse} forall
  /Encoding WinAnsiEncoding def
  currentdict
end
/Times-Italic exch definefont pop
/Times-Bold findfont
dup length dict begin
  {1 index /FID ne {def} {pop pop} ifelse} forall
  /Encoding WinAnsiEncoding def
  currentdict
end
/Times-Bold exch definefont pop
/Times-BoldItalic findfont
dup length dict begin
  {1 index /FID ne {def} {pop pop} ifelse} forall
  /Encoding WinAnsiEncoding def
  currentdict
end
/Times-BoldItalic exch definefont pop
/Courier findfont
dup length dict begin
  {1 index /FID ne {def} {pop pop} ifelse} forall
  /Encoding WinAnsiEncoding def
  currentdict
end
/Courier exch definefont pop
%FOPEndFontReencode
%%EndProlog
%%Page: 1 1
%%PageBoundingBox: 0 0 1440 687
%%BeginPageSetup
[1 0 0 -1 0 687] CT
%%EndPageSetup
GS
[0.9375 0 0 0.93852 0 0] CT
1 GC
N
0 0 1536 732 re
f
GR
GS
[0.9375 0 0 0.93852 0 0] CT
1 GC
N
0 0 1536 732 re
f
GR
GS
[0.9375 0 0 0.93852 0 0] CT
1 GC
N
200 652 M
1390 652 L
1390 55 L
200 55 L
cp
f
GR
GS
[0.9375 0 0 0.93852 0 0] CT
0.149 GC
2 setlinecap
1 LJ
0.533 LW
N
200 652 M
1390 652 L
S
GR
GS
[0.9375 0 0 0.93852 0 0] CT
0.149 GC
2 setlinecap
1 LJ
0.533 LW
N
200 55 M
1390 55 L
S
GR
GS
[0.9375 0 0 0.93852 0 0] CT
0.149 GC
2 setlinecap
1 LJ
0.533 LW
N
353.598 652 M
353.598 640.1 L
S
GR
GS
[0.9375 0 0 0.93852 0 0] CT
0.149 GC
2 setlinecap
1 LJ
0.533 LW
N
508.748 652 M
508.748 640.1 L
S
GR
GS
[0.9375 0 0 0.93852 0 0] CT
0.149 GC
2 setlinecap
1 LJ
0.533 LW
N
663.898 652 M
663.898 640.1 L
S
GR
GS
[0.9375 0 0 0.93852 0 0] CT
0.149 GC
2 setlinecap
1 LJ
0.533 LW
N
819.048 652 M
819.048 640.1 L
S
GR
GS
[0.9375 0 0 0.93852 0 0] CT
0.149 GC
2 setlinecap
1 LJ
0.533 LW
N
974.198 652 M
974.198 640.1 L
S
GR
GS
[0.9375 0 0 0.93852 0 0] CT
0.149 GC
2 setlinecap
1 LJ
0.533 LW
N
1129.348 652 M
1129.348 640.1 L
S
GR
GS
[0.9375 0 0 0.93852 0 0] CT
0.149 GC
2 setlinecap
1 LJ
0.533 LW
N
1284.498 652 M
1284.498 640.1 L
S
GR
GS
[0.9375 0 0 0.93852 0 0] CT
0.149 GC
2 setlinecap
1 LJ
0.533 LW
N
353.598 55 M
353.598 66.9 L
S
GR
GS
[0.9375 0 0 0.93852 0 0] CT
0.149 GC
2 setlinecap
1 LJ
0.533 LW
N
508.748 55 M
508.748 66.9 L
S
GR
GS
[0.9375 0 0 0.93852 0 0] CT
0.149 GC
2 setlinecap
1 LJ
0.533 LW
N
663.898 55 M
663.898 66.9 L
S
GR
GS
[0.9375 0 0 0.93852 0 0] CT
0.149 GC
2 setlinecap
1 LJ
0.533 LW
N
819.048 55 M
819.048 66.9 L
S
GR
GS
[0.9375 0 0 0.93852 0 0] CT
0.149 GC
2 setlinecap
1 LJ
0.533 LW
N
974.198 55 M
974.198 66.9 L
S
GR
GS
[0.9375 0 0 0.93852 0 0] CT
0.149 GC
2 setlinecap
1 LJ
0.533 LW
N
1129.348 55 M
1129.348 66.9 L
S
GR
GS
[0.9375 0 0 0.93852 0 0] CT
0.149 GC
2 setlinecap
1 LJ
0.533 LW
N
1284.498 55 M
1284.498 66.9 L
S
GR
GS
[0.9375 0 0 0.93852 331.49855 617.22381] CT
0.149 GC
/Helvetica 14.933 F
GS
[1 0 0 1 0 0] CT
-12.5 15 moveto 
1 -1 scale
(200) t 
GR
GR
GS
[0.9375 0 0 0.93852 476.95161 617.22381] CT
0.149 GC
/Helvetica 14.933 F
GS
[1 0 0 1 0 0] CT
-12.5 15 moveto 
1 -1 scale
(400) t 
GR
GR
GS
[0.9375 0 0 0.93852 622.40467 617.22381] CT
0.149 GC
/Helvetica 14.933 F
GS
[1 0 0 1 0 0] CT
-12.5 15 moveto 
1 -1 scale
(600) t 
GR
GR
GS
[0.9375 0 0 0.93852 767.8577 617.22381] CT
0.149 GC
/Helvetica 14.933 F
GS
[1 0 0 1 0 0] CT
-12.5 15 moveto 
1 -1 scale
(800) t 
GR
GR
GS
[0.9375 0 0 0.93852 913.31079 617.22381] CT
0.149 GC
/Helvetica 14.933 F
GS
[1 0 0 1 0 0] CT
-17 15 moveto 
1 -1 scale
(1000) t 
GR
GR
GS
[0.9375 0 0 0.93852 1058.76389 617.22381] CT
0.149 GC
/Helvetica 14.933 F
GS
[1 0 0 1 0 0] CT
-17 15 moveto 
1 -1 scale
(1200) t 
GR
GR
GS
[0.9375 0 0 0.93852 1204.21692 617.22381] CT
0.149 GC
/Helvetica 14.933 F
GS
[1 0 0 1 0 0] CT
-17 15 moveto 
1 -1 scale
(1400) t 
GR
GR
GS
[0.9375 0 0 0.93852 745.31301 636.30718] CT
0.149 GC
N
-26.545 13.798 M
-26.545 13.236 L
-25.733 13.236 -24.975 13.142 QT
-24.217 13.048 -24.217 12.72 QT
-24.217 3.939 L
-24.217 3.595 -24.413 3.509 QT
-24.608 3.423 -25.03 3.423 QT
-25.702 3.423 L
-27.03 3.423 -27.577 4.001 QT
-27.874 4.298 -27.999 4.931 QT
-28.124 5.564 -28.202 6.533 QT
-28.67 6.533 L
-28.358 2.861 L
-18.592 2.861 L
-18.28 6.533 L
-18.749 6.533 L
-18.842 5.501 -18.96 4.892 QT
-19.077 4.283 -19.374 4.001 QT
-19.936 3.423 -21.249 3.423 QT
-21.92 3.423 L
-22.202 3.423 -22.366 3.447 QT
-22.53 3.47 -22.631 3.587 QT
-22.733 3.705 -22.733 3.939 QT
-22.733 12.72 L
-22.733 13.048 -21.975 13.142 QT
-21.217 13.236 -20.42 13.236 QT
-20.42 13.798 L
-26.545 13.798 L
cp
f
GR
GS
[0.9375 0 0 0.93852 745.31301 636.30718] CT
0.149 GC
N
-16.885 13.798 M
-16.885 13.236 L
-16.338 13.236 -15.986 13.15 QT
-15.635 13.064 -15.635 12.72 QT
-15.635 8.361 L
-15.635 7.736 -15.877 7.595 QT
-16.119 7.455 -16.822 7.455 QT
-16.822 6.892 L
-14.51 6.72 L
-14.51 12.72 L
-14.51 13.064 -14.205 13.15 QT
-13.901 13.236 -13.401 13.236 QT
-13.401 13.798 L
-16.885 13.798 L
cp
-16.213 3.97 M
-16.213 3.626 -15.947 3.361 QT
-15.682 3.095 -15.338 3.095 QT
-15.104 3.095 -14.893 3.212 QT
-14.682 3.33 -14.565 3.541 QT
-14.447 3.751 -14.447 3.97 QT
-14.447 4.314 -14.713 4.58 QT
-14.979 4.845 -15.338 4.845 QT
-15.682 4.845 -15.947 4.58 QT
-16.213 4.314 -16.213 3.97 QT
cp
f
GR
GS
[0.9375 0 0 0.93852 745.31301 636.30718] CT
0.149 GC
N
-12.338 13.798 M
-12.338 13.236 L
-11.791 13.236 -11.439 13.15 QT
-11.088 13.064 -11.088 12.72 QT
-11.088 8.361 L
-11.088 7.923 -11.22 7.736 QT
-11.353 7.548 -11.595 7.501 QT
-11.838 7.455 -12.338 7.455 QT
-12.338 6.892 L
-10.025 6.72 L
-10.025 8.283 L
-9.697 7.595 -9.072 7.158 QT
-8.447 6.72 -7.697 6.72 QT
-5.853 6.72 -5.541 8.22 QT
-5.213 7.548 -4.595 7.134 QT
-3.978 6.72 -3.244 6.72 QT
-2.525 6.72 -2.025 6.955 QT
-1.525 7.189 -1.275 7.673 QT
-1.025 8.158 -1.025 8.876 QT
-1.025 12.72 L
-1.025 13.064 -0.673 13.15 QT
-0.322 13.236 0.225 13.236 QT
0.225 13.798 L
-3.447 13.798 L
-3.447 13.236 L
-2.9 13.236 -2.548 13.15 QT
-2.197 13.064 -2.197 12.72 QT
-2.197 8.923 L
-2.197 8.126 -2.423 7.634 QT
-2.65 7.142 -3.353 7.142 QT
-4.275 7.142 -4.877 7.884 QT
-5.478 8.626 -5.478 9.564 QT
-5.478 12.72 L
-5.478 13.064 -5.127 13.15 QT
-4.775 13.236 -4.228 13.236 QT
-4.228 13.798 L
-7.884 13.798 L
-7.884 13.236 L
-7.338 13.236 -6.986 13.15 QT
-6.634 13.064 -6.634 12.72 QT
-6.634 8.923 L
-6.634 8.142 -6.861 7.642 QT
-7.088 7.142 -7.791 7.142 QT
-8.728 7.142 -9.322 7.884 QT
-9.916 8.626 -9.916 9.564 QT
-9.916 12.72 L
-9.916 13.064 -9.564 13.15 QT
-9.213 13.236 -8.681 13.236 QT
-8.681 13.798 L
-12.338 13.798 L
cp
f
GR
GS
[0.9375 0 0 0.93852 745.31301 636.30718] CT
0.149 GC
N
4.851 13.986 M
3.883 13.986 3.062 13.47 QT
2.242 12.955 1.781 12.095 QT
1.32 11.236 1.32 10.283 QT
1.32 9.345 1.742 8.501 QT
2.164 7.658 2.93 7.142 QT
3.695 6.626 4.633 6.626 QT
5.367 6.626 5.906 6.869 QT
6.445 7.111 6.797 7.548 QT
7.148 7.986 7.328 8.58 QT
7.508 9.173 7.508 9.892 QT
7.508 10.095 7.351 10.095 QT
2.711 10.095 L
2.711 10.267 L
2.711 11.595 3.25 12.548 QT
3.789 13.501 4.992 13.501 QT
5.492 13.501 5.906 13.283 QT
6.32 13.064 6.633 12.673 QT
6.945 12.283 7.055 11.845 QT
7.07 11.783 7.109 11.744 QT
7.148 11.705 7.211 11.705 QT
7.351 11.705 L
7.508 11.705 7.508 11.908 QT
7.289 12.814 6.539 13.4 QT
5.789 13.986 4.851 13.986 QT
cp
2.726 9.705 M
6.383 9.705 L
6.383 9.095 6.211 8.478 QT
6.039 7.861 5.648 7.455 QT
5.258 7.048 4.633 7.048 QT
3.726 7.048 3.226 7.892 QT
2.726 8.736 2.726 9.705 QT
cp
f
GR
GS
[0.9375 0 0 0.93852 745.31301 636.30718] CT
0.149 GC
N
15.534 17.798 M
15.534 1.798 L
17.721 1.798 L
17.721 2.439 L
16.175 2.439 L
16.175 17.158 L
17.721 17.158 L
17.721 17.798 L
15.534 17.798 L
cp
f
GR
GS
[0.9375 0 0 0.93852 745.31301 636.30718] CT
0.149 GC
N
18.738 13.845 M
18.738 11.236 L
18.738 11.111 18.878 11.111 QT
19.081 11.111 L
19.175 11.111 19.206 11.236 QT
19.644 13.548 21.363 13.548 QT
22.113 13.548 22.628 13.205 QT
23.144 12.861 23.144 12.142 QT
23.144 11.626 22.745 11.267 QT
22.347 10.908 21.8 10.767 QT
20.722 10.564 L
20.191 10.439 19.745 10.197 QT
19.3 9.955 19.019 9.556 QT
18.738 9.158 18.738 8.626 QT
18.738 7.923 19.113 7.47 QT
19.488 7.017 20.081 6.822 QT
20.675 6.626 21.363 6.626 QT
22.175 6.626 22.784 7.064 QT
23.253 6.658 L
23.253 6.626 23.331 6.626 QT
23.441 6.626 L
23.488 6.626 23.527 6.666 QT
23.566 6.705 23.566 6.751 QT
23.566 8.845 L
23.566 9.001 23.441 9.001 QT
23.253 9.001 L
23.113 9.001 23.113 8.845 QT
23.113 8.017 22.644 7.509 QT
22.175 7.001 21.347 7.001 QT
20.628 7.001 20.097 7.267 QT
19.566 7.533 19.566 8.173 QT
19.566 8.626 19.948 8.908 QT
20.331 9.189 20.831 9.314 QT
21.925 9.517 L
22.472 9.642 22.941 9.939 QT
23.409 10.236 23.691 10.689 QT
23.972 11.142 23.972 11.72 QT
23.972 12.298 23.769 12.72 QT
23.566 13.142 23.214 13.423 QT
22.863 13.705 22.378 13.845 QT
21.894 13.986 21.363 13.986 QT
20.363 13.986 19.644 13.298 QT
19.066 13.939 L
19.066 13.986 18.972 13.986 QT
18.878 13.986 L
18.738 13.986 18.738 13.845 QT
cp
f
GR
GS
[0.9375 0 0 0.93852 745.31301 636.30718] CT
0.149 GC
N
25.045 17.798 M
25.045 17.158 L
26.592 17.158 L
26.592 2.439 L
25.045 2.439 L
25.045 1.798 L
27.233 1.798 L
27.233 17.798 L
25.045 17.798 L
cp
f
GR
GS
[0.9375 0 0 0.93852 0 0] CT
0.149 GC
2 setlinecap
1 LJ
0.533 LW
N
200 652 M
200 55 L
S
GR
GS
[0.9375 0 0 0.93852 0 0] CT
0.149 GC
2 setlinecap
1 LJ
0.533 LW
N
1390 652 M
1390 55 L
S
GR
GS
[0.9375 0 0 0.93852 0 0] CT
0.149 GC
2 setlinecap
1 LJ
0.533 LW
N
200 596.592 M
211.9 596.592 L
S
GR
GS
[0.9375 0 0 0.93852 0 0] CT
0.149 GC
2 setlinecap
1 LJ
0.533 LW
N
200 539.29 M
211.9 539.29 L
S
GR
GS
[0.9375 0 0 0.93852 0 0] CT
0.149 GC
2 setlinecap
1 LJ
0.533 LW
N
200 481.988 M
211.9 481.988 L
S
GR
GS
[0.9375 0 0 0.93852 0 0] CT
0.149 GC
2 setlinecap
1 LJ
0.533 LW
N
200 424.686 M
211.9 424.686 L
S
GR
GS
[0.9375 0 0 0.93852 0 0] CT
0.149 GC
2 setlinecap
1 LJ
0.533 LW
N
200 367.384 M
211.9 367.384 L
S
GR
GS
[0.9375 0 0 0.93852 0 0] CT
0.149 GC
2 setlinecap
1 LJ
0.533 LW
N
200 310.082 M
211.9 310.082 L
S
GR
GS
[0.9375 0 0 0.93852 0 0] CT
0.149 GC
2 setlinecap
1 LJ
0.533 LW
N
200 252.78 M
211.9 252.78 L
S
GR
GS
[0.9375 0 0 0.93852 0 0] CT
0.149 GC
2 setlinecap
1 LJ
0.533 LW
N
200 195.478 M
211.9 195.478 L
S
GR
GS
[0.9375 0 0 0.93852 0 0] CT
0.149 GC
2 setlinecap
1 LJ
0.533 LW
N
200 138.176 M
211.9 138.176 L
S
GR
GS
[0.9375 0 0 0.93852 0 0] CT
0.149 GC
2 setlinecap
1 LJ
0.533 LW
N
200 80.874 M
211.9 80.874 L
S
GR
GS
[0.9375 0 0 0.93852 0 0] CT
0.149 GC
2 setlinecap
1 LJ
0.533 LW
N
1390 596.592 M
1378.1 596.592 L
S
GR
GS
[0.9375 0 0 0.93852 0 0] CT
0.149 GC
2 setlinecap
1 LJ
0.533 LW
N
1390 539.29 M
1378.1 539.29 L
S
GR
GS
[0.9375 0 0 0.93852 0 0] CT
0.149 GC
2 setlinecap
1 LJ
0.533 LW
N
1390 481.988 M
1378.1 481.988 L
S
GR
GS
[0.9375 0 0 0.93852 0 0] CT
0.149 GC
2 setlinecap
1 LJ
0.533 LW
N
1390 424.686 M
1378.1 424.686 L
S
GR
GS
[0.9375 0 0 0.93852 0 0] CT
0.149 GC
2 setlinecap
1 LJ
0.533 LW
N
1390 367.384 M
1378.1 367.384 L
S
GR
GS
[0.9375 0 0 0.93852 0 0] CT
0.149 GC
2 setlinecap
1 LJ
0.533 LW
N
1390 310.082 M
1378.1 310.082 L
S
GR
GS
[0.9375 0 0 0.93852 0 0] CT
0.149 GC
2 setlinecap
1 LJ
0.533 LW
N
1390 252.78 M
1378.1 252.78 L
S
GR
GS
[0.9375 0 0 0.93852 0 0] CT
0.149 GC
2 setlinecap
1 LJ
0.533 LW
N
1390 195.478 M
1378.1 195.478 L
S
GR
GS
[0.9375 0 0 0.93852 0 0] CT
0.149 GC
2 setlinecap
1 LJ
0.533 LW
N
1390 138.176 M
1378.1 138.176 L
S
GR
GS
[0.9375 0 0 0.93852 0 0] CT
0.149 GC
2 setlinecap
1 LJ
0.533 LW
N
1390 80.874 M
1378.1 80.874 L
S
GR
GS
[0.9375 0 0 0.93852 182.2 559.91664] CT
0.149 GC
/Helvetica 14.933 F
GS
[1 0 0 1 0 0] CT
-21 5.5 moveto 
1 -1 scale
(0.5) t 
GR
GR
GS
[0.9375 0 0 0.93852 182.2 506.13731] CT
0.149 GC
/Helvetica 14.933 F
GS
[1 0 0 1 0 0] CT
-9 5.5 moveto 
1 -1 scale
(1) t 
GR
GR
GS
[0.9375 0 0 0.93852 182.2 452.35797] CT
0.149 GC
/Helvetica 14.933 F
GS
[1 0 0 1 0 0] CT
-21 5.5 moveto 
1 -1 scale
(1.5) t 
GR
GR
GS
[0.9375 0 0 0.93852 182.2 398.57866] CT
0.149 GC
/Helvetica 14.933 F
GS
[1 0 0 1 0 0] CT
-9 5.5 moveto 
1 -1 scale
(2) t 
GR
GR
GS
[0.9375 0 0 0.93852 182.2 344.79932] CT
0.149 GC
/Helvetica 14.933 F
GS
[1 0 0 1 0 0] CT
-21 5.5 moveto 
1 -1 scale
(2.5) t 
GR
GR
GS
[0.9375 0 0 0.93852 182.2 291.02001] CT
0.149 GC
/Helvetica 14.933 F
GS
[1 0 0 1 0 0] CT
-9 5.5 moveto 
1 -1 scale
(3) t 
GR
GR
GS
[0.9375 0 0 0.93852 182.2 237.24067] CT
0.149 GC
/Helvetica 14.933 F
GS
[1 0 0 1 0 0] CT
-21 5.5 moveto 
1 -1 scale
(3.5) t 
GR
GR
GS
[0.9375 0 0 0.93852 182.2 183.46135] CT
0.149 GC
/Helvetica 14.933 F
GS
[1 0 0 1 0 0] CT
-9 5.5 moveto 
1 -1 scale
(4) t 
GR
GR
GS
[0.9375 0 0 0.93852 182.2 129.68203] CT
0.149 GC
/Helvetica 14.933 F
GS
[1 0 0 1 0 0] CT
-21 5.5 moveto 
1 -1 scale
(4.5) t 
GR
GR
GS
[0.9375 0 0 0.93852 182.2 75.9027] CT
0.149 GC
/Helvetica 14.933 F
GS
[1 0 0 1 0 0] CT
-9 5.5 moveto 
1 -1 scale
(5) t 
GR
GR
GS
[0 -0.93852 0.9375 0 158.7625 331.76818] CT
0.149 GC
N
-67.099 -5.914 M
-67.099 -6.476 L
-65.443 -6.476 -65.443 -6.992 QT
-65.443 -15.773 L
-65.443 -16.289 -67.099 -16.289 QT
-67.099 -16.851 L
-61.209 -16.851 L
-60.396 -16.851 -59.568 -16.531 QT
-58.74 -16.211 -58.201 -15.593 QT
-57.662 -14.976 -57.662 -14.132 QT
-57.662 -13.148 -58.459 -12.492 QT
-59.255 -11.836 -60.334 -11.632 QT
-59.63 -11.632 -58.896 -11.25 QT
-58.162 -10.867 -57.693 -10.226 QT
-57.224 -9.586 -57.224 -8.867 QT
-57.224 -7.992 -57.748 -7.32 QT
-58.271 -6.648 -59.099 -6.281 QT
-59.927 -5.914 -60.755 -5.914 QT
-67.099 -5.914 L
cp
-64.052 -6.992 M
-64.052 -6.648 -63.857 -6.562 QT
-63.662 -6.476 -63.24 -6.476 QT
-61.209 -6.476 L
-60.584 -6.476 -60.052 -6.804 QT
-59.521 -7.132 -59.209 -7.687 QT
-58.896 -8.242 -58.896 -8.867 QT
-58.896 -9.476 -59.154 -10.054 QT
-59.412 -10.632 -59.888 -11.007 QT
-60.365 -11.382 -60.99 -11.382 QT
-64.052 -11.382 L
-64.052 -6.992 L
cp
-64.052 -11.804 M
-61.662 -11.804 L
-61.177 -11.804 -60.748 -11.984 QT
-60.318 -12.164 -59.982 -12.492 QT
-59.646 -12.82 -59.459 -13.242 QT
-59.271 -13.664 -59.271 -14.132 QT
-59.271 -14.539 -59.412 -14.921 QT
-59.552 -15.304 -59.818 -15.617 QT
-60.084 -15.929 -60.443 -16.109 QT
-60.802 -16.289 -61.209 -16.289 QT
-63.24 -16.289 L
-63.537 -16.289 -63.693 -16.265 QT
-63.849 -16.242 -63.951 -16.125 QT
-64.052 -16.007 -64.052 -15.773 QT
-64.052 -11.804 L
cp
f
GR
GS
[0 -0.93852 0.9375 0 158.7625 331.76818] CT
0.149 GC
N
-55.51 -5.914 M
-55.51 -6.476 L
-54.964 -6.476 -54.612 -6.562 QT
-54.26 -6.648 -54.26 -6.992 QT
-54.26 -15.382 L
-54.26 -15.82 -54.393 -16.007 QT
-54.526 -16.195 -54.768 -16.242 QT
-55.01 -16.289 -55.51 -16.289 QT
-55.51 -16.851 L
-53.135 -17.023 L
-53.135 -6.992 L
-53.135 -6.648 -52.784 -6.562 QT
-52.432 -6.476 -51.901 -6.476 QT
-51.901 -5.914 L
-55.51 -5.914 L
cp
f
GR
GS
[0 -0.93852 0.9375 0 158.7625 331.76818] CT
0.149 GC
N
-47.448 -5.726 M
-48.401 -5.726 -49.221 -6.218 QT
-50.041 -6.711 -50.518 -7.531 QT
-50.994 -8.351 -50.994 -9.32 QT
-50.994 -10.054 -50.737 -10.734 QT
-50.479 -11.414 -49.987 -11.953 QT
-49.494 -12.492 -48.846 -12.789 QT
-48.198 -13.086 -47.448 -13.086 QT
-46.463 -13.086 -45.651 -12.57 QT
-44.838 -12.054 -44.369 -11.179 QT
-43.901 -10.304 -43.901 -9.32 QT
-43.901 -8.367 -44.377 -7.539 QT
-44.854 -6.711 -45.674 -6.218 QT
-46.494 -5.726 -47.448 -5.726 QT
cp
-47.448 -6.211 M
-46.166 -6.211 -45.737 -7.14 QT
-45.307 -8.07 -45.307 -9.507 QT
-45.307 -10.304 -45.393 -10.836 QT
-45.479 -11.367 -45.76 -11.789 QT
-45.948 -12.054 -46.221 -12.257 QT
-46.494 -12.461 -46.807 -12.562 QT
-47.119 -12.664 -47.448 -12.664 QT
-47.948 -12.664 -48.393 -12.437 QT
-48.838 -12.211 -49.135 -11.789 QT
-49.432 -11.336 -49.518 -10.796 QT
-49.604 -10.257 -49.604 -9.507 QT
-49.604 -8.601 -49.448 -7.89 QT
-49.291 -7.179 -48.815 -6.695 QT
-48.338 -6.211 -47.448 -6.211 QT
cp
f
GR
GS
[0 -0.93852 0.9375 0 158.7625 331.76818] CT
0.149 GC
N
-38.778 -5.726 M
-39.731 -5.726 -40.551 -6.218 QT
-41.372 -6.711 -41.848 -7.531 QT
-42.325 -8.351 -42.325 -9.32 QT
-42.325 -10.054 -42.067 -10.734 QT
-41.809 -11.414 -41.317 -11.953 QT
-40.825 -12.492 -40.176 -12.789 QT
-39.528 -13.086 -38.778 -13.086 QT
-37.793 -13.086 -36.981 -12.57 QT
-36.168 -12.054 -35.7 -11.179 QT
-35.231 -10.304 -35.231 -9.32 QT
-35.231 -8.367 -35.708 -7.539 QT
-36.184 -6.711 -37.004 -6.218 QT
-37.825 -5.726 -38.778 -5.726 QT
cp
-38.778 -6.211 M
-37.497 -6.211 -37.067 -7.14 QT
-36.637 -8.07 -36.637 -9.507 QT
-36.637 -10.304 -36.723 -10.836 QT
-36.809 -11.367 -37.09 -11.789 QT
-37.278 -12.054 -37.551 -12.257 QT
-37.825 -12.461 -38.137 -12.562 QT
-38.45 -12.664 -38.778 -12.664 QT
-39.278 -12.664 -39.723 -12.437 QT
-40.168 -12.211 -40.465 -11.789 QT
-40.762 -11.336 -40.848 -10.796 QT
-40.934 -10.257 -40.934 -9.507 QT
-40.934 -8.601 -40.778 -7.89 QT
-40.622 -7.179 -40.145 -6.695 QT
-39.668 -6.211 -38.778 -6.211 QT
cp
f
GR
GS
[0 -0.93852 0.9375 0 158.7625 331.76818] CT
0.149 GC
N
-30.202 -5.726 M
-31.139 -5.726 -31.921 -6.242 QT
-32.702 -6.757 -33.139 -7.593 QT
-33.577 -8.429 -33.577 -9.367 QT
-33.577 -10.336 -33.1 -11.171 QT
-32.624 -12.007 -31.811 -12.5 QT
-30.999 -12.992 -30.03 -12.992 QT
-29.436 -12.992 -28.913 -12.742 QT
-28.389 -12.492 -28.014 -12.054 QT
-28.014 -15.382 L
-28.014 -15.82 -28.139 -16.007 QT
-28.264 -16.195 -28.507 -16.242 QT
-28.749 -16.289 -29.249 -16.289 QT
-29.249 -16.851 L
-26.889 -17.023 L
-26.889 -7.367 L
-26.889 -6.945 -26.757 -6.757 QT
-26.624 -6.57 -26.389 -6.523 QT
-26.155 -6.476 -25.639 -6.476 QT
-25.639 -5.914 L
-28.061 -5.726 L
-28.061 -6.742 L
-28.468 -6.273 -29.038 -6 QT
-29.608 -5.726 -30.202 -5.726 QT
cp
-31.827 -7.304 M
-31.561 -6.789 -31.1 -6.476 QT
-30.639 -6.164 -30.108 -6.164 QT
-29.436 -6.164 -28.882 -6.546 QT
-28.327 -6.929 -28.061 -7.539 QT
-28.061 -11.367 L
-28.249 -11.726 -28.53 -12 QT
-28.811 -12.273 -29.171 -12.421 QT
-29.53 -12.57 -29.921 -12.57 QT
-30.764 -12.57 -31.272 -12.101 QT
-31.78 -11.632 -31.983 -10.898 QT
-32.186 -10.164 -32.186 -9.351 QT
-32.186 -8.711 -32.116 -8.234 QT
-32.046 -7.757 -31.827 -7.304 QT
cp
f
GR
GS
[0 -0.93852 0.9375 0 158.7625 331.76818] CT
0.149 GC
N
-15.507 -5.726 M
-16.46 -5.726 -17.28 -6.218 QT
-18.1 -6.711 -18.577 -7.531 QT
-19.054 -8.351 -19.054 -9.32 QT
-19.054 -10.054 -18.796 -10.734 QT
-18.538 -11.414 -18.046 -11.953 QT
-17.554 -12.492 -16.905 -12.789 QT
-16.257 -13.086 -15.507 -13.086 QT
-14.522 -13.086 -13.71 -12.57 QT
-12.897 -12.054 -12.429 -11.179 QT
-11.96 -10.304 -11.96 -9.32 QT
-11.96 -8.367 -12.436 -7.539 QT
-12.913 -6.711 -13.733 -6.218 QT
-14.554 -5.726 -15.507 -5.726 QT
cp
-15.507 -6.211 M
-14.225 -6.211 -13.796 -7.14 QT
-13.366 -8.07 -13.366 -9.507 QT
-13.366 -10.304 -13.452 -10.836 QT
-13.538 -11.367 -13.819 -11.789 QT
-14.007 -12.054 -14.28 -12.257 QT
-14.554 -12.461 -14.866 -12.562 QT
-15.179 -12.664 -15.507 -12.664 QT
-16.007 -12.664 -16.452 -12.437 QT
-16.897 -12.211 -17.194 -11.789 QT
-17.491 -11.336 -17.577 -10.796 QT
-17.663 -10.257 -17.663 -9.507 QT
-17.663 -8.601 -17.507 -7.89 QT
-17.35 -7.179 -16.874 -6.695 QT
-16.397 -6.211 -15.507 -6.211 QT
cp
f
GR
GS
[0 -0.93852 0.9375 0 158.7625 331.76818] CT
0.149 GC
N
-11.546 -5.914 M
-11.546 -6.476 L
-10.937 -6.476 -10.398 -6.718 QT
-9.859 -6.961 -9.484 -7.429 QT
-8.031 -9.273 L
-9.921 -11.742 L
-10.203 -12.086 -10.539 -12.171 QT
-10.875 -12.257 -11.468 -12.257 QT
-11.468 -12.82 L
-8.14 -12.82 L
-8.14 -12.257 L
-8.359 -12.257 -8.539 -12.164 QT
-8.718 -12.07 -8.718 -11.882 QT
-8.718 -11.82 -8.671 -11.742 QT
-7.39 -10.07 L
-6.437 -11.304 L
-6.234 -11.539 -6.234 -11.773 QT
-6.234 -11.976 -6.367 -12.117 QT
-6.5 -12.257 -6.703 -12.257 QT
-6.703 -12.82 L
-3.765 -12.82 L
-3.765 -12.257 L
-4.375 -12.257 -4.921 -12.015 QT
-5.468 -11.773 -5.843 -11.304 QT
-7.109 -9.695 L
-5.062 -6.992 L
-4.75 -6.632 -4.421 -6.554 QT
-4.093 -6.476 -3.484 -6.476 QT
-3.484 -5.914 L
-6.812 -5.914 L
-6.812 -6.476 L
-6.625 -6.476 -6.445 -6.57 QT
-6.265 -6.664 -6.265 -6.851 QT
-6.265 -6.914 -6.312 -6.992 QT
-7.75 -8.898 L
-8.89 -7.429 L
-9.078 -7.226 -9.078 -6.961 QT
-9.078 -6.757 -8.945 -6.617 QT
-8.812 -6.476 -8.625 -6.476 QT
-8.625 -5.914 L
-11.546 -5.914 L
cp
f
GR
GS
[0 -0.93852 0.9375 0 158.7625 331.76818] CT
0.149 GC
N
-1.971 -3.289 M
-1.674 -3.039 -1.299 -3.039 QT
-0.299 -3.039 0.342 -4.57 QT
0.889 -5.914 L
-1.502 -11.789 L
-1.658 -12.086 -1.963 -12.171 QT
-2.267 -12.257 -2.767 -12.257 QT
-2.767 -12.82 L
0.592 -12.82 L
0.592 -12.257 L
-0.299 -12.257 -0.299 -11.867 QT
-0.299 -11.804 -0.283 -11.773 QT
1.498 -7.398 L
3.108 -11.336 L
3.154 -11.461 3.154 -11.617 QT
3.154 -11.804 3.045 -11.953 QT
2.936 -12.101 2.772 -12.179 QT
2.608 -12.257 2.389 -12.257 QT
2.389 -12.82 L
5.045 -12.82 L
5.045 -12.257 L
4.561 -12.257 4.186 -12.031 QT
3.811 -11.804 3.608 -11.351 QT
0.842 -4.57 L
0.623 -4.054 0.334 -3.617 QT
0.045 -3.179 -0.377 -2.906 QT
-0.799 -2.632 -1.299 -2.632 QT
-1.892 -2.632 -2.33 -3.015 QT
-2.767 -3.398 -2.767 -3.976 QT
-2.767 -4.273 -2.564 -4.476 QT
-2.361 -4.679 -2.064 -4.679 QT
-1.861 -4.679 -1.705 -4.586 QT
-1.549 -4.492 -1.455 -4.336 QT
-1.361 -4.179 -1.361 -3.976 QT
-1.361 -3.711 -1.533 -3.507 QT
-1.705 -3.304 -1.971 -3.289 QT
cp
f
GR
GS
[0 -0.93852 0.9375 0 158.7625 331.76818] CT
0.149 GC
N
6.043 -4.664 M
6.043 -5.226 6.457 -5.656 QT
6.871 -6.086 7.433 -6.273 QT
7.121 -6.507 6.949 -6.875 QT
6.777 -7.242 6.777 -7.664 QT
6.777 -8.414 7.262 -8.992 QT
6.527 -9.711 6.527 -10.632 QT
6.527 -11.132 6.738 -11.57 QT
6.949 -12.007 7.332 -12.328 QT
7.715 -12.648 8.183 -12.82 QT
8.652 -12.992 9.152 -12.992 QT
10.105 -12.992 10.855 -12.429 QT
11.183 -12.789 11.637 -12.976 QT
12.09 -13.164 12.574 -13.164 QT
12.918 -13.164 13.137 -12.921 QT
13.355 -12.679 13.355 -12.336 QT
13.355 -12.132 13.207 -11.984 QT
13.058 -11.836 12.855 -11.836 QT
12.652 -11.836 12.504 -11.984 QT
12.355 -12.132 12.355 -12.336 QT
12.355 -12.632 12.558 -12.742 QT
11.73 -12.742 11.137 -12.179 QT
11.418 -11.882 11.598 -11.468 QT
11.777 -11.054 11.777 -10.632 QT
11.777 -9.961 11.402 -9.414 QT
11.027 -8.867 10.41 -8.57 QT
9.793 -8.273 9.152 -8.273 QT
8.277 -8.273 7.543 -8.742 QT
7.324 -8.429 7.324 -8.039 QT
7.324 -7.617 7.598 -7.304 QT
7.871 -6.992 8.293 -6.992 QT
9.605 -6.992 L
10.558 -6.992 11.324 -6.82 QT
12.09 -6.648 12.613 -6.125 QT
13.137 -5.601 13.137 -4.664 QT
13.137 -3.961 12.543 -3.492 QT
11.949 -3.023 11.121 -2.82 QT
10.293 -2.617 9.59 -2.617 QT
8.887 -2.617 8.058 -2.82 QT
7.23 -3.023 6.637 -3.492 QT
6.043 -3.961 6.043 -4.664 QT
cp
6.933 -4.664 M
6.933 -4.117 7.371 -3.757 QT
7.808 -3.398 8.426 -3.218 QT
9.043 -3.039 9.59 -3.039 QT
10.137 -3.039 10.754 -3.218 QT
11.371 -3.398 11.801 -3.757 QT
12.23 -4.117 12.23 -4.664 QT
12.23 -5.492 11.465 -5.742 QT
10.699 -5.992 9.605 -5.992 QT
8.293 -5.992 L
7.933 -5.992 7.621 -5.812 QT
7.308 -5.632 7.121 -5.32 QT
6.933 -5.007 6.933 -4.664 QT
cp
9.152 -8.695 M
10.512 -8.695 10.512 -10.632 QT
10.512 -11.476 10.223 -12.015 QT
9.933 -12.554 9.152 -12.554 QT
8.371 -12.554 8.082 -12.015 QT
7.793 -11.476 7.793 -10.632 QT
7.793 -10.101 7.902 -9.671 QT
8.012 -9.242 8.308 -8.968 QT
8.605 -8.695 9.152 -8.695 QT
cp
f
GR
GS
[0 -0.93852 0.9375 0 158.7625 331.76818] CT
0.149 GC
N
17.787 -5.726 M
16.819 -5.726 15.998 -6.242 QT
15.178 -6.757 14.717 -7.617 QT
14.256 -8.476 14.256 -9.429 QT
14.256 -10.367 14.678 -11.211 QT
15.1 -12.054 15.866 -12.57 QT
16.631 -13.086 17.569 -13.086 QT
18.303 -13.086 18.842 -12.843 QT
19.381 -12.601 19.733 -12.164 QT
20.084 -11.726 20.264 -11.132 QT
20.444 -10.539 20.444 -9.82 QT
20.444 -9.617 20.287 -9.617 QT
15.647 -9.617 L
15.647 -9.445 L
15.647 -8.117 16.186 -7.164 QT
16.725 -6.211 17.928 -6.211 QT
18.428 -6.211 18.842 -6.429 QT
19.256 -6.648 19.569 -7.039 QT
19.881 -7.429 19.991 -7.867 QT
20.006 -7.929 20.045 -7.968 QT
20.084 -8.007 20.147 -8.007 QT
20.287 -8.007 L
20.444 -8.007 20.444 -7.804 QT
20.225 -6.898 19.475 -6.312 QT
18.725 -5.726 17.787 -5.726 QT
cp
15.662 -10.007 M
19.319 -10.007 L
19.319 -10.617 19.147 -11.234 QT
18.975 -11.851 18.584 -12.257 QT
18.194 -12.664 17.569 -12.664 QT
16.662 -12.664 16.162 -11.82 QT
15.662 -10.976 15.662 -10.007 QT
cp
f
GR
GS
[0 -0.93852 0.9375 0 158.7625 331.76818] CT
0.149 GC
N
21.588 -5.914 M
21.588 -6.476 L
22.135 -6.476 22.487 -6.562 QT
22.838 -6.648 22.838 -6.992 QT
22.838 -11.351 L
22.838 -11.789 22.705 -11.976 QT
22.573 -12.164 22.33 -12.211 QT
22.088 -12.257 21.588 -12.257 QT
21.588 -12.82 L
23.901 -12.992 L
23.901 -11.429 L
24.229 -12.117 24.854 -12.554 QT
25.479 -12.992 26.229 -12.992 QT
27.338 -12.992 27.893 -12.461 QT
28.448 -11.929 28.448 -10.836 QT
28.448 -6.992 L
28.448 -6.648 28.799 -6.562 QT
29.151 -6.476 29.698 -6.476 QT
29.698 -5.914 L
26.041 -5.914 L
26.041 -6.476 L
26.588 -6.476 26.94 -6.562 QT
27.291 -6.648 27.291 -6.992 QT
27.291 -10.789 L
27.291 -11.57 27.065 -12.07 QT
26.838 -12.57 26.135 -12.57 QT
25.198 -12.57 24.604 -11.828 QT
24.01 -11.086 24.01 -10.148 QT
24.01 -6.992 L
24.01 -6.648 24.362 -6.562 QT
24.713 -6.476 25.244 -6.476 QT
25.244 -5.914 L
21.588 -5.914 L
cp
f
GR
GS
[0 -0.93852 0.9375 0 158.7625 331.76818] CT
0.149 GC
N
36.205 -5.914 M
36.205 -6.476 L
36.752 -6.476 37.104 -6.562 QT
37.455 -6.648 37.455 -6.992 QT
37.455 -15.382 L
37.455 -15.82 37.323 -16.007 QT
37.19 -16.195 36.948 -16.242 QT
36.705 -16.289 36.205 -16.289 QT
36.205 -16.851 L
38.58 -17.023 L
38.58 -6.992 L
38.58 -6.648 38.932 -6.562 QT
39.283 -6.476 39.815 -6.476 QT
39.815 -5.914 L
36.205 -5.914 L
cp
f
GR
GS
[0 -0.93852 0.9375 0 158.7625 331.76818] CT
0.149 GC
N
44.253 -5.726 M
43.284 -5.726 42.464 -6.242 QT
41.643 -6.757 41.182 -7.617 QT
40.721 -8.476 40.721 -9.429 QT
40.721 -10.367 41.143 -11.211 QT
41.565 -12.054 42.331 -12.57 QT
43.096 -13.086 44.034 -13.086 QT
44.768 -13.086 45.307 -12.843 QT
45.846 -12.601 46.198 -12.164 QT
46.55 -11.726 46.729 -11.132 QT
46.909 -10.539 46.909 -9.82 QT
46.909 -9.617 46.753 -9.617 QT
42.112 -9.617 L
42.112 -9.445 L
42.112 -8.117 42.651 -7.164 QT
43.19 -6.211 44.393 -6.211 QT
44.893 -6.211 45.307 -6.429 QT
45.721 -6.648 46.034 -7.039 QT
46.346 -7.429 46.456 -7.867 QT
46.471 -7.929 46.51 -7.968 QT
46.55 -8.007 46.612 -8.007 QT
46.753 -8.007 L
46.909 -8.007 46.909 -7.804 QT
46.69 -6.898 45.94 -6.312 QT
45.19 -5.726 44.253 -5.726 QT
cp
42.128 -10.007 M
45.784 -10.007 L
45.784 -10.617 45.612 -11.234 QT
45.44 -11.851 45.05 -12.257 QT
44.659 -12.664 44.034 -12.664 QT
43.128 -12.664 42.628 -11.82 QT
42.128 -10.976 42.128 -10.007 QT
cp
f
GR
GS
[0 -0.93852 0.9375 0 158.7625 331.76818] CT
0.149 GC
N
51.475 -5.914 M
49.147 -11.789 L
48.991 -12.086 48.686 -12.171 QT
48.382 -12.257 47.882 -12.257 QT
47.882 -12.82 L
51.241 -12.82 L
51.241 -12.257 L
50.335 -12.257 50.335 -11.867 QT
50.335 -11.804 50.35 -11.773 QT
52.147 -7.257 L
53.772 -11.336 L
53.819 -11.461 53.819 -11.601 QT
53.819 -11.898 53.585 -12.078 QT
53.35 -12.257 53.038 -12.257 QT
53.038 -12.82 L
55.694 -12.82 L
55.694 -12.257 L
55.21 -12.257 54.835 -12.031 QT
54.46 -11.804 54.257 -11.351 QT
52.1 -5.914 L
52.038 -5.726 51.85 -5.726 QT
51.725 -5.726 L
51.538 -5.726 51.475 -5.914 QT
cp
f
GR
GS
[0 -0.93852 0.9375 0 158.7625 331.76818] CT
0.149 GC
N
59.767 -5.726 M
58.798 -5.726 57.978 -6.242 QT
57.157 -6.757 56.696 -7.617 QT
56.236 -8.476 56.236 -9.429 QT
56.236 -10.367 56.657 -11.211 QT
57.079 -12.054 57.845 -12.57 QT
58.611 -13.086 59.548 -13.086 QT
60.282 -13.086 60.821 -12.843 QT
61.361 -12.601 61.712 -12.164 QT
62.064 -11.726 62.243 -11.132 QT
62.423 -10.539 62.423 -9.82 QT
62.423 -9.617 62.267 -9.617 QT
57.626 -9.617 L
57.626 -9.445 L
57.626 -8.117 58.165 -7.164 QT
58.704 -6.211 59.907 -6.211 QT
60.407 -6.211 60.821 -6.429 QT
61.236 -6.648 61.548 -7.039 QT
61.861 -7.429 61.97 -7.867 QT
61.986 -7.929 62.025 -7.968 QT
62.064 -8.007 62.126 -8.007 QT
62.267 -8.007 L
62.423 -8.007 62.423 -7.804 QT
62.204 -6.898 61.454 -6.312 QT
60.704 -5.726 59.767 -5.726 QT
cp
57.642 -10.007 M
61.298 -10.007 L
61.298 -10.617 61.126 -11.234 QT
60.954 -11.851 60.564 -12.257 QT
60.173 -12.664 59.548 -12.664 QT
58.642 -12.664 58.142 -11.82 QT
57.642 -10.976 57.642 -10.007 QT
cp
f
GR
GS
[0 -0.93852 0.9375 0 158.7625 331.76818] CT
0.149 GC
N
63.583 -5.914 M
63.583 -6.476 L
64.13 -6.476 64.482 -6.562 QT
64.833 -6.648 64.833 -6.992 QT
64.833 -15.382 L
64.833 -15.82 64.7 -16.007 QT
64.568 -16.195 64.325 -16.242 QT
64.083 -16.289 63.583 -16.289 QT
63.583 -16.851 L
65.958 -17.023 L
65.958 -6.992 L
65.958 -6.648 66.31 -6.562 QT
66.661 -6.476 67.193 -6.476 QT
67.193 -5.914 L
63.583 -5.914 L
cp
f
GR
GS
[0.9375 0 0 0.93852 187.5 47.86475] CT
0.149 GC
N
2.203 -0.438 M
2.203 -0.547 2.281 -0.641 QT
5.391 -3.75 L
2.281 -6.875 L
2.203 -6.938 2.203 -7.063 QT
2.203 -7.172 2.289 -7.273 QT
2.375 -7.375 2.5 -7.375 QT
2.609 -7.375 2.734 -7.266 QT
5.844 -4.172 L
8.922 -7.266 L
9.047 -7.375 9.141 -7.375 QT
9.266 -7.375 9.359 -7.281 QT
9.453 -7.188 9.453 -7.063 QT
9.453 -6.938 9.375 -6.875 QT
6.25 -3.75 L
9.375 -0.641 L
9.453 -0.547 9.453 -0.438 QT
9.453 -0.313 9.359 -0.219 QT
9.266 -0.125 9.141 -0.125 QT
9.031 -0.125 8.922 -0.234 QT
5.844 -3.328 L
2.734 -0.234 L
2.625 -0.125 2.5 -0.125 QT
2.375 -0.125 2.289 -0.227 QT
2.203 -0.328 2.203 -0.438 QT
cp
f
GR
GS
[0.9375 0 0 0.93852 198.75 47.86475] CT
0.149 GC
/Helvetica 14.933 F
GS
[1 0 0 1 0 0] CT
0 0 moveto 
1 -1 scale
(10) t 
GR
GR
GS
[0.9375 0 0 0.93852 214.6875 41.29508] CT
0.149 GC
/Helvetica 11.947 F
GS
[1 0 0 1 0 0] CT
0 0 moveto 
1 -1 scale
(5) t 
GR
GR
GS
[0.9375 0 0 0.93852 745.31319 48.72821] CT
N
-46.383 -5.914 M
-46.383 -6.476 L
-44.727 -6.476 -44.727 -6.992 QT
-44.727 -15.773 L
-44.727 -16.289 -46.383 -16.289 QT
-46.383 -16.851 L
-40.493 -16.851 L
-39.68 -16.851 -38.852 -16.531 QT
-38.024 -16.211 -37.485 -15.593 QT
-36.946 -14.976 -36.946 -14.132 QT
-36.946 -13.148 -37.743 -12.492 QT
-38.54 -11.836 -39.618 -11.632 QT
-38.915 -11.632 -38.18 -11.25 QT
-37.446 -10.867 -36.977 -10.226 QT
-36.508 -9.586 -36.508 -8.867 QT
-36.508 -7.992 -37.032 -7.32 QT
-37.555 -6.648 -38.383 -6.281 QT
-39.211 -5.914 -40.04 -5.914 QT
-46.383 -5.914 L
cp
-43.336 -6.992 M
-43.336 -6.648 -43.141 -6.562 QT
-42.946 -6.476 -42.524 -6.476 QT
-40.493 -6.476 L
-39.868 -6.476 -39.336 -6.804 QT
-38.805 -7.132 -38.493 -7.687 QT
-38.18 -8.242 -38.18 -8.867 QT
-38.18 -9.476 -38.438 -10.054 QT
-38.696 -10.632 -39.172 -11.007 QT
-39.649 -11.382 -40.274 -11.382 QT
-43.336 -11.382 L
-43.336 -6.992 L
cp
-43.336 -11.804 M
-40.946 -11.804 L
-40.461 -11.804 -40.032 -11.984 QT
-39.602 -12.164 -39.266 -12.492 QT
-38.93 -12.82 -38.743 -13.242 QT
-38.555 -13.664 -38.555 -14.132 QT
-38.555 -14.539 -38.696 -14.921 QT
-38.836 -15.304 -39.102 -15.617 QT
-39.368 -15.929 -39.727 -16.109 QT
-40.086 -16.289 -40.493 -16.289 QT
-42.524 -16.289 L
-42.821 -16.289 -42.977 -16.265 QT
-43.133 -16.242 -43.235 -16.125 QT
-43.336 -16.007 -43.336 -15.773 QT
-43.336 -11.804 L
cp
f
GR
GS
[0.9375 0 0 0.93852 745.31319 48.72821] CT
N
-29.06 -5.554 M
-30.591 -5.554 -31.802 -6.367 QT
-33.013 -7.179 -33.701 -8.523 QT
-34.388 -9.867 -34.388 -11.336 QT
-34.388 -12.429 -33.998 -13.5 QT
-33.607 -14.57 -32.896 -15.398 QT
-32.185 -16.226 -31.193 -16.711 QT
-30.201 -17.195 -29.06 -17.195 QT
-27.935 -17.195 -26.935 -16.711 QT
-25.935 -16.226 -25.224 -15.39 QT
-24.513 -14.554 -24.131 -13.515 QT
-23.748 -12.476 -23.748 -11.336 QT
-23.748 -9.867 -24.435 -8.523 QT
-25.123 -7.179 -26.341 -6.367 QT
-27.56 -5.554 -29.06 -5.554 QT
cp
-31.716 -7.648 M
-31.248 -6.914 -30.56 -6.476 QT
-29.873 -6.039 -29.06 -6.039 QT
-28.545 -6.039 -28.037 -6.25 QT
-27.529 -6.461 -27.123 -6.828 QT
-26.716 -7.195 -26.42 -7.648 QT
-25.466 -9.086 -25.466 -11.601 QT
-25.466 -13.898 -26.42 -15.242 QT
-26.888 -15.914 -27.591 -16.32 QT
-28.295 -16.726 -29.06 -16.726 QT
-29.841 -16.726 -30.545 -16.32 QT
-31.248 -15.914 -31.716 -15.242 QT
-32.091 -14.726 -32.302 -14.132 QT
-32.513 -13.539 -32.599 -12.906 QT
-32.685 -12.273 -32.685 -11.601 QT
-32.685 -10.867 -32.599 -10.179 QT
-32.513 -9.492 -32.295 -8.828 QT
-32.076 -8.164 -31.716 -7.648 QT
cp
f
GR
GS
[0.9375 0 0 0.93852 745.31319 48.72821] CT
N
-22.018 -5.914 M
-22.018 -6.476 L
-20.378 -6.476 -20.378 -6.992 QT
-20.378 -15.773 L
-20.378 -16.289 -22.018 -16.289 QT
-22.018 -16.851 L
-16.831 -16.851 L
-16.831 -16.289 L
-18.878 -16.289 -18.878 -15.773 QT
-18.878 -6.992 L
-18.878 -6.648 -18.682 -6.562 QT
-18.487 -6.476 -18.065 -6.476 QT
-16.831 -6.476 L
-15.643 -6.476 -14.995 -6.914 QT
-14.346 -7.351 -14.073 -8.109 QT
-13.799 -8.867 -13.659 -10.117 QT
-13.206 -10.117 L
-13.643 -5.914 L
-22.018 -5.914 L
cp
f
GR
GS
[0.9375 0 0 0.93852 745.31319 48.72821] CT
N
-11.72 -5.914 M
-11.72 -6.476 L
-10.064 -6.476 -10.064 -6.992 QT
-10.064 -15.773 L
-10.064 -16.289 -11.72 -16.289 QT
-11.72 -16.851 L
-5.814 -16.851 L
-4.72 -16.851 -3.814 -16.375 QT
-2.908 -15.898 -2.267 -15.109 QT
-1.627 -14.32 -1.283 -13.32 QT
-0.939 -12.32 -0.939 -11.273 QT
-0.939 -10.257 -1.291 -9.304 QT
-1.642 -8.351 -2.298 -7.578 QT
-2.955 -6.804 -3.861 -6.359 QT
-4.767 -5.914 -5.814 -5.914 QT
-11.72 -5.914 L
cp
-8.627 -6.992 M
-8.627 -6.648 -8.431 -6.562 QT
-8.236 -6.476 -7.814 -6.476 QT
-6.236 -6.476 L
-5.408 -6.476 -4.673 -6.836 QT
-3.939 -7.195 -3.455 -7.82 QT
-2.939 -8.492 -2.767 -9.328 QT
-2.595 -10.164 -2.595 -11.273 QT
-2.595 -12.445 -2.767 -13.32 QT
-2.939 -14.195 -3.455 -14.882 QT
-3.923 -15.554 -4.658 -15.921 QT
-5.392 -16.289 -6.236 -16.289 QT
-7.814 -16.289 L
-8.111 -16.289 -8.267 -16.265 QT
-8.423 -16.242 -8.525 -16.125 QT
-8.627 -16.007 -8.627 -15.773 QT
-8.627 -6.992 L
cp
f
GR
GS
[0.9375 0 0 0.93852 745.31319 48.72821] CT
N
6.303 -5.867 M
6.303 -8.476 L
6.303 -8.601 6.444 -8.601 QT
6.647 -8.601 L
6.741 -8.601 6.772 -8.476 QT
7.21 -6.164 8.928 -6.164 QT
9.678 -6.164 10.194 -6.507 QT
10.71 -6.851 10.71 -7.57 QT
10.71 -8.086 10.311 -8.445 QT
9.913 -8.804 9.366 -8.945 QT
8.288 -9.148 L
7.757 -9.273 7.311 -9.515 QT
6.866 -9.757 6.585 -10.156 QT
6.303 -10.554 6.303 -11.086 QT
6.303 -11.789 6.678 -12.242 QT
7.053 -12.695 7.647 -12.89 QT
8.241 -13.086 8.928 -13.086 QT
9.741 -13.086 10.35 -12.648 QT
10.819 -13.054 L
10.819 -13.086 10.897 -13.086 QT
11.007 -13.086 L
11.053 -13.086 11.092 -13.046 QT
11.132 -13.007 11.132 -12.961 QT
11.132 -10.867 L
11.132 -10.711 11.007 -10.711 QT
10.819 -10.711 L
10.678 -10.711 10.678 -10.867 QT
10.678 -11.695 10.21 -12.203 QT
9.741 -12.711 8.913 -12.711 QT
8.194 -12.711 7.663 -12.445 QT
7.132 -12.179 7.132 -11.539 QT
7.132 -11.086 7.514 -10.804 QT
7.897 -10.523 8.397 -10.398 QT
9.491 -10.195 L
10.038 -10.07 10.507 -9.773 QT
10.975 -9.476 11.257 -9.023 QT
11.538 -8.57 11.538 -7.992 QT
11.538 -7.414 11.335 -6.992 QT
11.132 -6.57 10.78 -6.289 QT
10.428 -6.007 9.944 -5.867 QT
9.46 -5.726 8.928 -5.726 QT
7.928 -5.726 7.21 -6.414 QT
6.632 -5.773 L
6.632 -5.726 6.538 -5.726 QT
6.444 -5.726 L
6.303 -5.726 6.303 -5.867 QT
cp
f
GR
GS
[0.9375 0 0 0.93852 745.31319 48.72821] CT
N
12.752 -5.914 M
12.752 -6.476 L
13.298 -6.476 13.65 -6.562 QT
14.002 -6.648 14.002 -6.992 QT
14.002 -11.351 L
14.002 -11.976 13.759 -12.117 QT
13.517 -12.257 12.814 -12.257 QT
12.814 -12.82 L
15.127 -12.992 L
15.127 -6.992 L
15.127 -6.648 15.431 -6.562 QT
15.736 -6.476 16.236 -6.476 QT
16.236 -5.914 L
12.752 -5.914 L
cp
13.423 -15.742 M
13.423 -16.086 13.689 -16.351 QT
13.955 -16.617 14.298 -16.617 QT
14.533 -16.617 14.744 -16.5 QT
14.955 -16.382 15.072 -16.171 QT
15.189 -15.961 15.189 -15.742 QT
15.189 -15.398 14.923 -15.132 QT
14.658 -14.867 14.298 -14.867 QT
13.955 -14.867 13.689 -15.132 QT
13.423 -15.398 13.423 -15.742 QT
cp
f
GR
GS
[0.9375 0 0 0.93852 745.31319 48.72821] CT
N
17.268 -4.664 M
17.268 -5.226 17.682 -5.656 QT
18.096 -6.086 18.658 -6.273 QT
18.346 -6.507 18.174 -6.875 QT
18.002 -7.242 18.002 -7.664 QT
18.002 -8.414 18.486 -8.992 QT
17.752 -9.711 17.752 -10.632 QT
17.752 -11.132 17.963 -11.57 QT
18.174 -12.007 18.557 -12.328 QT
18.94 -12.648 19.408 -12.82 QT
19.877 -12.992 20.377 -12.992 QT
21.33 -12.992 22.08 -12.429 QT
22.408 -12.789 22.861 -12.976 QT
23.315 -13.164 23.799 -13.164 QT
24.143 -13.164 24.361 -12.921 QT
24.58 -12.679 24.58 -12.336 QT
24.58 -12.132 24.432 -11.984 QT
24.283 -11.836 24.08 -11.836 QT
23.877 -11.836 23.729 -11.984 QT
23.58 -12.132 23.58 -12.336 QT
23.58 -12.632 23.783 -12.742 QT
22.955 -12.742 22.361 -12.179 QT
22.643 -11.882 22.822 -11.468 QT
23.002 -11.054 23.002 -10.632 QT
23.002 -9.961 22.627 -9.414 QT
22.252 -8.867 21.635 -8.57 QT
21.018 -8.273 20.377 -8.273 QT
19.502 -8.273 18.768 -8.742 QT
18.549 -8.429 18.549 -8.039 QT
18.549 -7.617 18.822 -7.304 QT
19.096 -6.992 19.518 -6.992 QT
20.83 -6.992 L
21.783 -6.992 22.549 -6.82 QT
23.315 -6.648 23.838 -6.125 QT
24.361 -5.601 24.361 -4.664 QT
24.361 -3.961 23.768 -3.492 QT
23.174 -3.023 22.346 -2.82 QT
21.518 -2.617 20.815 -2.617 QT
20.111 -2.617 19.283 -2.82 QT
18.455 -3.023 17.861 -3.492 QT
17.268 -3.961 17.268 -4.664 QT
cp
18.158 -4.664 M
18.158 -4.117 18.596 -3.757 QT
19.033 -3.398 19.65 -3.218 QT
20.268 -3.039 20.815 -3.039 QT
21.361 -3.039 21.979 -3.218 QT
22.596 -3.398 23.025 -3.757 QT
23.455 -4.117 23.455 -4.664 QT
23.455 -5.492 22.69 -5.742 QT
21.924 -5.992 20.83 -5.992 QT
19.518 -5.992 L
19.158 -5.992 18.846 -5.812 QT
18.533 -5.632 18.346 -5.32 QT
18.158 -5.007 18.158 -4.664 QT
cp
20.377 -8.695 M
21.736 -8.695 21.736 -10.632 QT
21.736 -11.476 21.447 -12.015 QT
21.158 -12.554 20.377 -12.554 QT
19.596 -12.554 19.307 -12.015 QT
19.018 -11.476 19.018 -10.632 QT
19.018 -10.101 19.127 -9.671 QT
19.236 -9.242 19.533 -8.968 QT
19.83 -8.695 20.377 -8.695 QT
cp
f
GR
GS
[0.9375 0 0 0.93852 745.31319 48.72821] CT
N
25.512 -5.914 M
25.512 -6.476 L
26.059 -6.476 26.411 -6.562 QT
26.762 -6.648 26.762 -6.992 QT
26.762 -11.351 L
26.762 -11.789 26.629 -11.976 QT
26.497 -12.164 26.254 -12.211 QT
26.012 -12.257 25.512 -12.257 QT
25.512 -12.82 L
27.825 -12.992 L
27.825 -11.429 L
28.153 -12.117 28.778 -12.554 QT
29.403 -12.992 30.153 -12.992 QT
31.262 -12.992 31.817 -12.461 QT
32.372 -11.929 32.372 -10.836 QT
32.372 -6.992 L
32.372 -6.648 32.723 -6.562 QT
33.075 -6.476 33.622 -6.476 QT
33.622 -5.914 L
29.965 -5.914 L
29.965 -6.476 L
30.512 -6.476 30.864 -6.562 QT
31.215 -6.648 31.215 -6.992 QT
31.215 -10.789 L
31.215 -11.57 30.989 -12.07 QT
30.762 -12.57 30.059 -12.57 QT
29.122 -12.57 28.528 -11.828 QT
27.934 -11.086 27.934 -10.148 QT
27.934 -6.992 L
27.934 -6.648 28.286 -6.562 QT
28.637 -6.476 29.169 -6.476 QT
29.169 -5.914 L
25.512 -5.914 L
cp
f
GR
GS
[0.9375 0 0 0.93852 745.31319 48.72821] CT
N
34.794 -7.492 M
34.794 -8.445 35.544 -9.039 QT
36.294 -9.632 37.349 -9.882 QT
38.404 -10.132 39.341 -10.132 QT
39.341 -10.789 L
39.341 -11.242 39.138 -11.679 QT
38.935 -12.117 38.552 -12.39 QT
38.169 -12.664 37.716 -12.664 QT
36.654 -12.664 36.091 -12.195 QT
36.404 -12.195 36.599 -11.961 QT
36.794 -11.726 36.794 -11.429 QT
36.794 -11.101 36.568 -10.875 QT
36.341 -10.648 36.029 -10.648 QT
35.716 -10.648 35.49 -10.875 QT
35.263 -11.101 35.263 -11.429 QT
35.263 -12.273 36.029 -12.679 QT
36.794 -13.086 37.716 -13.086 QT
38.357 -13.086 39.013 -12.812 QT
39.669 -12.539 40.091 -12.023 QT
40.513 -11.507 40.513 -10.82 QT
40.513 -7.211 L
40.513 -6.898 40.646 -6.64 QT
40.779 -6.382 41.06 -6.382 QT
41.326 -6.382 41.451 -6.648 QT
41.576 -6.914 41.576 -7.211 QT
41.576 -8.242 L
42.044 -8.242 L
42.044 -7.211 L
42.044 -6.851 41.857 -6.531 QT
41.669 -6.211 41.357 -6.015 QT
41.044 -5.82 40.669 -5.82 QT
40.201 -5.82 39.865 -6.187 QT
39.529 -6.554 39.482 -7.054 QT
39.185 -6.445 38.607 -6.086 QT
38.029 -5.726 37.373 -5.726 QT
36.763 -5.726 36.177 -5.914 QT
35.591 -6.101 35.193 -6.484 QT
34.794 -6.867 34.794 -7.492 QT
cp
36.091 -7.492 M
36.091 -6.929 36.505 -6.546 QT
36.919 -6.164 37.482 -6.164 QT
37.998 -6.164 38.419 -6.421 QT
38.841 -6.679 39.091 -7.125 QT
39.341 -7.57 39.341 -8.054 QT
39.341 -9.726 L
38.623 -9.726 37.857 -9.484 QT
37.091 -9.242 36.591 -8.734 QT
36.091 -8.226 36.091 -7.492 QT
cp
f
GR
GS
[0.9375 0 0 0.93852 745.31319 48.72821] CT
N
42.867 -5.914 M
42.867 -6.476 L
43.414 -6.476 43.766 -6.562 QT
44.117 -6.648 44.117 -6.992 QT
44.117 -15.382 L
44.117 -15.82 43.984 -16.007 QT
43.852 -16.195 43.609 -16.242 QT
43.367 -16.289 42.867 -16.289 QT
42.867 -16.851 L
45.242 -17.023 L
45.242 -6.992 L
45.242 -6.648 45.594 -6.562 QT
45.945 -6.476 46.477 -6.476 QT
46.477 -5.914 L
42.867 -5.914 L
cp
f
GR
GS
[0.9375 0 0 0.93852 0 0] CT
0 0.4 0.8 RC
1 LJ
1.067 LW
N
200 260.134 M
201.551 327.249 L
203.103 368.655 L
204.654 335.639 L
206.206 136.729 L
207.757 84.228 L
209.309 92.076 L
210.86 161.085 L
212.412 237.131 L
213.964 304.787 L
215.515 396.529 L
217.066 209.527 L
218.618 151.884 L
220.169 108.313 L
221.721 163.791 L
223.272 308.035 L
224.824 412.496 L
226.375 464.456 L
227.927 294.504 L
229.478 272.042 L
231.03 217.917 L
232.581 216.022 L
234.133 324.814 L
235.684 413.308 L
237.236 460.668 L
238.787 392.47 L
240.339 427.922 L
241.89 404.648 L
243.442 398.965 L
244.993 415.203 L
246.545 419.533 L
248.096 368.926 L
249.648 401.401 L
251.199 332.391 L
252.751 296.398 L
254.302 294.504 L
255.854 409.79 L
257.405 478.258 L
258.957 431.711 L
260.508 376.774 L
262.06 395.176 L
263.611 325.355 L
265.163 308.306 L
266.714 399.236 L
268.266 463.645 L
269.817 445.513 L
271.369 550.245 L
272.92 496.661 L
274.472 465.539 L
276.023 464.727 L
277.575 414.12 L
279.126 459.585 L
280.678 502.073 L
282.229 573.519 L
283.781 514.793 L
285.332 489.895 L
286.884 487.73 L
288.435 354.582 L
289.987 393.553 L
291.538 544.832 L
293.09 499.638 L
294.641 424.945 L
296.193 400.859 L
297.744 463.645 L
299.296 421.427 L
300.847 465.81 L
302.399 599.228 L
303.95 479.882 L
305.502 442.806 L
307.053 450.655 L
308.605 486.107 L
310.156 485.565 L
311.708 516.146 L
313.259 536.714 L
314.811 507.486 L
316.362 514.522 L
317.914 568.106 L
319.465 615.736 L
321.017 626.561 L
322.568 596.251 L
324.12 572.436 L
325.671 574.601 L
327.223 607.617 L
328.774 628.456 L
330.326 636.845 L
331.877 639.01 L
333.429 647.129 L
334.98 642.799 L
336.532 652 L
338.083 326.979 L
339.635 402.483 L
341.186 409.519 L
342.738 332.662 L
344.289 465.268 L
345.841 350.523 L
347.392 361.348 L
348.944 341.592 L
350.495 219.811 L
352.047 296.669 L
353.598 333.474 L
355.15 281.784 L
356.701 316.154 L
358.253 201.95 L
359.804 303.164 L
361.356 332.391 L
362.907 294.504 L
364.459 213.857 L
366.01 138.353 L
367.562 327.249 L
369.113 541.585 L
370.665 390.846 L
372.216 320.213 L
373.768 187.877 L
375.319 192.748 L
376.871 571.354 L
378.422 494.225 L
379.974 479.612 L
381.525 426.028 L
383.077 427.922 L
384.628 377.044 L
386.18 595.439 L
387.731 542.938 L
389.283 519.935 L
390.834 512.898 L
392.386 462.562 L
393.937 386.246 L
395.489 610.324 L
397.04 549.162 L
398.592 483.13 L
400.143 462.021 L
401.695 445.513 L
403.246 412.496 L
404.798 636.304 L
406.349 609.512 L
407.901 563.235 L
409.452 571.624 L
411.004 562.694 L
412.555 502.073 L
414.107 629.809 L
415.658 618.713 L
417.21 587.05 L
418.761 585.697 L
420.313 633.868 L
421.864 618.172 L
423.416 632.786 L
424.967 600.04 L
426.519 598.416 L
428.07 625.479 L
429.622 605.723 L
431.173 624.396 L
432.725 642.799 L
434.276 641.175 L
435.828 641.175 L
437.379 644.964 L
438.931 608.429 L
440.482 640.904 L
442.034 612.759 L
443.585 595.169 L
445.137 613.571 L
446.688 646.046 L
448.24 634.409 L
449.791 630.35 L
451.343 642.528 L
452.894 263.382 L
454.446 273.124 L
455.997 300.187 L
457.549 311.553 L
459.1 308.306 L
460.652 280.972 L
462.203 274.748 L
463.755 304.517 L
465.306 319.672 L
466.858 309.117 L
468.409 274.748 L
469.961 299.104 L
471.512 300.728 L
473.064 303.705 L
474.615 311.282 L
476.167 197.89 L
477.718 260.946 L
479.27 272.854 L
480.821 275.289 L
482.373 300.999 L
483.924 174.887 L
485.476 204.927 L
487.027 202.22 L
488.579 214.669 L
490.13 271.771 L
491.682 173.805 L
493.233 184.63 L
494.785 195.725 L
496.336 197.349 L
497.888 224.953 L
499.439 253.639 L
500.991 300.728 L
502.542 210.61 L
504.094 209.798 L
505.645 196.267 L
507.197 230.095 L
508.748 260.946 L
510.3 248.227 L
511.851 229.553 L
513.403 223.6 L
514.954 261.217 L
516.506 304.787 L
518.057 217.105 L
519.609 273.124 L
521.16 297.481 L
522.712 292.339 L
524.263 291.256 L
525.815 308.847 L
527.366 315.071 L
528.918 154.049 L
530.469 229.824 L
532.021 273.936 L
533.572 297.751 L
535.124 314.259 L
536.675 163.521 L
538.227 219.811 L
539.778 223.87 L
541.33 242.544 L
542.881 295.586 L
544.433 308.576 L
545.984 257.157 L
547.536 220.893 L
549.087 288.82 L
550.639 307.764 L
552.19 320.484 L
553.742 327.249 L
555.293 200.326 L
556.845 276.642 L
558.396 322.649 L
559.948 333.203 L
561.499 337.262 L
563.051 137.811 L
564.602 193.29 L
566.154 286.114 L
567.705 332.662 L
569.257 338.074 L
570.808 69.614 L
572.36 99.653 L
573.911 202.22 L
575.463 281.784 L
577.014 329.414 L
578.566 328.061 L
580.117 92.076 L
581.669 113.185 L
583.22 153.237 L
584.772 198.973 L
586.323 267.712 L
587.875 311.824 L
589.426 222.247 L
590.978 236.86 L
592.529 192.748 L
594.081 165.956 L
595.632 199.243 L
597.184 270.147 L
598.735 273.665 L
600.287 258.24 L
601.838 227.659 L
603.39 215.752 L
604.941 235.237 L
606.493 241.19 L
608.044 290.174 L
609.596 307.764 L
611.147 295.586 L
612.699 321.025 L
614.25 342.946 L
615.802 231.989 L
617.353 260.675 L
618.905 303.976 L
620.456 328.602 L
622.008 331.579 L
623.559 330.767 L
625.111 317.777 L
626.662 183.547 L
628.214 193.29 L
629.765 240.649 L
631.317 292.88 L
632.868 318.048 L
634.42 311.824 L
635.971 286.114 L
637.523 272.042 L
639.074 167.039 L
640.626 111.561 L
642.177 147.825 L
643.729 243.626 L
645.28 310.471 L
646.832 296.127 L
648.383 242.814 L
649.935 233.883 L
651.486 188.96 L
653.038 122.386 L
654.589 135.646 L
656.141 226.847 L
657.692 303.705 L
659.244 297.751 L
660.795 233.342 L
662.347 185.712 L
663.898 222.247 L
665.45 279.078 L
667.001 322.919 L
668.553 315.071 L
670.104 254.451 L
671.656 210.068 L
673.207 277.995 L
674.759 329.685 L
676.31 347.817 L
677.862 335.097 L
679.413 293.692 L
680.965 221.976 L
682.516 250.121 L
684.068 281.243 L
685.619 303.976 L
687.171 320.754 L
688.722 323.19 L
690.274 227.93 L
691.825 194.643 L
693.377 181.923 L
694.928 214.128 L
696.48 283.408 L
698.031 242.002 L
699.583 202.22 L
701.134 174.887 L
702.686 209.257 L
704.237 282.867 L
705.789 265.547 L
707.34 257.699 L
708.892 257.157 L
710.443 284.49 L
711.995 311.282 L
713.546 194.643 L
715.098 152.425 L
716.649 118.868 L
718.201 306.682 L
719.752 302.352 L
721.304 289.632 L
722.855 222.517 L
724.407 155.673 L
725.958 191.125 L
727.51 271.5 L
729.061 285.573 L
730.613 313.718 L
732.164 306.411 L
733.716 288.55 L
735.267 308.306 L
736.819 257.157 L
738.37 258.51 L
739.922 299.646 L
741.473 322.649 L
743.025 333.744 L
744.576 330.767 L
746.128 222.788 L
747.679 225.223 L
749.231 269.065 L
750.782 309.388 L
752.334 318.589 L
753.885 286.114 L
755.437 165.686 L
756.988 183.818 L
758.54 214.669 L
760.091 274.207 L
761.643 312.365 L
763.194 277.725 L
764.746 197.078 L
766.297 223.058 L
767.849 203.844 L
769.4 239.025 L
770.952 304.787 L
772.503 267.712 L
774.055 305.329 L
775.606 268.253 L
777.158 259.052 L
778.709 304.517 L
780.261 246.874 L
781.812 292.068 L
783.364 314.259 L
784.915 318.589 L
786.467 328.332 L
788.018 356.206 L
789.57 177.052 L
791.121 220.893 L
792.673 297.751 L
794.224 341.863 L
795.776 341.051 L
797.327 346.193 L
798.879 178.135 L
800.43 226.306 L
801.982 289.632 L
803.533 334.827 L
805.085 337.533 L
806.636 317.777 L
808.188 175.428 L
809.739 251.745 L
811.291 310.2 L
812.842 339.427 L
814.394 327.249 L
815.945 144.577 L
817.497 226.577 L
819.048 314.259 L
820.6 344.028 L
822.151 294.774 L
823.703 216.834 L
825.254 189.772 L
826.806 220.352 L
828.357 311.282 L
829.909 343.487 L
831.46 272.312 L
833.012 193.56 L
834.563 260.675 L
836.115 316.695 L
837.666 340.51 L
839.218 294.233 L
840.769 228.742 L
842.321 299.375 L
843.872 318.319 L
845.424 328.332 L
846.975 323.461 L
848.527 288.279 L
850.078 286.926 L
851.63 289.903 L
853.181 301.811 L
854.733 313.177 L
856.284 319.401 L
857.836 306.952 L
859.387 261.217 L
860.939 227.118 L
862.49 253.098 L
864.042 298.563 L
865.593 314.801 L
867.145 230.907 L
868.696 185.171 L
870.248 221.705 L
871.799 294.233 L
873.351 324.002 L
874.902 302.893 L
876.454 275.019 L
878.005 341.322 L
879.557 333.744 L
881.108 326.167 L
882.66 226.035 L
884.211 218.728 L
885.763 301.811 L
887.314 344.569 L
888.866 345.652 L
890.417 329.685 L
891.969 300.457 L
893.52 284.22 L
895.072 200.597 L
896.623 208.986 L
898.175 269.877 L
899.726 315.071 L
901.278 296.669 L
902.829 244.167 L
904.381 216.293 L
905.932 215.21 L
907.484 238.755 L
909.035 257.157 L
910.587 289.632 L
912.138 330.226 L
913.69 295.586 L
915.241 220.623 L
916.793 206.55 L
918.344 209.257 L
919.896 288.55 L
921.447 309.659 L
922.999 320.484 L
924.55 361.348 L
926.102 339.427 L
927.653 280.16 L
929.205 292.068 L
930.756 321.566 L
932.308 329.414 L
933.859 358.101 L
935.411 357.559 L
936.962 340.781 L
938.514 335.909 L
940.065 251.474 L
941.617 296.127 L
943.168 322.107 L
944.72 332.391 L
946.271 337.804 L
947.823 352.147 L
949.374 341.592 L
950.926 233.072 L
952.477 273.395 L
954.029 312.365 L
955.58 317.507 L
957.132 310.741 L
958.683 328.061 L
960.235 337.262 L
961.786 255.263 L
963.338 286.655 L
964.889 322.378 L
966.441 329.144 L
967.992 316.966 L
969.544 320.484 L
971.095 330.497 L
972.647 270.418 L
974.198 306.952 L
975.75 327.52 L
977.301 335.909 L
978.853 342.134 L
980.404 326.708 L
981.956 283.949 L
983.507 264.464 L
985.059 313.718 L
986.61 320.754 L
988.162 318.319 L
989.713 314.801 L
991.265 264.194 L
992.816 190.854 L
994.368 273.665 L
995.919 335.097 L
997.471 336.451 L
999.022 310.471 L
1000.574 257.699 L
1002.125 161.356 L
1003.677 96.135 L
1005.228 267.982 L
1006.78 310.741 L
1008.331 325.626 L
1009.883 318.589 L
1011.434 270.147 L
1012.986 165.686 L
1014.537 203.573 L
1016.089 209.798 L
1017.64 253.098 L
1019.192 289.091 L
1020.743 302.352 L
1022.295 262.029 L
1023.846 139.435 L
1025.398 219.54 L
1026.949 242.002 L
1028.501 271.5 L
1030.052 295.316 L
1031.604 118.056 L
1033.155 170.286 L
1034.707 260.405 L
1036.258 238.484 L
1037.81 226.306 L
1039.361 259.052 L
1040.913 135.376 L
1042.464 214.94 L
1044.016 290.715 L
1045.567 262.84 L
1047.119 239.025 L
1048.67 262.57 L
1050.222 317.236 L
1051.773 297.751 L
1053.325 290.444 L
1054.876 280.702 L
1056.428 274.477 L
1057.979 321.566 L
1059.531 369.196 L
1061.082 330.767 L
1062.634 256.075 L
1064.185 201.95 L
1065.737 201.138 L
1067.288 206.009 L
1068.84 168.933 L
1070.391 294.233 L
1071.943 324.543 L
1073.494 362.972 L
1075.046 356.747 L
1076.597 289.903 L
1078.149 208.986 L
1079.7 199.514 L
1081.252 191.937 L
1082.803 115.891 L
1084.355 317.236 L
1085.906 316.154 L
1087.458 312.365 L
1089.009 340.239 L
1090.561 329.956 L
1092.112 283.949 L
1093.664 280.431 L
1095.215 260.675 L
1096.767 161.356 L
1098.318 327.52 L
1099.87 306.411 L
1101.421 253.098 L
1102.973 284.761 L
1104.524 320.213 L
1106.076 322.649 L
1107.627 335.097 L
1109.179 306.411 L
1110.73 201.679 L
1112.282 333.203 L
1113.833 318.589 L
1115.385 238.214 L
1116.936 231.989 L
1118.488 268.524 L
1120.039 309.117 L
1121.591 339.157 L
1123.142 302.893 L
1124.694 332.121 L
1126.245 332.932 L
1127.797 266.9 L
1129.348 226.306 L
1130.9 232.26 L
1132.451 287.197 L
1134.003 336.721 L
1135.554 302.352 L
1137.106 299.104 L
1138.657 316.424 L
1140.209 303.434 L
1141.76 278.537 L
1143.312 259.322 L
1144.863 300.457 L
1146.415 354.582 L
1147.966 320.484 L
1149.518 283.679 L
1151.069 309.929 L
1152.621 313.177 L
1154.172 309.117 L
1155.724 302.622 L
1157.275 328.061 L
1158.827 336.992 L
1160.378 277.454 L
1161.93 275.019 L
1163.481 326.708 L
1165.033 309.659 L
1166.584 281.243 L
1168.136 295.045 L
1169.687 319.942 L
1171.239 275.019 L
1172.79 198.702 L
1174.342 247.415 L
1175.893 333.744 L
1177.445 327.791 L
1178.996 266.359 L
1180.548 235.778 L
1182.099 218.999 L
1183.651 176.782 L
1185.202 304.517 L
1186.754 325.626 L
1188.305 288.82 L
1189.857 211.692 L
1191.408 111.831 L
1192.96 55 L
1194.511 229.012 L
1196.063 249.58 L
1197.614 272.042 L
1199.166 238.755 L
1200.717 138.894 L
1202.269 76.379 L
1203.82 176.782 L
1205.372 161.897 L
1206.923 189.23 L
1208.475 225.765 L
1210.026 218.187 L
1211.578 194.372 L
1213.129 207.903 L
1214.681 177.323 L
1216.232 154.861 L
1217.784 172.993 L
1219.335 231.719 L
1220.887 286.385 L
1222.438 286.655 L
1223.99 292.88 L
1225.541 244.709 L
1227.093 616.007 L
1228.644 412.496 L
1230.196 351.876 L
1231.747 340.51 L
1233.299 287.197 L
1234.85 234.966 L
1236.402 571.895 L
1237.953 410.331 L
1239.505 320.484 L
1241.056 325.084 L
1242.608 300.457 L
1244.159 200.867 L
1245.711 531.572 L
1247.262 431.44 L
1248.814 344.299 L
1250.365 322.649 L
1251.917 320.484 L
1253.468 262.84 L
1255.02 470.681 L
1256.571 366.219 L
1258.123 327.249 L
1259.674 289.903 L
1261.226 285.573 L
1262.777 288.82 L
1264.329 355.394 L
1265.88 200.597 L
1267.432 187.877 L
1268.983 195.455 L
1270.535 223.87 L
1272.086 258.24 L
1273.638 327.249 L
1275.189 364.325 L
1276.741 340.239 L
1278.292 140.518 L
1279.844 84.769 L
1281.395 91.264 L
1282.947 158.65 L
1284.498 236.86 L
1286.05 304.517 L
1287.601 401.13 L
1289.153 211.692 L
1290.704 154.32 L
1292.255 112.102 L
1293.807 163.25 L
1295.359 303.164 L
1296.91 408.978 L
1298.462 471.493 L
1300.013 292.88 L
1301.565 266.629 L
1303.116 217.375 L
1304.667 217.375 L
1306.219 321.296 L
1307.771 404.919 L
1309.322 467.704 L
1310.874 390.034 L
1312.425 423.592 L
1313.977 403.566 L
1315.528 401.13 L
1317.08 414.391 L
1318.631 415.473 L
1320.182 365.678 L
1321.734 408.166 L
1323.286 332.121 L
1324.837 293.692 L
1326.389 290.444 L
1327.94 409.519 L
1329.492 476.905 L
1331.043 427.11 L
1332.594 374.609 L
1334.146 397.071 L
1335.698 327.249 L
1337.249 308.847 L
1338.801 402.483 L
1340.352 464.456 L
1341.904 441.453 L
1343.455 547.268 L
1345.006 499.908 L
1346.558 471.763 L
1348.109 475.281 L
1349.661 418.45 L
1351.213 448.219 L
1352.764 490.978 L
1354.316 571.624 L
1355.867 519.123 L
1357.418 496.39 L
1358.97 497.202 L
1360.521 359.454 L
1362.073 385.704 L
1363.625 534.819 L
1365.176 509.922 L
1366.728 438.206 L
1368.279 414.12 L
1369.831 477.717 L
1371.382 433.335 L
1372.933 470.681 L
1374.485 602.205 L
1376.036 495.578 L
1377.588 457.961 L
1379.14 465.268 L
1380.691 500.45 L
1382.243 497.743 L
1383.794 522.37 L
1385.345 546.727 L
1386.897 515.605 L
1388.448 523.453 L
1390 577.307 L
S
GR
%%Trailer
%%Pages: 1
%%EOF
