%!PS-Adobe-3.0 EPSF-3.0
%%Creator: (MATLAB, The Mathworks, Inc. Version 9.3.0.713579 \(R2017b\). Operating System: Windows 10)
%%Title: C:/Users/simon/Documents/Unief/M2/Wavelets/Project/report/plots/db4wavelet5.eps
%%CreationDate: 2017-11-25T17:22:51
%%Pages: (atend)
%%BoundingBox: 0 0 720 558
%%LanguageLevel: 3
%%EndComments
%%BeginProlog
%%BeginResource: procset (Apache XML Graphics Std ProcSet) 1.2 0
%%Version: 1.2 0
%%Copyright: (Copyright 2001-2003,2010 The Apache Software Foundation. License terms: http://www.apache.org/licenses/LICENSE-2.0)
/bd{bind def}bind def
/ld{load def}bd
/GR/grestore ld
/GS/gsave ld
/RM/rmoveto ld
/C/curveto ld
/t/show ld
/L/lineto ld
/ML/setmiterlimit ld
/CT/concat ld
/f/fill ld
/N/newpath ld
/S/stroke ld
/CC/setcmykcolor ld
/A/ashow ld
/cp/closepath ld
/RC/setrgbcolor ld
/LJ/setlinejoin ld
/GC/setgray ld
/LW/setlinewidth ld
/M/moveto ld
/re {4 2 roll M
1 index 0 rlineto
0 exch rlineto
neg 0 rlineto
cp } bd
/_ctm matrix def
/_tm matrix def
/BT { _ctm currentmatrix pop matrix _tm copy pop 0 0 moveto } bd
/ET { _ctm setmatrix } bd
/iTm { _ctm setmatrix _tm concat } bd
/Tm { _tm astore pop iTm 0 0 moveto } bd
/ux 0.0 def
/uy 0.0 def
/F {
  /Tp exch def
  /Tf exch def
  Tf findfont Tp scalefont setfont
  /cf Tf def  /cs Tp def
} bd
/ULS {currentpoint /uy exch def /ux exch def} bd
/ULE {
  /Tcx currentpoint pop def
  gsave
  newpath
  cf findfont cs scalefont dup
  /FontMatrix get 0 get /Ts exch def /FontInfo get dup
  /UnderlinePosition get Ts mul /To exch def
  /UnderlineThickness get Ts mul /Tt exch def
  ux uy To add moveto  Tcx uy To add lineto
  Tt setlinewidth stroke
  grestore
} bd
/OLE {
  /Tcx currentpoint pop def
  gsave
  newpath
  cf findfont cs scalefont dup
  /FontMatrix get 0 get /Ts exch def /FontInfo get dup
  /UnderlinePosition get Ts mul /To exch def
  /UnderlineThickness get Ts mul /Tt exch def
  ux uy To add cs add moveto Tcx uy To add cs add lineto
  Tt setlinewidth stroke
  grestore
} bd
/SOE {
  /Tcx currentpoint pop def
  gsave
  newpath
  cf findfont cs scalefont dup
  /FontMatrix get 0 get /Ts exch def /FontInfo get dup
  /UnderlinePosition get Ts mul /To exch def
  /UnderlineThickness get Ts mul /Tt exch def
  ux uy To add cs 10 mul 26 idiv add moveto Tcx uy To add cs 10 mul 26 idiv add lineto
  Tt setlinewidth stroke
  grestore
} bd
/QT {
/Y22 exch store
/X22 exch store
/Y21 exch store
/X21 exch store
currentpoint
/Y21 load 2 mul add 3 div exch
/X21 load 2 mul add 3 div exch
/X21 load 2 mul /X22 load add 3 div
/Y21 load 2 mul /Y22 load add 3 div
/X22 load /Y22 load curveto
} bd
/SSPD {
dup length /d exch dict def
{
/v exch def
/k exch def
currentpagedevice k known {
/cpdv currentpagedevice k get def
v cpdv ne {
/upd false def
/nullv v type /nulltype eq def
/nullcpdv cpdv type /nulltype eq def
nullv nullcpdv or
{
/upd true def
} {
/sametype v type cpdv type eq def
sametype {
v type /arraytype eq {
/vlen v length def
/cpdvlen cpdv length def
vlen cpdvlen eq {
0 1 vlen 1 sub {
/i exch def
/obj v i get def
/cpdobj cpdv i get def
obj cpdobj ne {
/upd true def
exit
} if
} for
} {
/upd true def
} ifelse
} {
v type /dicttype eq {
v {
/dv exch def
/dk exch def
/cpddv cpdv dk get def
dv cpddv ne {
/upd true def
exit
} if
} forall
} {
/upd true def
} ifelse
} ifelse
} if
} ifelse
upd true eq {
d k v put
} if
} if
} if
} forall
d length 0 gt {
d setpagedevice
} if
} bd
/RE { % /NewFontName [NewEncodingArray] /FontName RE -
  findfont dup length dict begin
  {
    1 index /FID ne
    {def} {pop pop} ifelse
  } forall
  /Encoding exch def
  /FontName 1 index def
  currentdict definefont pop
  end
} bind def
%%EndResource
%%BeginResource: procset (Apache XML Graphics EPS ProcSet) 1.0 0
%%Version: 1.0 0
%%Copyright: (Copyright 2002-2003 The Apache Software Foundation. License terms: http://www.apache.org/licenses/LICENSE-2.0)
/BeginEPSF { %def
/b4_Inc_state save def         % Save state for cleanup
/dict_count countdictstack def % Count objects on dict stack
/op_count count 1 sub def      % Count objects on operand stack
userdict begin                 % Push userdict on dict stack
/showpage { } def              % Redefine showpage, { } = null proc
0 setgray 0 setlinecap         % Prepare graphics state
1 setlinewidth 0 setlinejoin
10 setmiterlimit [ ] 0 setdash newpath
/languagelevel where           % If level not equal to 1 then
{pop languagelevel             % set strokeadjust and
1 ne                           % overprint to their defaults.
{false setstrokeadjust false setoverprint
} if
} if
} bd
/EndEPSF { %def
count op_count sub {pop} repeat            % Clean up stacks
countdictstack dict_count sub {end} repeat
b4_Inc_state restore
} bd
%%EndResource
%FOPBeginFontDict
%%IncludeResource: font Courier-Oblique
%%IncludeResource: font Courier-BoldOblique
%%IncludeResource: font Courier-Bold
%%IncludeResource: font ZapfDingbats
%%IncludeResource: font Symbol
%%IncludeResource: font Helvetica
%%IncludeResource: font Helvetica-Oblique
%%IncludeResource: font Helvetica-Bold
%%IncludeResource: font Helvetica-BoldOblique
%%IncludeResource: font Times-Roman
%%IncludeResource: font Times-Italic
%%IncludeResource: font Times-Bold
%%IncludeResource: font Times-BoldItalic
%%IncludeResource: font Courier
%FOPEndFontDict
%%BeginResource: encoding WinAnsiEncoding
/WinAnsiEncoding [
/.notdef /.notdef /.notdef /.notdef /.notdef
/.notdef /.notdef /.notdef /.notdef /.notdef
/.notdef /.notdef /.notdef /.notdef /.notdef
/.notdef /.notdef /.notdef /.notdef /.notdef
/.notdef /.notdef /.notdef /.notdef /.notdef
/.notdef /.notdef /.notdef /.notdef /.notdef
/.notdef /.notdef /space /exclam /quotedbl
/numbersign /dollar /percent /ampersand /quotesingle
/parenleft /parenright /asterisk /plus /comma
/hyphen /period /slash /zero /one
/two /three /four /five /six
/seven /eight /nine /colon /semicolon
/less /equal /greater /question /at
/A /B /C /D /E
/F /G /H /I /J
/K /L /M /N /O
/P /Q /R /S /T
/U /V /W /X /Y
/Z /bracketleft /backslash /bracketright /asciicircum
/underscore /quoteleft /a /b /c
/d /e /f /g /h
/i /j /k /l /m
/n /o /p /q /r
/s /t /u /v /w
/x /y /z /braceleft /bar
/braceright /asciitilde /bullet /Euro /bullet
/quotesinglbase /florin /quotedblbase /ellipsis /dagger
/daggerdbl /circumflex /perthousand /Scaron /guilsinglleft
/OE /bullet /Zcaron /bullet /bullet
/quoteleft /quoteright /quotedblleft /quotedblright /bullet
/endash /emdash /asciitilde /trademark /scaron
/guilsinglright /oe /bullet /zcaron /Ydieresis
/space /exclamdown /cent /sterling /currency
/yen /brokenbar /section /dieresis /copyright
/ordfeminine /guillemotleft /logicalnot /sfthyphen /registered
/macron /degree /plusminus /twosuperior /threesuperior
/acute /mu /paragraph /middot /cedilla
/onesuperior /ordmasculine /guillemotright /onequarter /onehalf
/threequarters /questiondown /Agrave /Aacute /Acircumflex
/Atilde /Adieresis /Aring /AE /Ccedilla
/Egrave /Eacute /Ecircumflex /Edieresis /Igrave
/Iacute /Icircumflex /Idieresis /Eth /Ntilde
/Ograve /Oacute /Ocircumflex /Otilde /Odieresis
/multiply /Oslash /Ugrave /Uacute /Ucircumflex
/Udieresis /Yacute /Thorn /germandbls /agrave
/aacute /acircumflex /atilde /adieresis /aring
/ae /ccedilla /egrave /eacute /ecircumflex
/edieresis /igrave /iacute /icircumflex /idieresis
/eth /ntilde /ograve /oacute /ocircumflex
/otilde /odieresis /divide /oslash /ugrave
/uacute /ucircumflex /udieresis /yacute /thorn
/ydieresis
] def
%%EndResource
%FOPBeginFontReencode
/Courier-Oblique findfont
dup length dict begin
  {1 index /FID ne {def} {pop pop} ifelse} forall
  /Encoding WinAnsiEncoding def
  currentdict
end
/Courier-Oblique exch definefont pop
/Courier-BoldOblique findfont
dup length dict begin
  {1 index /FID ne {def} {pop pop} ifelse} forall
  /Encoding WinAnsiEncoding def
  currentdict
end
/Courier-BoldOblique exch definefont pop
/Courier-Bold findfont
dup length dict begin
  {1 index /FID ne {def} {pop pop} ifelse} forall
  /Encoding WinAnsiEncoding def
  currentdict
end
/Courier-Bold exch definefont pop
/Helvetica findfont
dup length dict begin
  {1 index /FID ne {def} {pop pop} ifelse} forall
  /Encoding WinAnsiEncoding def
  currentdict
end
/Helvetica exch definefont pop
/Helvetica-Oblique findfont
dup length dict begin
  {1 index /FID ne {def} {pop pop} ifelse} forall
  /Encoding WinAnsiEncoding def
  currentdict
end
/Helvetica-Oblique exch definefont pop
/Helvetica-Bold findfont
dup length dict begin
  {1 index /FID ne {def} {pop pop} ifelse} forall
  /Encoding WinAnsiEncoding def
  currentdict
end
/Helvetica-Bold exch definefont pop
/Helvetica-BoldOblique findfont
dup length dict begin
  {1 index /FID ne {def} {pop pop} ifelse} forall
  /Encoding WinAnsiEncoding def
  currentdict
end
/Helvetica-BoldOblique exch definefont pop
/Times-Roman findfont
dup length dict begin
  {1 index /FID ne {def} {pop pop} ifelse} forall
  /Encoding WinAnsiEncoding def
  currentdict
end
/Times-Roman exch definefont pop
/Times-Italic findfont
dup length dict begin
  {1 index /FID ne {def} {pop pop} ifelse} forall
  /Encoding WinAnsiEncoding def
  currentdict
end
/Times-Italic exch definefont pop
/Times-Bold findfont
dup length dict begin
  {1 index /FID ne {def} {pop pop} ifelse} forall
  /Encoding WinAnsiEncoding def
  currentdict
end
/Times-Bold exch definefont pop
/Times-BoldItalic findfont
dup length dict begin
  {1 index /FID ne {def} {pop pop} ifelse} forall
  /Encoding WinAnsiEncoding def
  currentdict
end
/Times-BoldItalic exch definefont pop
/Courier findfont
dup length dict begin
  {1 index /FID ne {def} {pop pop} ifelse} forall
  /Encoding WinAnsiEncoding def
  currentdict
end
/Courier exch definefont pop
%FOPEndFontReencode
%%EndProlog
%%Page: 1 1
%%PageBoundingBox: 0 0 720 558
%%BeginPageSetup
[1 0 0 -1 0 558] CT
%%EndPageSetup
GS
[0.75 0 0 0.75 0 0] CT
1 GC
N
0 0 960 744 re
f
GR
GS
[0.75 0 0 0.75 0 0] CT
1 GC
N
0 0 960 744 re
f
GR
GS
[0.75 0 0 0.75 0 0] CT
1 GC
N
125 662 M
869 662 L
869 56 L
125 56 L
cp
f
GR
GS
[0.75 0 0 0.75 0 0] CT
0.149 GC
2 setlinecap
1 LJ
0.667 LW
N
125 662 M
869 662 L
S
GR
GS
[0.75 0 0 0.75 0 0] CT
0.149 GC
2 setlinecap
1 LJ
0.667 LW
N
125 56 M
869 56 L
S
GR
GS
[0.75 0 0 0.75 0 0] CT
0.149 GC
2 setlinecap
1 LJ
0.667 LW
N
199.535 662 M
199.535 654.56 L
S
GR
GS
[0.75 0 0 0.75 0 0] CT
0.149 GC
2 setlinecap
1 LJ
0.667 LW
N
312.671 662 M
312.671 654.56 L
S
GR
GS
[0.75 0 0 0.75 0 0] CT
0.149 GC
2 setlinecap
1 LJ
0.667 LW
N
425.806 662 M
425.806 654.56 L
S
GR
GS
[0.75 0 0 0.75 0 0] CT
0.149 GC
2 setlinecap
1 LJ
0.667 LW
N
538.942 662 M
538.942 654.56 L
S
GR
GS
[0.75 0 0 0.75 0 0] CT
0.149 GC
2 setlinecap
1 LJ
0.667 LW
N
652.078 662 M
652.078 654.56 L
S
GR
GS
[0.75 0 0 0.75 0 0] CT
0.149 GC
2 setlinecap
1 LJ
0.667 LW
N
765.213 662 M
765.213 654.56 L
S
GR
GS
[0.75 0 0 0.75 0 0] CT
0.149 GC
2 setlinecap
1 LJ
0.667 LW
N
199.535 56 M
199.535 63.44 L
S
GR
GS
[0.75 0 0 0.75 0 0] CT
0.149 GC
2 setlinecap
1 LJ
0.667 LW
N
312.671 56 M
312.671 63.44 L
S
GR
GS
[0.75 0 0 0.75 0 0] CT
0.149 GC
2 setlinecap
1 LJ
0.667 LW
N
425.806 56 M
425.806 63.44 L
S
GR
GS
[0.75 0 0 0.75 0 0] CT
0.149 GC
2 setlinecap
1 LJ
0.667 LW
N
538.942 56 M
538.942 63.44 L
S
GR
GS
[0.75 0 0 0.75 0 0] CT
0.149 GC
2 setlinecap
1 LJ
0.667 LW
N
652.078 56 M
652.078 63.44 L
S
GR
GS
[0.75 0 0 0.75 0 0] CT
0.149 GC
2 setlinecap
1 LJ
0.667 LW
N
765.213 56 M
765.213 63.44 L
S
GR
GS
[0.75 0 0 0.75 149.6514 501.29997] CT
0.149 GC
/Helvetica 18.667 F
GS
[1 0 0 1 0 0] CT
-16 19 moveto 
1 -1 scale
(100) t 
GR
GR
GS
[0.75 0 0 0.75 234.50311 501.29997] CT
0.149 GC
/Helvetica 18.667 F
GS
[1 0 0 1 0 0] CT
-16 19 moveto 
1 -1 scale
(150) t 
GR
GR
GS
[0.75 0 0 0.75 319.35482 501.29997] CT
0.149 GC
/Helvetica 18.667 F
GS
[1 0 0 1 0 0] CT
-16 19 moveto 
1 -1 scale
(200) t 
GR
GR
GS
[0.75 0 0 0.75 404.20651 501.29997] CT
0.149 GC
/Helvetica 18.667 F
GS
[1 0 0 1 0 0] CT
-16 19 moveto 
1 -1 scale
(250) t 
GR
GR
GS
[0.75 0 0 0.75 489.05823 501.29997] CT
0.149 GC
/Helvetica 18.667 F
GS
[1 0 0 1 0 0] CT
-16 19 moveto 
1 -1 scale
(300) t 
GR
GR
GS
[0.75 0 0 0.75 573.90994 501.29997] CT
0.149 GC
/Helvetica 18.667 F
GS
[1 0 0 1 0 0] CT
-16 19 moveto 
1 -1 scale
(350) t 
GR
GR
GS
[0.75 0 0 0.75 372.75025 520.3] CT
0.149 GC
N
-33.014 17.248 M
-33.014 16.514 L
-31.951 16.514 -30.959 16.396 QT
-29.967 16.279 -29.967 15.842 QT
-29.967 4.31 L
-29.967 3.857 -30.217 3.748 QT
-30.467 3.639 -31.03 3.639 QT
-31.92 3.639 L
-33.655 3.639 -34.373 4.404 QT
-34.748 4.779 -34.912 5.615 QT
-35.076 6.451 -35.201 7.717 QT
-35.795 7.717 L
-35.405 2.904 L
-22.576 2.904 L
-22.17 7.717 L
-22.795 7.717 L
-22.92 6.357 -23.069 5.56 QT
-23.217 4.764 -23.592 4.404 QT
-24.342 3.639 -26.061 3.639 QT
-26.936 3.639 L
-27.326 3.639 -27.537 3.67 QT
-27.748 3.701 -27.881 3.849 QT
-28.014 3.998 -28.014 4.31 QT
-28.014 15.842 L
-28.014 16.279 -27.014 16.396 QT
-26.014 16.514 -24.967 16.514 QT
-24.967 17.248 L
-33.014 17.248 L
cp
f
GR
GS
[0.75 0 0 0.75 372.75025 520.3] CT
0.149 GC
N
-21.091 17.248 M
-21.091 16.514 L
-20.372 16.514 -19.911 16.396 QT
-19.45 16.279 -19.45 15.842 QT
-19.45 10.107 L
-19.45 9.295 -19.762 9.115 QT
-20.075 8.935 -20.997 8.935 QT
-20.997 8.201 L
-17.966 7.967 L
-17.966 15.842 L
-17.966 16.279 -17.567 16.396 QT
-17.169 16.514 -16.497 16.514 QT
-16.497 17.248 L
-21.091 17.248 L
cp
-20.2 4.357 M
-20.2 3.904 -19.848 3.553 QT
-19.497 3.201 -19.044 3.201 QT
-18.747 3.201 -18.473 3.357 QT
-18.2 3.514 -18.044 3.787 QT
-17.887 4.06 -17.887 4.357 QT
-17.887 4.81 -18.239 5.162 QT
-18.591 5.514 -19.044 5.514 QT
-19.497 5.514 -19.848 5.162 QT
-20.2 4.81 -20.2 4.357 QT
cp
f
GR
GS
[0.75 0 0 0.75 372.75025 520.3] CT
0.149 GC
N
-15.402 17.248 M
-15.402 16.514 L
-14.684 16.514 -14.223 16.396 QT
-13.762 16.279 -13.762 15.842 QT
-13.762 10.107 L
-13.762 9.545 -13.934 9.295 QT
-14.106 9.045 -14.418 8.99 QT
-14.731 8.935 -15.402 8.935 QT
-15.402 8.201 L
-12.356 7.967 L
-12.356 10.014 L
-11.934 9.123 -11.106 8.545 QT
-10.277 7.967 -9.309 7.967 QT
-6.887 7.967 -6.465 9.935 QT
-6.043 9.06 -5.238 8.514 QT
-4.434 7.967 -3.465 7.967 QT
-2.512 7.967 -1.863 8.271 QT
-1.215 8.576 -0.887 9.209 QT
-0.559 9.842 -0.559 10.795 QT
-0.559 15.842 L
-0.559 16.279 -0.09 16.396 QT
0.379 16.514 1.082 16.514 QT
1.082 17.248 L
-3.715 17.248 L
-3.715 16.514 L
-3.012 16.514 -2.543 16.396 QT
-2.074 16.279 -2.074 15.842 QT
-2.074 10.857 L
-2.074 9.81 -2.379 9.162 QT
-2.684 8.514 -3.606 8.514 QT
-4.809 8.514 -5.598 9.49 QT
-6.387 10.467 -6.387 11.701 QT
-6.387 15.842 L
-6.387 16.279 -5.926 16.396 QT
-5.465 16.514 -4.746 16.514 QT
-4.746 17.248 L
-9.559 17.248 L
-9.559 16.514 L
-8.84 16.514 -8.379 16.396 QT
-7.918 16.279 -7.918 15.842 QT
-7.918 10.857 L
-7.918 9.842 -8.215 9.178 QT
-8.512 8.514 -9.434 8.514 QT
-10.652 8.514 -11.441 9.49 QT
-12.231 10.467 -12.231 11.701 QT
-12.231 15.842 L
-12.231 16.279 -11.762 16.396 QT
-11.293 16.514 -10.59 16.514 QT
-10.59 17.248 L
-15.402 17.248 L
cp
f
GR
GS
[0.75 0 0 0.75 372.75025 520.3] CT
0.149 GC
N
6.318 17.482 M
5.037 17.482 3.967 16.81 QT
2.896 16.139 2.279 15.014 QT
1.662 13.889 1.662 12.639 QT
1.662 11.42 2.224 10.31 QT
2.787 9.201 3.787 8.521 QT
4.787 7.842 6.021 7.842 QT
6.974 7.842 7.693 8.162 QT
8.412 8.482 8.873 9.053 QT
9.334 9.623 9.568 10.404 QT
9.803 11.185 9.803 12.123 QT
9.803 12.404 9.584 12.404 QT
3.506 12.404 L
3.506 12.623 L
3.506 14.373 4.209 15.623 QT
4.912 16.873 6.506 16.873 QT
7.146 16.873 7.693 16.584 QT
8.24 16.295 8.646 15.779 QT
9.053 15.264 9.193 14.685 QT
9.209 14.607 9.271 14.553 QT
9.334 14.498 9.396 14.498 QT
9.584 14.498 L
9.803 14.498 9.803 14.764 QT
9.506 15.951 8.521 16.717 QT
7.537 17.482 6.318 17.482 QT
cp
3.521 11.873 M
8.318 11.873 L
8.318 11.092 8.092 10.279 QT
7.865 9.467 7.357 8.928 QT
6.849 8.389 6.021 8.389 QT
4.834 8.389 4.178 9.498 QT
3.521 10.607 3.521 11.873 QT
cp
f
GR
GS
[0.75 0 0 0.75 372.75025 520.3] CT
0.149 GC
N
19.538 22.498 M
19.538 1.498 L
22.413 1.498 L
22.413 2.342 L
20.382 2.342 L
20.382 21.654 L
22.413 21.654 L
22.413 22.498 L
19.538 22.498 L
cp
f
GR
GS
[0.75 0 0 0.75 372.75025 520.3] CT
0.149 GC
N
23.461 17.31 M
23.461 13.889 L
23.461 13.717 23.633 13.717 QT
23.898 13.717 L
24.023 13.717 24.055 13.889 QT
24.648 16.935 26.883 16.935 QT
27.883 16.935 28.555 16.482 QT
29.227 16.029 29.227 15.092 QT
29.227 14.404 28.703 13.928 QT
28.18 13.451 27.461 13.279 QT
26.055 12.998 L
25.352 12.842 24.773 12.529 QT
24.195 12.217 23.828 11.685 QT
23.461 11.154 23.461 10.467 QT
23.461 9.529 23.945 8.943 QT
24.43 8.357 25.211 8.099 QT
25.992 7.842 26.883 7.842 QT
27.961 7.842 28.773 8.404 QT
29.367 7.889 L
29.367 7.842 29.477 7.842 QT
29.633 7.842 L
29.695 7.842 29.742 7.896 QT
29.789 7.951 29.789 8.014 QT
29.789 10.764 L
29.789 10.951 29.633 10.951 QT
29.367 10.951 L
29.18 10.951 29.18 10.764 QT
29.18 9.654 28.57 8.99 QT
27.961 8.326 26.867 8.326 QT
25.93 8.326 25.234 8.678 QT
24.539 9.029 24.539 9.873 QT
24.539 10.467 25.039 10.834 QT
25.539 11.201 26.211 11.373 QT
27.633 11.639 L
28.352 11.81 28.969 12.193 QT
29.586 12.576 29.953 13.178 QT
30.32 13.779 30.32 14.514 QT
30.32 15.279 30.055 15.842 QT
29.789 16.404 29.32 16.771 QT
28.852 17.139 28.219 17.31 QT
27.586 17.482 26.883 17.482 QT
25.57 17.482 24.648 16.607 QT
23.883 17.435 L
23.883 17.482 23.758 17.482 QT
23.633 17.482 L
23.461 17.482 23.461 17.31 QT
cp
f
GR
GS
[0.75 0 0 0.75 372.75025 520.3] CT
0.149 GC
N
31.326 22.498 M
31.326 21.654 L
33.357 21.654 L
33.357 2.342 L
31.326 2.342 L
31.326 1.498 L
34.201 1.498 L
34.201 22.498 L
31.326 22.498 L
cp
f
GR
GS
[0.75 0 0 0.75 0 0] CT
0.149 GC
2 setlinecap
1 LJ
0.667 LW
N
125 662 M
125 56 L
S
GR
GS
[0.75 0 0 0.75 0 0] CT
0.149 GC
2 setlinecap
1 LJ
0.667 LW
N
869 662 M
869 56 L
S
GR
GS
[0.75 0 0 0.75 0 0] CT
0.149 GC
2 setlinecap
1 LJ
0.667 LW
N
125 629.478 M
132.44 629.478 L
S
GR
GS
[0.75 0 0 0.75 0 0] CT
0.149 GC
2 setlinecap
1 LJ
0.667 LW
N
125 575.285 M
132.44 575.285 L
S
GR
GS
[0.75 0 0 0.75 0 0] CT
0.149 GC
2 setlinecap
1 LJ
0.667 LW
N
125 521.092 M
132.44 521.092 L
S
GR
GS
[0.75 0 0 0.75 0 0] CT
0.149 GC
2 setlinecap
1 LJ
0.667 LW
N
125 466.9 M
132.44 466.9 L
S
GR
GS
[0.75 0 0 0.75 0 0] CT
0.149 GC
2 setlinecap
1 LJ
0.667 LW
N
125 412.707 M
132.44 412.707 L
S
GR
GS
[0.75 0 0 0.75 0 0] CT
0.149 GC
2 setlinecap
1 LJ
0.667 LW
N
125 358.514 M
132.44 358.514 L
S
GR
GS
[0.75 0 0 0.75 0 0] CT
0.149 GC
2 setlinecap
1 LJ
0.667 LW
N
125 304.322 M
132.44 304.322 L
S
GR
GS
[0.75 0 0 0.75 0 0] CT
0.149 GC
2 setlinecap
1 LJ
0.667 LW
N
125 250.129 M
132.44 250.129 L
S
GR
GS
[0.75 0 0 0.75 0 0] CT
0.149 GC
2 setlinecap
1 LJ
0.667 LW
N
125 195.937 M
132.44 195.937 L
S
GR
GS
[0.75 0 0 0.75 0 0] CT
0.149 GC
2 setlinecap
1 LJ
0.667 LW
N
125 141.744 M
132.44 141.744 L
S
GR
GS
[0.75 0 0 0.75 0 0] CT
0.149 GC
2 setlinecap
1 LJ
0.667 LW
N
125 87.551 M
132.44 87.551 L
S
GR
GS
[0.75 0 0 0.75 0 0] CT
0.149 GC
2 setlinecap
1 LJ
0.667 LW
N
869 629.478 M
861.56 629.478 L
S
GR
GS
[0.75 0 0 0.75 0 0] CT
0.149 GC
2 setlinecap
1 LJ
0.667 LW
N
869 575.285 M
861.56 575.285 L
S
GR
GS
[0.75 0 0 0.75 0 0] CT
0.149 GC
2 setlinecap
1 LJ
0.667 LW
N
869 521.092 M
861.56 521.092 L
S
GR
GS
[0.75 0 0 0.75 0 0] CT
0.149 GC
2 setlinecap
1 LJ
0.667 LW
N
869 466.9 M
861.56 466.9 L
S
GR
GS
[0.75 0 0 0.75 0 0] CT
0.149 GC
2 setlinecap
1 LJ
0.667 LW
N
869 412.707 M
861.56 412.707 L
S
GR
GS
[0.75 0 0 0.75 0 0] CT
0.149 GC
2 setlinecap
1 LJ
0.667 LW
N
869 358.514 M
861.56 358.514 L
S
GR
GS
[0.75 0 0 0.75 0 0] CT
0.149 GC
2 setlinecap
1 LJ
0.667 LW
N
869 304.322 M
861.56 304.322 L
S
GR
GS
[0.75 0 0 0.75 0 0] CT
0.149 GC
2 setlinecap
1 LJ
0.667 LW
N
869 250.129 M
861.56 250.129 L
S
GR
GS
[0.75 0 0 0.75 0 0] CT
0.149 GC
2 setlinecap
1 LJ
0.667 LW
N
869 195.937 M
861.56 195.937 L
S
GR
GS
[0.75 0 0 0.75 0 0] CT
0.149 GC
2 setlinecap
1 LJ
0.667 LW
N
869 141.744 M
861.56 141.744 L
S
GR
GS
[0.75 0 0 0.75 0 0] CT
0.149 GC
2 setlinecap
1 LJ
0.667 LW
N
869 87.551 M
861.56 87.551 L
S
GR
GS
[0.75 0 0 0.75 88.95 472.10825] CT
0.149 GC
/Helvetica 18.667 F
GS
[1 0 0 1 0 0] CT
-33 7 moveto 
1 -1 scale
(-0.2) t 
GR
GR
GS
[0.75 0 0 0.75 88.95 431.46378] CT
0.149 GC
/Helvetica 18.667 F
GS
[1 0 0 1 0 0] CT
-43 7 moveto 
1 -1 scale
(-0.15) t 
GR
GR
GS
[0.75 0 0 0.75 88.95 390.81931] CT
0.149 GC
/Helvetica 18.667 F
GS
[1 0 0 1 0 0] CT
-33 7 moveto 
1 -1 scale
(-0.1) t 
GR
GR
GS
[0.75 0 0 0.75 88.95 350.17481] CT
0.149 GC
/Helvetica 18.667 F
GS
[1 0 0 1 0 0] CT
-43 7 moveto 
1 -1 scale
(-0.05) t 
GR
GR
GS
[0.75 0 0 0.75 88.95 309.53032] CT
0.149 GC
/Helvetica 18.667 F
GS
[1 0 0 1 0 0] CT
-11 7 moveto 
1 -1 scale
(0) t 
GR
GR
GS
[0.75 0 0 0.75 88.95 268.88583] CT
0.149 GC
/Helvetica 18.667 F
GS
[1 0 0 1 0 0] CT
-37 7 moveto 
1 -1 scale
(0.05) t 
GR
GR
GS
[0.75 0 0 0.75 88.95 228.24136] CT
0.149 GC
/Helvetica 18.667 F
GS
[1 0 0 1 0 0] CT
-26 7 moveto 
1 -1 scale
(0.1) t 
GR
GR
GS
[0.75 0 0 0.75 88.95 187.59686] CT
0.149 GC
/Helvetica 18.667 F
GS
[1 0 0 1 0 0] CT
-37 7 moveto 
1 -1 scale
(0.15) t 
GR
GR
GS
[0.75 0 0 0.75 88.95 146.95238] CT
0.149 GC
/Helvetica 18.667 F
GS
[1 0 0 1 0 0] CT
-26 7 moveto 
1 -1 scale
(0.2) t 
GR
GR
GS
[0.75 0 0 0.75 88.95 106.3079] CT
0.149 GC
/Helvetica 18.667 F
GS
[1 0 0 1 0 0] CT
-37 7 moveto 
1 -1 scale
(0.25) t 
GR
GR
GS
[0.75 0 0 0.75 88.95 65.6634] CT
0.149 GC
/Helvetica 18.667 F
GS
[1 0 0 1 0 0] CT
-26 7 moveto 
1 -1 scale
(0.3) t 
GR
GR
GS
[0 -0.75 0.75 0 53.7 269.24977] CT
0.149 GC
N
-83.839 -7.392 M
-83.839 -8.126 L
-81.683 -8.126 -81.683 -8.798 QT
-81.683 -20.33 L
-81.683 -21.001 -83.839 -21.001 QT
-83.839 -21.736 L
-76.12 -21.736 L
-75.058 -21.736 -73.972 -21.322 QT
-72.886 -20.908 -72.167 -20.095 QT
-71.448 -19.283 -71.448 -18.173 QT
-71.448 -16.892 -72.503 -16.025 QT
-73.558 -15.158 -74.964 -14.892 QT
-74.042 -14.892 -73.081 -14.384 QT
-72.12 -13.876 -71.503 -13.041 QT
-70.886 -12.205 -70.886 -11.251 QT
-70.886 -10.111 -71.565 -9.228 QT
-72.245 -8.345 -73.339 -7.869 QT
-74.433 -7.392 -75.526 -7.392 QT
-83.839 -7.392 L
cp
-79.854 -8.798 M
-79.854 -8.345 -79.597 -8.236 QT
-79.339 -8.126 -78.792 -8.126 QT
-76.12 -8.126 L
-75.292 -8.126 -74.589 -8.556 QT
-73.886 -8.986 -73.479 -9.712 QT
-73.073 -10.439 -73.073 -11.251 QT
-73.073 -12.064 -73.409 -12.822 QT
-73.745 -13.58 -74.378 -14.072 QT
-75.011 -14.564 -75.823 -14.564 QT
-79.854 -14.564 L
-79.854 -8.798 L
cp
-79.854 -15.126 M
-76.698 -15.126 L
-76.073 -15.126 -75.511 -15.353 QT
-74.948 -15.58 -74.503 -16.017 QT
-74.058 -16.455 -73.815 -17.001 QT
-73.573 -17.548 -73.573 -18.173 QT
-73.573 -18.72 -73.753 -19.22 QT
-73.933 -19.72 -74.284 -20.126 QT
-74.636 -20.533 -75.104 -20.767 QT
-75.573 -21.001 -76.12 -21.001 QT
-78.792 -21.001 L
-79.167 -21.001 -79.378 -20.97 QT
-79.589 -20.939 -79.722 -20.791 QT
-79.854 -20.642 -79.854 -20.33 QT
-79.854 -15.126 L
cp
f
GR
GS
[0 -0.75 0.75 0 53.7 269.24977] CT
0.149 GC
N
-69.372 -7.392 M
-69.372 -8.126 L
-68.654 -8.126 -68.193 -8.244 QT
-67.732 -8.361 -67.732 -8.798 QT
-67.732 -19.814 L
-67.732 -20.376 -67.896 -20.634 QT
-68.06 -20.892 -68.38 -20.947 QT
-68.701 -21.001 -69.372 -21.001 QT
-69.372 -21.736 L
-66.247 -21.97 L
-66.247 -8.798 L
-66.247 -8.361 -65.787 -8.244 QT
-65.326 -8.126 -64.622 -8.126 QT
-64.622 -7.392 L
-69.372 -7.392 L
cp
f
GR
GS
[0 -0.75 0.75 0 53.7 269.24977] CT
0.149 GC
N
-59.059 -7.158 M
-60.325 -7.158 -61.403 -7.798 QT
-62.481 -8.439 -63.106 -9.517 QT
-63.731 -10.595 -63.731 -11.861 QT
-63.731 -12.83 -63.388 -13.72 QT
-63.044 -14.611 -62.403 -15.314 QT
-61.763 -16.017 -60.911 -16.408 QT
-60.059 -16.798 -59.059 -16.798 QT
-57.763 -16.798 -56.7 -16.119 QT
-55.638 -15.439 -55.028 -14.298 QT
-54.419 -13.158 -54.419 -11.861 QT
-54.419 -10.595 -55.044 -9.517 QT
-55.669 -8.439 -56.739 -7.798 QT
-57.809 -7.158 -59.059 -7.158 QT
cp
-59.059 -7.767 M
-57.372 -7.767 -56.809 -8.986 QT
-56.247 -10.205 -56.247 -12.095 QT
-56.247 -13.158 -56.364 -13.845 QT
-56.481 -14.533 -56.856 -15.111 QT
-57.091 -15.455 -57.458 -15.712 QT
-57.825 -15.97 -58.223 -16.111 QT
-58.622 -16.251 -59.059 -16.251 QT
-59.716 -16.251 -60.302 -15.955 QT
-60.888 -15.658 -61.278 -15.111 QT
-61.669 -14.501 -61.778 -13.791 QT
-61.888 -13.08 -61.888 -12.095 QT
-61.888 -10.923 -61.684 -9.986 QT
-61.481 -9.048 -60.856 -8.408 QT
-60.231 -7.767 -59.059 -7.767 QT
cp
f
GR
GS
[0 -0.75 0.75 0 53.7 269.24977] CT
0.149 GC
N
-48.222 -7.158 M
-49.488 -7.158 -50.566 -7.798 QT
-51.644 -8.439 -52.269 -9.517 QT
-52.894 -10.595 -52.894 -11.861 QT
-52.894 -12.83 -52.55 -13.72 QT
-52.207 -14.611 -51.566 -15.314 QT
-50.925 -16.017 -50.074 -16.408 QT
-49.222 -16.798 -48.222 -16.798 QT
-46.925 -16.798 -45.863 -16.119 QT
-44.8 -15.439 -44.191 -14.298 QT
-43.582 -13.158 -43.582 -11.861 QT
-43.582 -10.595 -44.207 -9.517 QT
-44.832 -8.439 -45.902 -7.798 QT
-46.972 -7.158 -48.222 -7.158 QT
cp
-48.222 -7.767 M
-46.535 -7.767 -45.972 -8.986 QT
-45.41 -10.205 -45.41 -12.095 QT
-45.41 -13.158 -45.527 -13.845 QT
-45.644 -14.533 -46.019 -15.111 QT
-46.254 -15.455 -46.621 -15.712 QT
-46.988 -15.97 -47.386 -16.111 QT
-47.785 -16.251 -48.222 -16.251 QT
-48.879 -16.251 -49.464 -15.955 QT
-50.05 -15.658 -50.441 -15.111 QT
-50.832 -14.501 -50.941 -13.791 QT
-51.05 -13.08 -51.05 -12.095 QT
-51.05 -10.923 -50.847 -9.986 QT
-50.644 -9.048 -50.019 -8.408 QT
-49.394 -7.767 -48.222 -7.767 QT
cp
f
GR
GS
[0 -0.75 0.75 0 53.7 269.24977] CT
0.149 GC
N
-37.51 -7.158 M
-38.745 -7.158 -39.776 -7.83 QT
-40.807 -8.501 -41.37 -9.595 QT
-41.932 -10.689 -41.932 -11.923 QT
-41.932 -13.189 -41.315 -14.283 QT
-40.698 -15.376 -39.627 -16.025 QT
-38.557 -16.673 -37.276 -16.673 QT
-36.51 -16.673 -35.823 -16.353 QT
-35.135 -16.033 -34.635 -15.455 QT
-34.635 -19.814 L
-34.635 -20.376 -34.807 -20.634 QT
-34.979 -20.892 -35.291 -20.947 QT
-35.604 -21.001 -36.26 -21.001 QT
-36.26 -21.736 L
-33.166 -21.97 L
-33.166 -9.298 L
-33.166 -8.751 -32.995 -8.494 QT
-32.823 -8.236 -32.51 -8.181 QT
-32.198 -8.126 -31.526 -8.126 QT
-31.526 -7.392 L
-34.698 -7.158 L
-34.698 -8.486 L
-35.245 -7.861 -35.995 -7.509 QT
-36.745 -7.158 -37.51 -7.158 QT
cp
-39.651 -9.22 M
-39.291 -8.533 -38.69 -8.119 QT
-38.088 -7.705 -37.385 -7.705 QT
-36.51 -7.705 -35.784 -8.212 QT
-35.057 -8.72 -34.698 -9.517 QT
-34.698 -14.548 L
-34.948 -15.017 -35.323 -15.376 QT
-35.698 -15.736 -36.159 -15.931 QT
-36.62 -16.126 -37.151 -16.126 QT
-38.245 -16.126 -38.909 -15.509 QT
-39.573 -14.892 -39.846 -13.923 QT
-40.12 -12.955 -40.12 -11.908 QT
-40.12 -11.064 -40.026 -10.439 QT
-39.932 -9.814 -39.651 -9.22 QT
cp
f
GR
GS
[0 -0.75 0.75 0 53.7 269.24977] CT
0.149 GC
N
-19.133 -7.158 M
-20.399 -7.158 -21.477 -7.798 QT
-22.555 -8.439 -23.18 -9.517 QT
-23.805 -10.595 -23.805 -11.861 QT
-23.805 -12.83 -23.461 -13.72 QT
-23.118 -14.611 -22.477 -15.314 QT
-21.836 -16.017 -20.985 -16.408 QT
-20.133 -16.798 -19.133 -16.798 QT
-17.836 -16.798 -16.774 -16.119 QT
-15.711 -15.439 -15.102 -14.298 QT
-14.493 -13.158 -14.493 -11.861 QT
-14.493 -10.595 -15.118 -9.517 QT
-15.743 -8.439 -16.813 -7.798 QT
-17.883 -7.158 -19.133 -7.158 QT
cp
-19.133 -7.767 M
-17.446 -7.767 -16.883 -8.986 QT
-16.321 -10.205 -16.321 -12.095 QT
-16.321 -13.158 -16.438 -13.845 QT
-16.555 -14.533 -16.93 -15.111 QT
-17.165 -15.455 -17.532 -15.712 QT
-17.899 -15.97 -18.297 -16.111 QT
-18.696 -16.251 -19.133 -16.251 QT
-19.79 -16.251 -20.376 -15.955 QT
-20.961 -15.658 -21.352 -15.111 QT
-21.743 -14.501 -21.852 -13.791 QT
-21.961 -13.08 -21.961 -12.095 QT
-21.961 -10.923 -21.758 -9.986 QT
-21.555 -9.048 -20.93 -8.408 QT
-20.305 -7.767 -19.133 -7.767 QT
cp
f
GR
GS
[0 -0.75 0.75 0 53.7 269.24977] CT
0.149 GC
N
-14.437 -7.392 M
-14.437 -8.126 L
-13.625 -8.126 -12.921 -8.439 QT
-12.218 -8.751 -11.718 -9.376 QT
-9.812 -11.798 L
-12.296 -15.033 L
-12.671 -15.486 -13.101 -15.595 QT
-13.531 -15.705 -14.328 -15.705 QT
-14.328 -16.439 L
-9.953 -16.439 L
-9.953 -15.705 L
-10.234 -15.705 -10.476 -15.58 QT
-10.718 -15.455 -10.718 -15.22 QT
-10.718 -15.142 -10.656 -15.033 QT
-8.968 -12.845 L
-7.718 -14.47 L
-7.453 -14.783 -7.453 -15.08 QT
-7.453 -15.345 -7.625 -15.525 QT
-7.796 -15.705 -8.078 -15.705 QT
-8.078 -16.439 L
-4.203 -16.439 L
-4.203 -15.705 L
-5.015 -15.705 -5.726 -15.392 QT
-6.437 -15.08 -6.937 -14.47 QT
-8.593 -12.345 L
-5.906 -8.798 L
-5.515 -8.33 -5.085 -8.228 QT
-4.656 -8.126 -3.843 -8.126 QT
-3.843 -7.392 L
-8.218 -7.392 L
-8.218 -8.126 L
-7.953 -8.126 -7.718 -8.251 QT
-7.484 -8.376 -7.484 -8.611 QT
-7.484 -8.705 -7.546 -8.798 QT
-9.437 -11.298 L
-10.937 -9.376 L
-11.187 -9.111 -11.187 -8.751 QT
-11.187 -8.501 -11.007 -8.314 QT
-10.828 -8.126 -10.593 -8.126 QT
-10.593 -7.392 L
-14.437 -7.392 L
cp
f
GR
GS
[0 -0.75 0.75 0 53.7 269.24977] CT
0.149 GC
N
-2.397 -3.939 M
-2.006 -3.626 -1.522 -3.626 QT
-0.194 -3.626 0.634 -5.626 QT
1.353 -7.392 L
-1.787 -15.111 L
-1.991 -15.486 -2.389 -15.595 QT
-2.787 -15.705 -3.444 -15.705 QT
-3.444 -16.439 L
0.963 -16.439 L
0.963 -15.705 L
-0.194 -15.705 -0.194 -15.205 QT
-0.194 -15.126 -0.178 -15.08 QT
2.166 -9.345 L
4.259 -14.501 L
4.322 -14.673 4.322 -14.861 QT
4.322 -15.126 4.181 -15.314 QT
4.041 -15.501 3.822 -15.603 QT
3.603 -15.705 3.322 -15.705 QT
3.322 -16.439 L
6.822 -16.439 L
6.822 -15.705 L
6.166 -15.705 5.681 -15.408 QT
5.197 -15.111 4.931 -14.533 QT
1.291 -5.626 L
1.009 -4.955 0.627 -4.384 QT
0.244 -3.814 -0.311 -3.447 QT
-0.866 -3.08 -1.522 -3.08 QT
-2.287 -3.08 -2.866 -3.587 QT
-3.444 -4.095 -3.444 -4.845 QT
-3.444 -5.236 -3.178 -5.501 QT
-2.912 -5.767 -2.522 -5.767 QT
-2.256 -5.767 -2.045 -5.65 QT
-1.834 -5.533 -1.717 -5.33 QT
-1.6 -5.126 -1.6 -4.845 QT
-1.6 -4.517 -1.826 -4.244 QT
-2.053 -3.97 -2.397 -3.939 QT
cp
f
GR
GS
[0 -0.75 0.75 0 53.7 269.24977] CT
0.149 GC
N
7.565 -5.751 M
7.565 -6.501 8.112 -7.056 QT
8.659 -7.611 9.409 -7.861 QT
8.987 -8.173 8.768 -8.658 QT
8.55 -9.142 8.55 -9.673 QT
8.55 -10.658 9.175 -11.423 QT
8.206 -12.361 8.206 -13.58 QT
8.206 -14.236 8.487 -14.814 QT
8.768 -15.392 9.276 -15.814 QT
9.784 -16.236 10.393 -16.455 QT
11.003 -16.673 11.659 -16.673 QT
12.909 -16.673 13.893 -15.939 QT
14.331 -16.408 14.917 -16.658 QT
15.503 -16.908 16.143 -16.908 QT
16.597 -16.908 16.886 -16.587 QT
17.175 -16.267 17.175 -15.814 QT
17.175 -15.548 16.979 -15.353 QT
16.784 -15.158 16.518 -15.158 QT
16.253 -15.158 16.057 -15.353 QT
15.862 -15.548 15.862 -15.814 QT
15.862 -16.205 16.128 -16.361 QT
15.034 -16.361 14.253 -15.611 QT
14.643 -15.22 14.87 -14.673 QT
15.097 -14.126 15.097 -13.58 QT
15.097 -12.689 14.604 -11.978 QT
14.112 -11.267 13.307 -10.876 QT
12.503 -10.486 11.659 -10.486 QT
10.503 -10.486 9.55 -11.111 QT
9.253 -10.689 9.253 -10.189 QT
9.253 -9.626 9.62 -9.212 QT
9.987 -8.798 10.534 -8.798 QT
12.253 -8.798 L
13.503 -8.798 14.511 -8.572 QT
15.518 -8.345 16.198 -7.666 QT
16.878 -6.986 16.878 -5.751 QT
16.878 -4.83 16.104 -4.22 QT
15.331 -3.611 14.245 -3.337 QT
13.159 -3.064 12.237 -3.064 QT
11.3 -3.064 10.214 -3.337 QT
9.128 -3.611 8.347 -4.22 QT
7.565 -4.83 7.565 -5.751 QT
cp
8.753 -5.751 M
8.753 -5.048 9.323 -4.572 QT
9.893 -4.095 10.706 -3.861 QT
11.518 -3.626 12.237 -3.626 QT
12.94 -3.626 13.753 -3.861 QT
14.565 -4.095 15.136 -4.572 QT
15.706 -5.048 15.706 -5.751 QT
15.706 -6.845 14.698 -7.173 QT
13.69 -7.501 12.253 -7.501 QT
10.534 -7.501 L
10.05 -7.501 9.643 -7.267 QT
9.237 -7.033 8.995 -6.619 QT
8.753 -6.205 8.753 -5.751 QT
cp
11.659 -11.048 M
13.44 -11.048 13.44 -13.58 QT
13.44 -14.689 13.057 -15.4 QT
12.675 -16.111 11.659 -16.111 QT
10.628 -16.111 10.245 -15.4 QT
9.862 -14.689 9.862 -13.58 QT
9.862 -12.892 10.011 -12.33 QT
10.159 -11.767 10.55 -11.408 QT
10.94 -11.048 11.659 -11.048 QT
cp
f
GR
GS
[0 -0.75 0.75 0 53.7 269.24977] CT
0.149 GC
N
22.488 -7.158 M
21.207 -7.158 20.137 -7.83 QT
19.066 -8.501 18.449 -9.626 QT
17.832 -10.751 17.832 -12.001 QT
17.832 -13.22 18.394 -14.33 QT
18.957 -15.439 19.957 -16.119 QT
20.957 -16.798 22.191 -16.798 QT
23.144 -16.798 23.863 -16.478 QT
24.582 -16.158 25.043 -15.587 QT
25.504 -15.017 25.738 -14.236 QT
25.973 -13.455 25.973 -12.517 QT
25.973 -12.236 25.754 -12.236 QT
19.676 -12.236 L
19.676 -12.017 L
19.676 -10.267 20.379 -9.017 QT
21.082 -7.767 22.676 -7.767 QT
23.316 -7.767 23.863 -8.056 QT
24.41 -8.345 24.816 -8.861 QT
25.223 -9.376 25.363 -9.955 QT
25.379 -10.033 25.441 -10.087 QT
25.504 -10.142 25.566 -10.142 QT
25.754 -10.142 L
25.973 -10.142 25.973 -9.876 QT
25.676 -8.689 24.691 -7.923 QT
23.707 -7.158 22.488 -7.158 QT
cp
19.691 -12.767 M
24.488 -12.767 L
24.488 -13.548 24.262 -14.361 QT
24.035 -15.173 23.527 -15.712 QT
23.019 -16.251 22.191 -16.251 QT
21.004 -16.251 20.348 -15.142 QT
19.691 -14.033 19.691 -12.767 QT
cp
f
GR
GS
[0 -0.75 0.75 0 53.7 269.24977] CT
0.149 GC
N
27.005 -7.392 M
27.005 -8.126 L
27.724 -8.126 28.184 -8.244 QT
28.645 -8.361 28.645 -8.798 QT
28.645 -14.533 L
28.645 -15.095 28.474 -15.345 QT
28.302 -15.595 27.989 -15.65 QT
27.677 -15.705 27.005 -15.705 QT
27.005 -16.439 L
30.052 -16.673 L
30.052 -14.626 L
30.474 -15.517 31.302 -16.095 QT
32.13 -16.673 33.099 -16.673 QT
34.552 -16.673 35.286 -15.978 QT
36.02 -15.283 36.02 -13.845 QT
36.02 -8.798 L
36.02 -8.361 36.481 -8.244 QT
36.942 -8.126 37.661 -8.126 QT
37.661 -7.392 L
32.849 -7.392 L
32.849 -8.126 L
33.567 -8.126 34.028 -8.244 QT
34.489 -8.361 34.489 -8.798 QT
34.489 -13.783 L
34.489 -14.798 34.192 -15.462 QT
33.895 -16.126 32.974 -16.126 QT
31.755 -16.126 30.966 -15.15 QT
30.177 -14.173 30.177 -12.939 QT
30.177 -8.798 L
30.177 -8.361 30.645 -8.244 QT
31.114 -8.126 31.817 -8.126 QT
31.817 -7.392 L
27.005 -7.392 L
cp
f
GR
GS
[0 -0.75 0.75 0 53.7 269.24977] CT
0.149 GC
N
45.272 -7.392 M
45.272 -8.126 L
45.991 -8.126 46.452 -8.244 QT
46.913 -8.361 46.913 -8.798 QT
46.913 -19.814 L
46.913 -20.376 46.749 -20.634 QT
46.585 -20.892 46.264 -20.947 QT
45.944 -21.001 45.272 -21.001 QT
45.272 -21.736 L
48.397 -21.97 L
48.397 -8.798 L
48.397 -8.361 48.858 -8.244 QT
49.319 -8.126 50.022 -8.126 QT
50.022 -7.392 L
45.272 -7.392 L
cp
f
GR
GS
[0 -0.75 0.75 0 53.7 269.24977] CT
0.149 GC
N
55.57 -7.158 M
54.288 -7.158 53.218 -7.83 QT
52.148 -8.501 51.531 -9.626 QT
50.913 -10.751 50.913 -12.001 QT
50.913 -13.22 51.476 -14.33 QT
52.038 -15.439 53.038 -16.119 QT
54.038 -16.798 55.273 -16.798 QT
56.226 -16.798 56.945 -16.478 QT
57.663 -16.158 58.124 -15.587 QT
58.585 -15.017 58.82 -14.236 QT
59.054 -13.455 59.054 -12.517 QT
59.054 -12.236 58.835 -12.236 QT
52.757 -12.236 L
52.757 -12.017 L
52.757 -10.267 53.46 -9.017 QT
54.163 -7.767 55.757 -7.767 QT
56.398 -7.767 56.945 -8.056 QT
57.492 -8.345 57.898 -8.861 QT
58.304 -9.376 58.445 -9.955 QT
58.46 -10.033 58.523 -10.087 QT
58.585 -10.142 58.648 -10.142 QT
58.835 -10.142 L
59.054 -10.142 59.054 -9.876 QT
58.757 -8.689 57.773 -7.923 QT
56.788 -7.158 55.57 -7.158 QT
cp
52.773 -12.767 M
57.57 -12.767 L
57.57 -13.548 57.343 -14.361 QT
57.117 -15.173 56.609 -15.712 QT
56.101 -16.251 55.273 -16.251 QT
54.085 -16.251 53.429 -15.142 QT
52.773 -14.033 52.773 -12.767 QT
cp
f
GR
GS
[0 -0.75 0.75 0 53.7 269.24977] CT
0.149 GC
N
64.586 -7.392 M
61.524 -15.111 L
61.321 -15.486 60.922 -15.595 QT
60.524 -15.705 59.868 -15.705 QT
59.868 -16.439 L
64.274 -16.439 L
64.274 -15.705 L
63.086 -15.705 63.086 -15.205 QT
63.086 -15.126 63.118 -15.08 QT
65.477 -9.158 L
67.586 -14.501 L
67.649 -14.673 67.649 -14.845 QT
67.649 -15.251 67.352 -15.478 QT
67.055 -15.705 66.633 -15.705 QT
66.633 -16.439 L
70.133 -16.439 L
70.133 -15.705 L
69.477 -15.705 68.993 -15.408 QT
68.508 -15.111 68.243 -14.533 QT
65.414 -7.392 L
65.321 -7.158 65.071 -7.158 QT
64.914 -7.158 L
64.664 -7.158 64.586 -7.392 QT
cp
f
GR
GS
[0 -0.75 0.75 0 53.7 269.24977] CT
0.149 GC
N
74.962 -7.158 M
73.681 -7.158 72.611 -7.83 QT
71.54 -8.501 70.923 -9.626 QT
70.306 -10.751 70.306 -12.001 QT
70.306 -13.22 70.869 -14.33 QT
71.431 -15.439 72.431 -16.119 QT
73.431 -16.798 74.665 -16.798 QT
75.619 -16.798 76.337 -16.478 QT
77.056 -16.158 77.517 -15.587 QT
77.978 -15.017 78.212 -14.236 QT
78.447 -13.455 78.447 -12.517 QT
78.447 -12.236 78.228 -12.236 QT
72.15 -12.236 L
72.15 -12.017 L
72.15 -10.267 72.853 -9.017 QT
73.556 -7.767 75.15 -7.767 QT
75.79 -7.767 76.337 -8.056 QT
76.884 -8.345 77.29 -8.861 QT
77.697 -9.376 77.837 -9.955 QT
77.853 -10.033 77.915 -10.087 QT
77.978 -10.142 78.04 -10.142 QT
78.228 -10.142 L
78.447 -10.142 78.447 -9.876 QT
78.15 -8.689 77.165 -7.923 QT
76.181 -7.158 74.962 -7.158 QT
cp
72.165 -12.767 M
76.962 -12.767 L
76.962 -13.548 76.736 -14.361 QT
76.509 -15.173 76.001 -15.712 QT
75.494 -16.251 74.665 -16.251 QT
73.478 -16.251 72.822 -15.142 QT
72.165 -14.033 72.165 -12.767 QT
cp
f
GR
GS
[0 -0.75 0.75 0 53.7 269.24977] CT
0.149 GC
N
79.495 -7.392 M
79.495 -8.126 L
80.213 -8.126 80.674 -8.244 QT
81.135 -8.361 81.135 -8.798 QT
81.135 -19.814 L
81.135 -20.376 80.971 -20.634 QT
80.807 -20.892 80.487 -20.947 QT
80.166 -21.001 79.495 -21.001 QT
79.495 -21.736 L
82.62 -21.97 L
82.62 -8.798 L
82.62 -8.361 83.08 -8.244 QT
83.541 -8.126 84.245 -8.126 QT
84.245 -7.392 L
79.495 -7.392 L
cp
f
GR
GS
[0.75 0 0 0.75 372.75037 39.1125] CT
N
-125.492 -7.392 M
-125.492 -8.126 L
-123.335 -8.126 -123.335 -8.798 QT
-123.335 -20.33 L
-123.335 -21.001 -125.492 -21.001 QT
-125.492 -21.736 L
-117.757 -21.736 L
-116.32 -21.736 -115.132 -21.119 QT
-113.945 -20.501 -113.101 -19.462 QT
-112.257 -18.423 -111.804 -17.111 QT
-111.351 -15.798 -111.351 -14.423 QT
-111.351 -13.095 -111.812 -11.837 QT
-112.273 -10.58 -113.14 -9.572 QT
-114.007 -8.564 -115.187 -7.978 QT
-116.367 -7.392 -117.757 -7.392 QT
-125.492 -7.392 L
cp
-121.445 -8.798 M
-121.445 -8.345 -121.187 -8.236 QT
-120.929 -8.126 -120.382 -8.126 QT
-118.304 -8.126 L
-117.226 -8.126 -116.257 -8.595 QT
-115.288 -9.064 -114.648 -9.892 QT
-113.976 -10.783 -113.757 -11.869 QT
-113.538 -12.955 -113.538 -14.423 QT
-113.538 -15.955 -113.757 -17.103 QT
-113.976 -18.251 -114.648 -19.158 QT
-115.273 -20.048 -116.234 -20.525 QT
-117.195 -21.001 -118.304 -21.001 QT
-120.382 -21.001 L
-120.757 -21.001 -120.968 -20.97 QT
-121.179 -20.939 -121.312 -20.791 QT
-121.445 -20.642 -121.445 -20.33 QT
-121.445 -8.798 L
cp
f
GR
GS
[0.75 0 0 0.75 372.75037 39.1125] CT
N
-109.791 -7.392 M
-109.791 -8.126 L
-107.634 -8.126 -107.634 -8.798 QT
-107.634 -20.33 L
-107.634 -21.001 -109.791 -21.001 QT
-109.791 -21.736 L
-102.072 -21.736 L
-101.009 -21.736 -99.924 -21.322 QT
-98.838 -20.908 -98.119 -20.095 QT
-97.4 -19.283 -97.4 -18.173 QT
-97.4 -16.892 -98.455 -16.025 QT
-99.509 -15.158 -100.916 -14.892 QT
-99.994 -14.892 -99.033 -14.384 QT
-98.072 -13.876 -97.455 -13.041 QT
-96.838 -12.205 -96.838 -11.251 QT
-96.838 -10.111 -97.517 -9.228 QT
-98.197 -8.345 -99.291 -7.869 QT
-100.384 -7.392 -101.478 -7.392 QT
-109.791 -7.392 L
cp
-105.806 -8.798 M
-105.806 -8.345 -105.549 -8.236 QT
-105.291 -8.126 -104.744 -8.126 QT
-102.072 -8.126 L
-101.244 -8.126 -100.541 -8.556 QT
-99.838 -8.986 -99.431 -9.712 QT
-99.025 -10.439 -99.025 -11.251 QT
-99.025 -12.064 -99.361 -12.822 QT
-99.697 -13.58 -100.33 -14.072 QT
-100.963 -14.564 -101.775 -14.564 QT
-105.806 -14.564 L
-105.806 -8.798 L
cp
-105.806 -15.126 M
-102.65 -15.126 L
-102.025 -15.126 -101.463 -15.353 QT
-100.9 -15.58 -100.455 -16.017 QT
-100.009 -16.455 -99.767 -17.001 QT
-99.525 -17.548 -99.525 -18.173 QT
-99.525 -18.72 -99.705 -19.22 QT
-99.884 -19.72 -100.236 -20.126 QT
-100.588 -20.533 -101.056 -20.767 QT
-101.525 -21.001 -102.072 -21.001 QT
-104.744 -21.001 L
-105.119 -21.001 -105.33 -20.97 QT
-105.541 -20.939 -105.674 -20.791 QT
-105.806 -20.642 -105.806 -20.33 QT
-105.806 -15.126 L
cp
f
GR
GS
[0.75 0 0 0.75 372.75037 39.1125] CT
N
-95.387 -10.861 M
-95.387 -11.595 L
-88.887 -21.283 L
-88.824 -21.376 -88.668 -21.376 QT
-88.371 -21.376 L
-88.137 -21.376 -88.137 -21.142 QT
-88.137 -11.595 L
-86.074 -11.595 L
-86.074 -10.861 L
-88.137 -10.861 L
-88.137 -8.798 L
-88.137 -8.361 -87.52 -8.244 QT
-86.902 -8.126 -86.09 -8.126 QT
-86.09 -7.392 L
-91.871 -7.392 L
-91.871 -8.126 L
-91.059 -8.126 -90.449 -8.244 QT
-89.84 -8.361 -89.84 -8.798 QT
-89.84 -10.861 L
-95.387 -10.861 L
cp
-94.684 -11.595 M
-89.715 -11.595 L
-89.715 -19.033 L
-94.684 -11.595 L
cp
f
GR
GS
[0.75 0 0 0.75 372.75037 39.1125] CT
N
-74.213 -7.392 M
-76.932 -15.033 L
-77.104 -15.486 -77.455 -15.595 QT
-77.807 -15.705 -78.479 -15.705 QT
-78.479 -16.439 L
-74.151 -16.439 L
-74.151 -15.705 L
-75.385 -15.705 -75.385 -15.189 QT
-75.385 -15.158 -75.377 -15.126 QT
-75.369 -15.095 -75.369 -15.033 QT
-73.354 -9.376 L
-71.604 -14.298 L
-71.885 -15.033 L
-72.041 -15.486 -72.401 -15.595 QT
-72.76 -15.705 -73.416 -15.705 QT
-73.416 -16.439 L
-69.276 -16.439 L
-69.276 -15.705 L
-70.51 -15.705 -70.51 -15.189 QT
-70.51 -15.111 -70.494 -15.033 QT
-68.401 -9.111 L
-66.494 -14.47 L
-66.448 -14.626 -66.448 -14.767 QT
-66.448 -15.205 -66.823 -15.455 QT
-67.198 -15.705 -67.651 -15.705 QT
-67.651 -16.439 L
-64.088 -16.439 L
-64.088 -15.705 L
-64.729 -15.705 -65.182 -15.376 QT
-65.635 -15.048 -65.854 -14.47 QT
-68.354 -7.392 L
-68.432 -7.158 -68.666 -7.158 QT
-68.838 -7.158 L
-69.088 -7.158 -69.151 -7.392 QT
-71.276 -13.376 L
-73.401 -7.392 L
-73.494 -7.158 -73.729 -7.158 QT
-73.885 -7.158 L
-74.135 -7.158 -74.213 -7.392 QT
cp
f
GR
GS
[0.75 0 0 0.75 372.75037 39.1125] CT
N
-63.751 -9.455 M
-63.751 -10.705 -62.766 -11.486 QT
-61.782 -12.267 -60.407 -12.595 QT
-59.032 -12.923 -57.782 -12.923 QT
-57.782 -13.783 L
-57.782 -14.392 -58.048 -14.955 QT
-58.313 -15.517 -58.821 -15.884 QT
-59.329 -16.251 -59.923 -16.251 QT
-61.329 -16.251 -62.048 -15.626 QT
-61.657 -15.626 -61.391 -15.322 QT
-61.126 -15.017 -61.126 -14.626 QT
-61.126 -14.205 -61.423 -13.908 QT
-61.72 -13.611 -62.126 -13.611 QT
-62.548 -13.611 -62.845 -13.908 QT
-63.141 -14.205 -63.141 -14.626 QT
-63.141 -15.736 -62.141 -16.267 QT
-61.141 -16.798 -59.923 -16.798 QT
-59.079 -16.798 -58.22 -16.439 QT
-57.36 -16.08 -56.805 -15.4 QT
-56.251 -14.72 -56.251 -13.814 QT
-56.251 -9.095 L
-56.251 -8.689 -56.079 -8.345 QT
-55.907 -8.001 -55.548 -8.001 QT
-55.188 -8.001 -55.024 -8.345 QT
-54.86 -8.689 -54.86 -9.095 QT
-54.86 -10.439 L
-54.235 -10.439 L
-54.235 -9.095 L
-54.235 -8.626 -54.485 -8.197 QT
-54.735 -7.767 -55.149 -7.517 QT
-55.563 -7.267 -56.048 -7.267 QT
-56.657 -7.267 -57.102 -7.744 QT
-57.548 -8.22 -57.595 -8.876 QT
-57.985 -8.095 -58.743 -7.626 QT
-59.501 -7.158 -60.376 -7.158 QT
-61.173 -7.158 -61.946 -7.392 QT
-62.72 -7.626 -63.235 -8.134 QT
-63.751 -8.642 -63.751 -9.455 QT
cp
-62.048 -9.455 M
-62.048 -8.72 -61.509 -8.212 QT
-60.97 -7.705 -60.22 -7.705 QT
-59.548 -7.705 -58.993 -8.048 QT
-58.438 -8.392 -58.11 -8.97 QT
-57.782 -9.548 -57.782 -10.205 QT
-57.782 -12.392 L
-58.735 -12.392 -59.735 -12.08 QT
-60.735 -11.767 -61.391 -11.095 QT
-62.048 -10.423 -62.048 -9.455 QT
cp
f
GR
GS
[0.75 0 0 0.75 372.75037 39.1125] CT
N
-49.773 -7.392 M
-52.836 -15.111 L
-53.039 -15.486 -53.437 -15.595 QT
-53.836 -15.705 -54.492 -15.705 QT
-54.492 -16.439 L
-50.086 -16.439 L
-50.086 -15.705 L
-51.273 -15.705 -51.273 -15.205 QT
-51.273 -15.126 -51.242 -15.08 QT
-48.883 -9.158 L
-46.773 -14.501 L
-46.711 -14.673 -46.711 -14.845 QT
-46.711 -15.251 -47.008 -15.478 QT
-47.304 -15.705 -47.726 -15.705 QT
-47.726 -16.439 L
-44.226 -16.439 L
-44.226 -15.705 L
-44.883 -15.705 -45.367 -15.408 QT
-45.851 -15.111 -46.117 -14.533 QT
-48.945 -7.392 L
-49.039 -7.158 -49.289 -7.158 QT
-49.445 -7.158 L
-49.695 -7.158 -49.773 -7.392 QT
cp
f
GR
GS
[0.75 0 0 0.75 372.75037 39.1125] CT
N
-39.397 -7.158 M
-40.678 -7.158 -41.749 -7.83 QT
-42.819 -8.501 -43.436 -9.626 QT
-44.053 -10.751 -44.053 -12.001 QT
-44.053 -13.22 -43.491 -14.33 QT
-42.928 -15.439 -41.928 -16.119 QT
-40.928 -16.798 -39.694 -16.798 QT
-38.741 -16.798 -38.022 -16.478 QT
-37.303 -16.158 -36.842 -15.587 QT
-36.382 -15.017 -36.147 -14.236 QT
-35.913 -13.455 -35.913 -12.517 QT
-35.913 -12.236 -36.132 -12.236 QT
-42.21 -12.236 L
-42.21 -12.017 L
-42.21 -10.267 -41.507 -9.017 QT
-40.803 -7.767 -39.21 -7.767 QT
-38.569 -7.767 -38.022 -8.056 QT
-37.475 -8.345 -37.069 -8.861 QT
-36.663 -9.376 -36.522 -9.955 QT
-36.507 -10.033 -36.444 -10.087 QT
-36.382 -10.142 -36.319 -10.142 QT
-36.132 -10.142 L
-35.913 -10.142 -35.913 -9.876 QT
-36.21 -8.689 -37.194 -7.923 QT
-38.178 -7.158 -39.397 -7.158 QT
cp
-42.194 -12.767 M
-37.397 -12.767 L
-37.397 -13.548 -37.624 -14.361 QT
-37.85 -15.173 -38.358 -15.712 QT
-38.866 -16.251 -39.694 -16.251 QT
-40.882 -16.251 -41.538 -15.142 QT
-42.194 -14.033 -42.194 -12.767 QT
cp
f
GR
GS
[0.75 0 0 0.75 372.75037 39.1125] CT
N
-34.865 -7.392 M
-34.865 -8.126 L
-34.146 -8.126 -33.685 -8.244 QT
-33.224 -8.361 -33.224 -8.798 QT
-33.224 -19.814 L
-33.224 -20.376 -33.388 -20.634 QT
-33.553 -20.892 -33.873 -20.947 QT
-34.193 -21.001 -34.865 -21.001 QT
-34.865 -21.736 L
-31.74 -21.97 L
-31.74 -8.798 L
-31.74 -8.361 -31.279 -8.244 QT
-30.818 -8.126 -30.115 -8.126 QT
-30.115 -7.392 L
-34.865 -7.392 L
cp
f
GR
GS
[0.75 0 0 0.75 372.75037 39.1125] CT
N
-24.568 -7.158 M
-25.849 -7.158 -26.919 -7.83 QT
-27.989 -8.501 -28.607 -9.626 QT
-29.224 -10.751 -29.224 -12.001 QT
-29.224 -13.22 -28.661 -14.33 QT
-28.099 -15.439 -27.099 -16.119 QT
-26.099 -16.798 -24.864 -16.798 QT
-23.911 -16.798 -23.193 -16.478 QT
-22.474 -16.158 -22.013 -15.587 QT
-21.552 -15.017 -21.318 -14.236 QT
-21.083 -13.455 -21.083 -12.517 QT
-21.083 -12.236 -21.302 -12.236 QT
-27.38 -12.236 L
-27.38 -12.017 L
-27.38 -10.267 -26.677 -9.017 QT
-25.974 -7.767 -24.38 -7.767 QT
-23.739 -7.767 -23.193 -8.056 QT
-22.646 -8.345 -22.239 -8.861 QT
-21.833 -9.376 -21.693 -9.955 QT
-21.677 -10.033 -21.614 -10.087 QT
-21.552 -10.142 -21.489 -10.142 QT
-21.302 -10.142 L
-21.083 -10.142 -21.083 -9.876 QT
-21.38 -8.689 -22.364 -7.923 QT
-23.349 -7.158 -24.568 -7.158 QT
cp
-27.364 -12.767 M
-22.568 -12.767 L
-22.568 -13.548 -22.794 -14.361 QT
-23.021 -15.173 -23.528 -15.712 QT
-24.036 -16.251 -24.864 -16.251 QT
-26.052 -16.251 -26.708 -15.142 QT
-27.364 -14.033 -27.364 -12.767 QT
cp
f
GR
GS
[0.75 0 0 0.75 372.75037 39.1125] CT
N
-18.535 -9.908 M
-18.535 -15.705 L
-20.27 -15.705 L
-20.27 -16.251 L
-18.895 -16.251 -18.254 -17.533 QT
-17.613 -18.814 -17.613 -20.314 QT
-17.004 -20.314 L
-17.004 -16.439 L
-14.035 -16.439 L
-14.035 -15.705 L
-17.004 -15.705 L
-17.004 -9.955 L
-17.004 -9.08 -16.715 -8.423 QT
-16.426 -7.767 -15.66 -7.767 QT
-14.942 -7.767 -14.621 -8.462 QT
-14.301 -9.158 -14.301 -9.955 QT
-14.301 -11.189 L
-13.707 -11.189 L
-13.707 -9.908 L
-13.707 -9.251 -13.949 -8.611 QT
-14.192 -7.97 -14.66 -7.564 QT
-15.129 -7.158 -15.801 -7.158 QT
-17.067 -7.158 -17.801 -7.908 QT
-18.535 -8.658 -18.535 -9.908 QT
cp
f
GR
GS
[0.75 0 0 0.75 372.75037 39.1125] CT
N
-10.613 -3.611 M
-10.613 -3.705 -10.535 -3.783 QT
-9.769 -4.517 -9.347 -5.47 QT
-8.925 -6.423 -8.925 -7.47 QT
-8.925 -7.736 L
-9.269 -7.392 -9.769 -7.392 QT
-10.253 -7.392 -10.589 -7.728 QT
-10.925 -8.064 -10.925 -8.548 QT
-10.925 -9.048 -10.589 -9.376 QT
-10.253 -9.705 -9.769 -9.705 QT
-9.019 -9.705 -8.699 -9.009 QT
-8.378 -8.314 -8.378 -7.47 QT
-8.378 -6.298 -8.847 -5.251 QT
-9.316 -4.205 -10.175 -3.361 QT
-10.253 -3.314 -10.3 -3.314 QT
-10.41 -3.314 -10.511 -3.408 QT
-10.613 -3.501 -10.613 -3.611 QT
cp
f
GR
GS
[0.75 0 0 0.75 372.75037 39.1125] CT
N
0.498 -7.392 M
0.498 -8.126 L
2.67 -8.126 2.67 -8.798 QT
2.67 -20.33 L
2.67 -21.001 0.498 -21.001 QT
0.498 -21.736 L
7.311 -21.736 L
7.311 -21.001 L
4.623 -21.001 4.623 -20.33 QT
4.623 -8.798 L
4.623 -8.345 4.881 -8.236 QT
5.139 -8.126 5.686 -8.126 QT
7.311 -8.126 L
8.889 -8.126 9.732 -8.705 QT
10.576 -9.283 10.936 -10.267 QT
11.295 -11.251 11.482 -12.892 QT
12.076 -12.892 L
11.498 -7.392 L
0.498 -7.392 L
cp
f
GR
GS
[0.75 0 0 0.75 372.75037 39.1125] CT
N
21.113 -10.189 M
20.941 -10.189 20.824 -10.322 QT
20.707 -10.455 20.707 -10.595 QT
20.707 -10.783 20.824 -10.9 QT
20.941 -11.017 21.113 -11.017 QT
34.301 -11.017 L
34.457 -11.017 34.566 -10.9 QT
34.676 -10.783 34.676 -10.595 QT
34.676 -10.455 34.566 -10.322 QT
34.457 -10.189 34.301 -10.189 QT
21.113 -10.189 L
cp
21.113 -14.267 M
20.941 -14.267 20.824 -14.384 QT
20.707 -14.501 20.707 -14.689 QT
20.707 -14.83 20.824 -14.97 QT
20.941 -15.111 21.113 -15.111 QT
34.301 -15.111 L
34.457 -15.111 34.566 -14.97 QT
34.676 -14.83 34.676 -14.689 QT
34.676 -14.501 34.566 -14.384 QT
34.457 -14.267 34.301 -14.267 QT
21.113 -14.267 L
cp
f
GR
GS
[0.75 0 0 0.75 372.75037 39.1125] CT
N
44.178 -9.783 M
44.397 -9.173 44.842 -8.666 QT
45.288 -8.158 45.897 -7.876 QT
46.506 -7.595 47.163 -7.595 QT
48.678 -7.595 49.248 -8.775 QT
49.819 -9.955 49.819 -11.642 QT
49.819 -12.361 49.795 -12.861 QT
49.772 -13.361 49.663 -13.814 QT
49.459 -14.564 48.975 -15.119 QT
48.491 -15.673 47.788 -15.673 QT
47.084 -15.673 46.577 -15.455 QT
46.069 -15.236 45.748 -14.947 QT
45.428 -14.658 45.178 -14.345 QT
44.928 -14.033 44.866 -14.001 QT
44.631 -14.001 L
44.584 -14.001 44.506 -14.072 QT
44.428 -14.142 44.428 -14.205 QT
44.428 -21.22 L
44.428 -21.267 44.498 -21.322 QT
44.569 -21.376 44.631 -21.376 QT
44.694 -21.376 L
46.116 -20.705 47.709 -20.705 QT
49.256 -20.705 50.709 -21.376 QT
50.772 -21.376 L
50.834 -21.376 50.897 -21.33 QT
50.959 -21.283 50.959 -21.22 QT
50.959 -21.017 L
50.959 -20.923 50.928 -20.923 QT
50.209 -19.97 49.123 -19.431 QT
48.038 -18.892 46.881 -18.892 QT
46.038 -18.892 45.163 -19.126 QT
45.163 -15.158 L
45.85 -15.736 46.405 -15.97 QT
46.959 -16.205 47.803 -16.205 QT
48.959 -16.205 49.881 -15.541 QT
50.803 -14.876 51.295 -13.806 QT
51.788 -12.736 51.788 -11.611 QT
51.788 -10.361 51.163 -9.283 QT
50.538 -8.205 49.475 -7.564 QT
48.413 -6.923 47.163 -6.923 QT
46.131 -6.923 45.264 -7.462 QT
44.397 -8.001 43.897 -8.9 QT
43.397 -9.798 43.397 -10.814 QT
43.397 -11.283 43.702 -11.58 QT
44.006 -11.876 44.475 -11.876 QT
44.928 -11.876 45.241 -11.58 QT
45.553 -11.283 45.553 -10.814 QT
45.553 -10.361 45.241 -10.048 QT
44.928 -9.736 44.475 -9.736 QT
44.397 -9.736 44.303 -9.751 QT
44.209 -9.767 44.178 -9.783 QT
cp
f
GR
GS
[0.75 0 0 0.75 372.75037 39.1125] CT
N
54.695 -3.611 M
54.695 -3.705 54.773 -3.783 QT
55.539 -4.517 55.96 -5.47 QT
56.382 -6.423 56.382 -7.47 QT
56.382 -7.736 L
56.039 -7.392 55.539 -7.392 QT
55.054 -7.392 54.718 -7.728 QT
54.382 -8.064 54.382 -8.548 QT
54.382 -9.048 54.718 -9.376 QT
55.054 -9.705 55.539 -9.705 QT
56.289 -9.705 56.609 -9.009 QT
56.929 -8.314 56.929 -7.47 QT
56.929 -6.298 56.46 -5.251 QT
55.992 -4.205 55.132 -3.361 QT
55.054 -3.314 55.007 -3.314 QT
54.898 -3.314 54.796 -3.408 QT
54.695 -3.501 54.695 -3.611 QT
cp
f
GR
GS
[0.75 0 0 0.75 372.75037 39.1125] CT
N
65.712 -7.392 M
65.712 -8.126 L
66.431 -8.126 66.891 -8.244 QT
67.352 -8.361 67.352 -8.798 QT
67.352 -19.814 L
67.352 -20.376 67.181 -20.634 QT
67.009 -20.892 66.688 -20.947 QT
66.368 -21.001 65.712 -21.001 QT
65.712 -21.736 L
68.821 -21.97 L
68.821 -12.001 L
71.634 -14.47 L
72.056 -14.861 72.056 -15.205 QT
72.056 -15.455 71.884 -15.58 QT
71.712 -15.705 71.462 -15.705 QT
71.462 -16.439 L
75.415 -16.439 L
75.415 -15.705 L
73.977 -15.705 72.556 -14.47 QT
71.056 -13.158 L
73.743 -9.376 L
74.29 -8.58 74.665 -8.353 QT
75.04 -8.126 75.899 -8.126 QT
75.899 -7.392 L
71.712 -7.392 L
71.712 -8.126 L
72.431 -8.126 72.431 -8.564 QT
72.431 -8.892 72.056 -9.376 QT
70.04 -12.236 L
68.759 -11.142 L
68.759 -8.798 L
68.759 -8.361 69.22 -8.244 QT
69.681 -8.126 70.399 -8.126 QT
70.399 -7.392 L
65.712 -7.392 L
cp
f
GR
GS
[0.75 0 0 0.75 372.75037 39.1125] CT
N
84.425 -10.189 M
84.253 -10.189 84.135 -10.322 QT
84.018 -10.455 84.018 -10.595 QT
84.018 -10.783 84.135 -10.9 QT
84.253 -11.017 84.425 -11.017 QT
97.612 -11.017 L
97.768 -11.017 97.878 -10.9 QT
97.987 -10.783 97.987 -10.595 QT
97.987 -10.455 97.878 -10.322 QT
97.768 -10.189 97.612 -10.189 QT
84.425 -10.189 L
cp
84.425 -14.267 M
84.253 -14.267 84.135 -14.384 QT
84.018 -14.501 84.018 -14.689 QT
84.018 -14.83 84.135 -14.97 QT
84.253 -15.111 84.425 -15.111 QT
97.612 -15.111 L
97.768 -15.111 97.878 -14.97 QT
97.987 -14.83 97.987 -14.689 QT
97.987 -14.501 97.878 -14.384 QT
97.768 -14.267 97.612 -14.267 QT
84.425 -14.267 L
cp
f
GR
GS
[0.75 0 0 0.75 372.75037 39.1125] CT
N
107.614 -7.392 M
107.614 -8.126 L
110.239 -8.126 110.239 -8.798 QT
110.239 -19.814 L
109.146 -19.298 107.489 -19.298 QT
107.489 -20.033 L
110.068 -20.033 111.38 -21.376 QT
111.677 -21.376 L
111.739 -21.376 111.81 -21.322 QT
111.88 -21.267 111.88 -21.189 QT
111.88 -8.798 L
111.88 -8.126 114.505 -8.126 QT
114.505 -7.392 L
107.614 -7.392 L
cp
f
GR
GS
[0.75 0 0 0.75 372.75037 39.1125] CT
N
121.178 -6.923 M
118.6 -6.923 117.678 -9.048 QT
116.756 -11.173 116.756 -14.095 QT
116.756 -15.908 117.084 -17.517 QT
117.412 -19.126 118.405 -20.251 QT
119.397 -21.376 121.178 -21.376 QT
122.569 -21.376 123.444 -20.705 QT
124.319 -20.033 124.787 -18.955 QT
125.256 -17.876 125.42 -16.658 QT
125.584 -15.439 125.584 -14.095 QT
125.584 -12.283 125.256 -10.712 QT
124.928 -9.142 123.951 -8.033 QT
122.975 -6.923 121.178 -6.923 QT
cp
121.178 -7.47 M
122.35 -7.47 122.92 -8.673 QT
123.49 -9.876 123.623 -11.33 QT
123.756 -12.783 123.756 -14.423 QT
123.756 -16.001 123.623 -17.337 QT
123.49 -18.673 122.92 -19.751 QT
122.35 -20.83 121.178 -20.83 QT
119.99 -20.83 119.412 -19.744 QT
118.834 -18.658 118.701 -17.33 QT
118.569 -16.001 118.569 -14.423 QT
118.569 -13.251 118.631 -12.22 QT
118.694 -11.189 118.936 -10.087 QT
119.178 -8.986 119.725 -8.228 QT
120.272 -7.47 121.178 -7.47 QT
cp
f
GR
GS
[0.75 0 0 0.75 0 0] CT
0 0.4 0.8 RC
1 LJ
1.333 LW
N
124.911 412.707 M
127.128 412.707 L
131.654 412.707 L
136.179 412.707 L
140.705 412.707 L
145.23 412.707 L
149.756 412.707 L
154.281 412.707 L
158.806 412.707 L
163.332 412.707 L
167.857 412.707 L
172.383 412.707 L
176.908 412.707 L
181.434 412.707 L
185.959 412.707 L
190.484 412.707 L
195.01 412.707 L
199.535 412.707 L
204.061 412.707 L
208.586 412.707 L
213.111 412.707 L
217.637 412.707 L
222.162 412.848 L
226.688 413.143 L
231.213 413.527 L
235.739 414.042 L
240.264 414.607 L
244.789 415.219 L
249.315 415.955 L
253.84 416.802 L
258.366 417.659 L
262.891 418.529 L
267.417 419.454 L
271.942 420.41 L
276.467 421.481 L
280.993 422.673 L
285.518 423.929 L
290.044 425.268 L
294.569 425.366 L
299.095 424.081 L
303.62 422.05 L
308.145 418.886 L
312.671 415.336 L
317.196 411.43 L
321.722 406.441 L
326.247 400.503 L
330.773 394.59 L
335.298 388.676 L
339.823 382.362 L
344.349 375.872 L
348.874 368.413 L
353.4 359.918 L
357.925 350.952 L
362.45 341.321 L
366.976 337.414 L
371.501 339.933 L
376.027 345.74 L
380.552 356.698 L
385.078 369.261 L
389.603 383.28 L
394.128 402.223 L
398.654 425.454 L
403.179 448.155 L
407.705 470.434 L
412.23 494.274 L
416.756 518.558 L
421.281 547.151 L
425.806 580.378 L
430.332 615.456 L
434.857 653.317 L
439.383 662 L
443.908 637.981 L
448.434 596.931 L
452.959 529.522 L
457.484 453.486 L
462.01 369.567 L
466.535 260.384 L
471.061 129.12 L
475.586 57.367 L
476.534 55.928 L
S
GR
GS
[0.75 0 0 0.75 0 0] CT
0 0.4 0.8 RC
1 LJ
1.333 LW
N
481.272 55.928 M
484.637 71.692 L
489.162 143.288 L
493.688 213.027 L
498.213 278.177 L
502.739 384.451 L
507.264 521.353 L
511.789 601.002 L
516.315 621.072 L
520.84 616.582 L
525.366 564.656 L
529.891 528.698 L
534.417 511.912 L
538.942 463.063 L
543.467 395.452 L
547.993 357.638 L
552.518 347.969 L
557.044 352.319 L
561.569 382.536 L
566.095 396.972 L
570.62 394.056 L
575.145 404.47 L
579.671 419.33 L
584.196 426.903 L
588.722 429.456 L
593.247 426.357 L
597.773 415.131 L
602.298 410.567 L
606.823 412.702 L
611.349 412.137 L
615.874 411.965 L
620.4 411.807 L
624.925 410.752 L
629.451 411.188 L
633.976 412.877 L
638.501 413.457 L
643.027 413.176 L
647.552 413.033 L
652.078 412.598 L
656.603 412.443 L
661.128 412.672 L
665.654 412.715 L
670.179 412.716 L
674.705 412.736 L
679.23 412.705 L
683.756 412.699 L
688.281 412.709 L
692.806 412.708 L
697.332 412.707 L
701.857 412.707 L
706.383 412.707 L
710.908 412.707 L
715.434 412.707 L
719.959 412.707 L
724.484 412.707 L
729.01 412.707 L
733.535 412.707 L
738.061 412.707 L
742.586 412.707 L
747.112 412.707 L
751.637 412.707 L
756.162 412.707 L
760.688 412.707 L
765.213 412.707 L
769.739 412.707 L
774.264 412.707 L
778.789 412.707 L
783.315 412.707 L
787.84 412.707 L
792.366 412.707 L
796.891 412.707 L
801.417 412.707 L
805.942 412.707 L
810.467 412.707 L
814.993 412.707 L
819.518 412.707 L
824.044 412.707 L
828.569 412.707 L
833.095 412.707 L
837.62 412.707 L
842.145 412.707 L
846.671 412.707 L
851.196 412.707 L
855.722 412.707 L
860.247 412.707 L
864.773 412.707 L
869.089 412.707 L
S
GR
%%Trailer
%%Pages: 1
%%EOF
