%!PS-Adobe-3.0 EPSF-3.0
%%Creator: (MATLAB, The Mathworks, Inc. Version 9.3.0.713579 \(R2017b\). Operating System: Windows 10)
%%Title: C:/Users/simon/Documents/Unief/M2/Wavelets/Project/report/plots/decompositionDb2.eps
%%CreationDate: 2017-12-01T18:05:03
%%Pages: (atend)
%%BoundingBox: 0 0 420 315
%%LanguageLevel: 3
%%EndComments
%%BeginProlog
%%BeginResource: procset (Apache XML Graphics Std ProcSet) 1.2 0
%%Version: 1.2 0
%%Copyright: (Copyright 2001-2003,2010 The Apache Software Foundation. License terms: http://www.apache.org/licenses/LICENSE-2.0)
/bd{bind def}bind def
/ld{load def}bd
/GR/grestore ld
/GS/gsave ld
/RM/rmoveto ld
/C/curveto ld
/t/show ld
/L/lineto ld
/ML/setmiterlimit ld
/CT/concat ld
/f/fill ld
/N/newpath ld
/S/stroke ld
/CC/setcmykcolor ld
/A/ashow ld
/cp/closepath ld
/RC/setrgbcolor ld
/LJ/setlinejoin ld
/GC/setgray ld
/LW/setlinewidth ld
/M/moveto ld
/re {4 2 roll M
1 index 0 rlineto
0 exch rlineto
neg 0 rlineto
cp } bd
/_ctm matrix def
/_tm matrix def
/BT { _ctm currentmatrix pop matrix _tm copy pop 0 0 moveto } bd
/ET { _ctm setmatrix } bd
/iTm { _ctm setmatrix _tm concat } bd
/Tm { _tm astore pop iTm 0 0 moveto } bd
/ux 0.0 def
/uy 0.0 def
/F {
  /Tp exch def
  /Tf exch def
  Tf findfont Tp scalefont setfont
  /cf Tf def  /cs Tp def
} bd
/ULS {currentpoint /uy exch def /ux exch def} bd
/ULE {
  /Tcx currentpoint pop def
  gsave
  newpath
  cf findfont cs scalefont dup
  /FontMatrix get 0 get /Ts exch def /FontInfo get dup
  /UnderlinePosition get Ts mul /To exch def
  /UnderlineThickness get Ts mul /Tt exch def
  ux uy To add moveto  Tcx uy To add lineto
  Tt setlinewidth stroke
  grestore
} bd
/OLE {
  /Tcx currentpoint pop def
  gsave
  newpath
  cf findfont cs scalefont dup
  /FontMatrix get 0 get /Ts exch def /FontInfo get dup
  /UnderlinePosition get Ts mul /To exch def
  /UnderlineThickness get Ts mul /Tt exch def
  ux uy To add cs add moveto Tcx uy To add cs add lineto
  Tt setlinewidth stroke
  grestore
} bd
/SOE {
  /Tcx currentpoint pop def
  gsave
  newpath
  cf findfont cs scalefont dup
  /FontMatrix get 0 get /Ts exch def /FontInfo get dup
  /UnderlinePosition get Ts mul /To exch def
  /UnderlineThickness get Ts mul /Tt exch def
  ux uy To add cs 10 mul 26 idiv add moveto Tcx uy To add cs 10 mul 26 idiv add lineto
  Tt setlinewidth stroke
  grestore
} bd
/QT {
/Y22 exch store
/X22 exch store
/Y21 exch store
/X21 exch store
currentpoint
/Y21 load 2 mul add 3 div exch
/X21 load 2 mul add 3 div exch
/X21 load 2 mul /X22 load add 3 div
/Y21 load 2 mul /Y22 load add 3 div
/X22 load /Y22 load curveto
} bd
/SSPD {
dup length /d exch dict def
{
/v exch def
/k exch def
currentpagedevice k known {
/cpdv currentpagedevice k get def
v cpdv ne {
/upd false def
/nullv v type /nulltype eq def
/nullcpdv cpdv type /nulltype eq def
nullv nullcpdv or
{
/upd true def
} {
/sametype v type cpdv type eq def
sametype {
v type /arraytype eq {
/vlen v length def
/cpdvlen cpdv length def
vlen cpdvlen eq {
0 1 vlen 1 sub {
/i exch def
/obj v i get def
/cpdobj cpdv i get def
obj cpdobj ne {
/upd true def
exit
} if
} for
} {
/upd true def
} ifelse
} {
v type /dicttype eq {
v {
/dv exch def
/dk exch def
/cpddv cpdv dk get def
dv cpddv ne {
/upd true def
exit
} if
} forall
} {
/upd true def
} ifelse
} ifelse
} if
} ifelse
upd true eq {
d k v put
} if
} if
} if
} forall
d length 0 gt {
d setpagedevice
} if
} bd
/RE { % /NewFontName [NewEncodingArray] /FontName RE -
  findfont dup length dict begin
  {
    1 index /FID ne
    {def} {pop pop} ifelse
  } forall
  /Encoding exch def
  /FontName 1 index def
  currentdict definefont pop
  end
} bind def
%%EndResource
%%BeginResource: procset (Apache XML Graphics EPS ProcSet) 1.0 0
%%Version: 1.0 0
%%Copyright: (Copyright 2002-2003 The Apache Software Foundation. License terms: http://www.apache.org/licenses/LICENSE-2.0)
/BeginEPSF { %def
/b4_Inc_state save def         % Save state for cleanup
/dict_count countdictstack def % Count objects on dict stack
/op_count count 1 sub def      % Count objects on operand stack
userdict begin                 % Push userdict on dict stack
/showpage { } def              % Redefine showpage, { } = null proc
0 setgray 0 setlinecap         % Prepare graphics state
1 setlinewidth 0 setlinejoin
10 setmiterlimit [ ] 0 setdash newpath
/languagelevel where           % If level not equal to 1 then
{pop languagelevel             % set strokeadjust and
1 ne                           % overprint to their defaults.
{false setstrokeadjust false setoverprint
} if
} if
} bd
/EndEPSF { %def
count op_count sub {pop} repeat            % Clean up stacks
countdictstack dict_count sub {end} repeat
b4_Inc_state restore
} bd
%%EndResource
%FOPBeginFontDict
%%IncludeResource: font Courier-Oblique
%%IncludeResource: font Courier-BoldOblique
%%IncludeResource: font Courier-Bold
%%IncludeResource: font ZapfDingbats
%%IncludeResource: font Symbol
%%IncludeResource: font Helvetica
%%IncludeResource: font Helvetica-Oblique
%%IncludeResource: font Helvetica-Bold
%%IncludeResource: font Helvetica-BoldOblique
%%IncludeResource: font Times-Roman
%%IncludeResource: font Times-Italic
%%IncludeResource: font Times-Bold
%%IncludeResource: font Times-BoldItalic
%%IncludeResource: font Courier
%FOPEndFontDict
%%BeginResource: encoding WinAnsiEncoding
/WinAnsiEncoding [
/.notdef /.notdef /.notdef /.notdef /.notdef
/.notdef /.notdef /.notdef /.notdef /.notdef
/.notdef /.notdef /.notdef /.notdef /.notdef
/.notdef /.notdef /.notdef /.notdef /.notdef
/.notdef /.notdef /.notdef /.notdef /.notdef
/.notdef /.notdef /.notdef /.notdef /.notdef
/.notdef /.notdef /space /exclam /quotedbl
/numbersign /dollar /percent /ampersand /quotesingle
/parenleft /parenright /asterisk /plus /comma
/hyphen /period /slash /zero /one
/two /three /four /five /six
/seven /eight /nine /colon /semicolon
/less /equal /greater /question /at
/A /B /C /D /E
/F /G /H /I /J
/K /L /M /N /O
/P /Q /R /S /T
/U /V /W /X /Y
/Z /bracketleft /backslash /bracketright /asciicircum
/underscore /quoteleft /a /b /c
/d /e /f /g /h
/i /j /k /l /m
/n /o /p /q /r
/s /t /u /v /w
/x /y /z /braceleft /bar
/braceright /asciitilde /bullet /Euro /bullet
/quotesinglbase /florin /quotedblbase /ellipsis /dagger
/daggerdbl /circumflex /perthousand /Scaron /guilsinglleft
/OE /bullet /Zcaron /bullet /bullet
/quoteleft /quoteright /quotedblleft /quotedblright /bullet
/endash /emdash /asciitilde /trademark /scaron
/guilsinglright /oe /bullet /zcaron /Ydieresis
/space /exclamdown /cent /sterling /currency
/yen /brokenbar /section /dieresis /copyright
/ordfeminine /guillemotleft /logicalnot /sfthyphen /registered
/macron /degree /plusminus /twosuperior /threesuperior
/acute /mu /paragraph /middot /cedilla
/onesuperior /ordmasculine /guillemotright /onequarter /onehalf
/threequarters /questiondown /Agrave /Aacute /Acircumflex
/Atilde /Adieresis /Aring /AE /Ccedilla
/Egrave /Eacute /Ecircumflex /Edieresis /Igrave
/Iacute /Icircumflex /Idieresis /Eth /Ntilde
/Ograve /Oacute /Ocircumflex /Otilde /Odieresis
/multiply /Oslash /Ugrave /Uacute /Ucircumflex
/Udieresis /Yacute /Thorn /germandbls /agrave
/aacute /acircumflex /atilde /adieresis /aring
/ae /ccedilla /egrave /eacute /ecircumflex
/edieresis /igrave /iacute /icircumflex /idieresis
/eth /ntilde /ograve /oacute /ocircumflex
/otilde /odieresis /divide /oslash /ugrave
/uacute /ucircumflex /udieresis /yacute /thorn
/ydieresis
] def
%%EndResource
%FOPBeginFontReencode
/Courier-Oblique findfont
dup length dict begin
  {1 index /FID ne {def} {pop pop} ifelse} forall
  /Encoding WinAnsiEncoding def
  currentdict
end
/Courier-Oblique exch definefont pop
/Courier-BoldOblique findfont
dup length dict begin
  {1 index /FID ne {def} {pop pop} ifelse} forall
  /Encoding WinAnsiEncoding def
  currentdict
end
/Courier-BoldOblique exch definefont pop
/Courier-Bold findfont
dup length dict begin
  {1 index /FID ne {def} {pop pop} ifelse} forall
  /Encoding WinAnsiEncoding def
  currentdict
end
/Courier-Bold exch definefont pop
/Helvetica findfont
dup length dict begin
  {1 index /FID ne {def} {pop pop} ifelse} forall
  /Encoding WinAnsiEncoding def
  currentdict
end
/Helvetica exch definefont pop
/Helvetica-Oblique findfont
dup length dict begin
  {1 index /FID ne {def} {pop pop} ifelse} forall
  /Encoding WinAnsiEncoding def
  currentdict
end
/Helvetica-Oblique exch definefont pop
/Helvetica-Bold findfont
dup length dict begin
  {1 index /FID ne {def} {pop pop} ifelse} forall
  /Encoding WinAnsiEncoding def
  currentdict
end
/Helvetica-Bold exch definefont pop
/Helvetica-BoldOblique findfont
dup length dict begin
  {1 index /FID ne {def} {pop pop} ifelse} forall
  /Encoding WinAnsiEncoding def
  currentdict
end
/Helvetica-BoldOblique exch definefont pop
/Times-Roman findfont
dup length dict begin
  {1 index /FID ne {def} {pop pop} ifelse} forall
  /Encoding WinAnsiEncoding def
  currentdict
end
/Times-Roman exch definefont pop
/Times-Italic findfont
dup length dict begin
  {1 index /FID ne {def} {pop pop} ifelse} forall
  /Encoding WinAnsiEncoding def
  currentdict
end
/Times-Italic exch definefont pop
/Times-Bold findfont
dup length dict begin
  {1 index /FID ne {def} {pop pop} ifelse} forall
  /Encoding WinAnsiEncoding def
  currentdict
end
/Times-Bold exch definefont pop
/Times-BoldItalic findfont
dup length dict begin
  {1 index /FID ne {def} {pop pop} ifelse} forall
  /Encoding WinAnsiEncoding def
  currentdict
end
/Times-BoldItalic exch definefont pop
/Courier findfont
dup length dict begin
  {1 index /FID ne {def} {pop pop} ifelse} forall
  /Encoding WinAnsiEncoding def
  currentdict
end
/Courier exch definefont pop
%FOPEndFontReencode
%%EndProlog
%%Page: 1 1
%%PageBoundingBox: 0 0 420 315
%%BeginPageSetup
[1 0 0 -1 0 315] CT
%%EndPageSetup
GS
[0.6 0 0 0.6 0 0] CT
1 GC
N
0 0 700 525 re
f
GR
GS
[0.6 0 0 0.6 0 0] CT
1 GC
N
0 0 700 525 re
f
GR
GS
[0.6 0 0 0.6 0 0] CT
1 GC
N
91 467 M
634 467 L
634 39 L
91 39 L
cp
f
GR
GS
[0.6 0 0 0.6 0 0] CT
0.149 GC
2 setlinecap
1 LJ
0.833 LW
N
91 467 M
634 467 L
S
GR
GS
[0.6 0 0 0.6 0 0] CT
0.149 GC
2 setlinecap
1 LJ
0.833 LW
N
91 39 M
634 39 L
S
GR
GS
[0.6 0 0 0.6 0 0] CT
0.149 GC
2 setlinecap
1 LJ
0.833 LW
N
103.237 467 M
103.237 461.57 L
S
GR
GS
[0.6 0 0 0.6 0 0] CT
0.149 GC
2 setlinecap
1 LJ
0.833 LW
N
189.658 467 M
189.658 461.57 L
S
GR
GS
[0.6 0 0 0.6 0 0] CT
0.149 GC
2 setlinecap
1 LJ
0.833 LW
N
276.079 467 M
276.079 461.57 L
S
GR
GS
[0.6 0 0 0.6 0 0] CT
0.149 GC
2 setlinecap
1 LJ
0.833 LW
N
362.5 467 M
362.5 461.57 L
S
GR
GS
[0.6 0 0 0.6 0 0] CT
0.149 GC
2 setlinecap
1 LJ
0.833 LW
N
448.921 467 M
448.921 461.57 L
S
GR
GS
[0.6 0 0 0.6 0 0] CT
0.149 GC
2 setlinecap
1 LJ
0.833 LW
N
535.342 467 M
535.342 461.57 L
S
GR
GS
[0.6 0 0 0.6 0 0] CT
0.149 GC
2 setlinecap
1 LJ
0.833 LW
N
621.763 467 M
621.763 461.57 L
S
GR
GS
[0.6 0 0 0.6 0 0] CT
0.149 GC
2 setlinecap
1 LJ
0.833 LW
N
103.237 39 M
103.237 44.43 L
S
GR
GS
[0.6 0 0 0.6 0 0] CT
0.149 GC
2 setlinecap
1 LJ
0.833 LW
N
189.658 39 M
189.658 44.43 L
S
GR
GS
[0.6 0 0 0.6 0 0] CT
0.149 GC
2 setlinecap
1 LJ
0.833 LW
N
276.079 39 M
276.079 44.43 L
S
GR
GS
[0.6 0 0 0.6 0 0] CT
0.149 GC
2 setlinecap
1 LJ
0.833 LW
N
362.5 39 M
362.5 44.43 L
S
GR
GS
[0.6 0 0 0.6 0 0] CT
0.149 GC
2 setlinecap
1 LJ
0.833 LW
N
448.921 39 M
448.921 44.43 L
S
GR
GS
[0.6 0 0 0.6 0 0] CT
0.149 GC
2 setlinecap
1 LJ
0.833 LW
N
535.342 39 M
535.342 44.43 L
S
GR
GS
[0.6 0 0 0.6 0 0] CT
0.149 GC
2 setlinecap
1 LJ
0.833 LW
N
621.763 39 M
621.763 44.43 L
S
GR
GS
[0.6 0 0 0.6 61.94196 284.19999] CT
0.149 GC
/Helvetica 16.667 F
GS
[1 0 0 1 0 0] CT
-7.5 17 moveto 
1 -1 scale
(-3) t 
GR
GR
GS
[0.6 0 0 0.6 113.79464 284.19999] CT
0.149 GC
/Helvetica 16.667 F
GS
[1 0 0 1 0 0] CT
-7.5 17 moveto 
1 -1 scale
(-2) t 
GR
GR
GS
[0.6 0 0 0.6 165.64731 284.19999] CT
0.149 GC
/Helvetica 16.667 F
GS
[1 0 0 1 0 0] CT
-7.5 17 moveto 
1 -1 scale
(-1) t 
GR
GR
GS
[0.6 0 0 0.6 217.5 284.19999] CT
0.149 GC
/Helvetica 16.667 F
GS
[1 0 0 1 0 0] CT
-5 17 moveto 
1 -1 scale
(0) t 
GR
GR
GS
[0.6 0 0 0.6 269.35269 284.19999] CT
0.149 GC
/Helvetica 16.667 F
GS
[1 0 0 1 0 0] CT
-5 17 moveto 
1 -1 scale
(1) t 
GR
GR
GS
[0.6 0 0 0.6 321.20537 284.19999] CT
0.149 GC
/Helvetica 16.667 F
GS
[1 0 0 1 0 0] CT
-5 17 moveto 
1 -1 scale
(2) t 
GR
GR
GS
[0.6 0 0 0.6 373.05806 284.19999] CT
0.149 GC
/Helvetica 16.667 F
GS
[1 0 0 1 0 0] CT
-5 17 moveto 
1 -1 scale
(3) t 
GR
GR
GS
[0.6 0 0 0.6 0 0] CT
0.149 GC
2 setlinecap
1 LJ
0.833 LW
N
91 467 M
91 39 L
S
GR
GS
[0.6 0 0 0.6 0 0] CT
0.149 GC
2 setlinecap
1 LJ
0.833 LW
N
634 467 M
634 39 L
S
GR
GS
[0.6 0 0 0.6 0 0] CT
0.149 GC
2 setlinecap
1 LJ
0.833 LW
N
91 434.244 M
96.43 434.244 L
S
GR
GS
[0.6 0 0 0.6 0 0] CT
0.149 GC
2 setlinecap
1 LJ
0.833 LW
N
91 369.024 M
96.43 369.024 L
S
GR
GS
[0.6 0 0 0.6 0 0] CT
0.149 GC
2 setlinecap
1 LJ
0.833 LW
N
91 303.805 M
96.43 303.805 L
S
GR
GS
[0.6 0 0 0.6 0 0] CT
0.149 GC
2 setlinecap
1 LJ
0.833 LW
N
91 238.585 M
96.43 238.585 L
S
GR
GS
[0.6 0 0 0.6 0 0] CT
0.149 GC
2 setlinecap
1 LJ
0.833 LW
N
91 173.366 M
96.43 173.366 L
S
GR
GS
[0.6 0 0 0.6 0 0] CT
0.149 GC
2 setlinecap
1 LJ
0.833 LW
N
91 108.146 M
96.43 108.146 L
S
GR
GS
[0.6 0 0 0.6 0 0] CT
0.149 GC
2 setlinecap
1 LJ
0.833 LW
N
91 42.927 M
96.43 42.927 L
S
GR
GS
[0.6 0 0 0.6 0 0] CT
0.149 GC
2 setlinecap
1 LJ
0.833 LW
N
634 434.244 M
628.57 434.244 L
S
GR
GS
[0.6 0 0 0.6 0 0] CT
0.149 GC
2 setlinecap
1 LJ
0.833 LW
N
634 369.024 M
628.57 369.024 L
S
GR
GS
[0.6 0 0 0.6 0 0] CT
0.149 GC
2 setlinecap
1 LJ
0.833 LW
N
634 303.805 M
628.57 303.805 L
S
GR
GS
[0.6 0 0 0.6 0 0] CT
0.149 GC
2 setlinecap
1 LJ
0.833 LW
N
634 238.585 M
628.57 238.585 L
S
GR
GS
[0.6 0 0 0.6 0 0] CT
0.149 GC
2 setlinecap
1 LJ
0.833 LW
N
634 173.366 M
628.57 173.366 L
S
GR
GS
[0.6 0 0 0.6 0 0] CT
0.149 GC
2 setlinecap
1 LJ
0.833 LW
N
634 108.146 M
628.57 108.146 L
S
GR
GS
[0.6 0 0 0.6 0 0] CT
0.149 GC
2 setlinecap
1 LJ
0.833 LW
N
634 42.927 M
628.57 42.927 L
S
GR
GS
[0.6 0 0 0.6 50.6 260.54619] CT
0.149 GC
/Helvetica 16.667 F
GS
[1 0 0 1 0 0] CT
-34 6.5 moveto 
1 -1 scale
(-300) t 
GR
GR
GS
[0.6 0 0 0.6 50.6 221.41448] CT
0.149 GC
/Helvetica 16.667 F
GS
[1 0 0 1 0 0] CT
-34 6.5 moveto 
1 -1 scale
(-250) t 
GR
GR
GS
[0.6 0 0 0.6 50.6 182.28278] CT
0.149 GC
/Helvetica 16.667 F
GS
[1 0 0 1 0 0] CT
-34 6.5 moveto 
1 -1 scale
(-200) t 
GR
GR
GS
[0.6 0 0 0.6 50.6 143.15108] CT
0.149 GC
/Helvetica 16.667 F
GS
[1 0 0 1 0 0] CT
-34 6.5 moveto 
1 -1 scale
(-150) t 
GR
GR
GS
[0.6 0 0 0.6 50.6 104.01937] CT
0.149 GC
/Helvetica 16.667 F
GS
[1 0 0 1 0 0] CT
-34 6.5 moveto 
1 -1 scale
(-100) t 
GR
GR
GS
[0.6 0 0 0.6 50.6 64.88767] CT
0.149 GC
/Helvetica 16.667 F
GS
[1 0 0 1 0 0] CT
-25 6.5 moveto 
1 -1 scale
(-50) t 
GR
GR
GS
[0.6 0 0 0.6 50.6 25.75596] CT
0.149 GC
/Helvetica 16.667 F
GS
[1 0 0 1 0 0] CT
-10 6.5 moveto 
1 -1 scale
(0) t 
GR
GR
GS
[0.6 0 0 0.6 217.5002 21.75] CT
/Helvetica-Bold 18.333 F
GS
[1 0 0 1 0 0] CT
-114.5 -5 moveto 
1 -1 scale
(Decomposition filters DB2) t 
GR
GR
GS
[0.6 0 0 0.6 0 0] CT
0 0.447 0.741 RC
1 LJ
3.333 LW
N
91 467 M
91.271 179.071 L
91.543 163.364 L
91.815 154.177 L
92.086 147.658 L
92.357 142.602 L
92.629 138.471 L
92.901 134.978 L
93.172 131.953 L
93.444 129.284 L
93.715 126.897 L
93.986 124.738 L
94.258 122.766 L
94.53 120.953 L
94.801 119.274 L
95.072 117.712 L
95.344 116.25 L
95.616 114.877 L
95.887 113.582 L
96.158 112.358 L
96.43 111.196 L
96.701 110.091 L
96.973 109.038 L
97.245 108.032 L
97.516 107.068 L
97.787 106.144 L
98.059 105.256 L
98.331 104.402 L
98.602 103.579 L
98.873 102.785 L
99.145 102.018 L
99.416 101.276 L
99.688 100.558 L
99.96 99.862 L
100.231 99.186 L
100.502 98.531 L
100.774 97.894 L
101.046 97.274 L
101.317 96.671 L
101.588 96.084 L
101.86 95.512 L
102.132 94.954 L
102.403 94.409 L
102.675 93.878 L
102.946 93.359 L
103.217 92.851 L
103.489 92.355 L
103.761 91.869 L
104.032 91.394 L
104.303 90.928 L
104.575 90.472 L
104.847 90.026 L
105.118 89.588 L
105.389 89.158 L
105.661 88.736 L
105.932 88.323 L
106.204 87.916 L
106.476 87.517 L
106.747 87.125 L
107.018 86.74 L
107.29 86.362 L
107.562 85.989 L
107.833 85.623 L
108.104 85.263 L
108.376 84.908 L
108.647 84.56 L
108.919 84.216 L
109.191 83.878 L
109.462 83.545 L
109.733 83.216 L
110.005 82.893 L
110.277 82.574 L
110.548 82.26 L
110.819 81.95 L
111.091 81.644 L
111.363 81.343 L
111.634 81.046 L
111.906 80.752 L
112.177 80.463 L
112.448 80.177 L
112.72 79.895 L
112.992 79.617 L
113.263 79.342 L
113.534 79.07 L
113.806 78.802 L
114.077 78.537 L
114.349 78.275 L
114.62 78.016 L
114.892 77.76 L
115.163 77.508 L
115.435 77.258 L
115.707 77.011 L
115.978 76.767 L
116.249 76.525 L
116.521 76.286 L
116.793 76.05 L
117.064 75.816 L
117.335 75.585 L
117.607 75.356 L
117.879 75.13 L
118.15 74.906 L
118.422 74.684 L
118.693 74.465 L
118.964 74.247 L
119.236 74.032 L
119.508 73.819 L
119.779 73.609 L
120.05 73.4 L
120.322 73.193 L
120.593 72.988 L
120.865 72.785 L
121.137 72.584 L
121.408 72.385 L
121.679 72.188 L
121.951 71.993 L
122.223 71.799 L
122.494 71.607 L
122.765 71.417 L
123.037 71.229 L
123.309 71.042 L
123.58 70.857 L
123.852 70.673 L
124.123 70.491 L
124.395 70.311 L
124.666 70.132 L
124.938 69.954 L
125.209 69.779 L
125.48 69.604 L
125.752 69.431 L
126.024 69.26 L
126.295 69.09 L
126.566 68.921 L
126.838 68.753 L
127.109 68.587 L
127.381 68.423 L
127.653 68.259 L
127.924 68.097 L
128.195 67.936 L
128.467 67.776 L
128.739 67.618 L
129.01 67.461 L
129.281 67.305 L
129.553 67.15 L
129.824 66.996 L
130.096 66.844 L
130.368 66.692 L
130.639 66.542 L
130.91 66.393 L
131.182 66.244 L
131.454 66.097 L
131.725 65.951 L
131.996 65.806 L
132.268 65.663 L
132.54 65.52 L
132.811 65.378 L
133.083 65.237 L
133.354 65.097 L
133.626 64.958 L
133.897 64.82 L
134.169 64.683 L
134.44 64.547 L
134.711 64.412 L
134.983 64.277 L
135.255 64.144 L
135.526 64.012 L
135.797 63.88 L
136.069 63.749 L
136.34 63.619 L
136.612 63.49 L
136.884 63.362 L
137.155 63.235 L
137.426 63.108 L
137.698 62.983 L
137.969 62.858 L
138.241 62.734 L
138.512 62.61 L
138.784 62.488 L
139.055 62.366 L
139.327 62.245 L
139.599 62.125 L
139.87 62.005 L
140.141 61.886 L
140.413 61.768 L
140.685 61.651 L
140.956 61.534 L
141.227 61.418 L
141.499 61.303 L
141.771 61.188 L
142.042 61.075 L
142.314 60.961 L
142.585 60.849 L
142.856 60.737 L
143.128 60.626 L
143.4 60.515 L
143.671 60.406 L
143.942 60.296 L
144.214 60.188 L
144.486 60.08 L
144.757 59.972 L
145.028 59.866 L
145.3 59.76 L
145.572 59.654 L
145.843 59.549 L
146.115 59.445 L
146.386 59.341 L
146.658 59.238 L
146.929 59.135 L
147.201 59.033 L
147.472 58.932 L
147.743 58.831 L
148.015 58.731 L
148.286 58.631 L
148.558 58.532 L
148.83 58.433 L
149.101 58.335 L
149.372 58.237 L
149.644 58.14 L
149.915 58.044 L
150.187 57.947 L
150.458 57.852 L
150.73 57.757 L
151.001 57.662 L
151.273 57.568 L
151.545 57.475 L
151.816 57.382 L
152.087 57.289 L
152.359 57.197 L
152.631 57.106 L
152.902 57.015 L
153.173 56.924 L
153.445 56.834 L
153.717 56.744 L
153.988 56.655 L
154.26 56.566 L
154.531 56.478 L
154.802 56.39 L
155.074 56.303 L
155.346 56.216 L
155.617 56.129 L
155.888 56.043 L
156.16 55.957 L
156.432 55.872 L
156.703 55.787 L
156.974 55.703 L
157.246 55.619 L
157.518 55.536 L
157.789 55.452 L
158.061 55.37 L
158.332 55.287 L
158.604 55.206 L
158.875 55.124 L
159.146 55.043 L
159.418 54.962 L
159.689 54.882 L
159.961 54.802 L
160.232 54.723 L
160.504 54.643 L
160.776 54.565 L
161.047 54.486 L
161.318 54.408 L
161.59 54.331 L
161.862 54.254 L
162.133 54.177 L
162.404 54.1 L
162.676 54.024 L
162.947 53.948 L
163.219 53.873 L
163.491 53.798 L
163.762 53.723 L
164.033 53.649 L
164.305 53.575 L
164.577 53.501 L
164.848 53.428 L
165.119 53.355 L
165.391 53.282 L
165.663 53.21 L
165.934 53.138 L
166.205 53.066 L
166.477 52.995 L
166.749 52.924 L
167.02 52.854 L
167.292 52.783 L
167.563 52.713 L
167.834 52.644 L
168.106 52.575 L
168.378 52.506 L
168.649 52.437 L
168.92 52.368 L
169.192 52.3 L
169.464 52.233 L
169.735 52.165 L
170.007 52.098 L
170.278 52.031 L
170.549 51.965 L
170.821 51.899 L
171.092 51.833 L
171.364 51.767 L
171.635 51.702 L
171.907 51.637 L
172.178 51.572 L
172.45 51.508 L
172.722 51.443 L
172.993 51.38 L
173.264 51.316 L
173.536 51.253 L
173.808 51.19 L
174.079 51.127 L
174.35 51.065 L
174.622 51.002 L
174.894 50.94 L
175.165 50.879 L
175.436 50.818 L
175.708 50.756 L
175.979 50.696 L
176.251 50.635 L
176.523 50.575 L
176.794 50.515 L
177.065 50.455 L
177.337 50.396 L
177.609 50.336 L
177.88 50.278 L
178.151 50.219 L
178.423 50.16 L
178.695 50.102 L
178.966 50.044 L
179.238 49.987 L
179.509 49.929 L
179.781 49.872 L
180.052 49.815 L
180.324 49.758 L
180.595 49.702 L
180.866 49.646 L
181.138 49.59 L
181.41 49.534 L
181.681 49.479 L
181.953 49.424 L
182.224 49.369 L
182.495 49.314 L
182.767 49.259 L
183.038 49.205 L
183.31 49.151 L
183.581 49.097 L
183.853 49.044 L
184.124 48.99 L
184.396 48.937 L
184.668 48.885 L
184.939 48.832 L
185.21 48.779 L
185.482 48.727 L
185.754 48.675 L
186.025 48.624 L
186.296 48.572 L
186.568 48.521 L
186.84 48.47 L
187.111 48.419 L
187.382 48.368 L
187.654 48.318 L
187.925 48.268 L
188.197 48.218 L
188.469 48.168 L
188.74 48.118 L
189.011 48.069 L
189.283 48.02 L
189.555 47.971 L
189.826 47.922 L
190.098 47.874 L
190.369 47.825 L
190.641 47.777 L
190.912 47.729 L
191.184 47.682 L
191.455 47.634 L
191.727 47.587 L
191.998 47.54 L
192.27 47.493 L
192.541 47.446 L
192.813 47.4 L
193.084 47.354 L
193.355 47.308 L
193.627 47.262 L
193.898 47.216 L
194.17 47.171 L
194.441 47.125 L
194.713 47.08 L
194.984 47.035 L
195.256 46.991 L
195.528 46.946 L
195.799 46.902 L
196.07 46.858 L
196.342 46.814 L
196.613 46.77 L
196.885 46.726 L
197.156 46.683 L
197.428 46.64 L
197.699 46.597 L
197.971 46.554 L
198.242 46.511 L
198.514 46.469 L
198.786 46.426 L
199.057 46.384 L
199.329 46.342 L
199.6 46.301 L
199.872 46.259 L
200.143 46.218 L
200.415 46.176 L
200.686 46.135 L
200.957 46.095 L
201.229 46.054 L
201.501 46.013 L
201.772 45.973 L
202.044 45.933 L
202.315 45.893 L
202.587 45.853 L
202.858 45.813 L
203.13 45.774 L
203.401 45.735 L
203.673 45.695 L
203.944 45.656 L
204.215 45.618 L
204.487 45.579 L
204.758 45.541 L
205.03 45.502 L
205.301 45.464 L
205.573 45.426 L
205.844 45.388 L
206.116 45.351 L
206.387 45.313 L
206.659 45.276 L
206.93 45.239 L
207.202 45.202 L
207.474 45.165 L
207.745 45.128 L
208.017 45.092 L
208.288 45.055 L
208.559 45.019 L
208.831 44.983 L
209.102 44.947 L
209.374 44.911 L
209.645 44.876 L
209.917 44.84 L
210.188 44.805 L
210.46 44.77 L
210.732 44.735 L
211.003 44.7 L
211.275 44.666 L
211.546 44.631 L
211.818 44.597 L
212.089 44.563 L
212.361 44.529 L
212.632 44.495 L
212.904 44.461 L
213.175 44.427 L
213.446 44.394 L
213.718 44.361 L
213.99 44.327 L
214.261 44.294 L
214.533 44.262 L
214.804 44.229 L
215.076 44.196 L
215.347 44.164 L
215.618 44.132 L
215.89 44.099 L
216.161 44.067 L
216.433 44.036 L
216.704 44.004 L
216.976 43.972 L
217.247 43.941 L
217.519 43.91 L
217.79 43.879 L
218.062 43.848 L
218.333 43.817 L
218.605 43.786 L
218.876 43.755 L
219.148 43.725 L
219.419 43.695 L
219.691 43.664 L
219.963 43.634 L
220.234 43.604 L
220.506 43.575 L
220.777 43.545 L
221.049 43.516 L
221.32 43.486 L
221.591 43.457 L
221.863 43.428 L
222.134 43.399 L
222.406 43.37 L
222.678 43.341 L
222.949 43.313 L
223.221 43.284 L
223.492 43.256 L
223.764 43.228 L
224.035 43.2 L
224.307 43.172 L
224.578 43.144 L
224.85 43.117 L
225.121 43.089 L
225.393 43.062 L
225.664 43.034 L
225.936 43.007 L
226.207 42.98 L
226.479 42.953 L
226.75 42.927 L
227.021 42.9 L
227.293 42.873 L
227.564 42.847 L
227.836 42.821 L
228.107 42.795 L
228.379 42.769 L
228.65 42.743 L
228.922 42.717 L
229.193 42.691 L
229.465 42.666 L
229.736 42.64 L
230.008 42.615 L
230.279 42.59 L
230.551 42.565 L
230.822 42.54 L
231.094 42.515 L
231.365 42.491 L
231.637 42.466 L
231.909 42.442 L
232.18 42.417 L
232.452 42.393 L
232.723 42.369 L
232.995 42.345 L
233.266 42.321 L
233.538 42.298 L
233.809 42.274 L
234.08 42.25 L
234.352 42.227 L
234.623 42.204 L
234.895 42.181 L
235.167 42.158 L
235.438 42.135 L
235.71 42.112 L
235.981 42.089 L
236.253 42.067 L
236.524 42.044 L
236.796 42.022 L
237.067 42 L
237.339 41.977 L
237.61 41.955 L
237.882 41.933 L
238.153 41.912 L
238.424 41.89 L
238.696 41.868 L
238.967 41.847 L
239.239 41.826 L
239.51 41.804 L
239.782 41.783 L
240.053 41.762 L
240.325 41.741 L
240.596 41.72 L
240.868 41.7 L
241.14 41.679 L
241.411 41.659 L
241.682 41.638 L
241.954 41.618 L
242.225 41.598 L
242.497 41.578 L
242.768 41.558 L
243.04 41.538 L
243.311 41.518 L
243.583 41.499 L
243.854 41.479 L
244.126 41.46 L
244.398 41.44 L
244.669 41.421 L
244.941 41.402 L
245.212 41.383 L
245.484 41.364 L
245.755 41.345 L
246.027 41.326 L
246.298 41.308 L
246.569 41.289 L
246.841 41.271 L
247.113 41.253 L
247.384 41.234 L
247.656 41.216 L
247.927 41.198 L
248.199 41.18 L
248.47 41.163 L
248.742 41.145 L
249.013 41.127 L
249.285 41.11 L
249.556 41.092 L
249.827 41.075 L
250.099 41.058 L
250.37 41.041 L
250.642 41.024 L
250.913 41.007 L
251.185 40.99 L
251.456 40.973 L
251.728 40.956 L
251.999 40.94 L
252.271 40.923 L
252.542 40.907 L
252.814 40.891 L
253.086 40.875 L
253.357 40.858 L
253.629 40.842 L
253.9 40.827 L
254.172 40.811 L
254.443 40.795 L
254.714 40.779 L
254.986 40.764 L
255.257 40.748 L
255.529 40.733 L
255.8 40.718 L
256.072 40.703 L
256.344 40.688 L
256.615 40.673 L
256.887 40.658 L
257.158 40.643 L
257.43 40.628 L
257.701 40.614 L
257.973 40.599 L
258.244 40.585 L
258.516 40.57 L
258.787 40.556 L
259.059 40.542 L
259.33 40.528 L
259.602 40.514 L
259.873 40.5 L
260.145 40.486 L
260.416 40.472 L
260.688 40.459 L
260.959 40.445 L
261.23 40.431 L
261.502 40.418 L
261.773 40.405 L
262.045 40.392 L
262.316 40.378 L
262.588 40.365 L
262.859 40.352 L
263.131 40.339 L
263.402 40.327 L
263.674 40.314 L
263.945 40.301 L
264.217 40.289 L
264.488 40.276 L
264.76 40.264 L
265.031 40.252 L
265.303 40.239 L
265.574 40.227 L
265.846 40.215 L
266.117 40.203 L
266.389 40.191 L
266.66 40.179 L
266.932 40.168 L
267.203 40.156 L
267.475 40.144 L
267.746 40.133 L
268.018 40.121 L
268.289 40.11 L
268.561 40.099 L
268.832 40.087 L
269.104 40.076 L
269.375 40.065 L
269.647 40.054 L
269.918 40.043 L
270.19 40.033 L
270.461 40.022 L
270.733 40.011 L
271.004 40.001 L
271.276 39.99 L
271.548 39.98 L
271.819 39.969 L
272.091 39.959 L
272.362 39.949 L
272.634 39.939 L
272.905 39.929 L
273.177 39.919 L
273.448 39.909 L
273.719 39.899 L
273.991 39.889 L
274.262 39.879 L
274.534 39.87 L
274.806 39.86 L
275.077 39.851 L
275.349 39.841 L
275.62 39.832 L
275.892 39.823 L
276.163 39.814 L
276.435 39.804 L
276.706 39.795 L
276.978 39.786 L
277.249 39.777 L
277.521 39.769 L
277.792 39.76 L
278.064 39.751 L
278.335 39.742 L
278.607 39.734 L
278.878 39.725 L
279.15 39.717 L
279.421 39.709 L
279.693 39.7 L
279.964 39.692 L
280.236 39.684 L
280.507 39.676 L
280.779 39.668 L
281.05 39.66 L
281.322 39.652 L
281.593 39.644 L
281.865 39.636 L
282.136 39.628 L
282.408 39.621 L
282.679 39.613 L
282.951 39.606 L
283.222 39.598 L
283.493 39.591 L
283.765 39.584 L
284.036 39.576 L
284.308 39.569 L
284.579 39.562 L
284.851 39.555 L
285.122 39.548 L
285.394 39.541 L
285.665 39.534 L
285.937 39.527 L
286.208 39.52 L
286.48 39.514 L
286.751 39.507 L
287.023 39.5 L
287.294 39.494 L
287.566 39.487 L
287.837 39.481 L
288.109 39.475 L
288.38 39.468 L
288.652 39.462 L
288.923 39.456 L
289.195 39.45 L
289.466 39.444 L
289.738 39.438 L
290.009 39.432 L
290.281 39.426 L
290.552 39.42 L
290.824 39.414 L
291.095 39.408 L
291.367 39.403 L
291.638 39.397 L
291.91 39.392 L
292.181 39.386 L
292.453 39.381 L
292.724 39.375 L
292.996 39.37 L
293.267 39.365 L
293.539 39.359 L
293.81 39.354 L
294.082 39.349 L
294.353 39.344 L
294.625 39.339 L
294.897 39.334 L
295.168 39.329 L
295.44 39.324 L
295.711 39.319 L
295.983 39.314 L
296.254 39.31 L
296.526 39.305 L
296.797 39.3 L
297.069 39.296 L
297.34 39.291 L
297.612 39.287 L
297.883 39.282 L
298.155 39.278 L
298.426 39.274 L
298.698 39.269 L
298.969 39.265 L
299.241 39.261 L
299.512 39.257 L
299.784 39.253 L
300.055 39.249 L
300.327 39.245 L
300.598 39.241 L
300.87 39.237 L
301.141 39.233 L
301.413 39.229 L
301.684 39.225 L
301.956 39.221 L
302.227 39.218 L
302.499 39.214 L
302.77 39.21 L
303.042 39.207 L
303.313 39.203 L
303.585 39.2 L
303.856 39.196 L
304.128 39.193 L
304.399 39.19 L
304.671 39.186 L
304.942 39.183 L
305.214 39.18 L
305.485 39.177 L
305.757 39.174 L
306.028 39.17 L
306.299 39.167 L
306.571 39.164 L
306.842 39.161 L
307.114 39.158 L
307.385 39.156 L
307.657 39.153 L
307.928 39.15 L
308.2 39.147 L
308.471 39.144 L
308.743 39.142 L
309.014 39.139 L
309.286 39.136 L
309.557 39.134 L
309.829 39.131 L
310.1 39.128 L
310.372 39.126 L
310.643 39.123 L
310.915 39.121 L
311.186 39.119 L
311.458 39.116 L
311.729 39.114 L
312.001 39.112 L
312.272 39.109 L
312.544 39.107 L
312.815 39.105 L
313.087 39.103 L
313.358 39.101 L
313.63 39.098 L
313.901 39.096 L
314.173 39.094 L
314.444 39.092 L
314.716 39.09 L
314.987 39.088 L
315.259 39.086 L
315.53 39.085 L
315.802 39.083 L
316.073 39.081 L
316.345 39.079 L
316.617 39.077 L
316.888 39.076 L
317.159 39.074 L
317.431 39.072 L
317.703 39.071 L
317.974 39.069 L
318.246 39.067 L
318.517 39.066 L
318.789 39.064 L
319.06 39.063 L
319.332 39.061 L
319.603 39.06 L
319.875 39.058 L
320.146 39.057 L
320.418 39.055 L
320.689 39.054 L
320.961 39.053 L
321.232 39.051 L
321.504 39.05 L
321.775 39.049 L
322.047 39.048 L
322.318 39.046 L
322.59 39.045 L
322.861 39.044 L
323.133 39.043 L
323.404 39.042 L
323.676 39.041 L
323.947 39.04 L
324.219 39.038 L
324.49 39.037 L
324.762 39.036 L
325.033 39.035 L
325.305 39.034 L
325.576 39.033 L
325.848 39.032 L
326.119 39.032 L
326.391 39.031 L
326.662 39.03 L
326.934 39.029 L
327.205 39.028 L
327.477 39.027 L
327.748 39.026 L
328.02 39.026 L
328.291 39.025 L
328.563 39.024 L
328.834 39.023 L
329.105 39.023 L
329.377 39.022 L
329.648 39.021 L
329.92 39.021 L
330.191 39.02 L
330.463 39.019 L
330.734 39.019 L
331.006 39.018 L
331.277 39.017 L
331.549 39.017 L
331.82 39.016 L
332.092 39.016 L
332.363 39.015 L
332.635 39.015 L
332.906 39.014 L
333.178 39.014 L
333.449 39.013 L
333.721 39.013 L
333.992 39.012 L
334.264 39.012 L
334.535 39.011 L
334.807 39.011 L
335.078 39.01 L
335.35 39.01 L
335.621 39.01 L
335.893 39.009 L
336.164 39.009 L
336.436 39.009 L
336.707 39.008 L
336.979 39.008 L
337.25 39.008 L
337.522 39.007 L
337.793 39.007 L
338.065 39.007 L
338.336 39.006 L
338.608 39.006 L
338.879 39.006 L
339.151 39.006 L
339.423 39.005 L
339.694 39.005 L
339.965 39.005 L
340.237 39.005 L
340.509 39.004 L
340.78 39.004 L
341.052 39.004 L
341.323 39.004 L
341.595 39.004 L
341.866 39.003 L
342.138 39.003 L
342.409 39.003 L
342.681 39.003 L
342.952 39.003 L
343.224 39.003 L
343.495 39.002 L
343.767 39.002 L
344.038 39.002 L
344.31 39.002 L
344.581 39.002 L
344.853 39.002 L
345.124 39.002 L
345.396 39.002 L
345.667 39.002 L
345.939 39.001 L
346.21 39.001 L
346.482 39.001 L
346.753 39.001 L
347.025 39.001 L
347.296 39.001 L
347.568 39.001 L
347.839 39.001 L
348.111 39.001 L
348.382 39.001 L
348.654 39.001 L
348.925 39.001 L
349.197 39.001 L
349.468 39.001 L
349.74 39 L
350.011 39 L
350.283 39 L
350.554 39 L
350.826 39 L
351.097 39 L
351.368 39 L
351.64 39 L
351.911 39 L
352.183 39 L
352.454 39 L
352.726 39 L
352.997 39 L
353.269 39 L
353.54 39 L
353.812 39 L
354.083 39 L
354.355 39 L
354.626 39 L
354.898 39 L
355.169 39 L
355.441 39 L
355.712 39 L
355.984 39 L
356.255 39 L
356.527 39 L
356.798 39 L
357.07 39 L
357.341 39 L
357.613 39 L
357.884 39 L
358.156 39 L
358.427 39 L
358.699 39 L
358.97 39 L
359.242 39 L
359.513 39 L
359.785 39 L
360.056 39 L
360.328 39 L
360.599 39 L
360.871 39 L
361.142 39 L
361.414 39 L
361.685 39 L
361.957 39 L
362.228 39 L
362.5 39 L
362.772 39 L
363.043 39 L
363.315 39 L
363.586 39 L
363.858 39 L
364.129 39 L
364.401 39 L
364.672 39 L
364.944 39 L
365.215 39 L
365.487 39 L
365.758 39 L
366.03 39 L
366.301 39 L
366.573 39 L
366.844 39 L
367.116 39 L
367.387 39 L
367.659 39 L
367.93 39 L
368.202 39 L
368.473 39 L
368.745 39 L
369.016 39 L
369.288 39 L
369.559 39 L
369.831 39 L
370.102 39 L
370.374 39 L
370.645 39 L
370.917 39 L
371.188 39 L
371.46 39 L
371.731 39 L
372.003 39 L
372.274 39 L
372.546 39 L
372.817 39 L
373.089 39 L
373.36 39 L
373.632 39 L
373.903 39 L
374.174 39 L
374.446 39 L
374.717 39 L
374.989 39 L
375.26 39 L
375.532 39.001 L
375.803 39.001 L
376.075 39.001 L
376.346 39.001 L
376.618 39.001 L
376.889 39.001 L
377.161 39.001 L
377.432 39.001 L
377.704 39.001 L
377.975 39.001 L
378.247 39.001 L
378.518 39.001 L
378.79 39.001 L
379.061 39.001 L
379.333 39.002 L
379.604 39.002 L
379.876 39.002 L
380.147 39.002 L
380.419 39.002 L
380.69 39.002 L
380.962 39.002 L
381.233 39.002 L
381.505 39.002 L
381.776 39.003 L
382.048 39.003 L
382.319 39.003 L
382.591 39.003 L
382.862 39.003 L
383.134 39.003 L
383.405 39.004 L
383.677 39.004 L
383.948 39.004 L
384.22 39.004 L
384.491 39.004 L
384.763 39.005 L
385.035 39.005 L
385.306 39.005 L
385.577 39.005 L
385.849 39.006 L
386.121 39.006 L
386.392 39.006 L
386.664 39.006 L
386.935 39.007 L
387.207 39.007 L
387.478 39.007 L
387.75 39.008 L
388.021 39.008 L
388.293 39.008 L
388.564 39.009 L
388.836 39.009 L
389.107 39.009 L
389.379 39.01 L
389.65 39.01 L
389.922 39.01 L
390.193 39.011 L
390.465 39.011 L
390.736 39.012 L
391.008 39.012 L
391.279 39.013 L
391.551 39.013 L
391.822 39.014 L
392.094 39.014 L
392.365 39.015 L
392.637 39.015 L
392.908 39.016 L
393.18 39.016 L
393.451 39.017 L
393.723 39.017 L
393.994 39.018 L
394.266 39.019 L
394.537 39.019 L
394.809 39.02 L
395.08 39.021 L
395.352 39.021 L
395.623 39.022 L
395.895 39.023 L
396.166 39.023 L
396.438 39.024 L
396.709 39.025 L
396.98 39.026 L
397.252 39.026 L
397.523 39.027 L
397.795 39.028 L
398.066 39.029 L
398.338 39.03 L
398.609 39.031 L
398.881 39.032 L
399.152 39.032 L
399.424 39.033 L
399.695 39.034 L
399.967 39.035 L
400.238 39.036 L
400.51 39.037 L
400.781 39.038 L
401.053 39.04 L
401.324 39.041 L
401.596 39.042 L
401.867 39.043 L
402.139 39.044 L
402.41 39.045 L
402.682 39.046 L
402.953 39.048 L
403.225 39.049 L
403.496 39.05 L
403.768 39.051 L
404.039 39.053 L
404.311 39.054 L
404.582 39.055 L
404.854 39.057 L
405.125 39.058 L
405.397 39.06 L
405.668 39.061 L
405.94 39.063 L
406.211 39.064 L
406.483 39.066 L
406.754 39.067 L
407.026 39.069 L
407.297 39.071 L
407.569 39.072 L
407.841 39.074 L
408.112 39.076 L
408.383 39.077 L
408.655 39.079 L
408.927 39.081 L
409.198 39.083 L
409.47 39.085 L
409.741 39.086 L
410.013 39.088 L
410.284 39.09 L
410.556 39.092 L
410.827 39.094 L
411.099 39.096 L
411.37 39.098 L
411.642 39.101 L
411.913 39.103 L
412.185 39.105 L
412.456 39.107 L
412.728 39.109 L
412.999 39.112 L
413.271 39.114 L
413.542 39.116 L
413.814 39.119 L
414.085 39.121 L
414.357 39.123 L
414.628 39.126 L
414.9 39.128 L
415.171 39.131 L
415.443 39.134 L
415.714 39.136 L
415.986 39.139 L
416.257 39.142 L
416.529 39.144 L
416.8 39.147 L
417.072 39.15 L
417.343 39.153 L
417.615 39.156 L
417.886 39.158 L
418.158 39.161 L
418.429 39.164 L
418.701 39.167 L
418.972 39.17 L
419.243 39.174 L
419.515 39.177 L
419.786 39.18 L
420.058 39.183 L
420.329 39.186 L
420.601 39.19 L
420.872 39.193 L
421.144 39.196 L
421.415 39.2 L
421.687 39.203 L
421.958 39.207 L
422.23 39.21 L
422.501 39.214 L
422.773 39.218 L
423.044 39.221 L
423.316 39.225 L
423.587 39.229 L
423.859 39.233 L
424.13 39.237 L
424.402 39.241 L
424.673 39.245 L
424.945 39.249 L
425.216 39.253 L
425.488 39.257 L
425.759 39.261 L
426.031 39.265 L
426.302 39.269 L
426.574 39.274 L
426.845 39.278 L
427.117 39.282 L
427.388 39.287 L
427.66 39.291 L
427.931 39.296 L
428.203 39.3 L
428.474 39.305 L
428.746 39.31 L
429.017 39.314 L
429.289 39.319 L
429.56 39.324 L
429.832 39.329 L
430.103 39.334 L
430.375 39.339 L
430.647 39.344 L
430.918 39.349 L
431.19 39.354 L
431.461 39.359 L
431.733 39.365 L
432.004 39.37 L
432.276 39.375 L
432.547 39.381 L
432.819 39.386 L
433.09 39.392 L
433.362 39.397 L
433.633 39.403 L
433.905 39.408 L
434.176 39.414 L
434.448 39.42 L
434.719 39.426 L
434.991 39.432 L
435.262 39.438 L
435.534 39.444 L
435.805 39.45 L
436.077 39.456 L
436.348 39.462 L
436.62 39.468 L
436.891 39.475 L
437.163 39.481 L
437.434 39.487 L
437.706 39.494 L
437.977 39.5 L
438.249 39.507 L
438.52 39.514 L
438.792 39.52 L
439.063 39.527 L
439.335 39.534 L
439.606 39.541 L
439.878 39.548 L
440.149 39.555 L
440.421 39.562 L
440.692 39.569 L
440.964 39.576 L
441.235 39.584 L
441.507 39.591 L
441.778 39.598 L
442.049 39.606 L
442.321 39.613 L
442.592 39.621 L
442.864 39.628 L
443.135 39.636 L
443.407 39.644 L
443.678 39.652 L
443.95 39.66 L
444.221 39.668 L
444.493 39.676 L
444.764 39.684 L
445.036 39.692 L
445.307 39.7 L
445.579 39.709 L
445.85 39.717 L
446.122 39.725 L
446.393 39.734 L
446.665 39.742 L
446.936 39.751 L
447.208 39.76 L
447.479 39.769 L
447.751 39.777 L
448.022 39.786 L
448.294 39.795 L
448.565 39.804 L
448.837 39.814 L
449.108 39.823 L
449.38 39.832 L
449.651 39.841 L
449.923 39.851 L
450.194 39.86 L
450.466 39.87 L
450.738 39.879 L
451.009 39.889 L
451.281 39.899 L
451.552 39.909 L
451.823 39.919 L
452.095 39.929 L
452.366 39.939 L
452.638 39.949 L
452.909 39.959 L
453.181 39.969 L
453.452 39.98 L
453.724 39.99 L
453.996 40.001 L
454.267 40.011 L
454.539 40.022 L
454.81 40.033 L
455.082 40.043 L
455.353 40.054 L
455.625 40.065 L
455.896 40.076 L
456.168 40.087 L
456.439 40.099 L
456.711 40.11 L
456.982 40.121 L
457.254 40.133 L
457.525 40.144 L
457.797 40.156 L
458.068 40.168 L
458.34 40.179 L
458.611 40.191 L
458.883 40.203 L
459.154 40.215 L
459.426 40.227 L
459.697 40.239 L
459.969 40.252 L
460.24 40.264 L
460.512 40.276 L
460.783 40.289 L
461.055 40.301 L
461.326 40.314 L
461.598 40.327 L
461.869 40.339 L
462.141 40.352 L
462.412 40.365 L
462.684 40.378 L
462.955 40.392 L
463.227 40.405 L
463.498 40.418 L
463.77 40.431 L
464.041 40.445 L
464.313 40.459 L
464.584 40.472 L
464.855 40.486 L
465.127 40.5 L
465.398 40.514 L
465.67 40.528 L
465.941 40.542 L
466.213 40.556 L
466.484 40.57 L
466.756 40.585 L
467.027 40.599 L
467.299 40.614 L
467.57 40.628 L
467.842 40.643 L
468.113 40.658 L
468.385 40.673 L
468.656 40.688 L
468.928 40.703 L
469.199 40.718 L
469.471 40.733 L
469.742 40.748 L
470.014 40.764 L
470.285 40.779 L
470.557 40.795 L
470.828 40.811 L
471.1 40.827 L
471.371 40.842 L
471.643 40.858 L
471.914 40.875 L
472.186 40.891 L
472.457 40.907 L
472.729 40.923 L
473 40.94 L
473.272 40.956 L
473.543 40.973 L
473.815 40.99 L
474.086 41.007 L
474.358 41.024 L
474.629 41.041 L
474.901 41.058 L
475.173 41.075 L
475.444 41.092 L
475.716 41.11 L
475.987 41.127 L
476.259 41.145 L
476.53 41.163 L
476.802 41.18 L
477.073 41.198 L
477.344 41.216 L
477.616 41.234 L
477.887 41.253 L
478.159 41.271 L
478.431 41.289 L
478.702 41.308 L
478.974 41.326 L
479.245 41.345 L
479.517 41.364 L
479.788 41.383 L
480.06 41.402 L
480.331 41.421 L
480.603 41.44 L
480.874 41.46 L
481.146 41.479 L
481.417 41.499 L
481.689 41.518 L
481.96 41.538 L
482.232 41.558 L
482.503 41.578 L
482.775 41.598 L
483.046 41.618 L
483.318 41.638 L
483.589 41.659 L
483.861 41.679 L
484.132 41.7 L
484.404 41.72 L
484.675 41.741 L
484.947 41.762 L
485.218 41.783 L
485.49 41.804 L
485.761 41.826 L
486.033 41.847 L
486.304 41.868 L
486.576 41.89 L
486.847 41.912 L
487.118 41.933 L
487.39 41.955 L
487.661 41.977 L
487.933 42 L
488.204 42.022 L
488.476 42.044 L
488.747 42.067 L
489.019 42.089 L
489.29 42.112 L
489.562 42.135 L
489.833 42.158 L
490.105 42.181 L
490.376 42.204 L
490.648 42.227 L
490.919 42.25 L
491.191 42.274 L
491.462 42.298 L
491.734 42.321 L
492.005 42.345 L
492.277 42.369 L
492.548 42.393 L
492.82 42.417 L
493.091 42.442 L
493.363 42.466 L
493.634 42.491 L
493.906 42.515 L
494.177 42.54 L
494.449 42.565 L
494.72 42.59 L
494.992 42.615 L
495.263 42.64 L
495.535 42.666 L
495.806 42.691 L
496.078 42.717 L
496.35 42.743 L
496.621 42.769 L
496.893 42.795 L
497.164 42.821 L
497.436 42.847 L
497.707 42.873 L
497.978 42.9 L
498.25 42.927 L
498.521 42.953 L
498.793 42.98 L
499.064 43.007 L
499.336 43.034 L
499.608 43.062 L
499.879 43.089 L
500.151 43.117 L
500.422 43.144 L
500.694 43.172 L
500.965 43.2 L
501.237 43.228 L
501.508 43.256 L
501.78 43.284 L
502.051 43.313 L
502.323 43.341 L
502.594 43.37 L
502.866 43.399 L
503.137 43.428 L
503.409 43.457 L
503.68 43.486 L
503.952 43.516 L
504.223 43.545 L
504.495 43.575 L
504.766 43.604 L
505.038 43.634 L
505.309 43.664 L
505.581 43.695 L
505.852 43.725 L
506.124 43.755 L
506.395 43.786 L
506.667 43.817 L
506.938 43.848 L
507.21 43.879 L
507.481 43.91 L
507.753 43.941 L
508.024 43.972 L
508.296 44.004 L
508.567 44.036 L
508.839 44.067 L
509.11 44.099 L
509.382 44.132 L
509.653 44.164 L
509.924 44.196 L
510.196 44.229 L
510.467 44.262 L
510.739 44.294 L
511.01 44.327 L
511.282 44.361 L
511.553 44.394 L
511.825 44.427 L
512.096 44.461 L
512.368 44.495 L
512.64 44.529 L
512.911 44.563 L
513.182 44.597 L
513.454 44.631 L
513.726 44.666 L
513.997 44.7 L
514.268 44.735 L
514.54 44.77 L
514.812 44.805 L
515.083 44.84 L
515.354 44.876 L
515.626 44.911 L
515.898 44.947 L
516.169 44.983 L
516.44 45.019 L
516.712 45.055 L
516.984 45.092 L
517.255 45.128 L
517.526 45.165 L
517.798 45.202 L
518.07 45.239 L
518.341 45.276 L
518.612 45.313 L
518.884 45.351 L
519.156 45.388 L
519.427 45.426 L
519.698 45.464 L
519.97 45.502 L
520.242 45.541 L
520.513 45.579 L
520.784 45.618 L
521.056 45.656 L
521.328 45.695 L
521.599 45.735 L
521.87 45.774 L
522.142 45.813 L
522.414 45.853 L
522.685 45.893 L
522.956 45.933 L
523.228 45.973 L
523.5 46.013 L
523.771 46.054 L
524.042 46.095 L
524.314 46.135 L
524.586 46.176 L
524.857 46.218 L
525.128 46.259 L
525.4 46.301 L
525.672 46.342 L
525.943 46.384 L
526.214 46.426 L
526.486 46.469 L
526.758 46.511 L
527.029 46.554 L
527.3 46.597 L
527.572 46.64 L
527.844 46.683 L
528.115 46.726 L
528.386 46.77 L
528.658 46.814 L
528.93 46.858 L
529.201 46.902 L
529.472 46.946 L
529.744 46.991 L
530.016 47.035 L
530.287 47.08 L
530.559 47.125 L
530.83 47.171 L
531.102 47.216 L
531.373 47.262 L
531.644 47.308 L
531.916 47.354 L
532.188 47.4 L
532.459 47.446 L
532.73 47.493 L
533.002 47.54 L
533.273 47.587 L
533.545 47.634 L
533.817 47.682 L
534.088 47.729 L
534.359 47.777 L
534.631 47.825 L
534.903 47.874 L
535.174 47.922 L
535.445 47.971 L
535.717 48.02 L
535.989 48.069 L
536.26 48.118 L
536.531 48.168 L
536.803 48.218 L
537.075 48.268 L
537.346 48.318 L
537.617 48.368 L
537.889 48.419 L
538.161 48.47 L
538.432 48.521 L
538.703 48.572 L
538.975 48.624 L
539.247 48.675 L
539.518 48.727 L
539.789 48.779 L
540.061 48.832 L
540.333 48.885 L
540.604 48.937 L
540.875 48.99 L
541.147 49.044 L
541.419 49.097 L
541.69 49.151 L
541.961 49.205 L
542.233 49.259 L
542.505 49.314 L
542.776 49.369 L
543.047 49.424 L
543.319 49.479 L
543.591 49.534 L
543.862 49.59 L
544.133 49.646 L
544.405 49.702 L
544.677 49.758 L
544.948 49.815 L
545.219 49.872 L
545.491 49.929 L
545.763 49.987 L
546.034 50.044 L
546.305 50.102 L
546.577 50.16 L
546.849 50.219 L
547.12 50.278 L
547.391 50.336 L
547.663 50.396 L
547.935 50.455 L
548.206 50.515 L
548.477 50.575 L
548.749 50.635 L
549.021 50.696 L
549.292 50.756 L
549.564 50.818 L
549.835 50.879 L
550.107 50.94 L
550.378 51.002 L
550.65 51.065 L
550.921 51.127 L
551.193 51.19 L
551.464 51.253 L
551.735 51.316 L
552.007 51.38 L
552.279 51.443 L
552.55 51.508 L
552.821 51.572 L
553.093 51.637 L
553.365 51.702 L
553.636 51.767 L
553.907 51.833 L
554.179 51.899 L
554.451 51.965 L
554.722 52.031 L
554.993 52.098 L
555.265 52.165 L
555.536 52.233 L
555.808 52.3 L
556.08 52.368 L
556.351 52.437 L
556.622 52.506 L
556.894 52.575 L
557.166 52.644 L
557.437 52.713 L
557.708 52.783 L
557.98 52.854 L
558.252 52.924 L
558.523 52.995 L
558.794 53.066 L
559.066 53.138 L
559.338 53.21 L
559.609 53.282 L
559.88 53.355 L
560.152 53.428 L
560.424 53.501 L
560.695 53.575 L
560.966 53.649 L
561.238 53.723 L
561.509 53.798 L
561.781 53.873 L
562.052 53.948 L
562.324 54.024 L
562.596 54.1 L
562.867 54.177 L
563.138 54.254 L
563.41 54.331 L
563.682 54.408 L
563.953 54.486 L
564.224 54.565 L
564.496 54.643 L
564.768 54.723 L
565.039 54.802 L
565.31 54.882 L
565.582 54.962 L
565.854 55.043 L
566.125 55.124 L
566.396 55.206 L
566.668 55.287 L
566.94 55.37 L
567.211 55.452 L
567.482 55.536 L
567.754 55.619 L
568.026 55.703 L
568.297 55.787 L
568.568 55.872 L
568.84 55.957 L
569.112 56.043 L
569.383 56.129 L
569.654 56.216 L
569.926 56.303 L
570.198 56.39 L
570.469 56.478 L
570.74 56.566 L
571.012 56.655 L
571.284 56.744 L
571.555 56.834 L
571.826 56.924 L
572.098 57.015 L
572.37 57.106 L
572.641 57.197 L
572.912 57.289 L
573.184 57.382 L
573.456 57.475 L
573.727 57.568 L
573.998 57.662 L
574.27 57.757 L
574.542 57.852 L
574.813 57.947 L
575.084 58.044 L
575.356 58.14 L
575.628 58.237 L
575.899 58.335 L
576.17 58.433 L
576.442 58.532 L
576.714 58.631 L
576.985 58.731 L
577.257 58.831 L
577.528 58.932 L
577.799 59.033 L
578.071 59.135 L
578.343 59.238 L
578.614 59.341 L
578.885 59.445 L
579.157 59.549 L
579.429 59.654 L
579.7 59.76 L
579.971 59.866 L
580.243 59.972 L
580.515 60.08 L
580.786 60.188 L
581.057 60.296 L
581.329 60.406 L
581.601 60.515 L
581.872 60.626 L
582.143 60.737 L
582.415 60.849 L
582.686 60.961 L
582.958 61.075 L
583.229 61.188 L
583.501 61.303 L
583.773 61.418 L
584.044 61.534 L
584.315 61.651 L
584.587 61.768 L
584.859 61.886 L
585.13 62.005 L
585.401 62.125 L
585.673 62.245 L
585.945 62.366 L
586.216 62.488 L
586.487 62.61 L
586.759 62.734 L
587.031 62.858 L
587.302 62.983 L
587.573 63.108 L
587.845 63.235 L
588.117 63.362 L
588.388 63.49 L
588.659 63.619 L
588.931 63.749 L
589.203 63.88 L
589.474 64.012 L
589.745 64.144 L
590.017 64.277 L
590.289 64.412 L
590.56 64.547 L
590.831 64.683 L
591.103 64.82 L
591.375 64.958 L
591.646 65.097 L
591.917 65.237 L
592.189 65.378 L
592.461 65.52 L
592.732 65.663 L
593.003 65.806 L
593.275 65.951 L
593.547 66.097 L
593.818 66.244 L
594.089 66.393 L
594.361 66.542 L
594.633 66.692 L
594.904 66.844 L
595.175 66.996 L
595.447 67.15 L
595.719 67.305 L
595.99 67.461 L
596.261 67.618 L
596.533 67.776 L
596.805 67.936 L
597.076 68.097 L
597.347 68.259 L
597.619 68.423 L
597.891 68.587 L
598.162 68.753 L
598.434 68.921 L
598.705 69.09 L
598.977 69.26 L
599.248 69.431 L
599.52 69.604 L
599.791 69.779 L
600.063 69.954 L
600.334 70.132 L
600.606 70.311 L
600.877 70.491 L
601.148 70.673 L
601.42 70.857 L
601.692 71.042 L
601.963 71.229 L
602.234 71.417 L
602.506 71.607 L
602.777 71.799 L
603.049 71.993 L
603.32 72.188 L
603.592 72.385 L
603.863 72.584 L
604.135 72.785 L
604.406 72.988 L
604.678 73.193 L
604.95 73.4 L
605.221 73.609 L
605.492 73.819 L
605.764 74.032 L
606.036 74.247 L
606.307 74.465 L
606.578 74.684 L
606.85 74.906 L
607.122 75.13 L
607.393 75.356 L
607.664 75.585 L
607.936 75.816 L
608.208 76.05 L
608.479 76.286 L
608.75 76.525 L
609.022 76.767 L
609.294 77.011 L
609.565 77.258 L
609.836 77.508 L
610.108 77.76 L
610.38 78.016 L
610.651 78.275 L
610.922 78.537 L
611.194 78.802 L
611.466 79.07 L
611.737 79.342 L
612.008 79.617 L
612.28 79.895 L
612.552 80.177 L
612.823 80.463 L
613.094 80.752 L
613.366 81.046 L
613.638 81.343 L
613.909 81.644 L
614.18 81.95 L
614.452 82.26 L
614.724 82.574 L
614.995 82.893 L
615.266 83.216 L
615.538 83.545 L
615.81 83.878 L
616.081 84.216 L
616.352 84.56 L
616.624 84.908 L
616.896 85.263 L
617.167 85.623 L
617.438 85.989 L
617.71 86.362 L
617.982 86.74 L
618.253 87.125 L
618.524 87.517 L
618.796 87.916 L
619.068 88.323 L
619.339 88.736 L
619.611 89.158 L
619.882 89.588 L
620.154 90.026 L
620.425 90.472 L
620.697 90.928 L
620.968 91.394 L
621.24 91.869 L
621.511 92.355 L
621.783 92.851 L
622.054 93.359 L
622.326 93.878 L
622.597 94.409 L
622.868 94.954 L
623.14 95.512 L
623.411 96.084 L
623.683 96.671 L
623.954 97.274 L
624.226 97.894 L
624.497 98.531 L
624.769 99.186 L
625.04 99.862 L
625.312 100.558 L
625.583 101.276 L
625.855 102.018 L
626.127 102.785 L
626.398 103.579 L
626.669 104.402 L
626.941 105.256 L
627.213 106.144 L
627.484 107.068 L
627.755 108.032 L
628.027 109.038 L
628.299 110.091 L
628.57 111.196 L
628.841 112.358 L
629.113 113.582 L
629.385 114.877 L
629.656 116.25 L
629.927 117.712 L
630.199 119.274 L
630.471 120.953 L
630.742 122.766 L
631.013 124.738 L
631.285 126.897 L
631.557 129.284 L
631.828 131.953 L
632.099 134.978 L
632.371 138.471 L
632.643 142.602 L
632.914 147.658 L
633.185 154.177 L
633.457 163.364 L
633.729 179.071 L
634 467 L
S
GR
GS
[0.6 0 0 0.6 0 0] CT
0.851 0.325 0.098 RC
1 LJ
3.333 LW
N
91 39 M
91.271 39 L
91.543 39 L
91.815 39 L
92.086 39 L
92.357 39 L
92.629 39 L
92.901 39 L
93.172 39 L
93.444 39 L
93.715 39 L
93.986 39 L
94.258 39 L
94.53 39 L
94.801 39 L
95.072 39 L
95.344 39 L
95.616 39 L
95.887 39 L
96.158 39 L
96.43 39 L
96.701 39 L
96.973 39 L
97.245 39 L
97.516 39 L
97.787 39 L
98.059 39 L
98.331 39 L
98.602 39 L
98.873 39 L
99.145 39 L
99.416 39 L
99.688 39 L
99.96 39 L
100.231 39 L
100.502 39 L
100.774 39 L
101.046 39 L
101.317 39 L
101.588 39 L
101.86 39 L
102.132 39 L
102.403 39 L
102.675 39 L
102.946 39 L
103.217 39 L
103.489 39 L
103.761 39 L
104.032 39.001 L
104.303 39.001 L
104.575 39.001 L
104.847 39.001 L
105.118 39.001 L
105.389 39.001 L
105.661 39.001 L
105.932 39.001 L
106.204 39.001 L
106.476 39.001 L
106.747 39.001 L
107.018 39.001 L
107.29 39.001 L
107.562 39.001 L
107.833 39.002 L
108.104 39.002 L
108.376 39.002 L
108.647 39.002 L
108.919 39.002 L
109.191 39.002 L
109.462 39.002 L
109.733 39.002 L
110.005 39.002 L
110.277 39.003 L
110.548 39.003 L
110.819 39.003 L
111.091 39.003 L
111.363 39.003 L
111.634 39.003 L
111.906 39.004 L
112.177 39.004 L
112.448 39.004 L
112.72 39.004 L
112.992 39.004 L
113.263 39.005 L
113.534 39.005 L
113.806 39.005 L
114.077 39.005 L
114.349 39.006 L
114.62 39.006 L
114.892 39.006 L
115.163 39.006 L
115.435 39.007 L
115.707 39.007 L
115.978 39.007 L
116.249 39.008 L
116.521 39.008 L
116.793 39.008 L
117.064 39.009 L
117.335 39.009 L
117.607 39.009 L
117.879 39.01 L
118.15 39.01 L
118.422 39.01 L
118.693 39.011 L
118.964 39.011 L
119.236 39.012 L
119.508 39.012 L
119.779 39.013 L
120.05 39.013 L
120.322 39.014 L
120.593 39.014 L
120.865 39.015 L
121.137 39.015 L
121.408 39.016 L
121.679 39.016 L
121.951 39.017 L
122.223 39.017 L
122.494 39.018 L
122.765 39.019 L
123.037 39.019 L
123.309 39.02 L
123.58 39.021 L
123.852 39.021 L
124.123 39.022 L
124.395 39.023 L
124.666 39.023 L
124.938 39.024 L
125.209 39.025 L
125.48 39.026 L
125.752 39.026 L
126.024 39.027 L
126.295 39.028 L
126.566 39.029 L
126.838 39.03 L
127.109 39.031 L
127.381 39.032 L
127.653 39.032 L
127.924 39.033 L
128.195 39.034 L
128.467 39.035 L
128.739 39.036 L
129.01 39.037 L
129.281 39.038 L
129.553 39.04 L
129.824 39.041 L
130.096 39.042 L
130.368 39.043 L
130.639 39.044 L
130.91 39.045 L
131.182 39.046 L
131.454 39.048 L
131.725 39.049 L
131.996 39.05 L
132.268 39.051 L
132.54 39.053 L
132.811 39.054 L
133.083 39.055 L
133.354 39.057 L
133.626 39.058 L
133.897 39.06 L
134.169 39.061 L
134.44 39.063 L
134.711 39.064 L
134.983 39.066 L
135.255 39.067 L
135.526 39.069 L
135.797 39.071 L
136.069 39.072 L
136.34 39.074 L
136.612 39.076 L
136.884 39.077 L
137.155 39.079 L
137.426 39.081 L
137.698 39.083 L
137.969 39.085 L
138.241 39.086 L
138.512 39.088 L
138.784 39.09 L
139.055 39.092 L
139.327 39.094 L
139.599 39.096 L
139.87 39.098 L
140.141 39.101 L
140.413 39.103 L
140.685 39.105 L
140.956 39.107 L
141.227 39.109 L
141.499 39.112 L
141.771 39.114 L
142.042 39.116 L
142.314 39.119 L
142.585 39.121 L
142.856 39.123 L
143.128 39.126 L
143.4 39.128 L
143.671 39.131 L
143.942 39.134 L
144.214 39.136 L
144.486 39.139 L
144.757 39.142 L
145.028 39.144 L
145.3 39.147 L
145.572 39.15 L
145.843 39.153 L
146.115 39.156 L
146.386 39.158 L
146.658 39.161 L
146.929 39.164 L
147.201 39.167 L
147.472 39.17 L
147.743 39.174 L
148.015 39.177 L
148.286 39.18 L
148.558 39.183 L
148.83 39.186 L
149.101 39.19 L
149.372 39.193 L
149.644 39.196 L
149.915 39.2 L
150.187 39.203 L
150.458 39.207 L
150.73 39.21 L
151.001 39.214 L
151.273 39.218 L
151.545 39.221 L
151.816 39.225 L
152.087 39.229 L
152.359 39.233 L
152.631 39.237 L
152.902 39.241 L
153.173 39.245 L
153.445 39.249 L
153.717 39.253 L
153.988 39.257 L
154.26 39.261 L
154.531 39.265 L
154.802 39.269 L
155.074 39.274 L
155.346 39.278 L
155.617 39.282 L
155.888 39.287 L
156.16 39.291 L
156.432 39.296 L
156.703 39.3 L
156.974 39.305 L
157.246 39.31 L
157.518 39.314 L
157.789 39.319 L
158.061 39.324 L
158.332 39.329 L
158.604 39.334 L
158.875 39.339 L
159.146 39.344 L
159.418 39.349 L
159.689 39.354 L
159.961 39.359 L
160.232 39.365 L
160.504 39.37 L
160.776 39.375 L
161.047 39.381 L
161.318 39.386 L
161.59 39.392 L
161.862 39.397 L
162.133 39.403 L
162.404 39.408 L
162.676 39.414 L
162.947 39.42 L
163.219 39.426 L
163.491 39.432 L
163.762 39.438 L
164.033 39.444 L
164.305 39.45 L
164.577 39.456 L
164.848 39.462 L
165.119 39.468 L
165.391 39.475 L
165.663 39.481 L
165.934 39.487 L
166.205 39.494 L
166.477 39.5 L
166.749 39.507 L
167.02 39.514 L
167.292 39.52 L
167.563 39.527 L
167.834 39.534 L
168.106 39.541 L
168.378 39.548 L
168.649 39.555 L
168.92 39.562 L
169.192 39.569 L
169.464 39.576 L
169.735 39.584 L
170.007 39.591 L
170.278 39.598 L
170.549 39.606 L
170.821 39.613 L
171.092 39.621 L
171.364 39.628 L
171.635 39.636 L
171.907 39.644 L
172.178 39.652 L
172.45 39.66 L
172.722 39.668 L
172.993 39.676 L
173.264 39.684 L
173.536 39.692 L
173.808 39.7 L
174.079 39.709 L
174.35 39.717 L
174.622 39.725 L
174.894 39.734 L
175.165 39.742 L
175.436 39.751 L
175.708 39.76 L
175.979 39.769 L
176.251 39.777 L
176.523 39.786 L
176.794 39.795 L
177.065 39.804 L
177.337 39.814 L
177.609 39.823 L
177.88 39.832 L
178.151 39.841 L
178.423 39.851 L
178.695 39.86 L
178.966 39.87 L
179.238 39.879 L
179.509 39.889 L
179.781 39.899 L
180.052 39.909 L
180.324 39.919 L
180.595 39.929 L
180.866 39.939 L
181.138 39.949 L
181.41 39.959 L
181.681 39.969 L
181.953 39.98 L
182.224 39.99 L
182.495 40.001 L
182.767 40.011 L
183.038 40.022 L
183.31 40.033 L
183.581 40.043 L
183.853 40.054 L
184.124 40.065 L
184.396 40.076 L
184.668 40.087 L
184.939 40.099 L
185.21 40.11 L
185.482 40.121 L
185.754 40.133 L
186.025 40.144 L
186.296 40.156 L
186.568 40.168 L
186.84 40.179 L
187.111 40.191 L
187.382 40.203 L
187.654 40.215 L
187.925 40.227 L
188.197 40.239 L
188.469 40.252 L
188.74 40.264 L
189.011 40.276 L
189.283 40.289 L
189.555 40.301 L
189.826 40.314 L
190.098 40.327 L
190.369 40.339 L
190.641 40.352 L
190.912 40.365 L
191.184 40.378 L
191.455 40.392 L
191.727 40.405 L
191.998 40.418 L
192.27 40.431 L
192.541 40.445 L
192.813 40.459 L
193.084 40.472 L
193.355 40.486 L
193.627 40.5 L
193.898 40.514 L
194.17 40.528 L
194.441 40.542 L
194.713 40.556 L
194.984 40.57 L
195.256 40.585 L
195.528 40.599 L
195.799 40.614 L
196.07 40.628 L
196.342 40.643 L
196.613 40.658 L
196.885 40.673 L
197.156 40.688 L
197.428 40.703 L
197.699 40.718 L
197.971 40.733 L
198.242 40.748 L
198.514 40.764 L
198.786 40.779 L
199.057 40.795 L
199.329 40.811 L
199.6 40.827 L
199.872 40.842 L
200.143 40.858 L
200.415 40.875 L
200.686 40.891 L
200.957 40.907 L
201.229 40.923 L
201.501 40.94 L
201.772 40.956 L
202.044 40.973 L
202.315 40.99 L
202.587 41.007 L
202.858 41.024 L
203.13 41.041 L
203.401 41.058 L
203.673 41.075 L
203.944 41.092 L
204.215 41.11 L
204.487 41.127 L
204.758 41.145 L
205.03 41.163 L
205.301 41.18 L
205.573 41.198 L
205.844 41.216 L
206.116 41.234 L
206.387 41.253 L
206.659 41.271 L
206.93 41.289 L
207.202 41.308 L
207.474 41.326 L
207.745 41.345 L
208.017 41.364 L
208.288 41.383 L
208.559 41.402 L
208.831 41.421 L
209.102 41.44 L
209.374 41.46 L
209.645 41.479 L
209.917 41.499 L
210.188 41.518 L
210.46 41.538 L
210.732 41.558 L
211.003 41.578 L
211.275 41.598 L
211.546 41.618 L
211.818 41.638 L
212.089 41.659 L
212.361 41.679 L
212.632 41.7 L
212.904 41.72 L
213.175 41.741 L
213.446 41.762 L
213.718 41.783 L
213.99 41.804 L
214.261 41.826 L
214.533 41.847 L
214.804 41.868 L
215.076 41.89 L
215.347 41.912 L
215.618 41.933 L
215.89 41.955 L
216.161 41.977 L
216.433 42 L
216.704 42.022 L
216.976 42.044 L
217.247 42.067 L
217.519 42.089 L
217.79 42.112 L
218.062 42.135 L
218.333 42.158 L
218.605 42.181 L
218.876 42.204 L
219.148 42.227 L
219.419 42.25 L
219.691 42.274 L
219.963 42.298 L
220.234 42.321 L
220.506 42.345 L
220.777 42.369 L
221.049 42.393 L
221.32 42.417 L
221.591 42.442 L
221.863 42.466 L
222.134 42.491 L
222.406 42.515 L
222.678 42.54 L
222.949 42.565 L
223.221 42.59 L
223.492 42.615 L
223.764 42.64 L
224.035 42.666 L
224.307 42.691 L
224.578 42.717 L
224.85 42.743 L
225.121 42.769 L
225.393 42.795 L
225.664 42.821 L
225.936 42.847 L
226.207 42.873 L
226.479 42.9 L
226.75 42.927 L
227.021 42.953 L
227.293 42.98 L
227.564 43.007 L
227.836 43.034 L
228.107 43.062 L
228.379 43.089 L
228.65 43.117 L
228.922 43.144 L
229.193 43.172 L
229.465 43.2 L
229.736 43.228 L
230.008 43.256 L
230.279 43.284 L
230.551 43.313 L
230.822 43.341 L
231.094 43.37 L
231.365 43.399 L
231.637 43.428 L
231.909 43.457 L
232.18 43.486 L
232.452 43.516 L
232.723 43.545 L
232.995 43.575 L
233.266 43.604 L
233.538 43.634 L
233.809 43.664 L
234.08 43.695 L
234.352 43.725 L
234.623 43.755 L
234.895 43.786 L
235.167 43.817 L
235.438 43.848 L
235.71 43.879 L
235.981 43.91 L
236.253 43.941 L
236.524 43.972 L
236.796 44.004 L
237.067 44.036 L
237.339 44.067 L
237.61 44.099 L
237.882 44.132 L
238.153 44.164 L
238.424 44.196 L
238.696 44.229 L
238.967 44.262 L
239.239 44.294 L
239.51 44.327 L
239.782 44.361 L
240.053 44.394 L
240.325 44.427 L
240.596 44.461 L
240.868 44.495 L
241.14 44.529 L
241.411 44.563 L
241.682 44.597 L
241.954 44.631 L
242.225 44.666 L
242.497 44.7 L
242.768 44.735 L
243.04 44.77 L
243.311 44.805 L
243.583 44.84 L
243.854 44.876 L
244.126 44.911 L
244.398 44.947 L
244.669 44.983 L
244.941 45.019 L
245.212 45.055 L
245.484 45.092 L
245.755 45.128 L
246.027 45.165 L
246.298 45.202 L
246.569 45.239 L
246.841 45.276 L
247.113 45.313 L
247.384 45.351 L
247.656 45.388 L
247.927 45.426 L
248.199 45.464 L
248.47 45.502 L
248.742 45.541 L
249.013 45.579 L
249.285 45.618 L
249.556 45.656 L
249.827 45.695 L
250.099 45.735 L
250.37 45.774 L
250.642 45.813 L
250.913 45.853 L
251.185 45.893 L
251.456 45.933 L
251.728 45.973 L
251.999 46.013 L
252.271 46.054 L
252.542 46.095 L
252.814 46.135 L
253.086 46.176 L
253.357 46.218 L
253.629 46.259 L
253.9 46.301 L
254.172 46.342 L
254.443 46.384 L
254.714 46.426 L
254.986 46.469 L
255.257 46.511 L
255.529 46.554 L
255.8 46.597 L
256.072 46.64 L
256.344 46.683 L
256.615 46.726 L
256.887 46.77 L
257.158 46.814 L
257.43 46.858 L
257.701 46.902 L
257.973 46.946 L
258.244 46.991 L
258.516 47.035 L
258.787 47.08 L
259.059 47.125 L
259.33 47.171 L
259.602 47.216 L
259.873 47.262 L
260.145 47.308 L
260.416 47.354 L
260.688 47.4 L
260.959 47.446 L
261.23 47.493 L
261.502 47.54 L
261.773 47.587 L
262.045 47.634 L
262.316 47.682 L
262.588 47.729 L
262.859 47.777 L
263.131 47.825 L
263.402 47.874 L
263.674 47.922 L
263.945 47.971 L
264.217 48.02 L
264.488 48.069 L
264.76 48.118 L
265.031 48.168 L
265.303 48.218 L
265.574 48.268 L
265.846 48.318 L
266.117 48.368 L
266.389 48.419 L
266.66 48.47 L
266.932 48.521 L
267.203 48.572 L
267.475 48.624 L
267.746 48.675 L
268.018 48.727 L
268.289 48.779 L
268.561 48.832 L
268.832 48.885 L
269.104 48.937 L
269.375 48.99 L
269.647 49.044 L
269.918 49.097 L
270.19 49.151 L
270.461 49.205 L
270.733 49.259 L
271.004 49.314 L
271.276 49.369 L
271.548 49.424 L
271.819 49.479 L
272.091 49.534 L
272.362 49.59 L
272.634 49.646 L
272.905 49.702 L
273.177 49.758 L
273.448 49.815 L
273.719 49.872 L
273.991 49.929 L
274.262 49.987 L
274.534 50.044 L
274.806 50.102 L
275.077 50.16 L
275.349 50.219 L
275.62 50.278 L
275.892 50.336 L
276.163 50.396 L
276.435 50.455 L
276.706 50.515 L
276.978 50.575 L
277.249 50.635 L
277.521 50.696 L
277.792 50.756 L
278.064 50.818 L
278.335 50.879 L
278.607 50.94 L
278.878 51.002 L
279.15 51.065 L
279.421 51.127 L
279.693 51.19 L
279.964 51.253 L
280.236 51.316 L
280.507 51.38 L
280.779 51.443 L
281.05 51.508 L
281.322 51.572 L
281.593 51.637 L
281.865 51.702 L
282.136 51.767 L
282.408 51.833 L
282.679 51.899 L
282.951 51.965 L
283.222 52.031 L
283.493 52.098 L
283.765 52.165 L
284.036 52.233 L
284.308 52.3 L
284.579 52.368 L
284.851 52.437 L
285.122 52.506 L
285.394 52.575 L
285.665 52.644 L
285.937 52.713 L
286.208 52.783 L
286.48 52.854 L
286.751 52.924 L
287.023 52.995 L
287.294 53.066 L
287.566 53.138 L
287.837 53.21 L
288.109 53.282 L
288.38 53.355 L
288.652 53.428 L
288.923 53.501 L
289.195 53.575 L
289.466 53.649 L
289.738 53.723 L
290.009 53.798 L
290.281 53.873 L
290.552 53.948 L
290.824 54.024 L
291.095 54.1 L
291.367 54.177 L
291.638 54.254 L
291.91 54.331 L
292.181 54.408 L
292.453 54.486 L
292.724 54.565 L
292.996 54.643 L
293.267 54.723 L
293.539 54.802 L
293.81 54.882 L
294.082 54.962 L
294.353 55.043 L
294.625 55.124 L
294.897 55.206 L
295.168 55.287 L
295.44 55.37 L
295.711 55.452 L
295.983 55.536 L
296.254 55.619 L
296.526 55.703 L
296.797 55.787 L
297.069 55.872 L
297.34 55.957 L
297.612 56.043 L
297.883 56.129 L
298.155 56.216 L
298.426 56.303 L
298.698 56.39 L
298.969 56.478 L
299.241 56.566 L
299.512 56.655 L
299.784 56.744 L
300.055 56.834 L
300.327 56.924 L
300.598 57.015 L
300.87 57.106 L
301.141 57.197 L
301.413 57.289 L
301.684 57.382 L
301.956 57.475 L
302.227 57.568 L
302.499 57.662 L
302.77 57.757 L
303.042 57.852 L
303.313 57.947 L
303.585 58.044 L
303.856 58.14 L
304.128 58.237 L
304.399 58.335 L
304.671 58.433 L
304.942 58.532 L
305.214 58.631 L
305.485 58.731 L
305.757 58.831 L
306.028 58.932 L
306.299 59.033 L
306.571 59.135 L
306.842 59.238 L
307.114 59.341 L
307.385 59.445 L
307.657 59.549 L
307.928 59.654 L
308.2 59.76 L
308.471 59.866 L
308.743 59.972 L
309.014 60.08 L
309.286 60.188 L
309.557 60.296 L
309.829 60.406 L
310.1 60.515 L
310.372 60.626 L
310.643 60.737 L
310.915 60.849 L
311.186 60.961 L
311.458 61.075 L
311.729 61.188 L
312.001 61.303 L
312.272 61.418 L
312.544 61.534 L
312.815 61.651 L
313.087 61.768 L
313.358 61.886 L
313.63 62.005 L
313.901 62.125 L
314.173 62.245 L
314.444 62.366 L
314.716 62.488 L
314.987 62.61 L
315.259 62.734 L
315.53 62.858 L
315.802 62.983 L
316.073 63.108 L
316.345 63.235 L
316.617 63.362 L
316.888 63.49 L
317.159 63.619 L
317.431 63.749 L
317.703 63.88 L
317.974 64.012 L
318.246 64.144 L
318.517 64.277 L
318.789 64.412 L
319.06 64.547 L
319.332 64.683 L
319.603 64.82 L
319.875 64.958 L
320.146 65.097 L
320.418 65.237 L
320.689 65.378 L
320.961 65.52 L
321.232 65.663 L
321.504 65.806 L
321.775 65.951 L
322.047 66.097 L
322.318 66.244 L
322.59 66.393 L
322.861 66.542 L
323.133 66.692 L
323.404 66.844 L
323.676 66.996 L
323.947 67.15 L
324.219 67.305 L
324.49 67.461 L
324.762 67.618 L
325.033 67.776 L
325.305 67.936 L
325.576 68.097 L
325.848 68.259 L
326.119 68.423 L
326.391 68.587 L
326.662 68.753 L
326.934 68.921 L
327.205 69.09 L
327.477 69.26 L
327.748 69.431 L
328.02 69.604 L
328.291 69.779 L
328.563 69.954 L
328.834 70.132 L
329.105 70.311 L
329.377 70.491 L
329.648 70.673 L
329.92 70.857 L
330.191 71.042 L
330.463 71.229 L
330.734 71.417 L
331.006 71.607 L
331.277 71.799 L
331.549 71.993 L
331.82 72.188 L
332.092 72.385 L
332.363 72.584 L
332.635 72.785 L
332.906 72.988 L
333.178 73.193 L
333.449 73.4 L
333.721 73.609 L
333.992 73.819 L
334.264 74.032 L
334.535 74.247 L
334.807 74.465 L
335.078 74.684 L
335.35 74.906 L
335.621 75.13 L
335.893 75.356 L
336.164 75.585 L
336.436 75.816 L
336.707 76.05 L
336.979 76.286 L
337.25 76.525 L
337.522 76.767 L
337.793 77.011 L
338.065 77.258 L
338.336 77.508 L
338.608 77.76 L
338.879 78.016 L
339.151 78.275 L
339.423 78.537 L
339.694 78.802 L
339.965 79.07 L
340.237 79.342 L
340.509 79.617 L
340.78 79.895 L
341.052 80.177 L
341.323 80.463 L
341.595 80.752 L
341.866 81.046 L
342.138 81.343 L
342.409 81.644 L
342.681 81.95 L
342.952 82.26 L
343.224 82.574 L
343.495 82.893 L
343.767 83.216 L
344.038 83.545 L
344.31 83.878 L
344.581 84.216 L
344.853 84.56 L
345.124 84.908 L
345.396 85.263 L
345.667 85.623 L
345.939 85.989 L
346.21 86.362 L
346.482 86.74 L
346.753 87.125 L
347.025 87.517 L
347.296 87.916 L
347.568 88.323 L
347.839 88.736 L
348.111 89.158 L
348.382 89.588 L
348.654 90.026 L
348.925 90.472 L
349.197 90.928 L
349.468 91.394 L
349.74 91.869 L
350.011 92.355 L
350.283 92.851 L
350.554 93.359 L
350.826 93.878 L
351.097 94.409 L
351.368 94.954 L
351.64 95.512 L
351.911 96.084 L
352.183 96.671 L
352.454 97.274 L
352.726 97.894 L
352.997 98.531 L
353.269 99.186 L
353.54 99.862 L
353.812 100.558 L
354.083 101.276 L
354.355 102.018 L
354.626 102.785 L
354.898 103.579 L
355.169 104.402 L
355.441 105.256 L
355.712 106.144 L
355.984 107.068 L
356.255 108.032 L
356.527 109.038 L
356.798 110.091 L
357.07 111.196 L
357.341 112.358 L
357.613 113.582 L
357.884 114.877 L
358.156 116.25 L
358.427 117.712 L
358.699 119.274 L
358.97 120.953 L
359.242 122.766 L
359.513 124.738 L
359.785 126.897 L
360.056 129.284 L
360.328 131.953 L
360.599 134.978 L
360.871 138.471 L
361.142 142.602 L
361.414 147.658 L
361.685 154.177 L
361.957 163.364 L
362.228 179.071 L
362.5 467 L
362.772 179.071 L
363.043 163.364 L
363.315 154.177 L
363.586 147.658 L
363.858 142.602 L
364.129 138.471 L
364.401 134.978 L
364.672 131.953 L
364.944 129.284 L
365.215 126.897 L
365.487 124.738 L
365.758 122.766 L
366.03 120.953 L
366.301 119.274 L
366.573 117.712 L
366.844 116.25 L
367.116 114.877 L
367.387 113.582 L
367.659 112.358 L
367.93 111.196 L
368.202 110.091 L
368.473 109.038 L
368.745 108.032 L
369.016 107.068 L
369.288 106.144 L
369.559 105.256 L
369.831 104.402 L
370.102 103.579 L
370.374 102.785 L
370.645 102.018 L
370.917 101.276 L
371.188 100.558 L
371.46 99.862 L
371.731 99.186 L
372.003 98.531 L
372.274 97.894 L
372.546 97.274 L
372.817 96.671 L
373.089 96.084 L
373.36 95.512 L
373.632 94.954 L
373.903 94.409 L
374.174 93.878 L
374.446 93.359 L
374.717 92.851 L
374.989 92.355 L
375.26 91.869 L
375.532 91.394 L
375.803 90.928 L
376.075 90.472 L
376.346 90.026 L
376.618 89.588 L
376.889 89.158 L
377.161 88.736 L
377.432 88.323 L
377.704 87.916 L
377.975 87.517 L
378.247 87.125 L
378.518 86.74 L
378.79 86.362 L
379.061 85.989 L
379.333 85.623 L
379.604 85.263 L
379.876 84.908 L
380.147 84.56 L
380.419 84.216 L
380.69 83.878 L
380.962 83.545 L
381.233 83.216 L
381.505 82.893 L
381.776 82.574 L
382.048 82.26 L
382.319 81.95 L
382.591 81.644 L
382.862 81.343 L
383.134 81.046 L
383.405 80.752 L
383.677 80.463 L
383.948 80.177 L
384.22 79.895 L
384.491 79.617 L
384.763 79.342 L
385.035 79.07 L
385.306 78.802 L
385.577 78.537 L
385.849 78.275 L
386.121 78.016 L
386.392 77.76 L
386.664 77.508 L
386.935 77.258 L
387.207 77.011 L
387.478 76.767 L
387.75 76.525 L
388.021 76.286 L
388.293 76.05 L
388.564 75.816 L
388.836 75.585 L
389.107 75.356 L
389.379 75.13 L
389.65 74.906 L
389.922 74.684 L
390.193 74.465 L
390.465 74.247 L
390.736 74.032 L
391.008 73.819 L
391.279 73.609 L
391.551 73.4 L
391.822 73.193 L
392.094 72.988 L
392.365 72.785 L
392.637 72.584 L
392.908 72.385 L
393.18 72.188 L
393.451 71.993 L
393.723 71.799 L
393.994 71.607 L
394.266 71.417 L
394.537 71.229 L
394.809 71.042 L
395.08 70.857 L
395.352 70.673 L
395.623 70.491 L
395.895 70.311 L
396.166 70.132 L
396.438 69.954 L
396.709 69.779 L
396.98 69.604 L
397.252 69.431 L
397.523 69.26 L
397.795 69.09 L
398.066 68.921 L
398.338 68.753 L
398.609 68.587 L
398.881 68.423 L
399.152 68.259 L
399.424 68.097 L
399.695 67.936 L
399.967 67.776 L
400.238 67.618 L
400.51 67.461 L
400.781 67.305 L
401.053 67.15 L
401.324 66.996 L
401.596 66.844 L
401.867 66.692 L
402.139 66.542 L
402.41 66.393 L
402.682 66.244 L
402.953 66.097 L
403.225 65.951 L
403.496 65.806 L
403.768 65.663 L
404.039 65.52 L
404.311 65.378 L
404.582 65.237 L
404.854 65.097 L
405.125 64.958 L
405.397 64.82 L
405.668 64.683 L
405.94 64.547 L
406.211 64.412 L
406.483 64.277 L
406.754 64.144 L
407.026 64.012 L
407.297 63.88 L
407.569 63.749 L
407.841 63.619 L
408.112 63.49 L
408.383 63.362 L
408.655 63.235 L
408.927 63.108 L
409.198 62.983 L
409.47 62.858 L
409.741 62.734 L
410.013 62.61 L
410.284 62.488 L
410.556 62.366 L
410.827 62.245 L
411.099 62.125 L
411.37 62.005 L
411.642 61.886 L
411.913 61.768 L
412.185 61.651 L
412.456 61.534 L
412.728 61.418 L
412.999 61.303 L
413.271 61.188 L
413.542 61.075 L
413.814 60.961 L
414.085 60.849 L
414.357 60.737 L
414.628 60.626 L
414.9 60.515 L
415.171 60.406 L
415.443 60.296 L
415.714 60.188 L
415.986 60.08 L
416.257 59.972 L
416.529 59.866 L
416.8 59.76 L
417.072 59.654 L
417.343 59.549 L
417.615 59.445 L
417.886 59.341 L
418.158 59.238 L
418.429 59.135 L
418.701 59.033 L
418.972 58.932 L
419.243 58.831 L
419.515 58.731 L
419.786 58.631 L
420.058 58.532 L
420.329 58.433 L
420.601 58.335 L
420.872 58.237 L
421.144 58.14 L
421.415 58.044 L
421.687 57.947 L
421.958 57.852 L
422.23 57.757 L
422.501 57.662 L
422.773 57.568 L
423.044 57.475 L
423.316 57.382 L
423.587 57.289 L
423.859 57.197 L
424.13 57.106 L
424.402 57.015 L
424.673 56.924 L
424.945 56.834 L
425.216 56.744 L
425.488 56.655 L
425.759 56.566 L
426.031 56.478 L
426.302 56.39 L
426.574 56.303 L
426.845 56.216 L
427.117 56.129 L
427.388 56.043 L
427.66 55.957 L
427.931 55.872 L
428.203 55.787 L
428.474 55.703 L
428.746 55.619 L
429.017 55.536 L
429.289 55.452 L
429.56 55.37 L
429.832 55.287 L
430.103 55.206 L
430.375 55.124 L
430.647 55.043 L
430.918 54.962 L
431.19 54.882 L
431.461 54.802 L
431.733 54.723 L
432.004 54.643 L
432.276 54.565 L
432.547 54.486 L
432.819 54.408 L
433.09 54.331 L
433.362 54.254 L
433.633 54.177 L
433.905 54.1 L
434.176 54.024 L
434.448 53.948 L
434.719 53.873 L
434.991 53.798 L
435.262 53.723 L
435.534 53.649 L
435.805 53.575 L
436.077 53.501 L
436.348 53.428 L
436.62 53.355 L
436.891 53.282 L
437.163 53.21 L
437.434 53.138 L
437.706 53.066 L
437.977 52.995 L
438.249 52.924 L
438.52 52.854 L
438.792 52.783 L
439.063 52.713 L
439.335 52.644 L
439.606 52.575 L
439.878 52.506 L
440.149 52.437 L
440.421 52.368 L
440.692 52.3 L
440.964 52.233 L
441.235 52.165 L
441.507 52.098 L
441.778 52.031 L
442.049 51.965 L
442.321 51.899 L
442.592 51.833 L
442.864 51.767 L
443.135 51.702 L
443.407 51.637 L
443.678 51.572 L
443.95 51.508 L
444.221 51.443 L
444.493 51.38 L
444.764 51.316 L
445.036 51.253 L
445.307 51.19 L
445.579 51.127 L
445.85 51.065 L
446.122 51.002 L
446.393 50.94 L
446.665 50.879 L
446.936 50.818 L
447.208 50.756 L
447.479 50.696 L
447.751 50.635 L
448.022 50.575 L
448.294 50.515 L
448.565 50.455 L
448.837 50.396 L
449.108 50.336 L
449.38 50.278 L
449.651 50.219 L
449.923 50.16 L
450.194 50.102 L
450.466 50.044 L
450.738 49.987 L
451.009 49.929 L
451.281 49.872 L
451.552 49.815 L
451.823 49.758 L
452.095 49.702 L
452.366 49.646 L
452.638 49.59 L
452.909 49.534 L
453.181 49.479 L
453.452 49.424 L
453.724 49.369 L
453.996 49.314 L
454.267 49.259 L
454.539 49.205 L
454.81 49.151 L
455.082 49.097 L
455.353 49.044 L
455.625 48.99 L
455.896 48.937 L
456.168 48.885 L
456.439 48.832 L
456.711 48.779 L
456.982 48.727 L
457.254 48.675 L
457.525 48.624 L
457.797 48.572 L
458.068 48.521 L
458.34 48.47 L
458.611 48.419 L
458.883 48.368 L
459.154 48.318 L
459.426 48.268 L
459.697 48.218 L
459.969 48.168 L
460.24 48.118 L
460.512 48.069 L
460.783 48.02 L
461.055 47.971 L
461.326 47.922 L
461.598 47.874 L
461.869 47.825 L
462.141 47.777 L
462.412 47.729 L
462.684 47.682 L
462.955 47.634 L
463.227 47.587 L
463.498 47.54 L
463.77 47.493 L
464.041 47.446 L
464.313 47.4 L
464.584 47.354 L
464.855 47.308 L
465.127 47.262 L
465.398 47.216 L
465.67 47.171 L
465.941 47.125 L
466.213 47.08 L
466.484 47.035 L
466.756 46.991 L
467.027 46.946 L
467.299 46.902 L
467.57 46.858 L
467.842 46.814 L
468.113 46.77 L
468.385 46.726 L
468.656 46.683 L
468.928 46.64 L
469.199 46.597 L
469.471 46.554 L
469.742 46.511 L
470.014 46.469 L
470.285 46.426 L
470.557 46.384 L
470.828 46.342 L
471.1 46.301 L
471.371 46.259 L
471.643 46.218 L
471.914 46.176 L
472.186 46.135 L
472.457 46.095 L
472.729 46.054 L
473 46.013 L
473.272 45.973 L
473.543 45.933 L
473.815 45.893 L
474.086 45.853 L
474.358 45.813 L
474.629 45.774 L
474.901 45.735 L
475.173 45.695 L
475.444 45.656 L
475.716 45.618 L
475.987 45.579 L
476.259 45.541 L
476.53 45.502 L
476.802 45.464 L
477.073 45.426 L
477.344 45.388 L
477.616 45.351 L
477.887 45.313 L
478.159 45.276 L
478.431 45.239 L
478.702 45.202 L
478.974 45.165 L
479.245 45.128 L
479.517 45.092 L
479.788 45.055 L
480.06 45.019 L
480.331 44.983 L
480.603 44.947 L
480.874 44.911 L
481.146 44.876 L
481.417 44.84 L
481.689 44.805 L
481.96 44.77 L
482.232 44.735 L
482.503 44.7 L
482.775 44.666 L
483.046 44.631 L
483.318 44.597 L
483.589 44.563 L
483.861 44.529 L
484.132 44.495 L
484.404 44.461 L
484.675 44.427 L
484.947 44.394 L
485.218 44.361 L
485.49 44.327 L
485.761 44.294 L
486.033 44.262 L
486.304 44.229 L
486.576 44.196 L
486.847 44.164 L
487.118 44.132 L
487.39 44.099 L
487.661 44.067 L
487.933 44.036 L
488.204 44.004 L
488.476 43.972 L
488.747 43.941 L
489.019 43.91 L
489.29 43.879 L
489.562 43.848 L
489.833 43.817 L
490.105 43.786 L
490.376 43.755 L
490.648 43.725 L
490.919 43.695 L
491.191 43.664 L
491.462 43.634 L
491.734 43.604 L
492.005 43.575 L
492.277 43.545 L
492.548 43.516 L
492.82 43.486 L
493.091 43.457 L
493.363 43.428 L
493.634 43.399 L
493.906 43.37 L
494.177 43.341 L
494.449 43.313 L
494.72 43.284 L
494.992 43.256 L
495.263 43.228 L
495.535 43.2 L
495.806 43.172 L
496.078 43.144 L
496.35 43.117 L
496.621 43.089 L
496.893 43.062 L
497.164 43.034 L
497.436 43.007 L
497.707 42.98 L
497.978 42.953 L
498.25 42.927 L
498.521 42.9 L
498.793 42.873 L
499.064 42.847 L
499.336 42.821 L
499.608 42.795 L
499.879 42.769 L
500.151 42.743 L
500.422 42.717 L
500.694 42.691 L
500.965 42.666 L
501.237 42.64 L
501.508 42.615 L
501.78 42.59 L
502.051 42.565 L
502.323 42.54 L
502.594 42.515 L
502.866 42.491 L
503.137 42.466 L
503.409 42.442 L
503.68 42.417 L
503.952 42.393 L
504.223 42.369 L
504.495 42.345 L
504.766 42.321 L
505.038 42.298 L
505.309 42.274 L
505.581 42.25 L
505.852 42.227 L
506.124 42.204 L
506.395 42.181 L
506.667 42.158 L
506.938 42.135 L
507.21 42.112 L
507.481 42.089 L
507.753 42.067 L
508.024 42.044 L
508.296 42.022 L
508.567 42 L
508.839 41.977 L
509.11 41.955 L
509.382 41.933 L
509.653 41.912 L
509.924 41.89 L
510.196 41.868 L
510.467 41.847 L
510.739 41.826 L
511.01 41.804 L
511.282 41.783 L
511.553 41.762 L
511.825 41.741 L
512.096 41.72 L
512.368 41.7 L
512.64 41.679 L
512.911 41.659 L
513.182 41.638 L
513.454 41.618 L
513.726 41.598 L
513.997 41.578 L
514.268 41.558 L
514.54 41.538 L
514.812 41.518 L
515.083 41.499 L
515.354 41.479 L
515.626 41.46 L
515.898 41.44 L
516.169 41.421 L
516.44 41.402 L
516.712 41.383 L
516.984 41.364 L
517.255 41.345 L
517.526 41.326 L
517.798 41.308 L
518.07 41.289 L
518.341 41.271 L
518.612 41.253 L
518.884 41.234 L
519.156 41.216 L
519.427 41.198 L
519.698 41.18 L
519.97 41.163 L
520.242 41.145 L
520.513 41.127 L
520.784 41.11 L
521.056 41.092 L
521.328 41.075 L
521.599 41.058 L
521.87 41.041 L
522.142 41.024 L
522.414 41.007 L
522.685 40.99 L
522.956 40.973 L
523.228 40.956 L
523.5 40.94 L
523.771 40.923 L
524.042 40.907 L
524.314 40.891 L
524.586 40.875 L
524.857 40.858 L
525.128 40.842 L
525.4 40.827 L
525.672 40.811 L
525.943 40.795 L
526.214 40.779 L
526.486 40.764 L
526.758 40.748 L
527.029 40.733 L
527.3 40.718 L
527.572 40.703 L
527.844 40.688 L
528.115 40.673 L
528.386 40.658 L
528.658 40.643 L
528.93 40.628 L
529.201 40.614 L
529.472 40.599 L
529.744 40.585 L
530.016 40.57 L
530.287 40.556 L
530.559 40.542 L
530.83 40.528 L
531.102 40.514 L
531.373 40.5 L
531.644 40.486 L
531.916 40.472 L
532.188 40.459 L
532.459 40.445 L
532.73 40.431 L
533.002 40.418 L
533.273 40.405 L
533.545 40.392 L
533.817 40.378 L
534.088 40.365 L
534.359 40.352 L
534.631 40.339 L
534.903 40.327 L
535.174 40.314 L
535.445 40.301 L
535.717 40.289 L
535.989 40.276 L
536.26 40.264 L
536.531 40.252 L
536.803 40.239 L
537.075 40.227 L
537.346 40.215 L
537.617 40.203 L
537.889 40.191 L
538.161 40.179 L
538.432 40.168 L
538.703 40.156 L
538.975 40.144 L
539.247 40.133 L
539.518 40.121 L
539.789 40.11 L
540.061 40.099 L
540.333 40.087 L
540.604 40.076 L
540.875 40.065 L
541.147 40.054 L
541.419 40.043 L
541.69 40.033 L
541.961 40.022 L
542.233 40.011 L
542.505 40.001 L
542.776 39.99 L
543.047 39.98 L
543.319 39.969 L
543.591 39.959 L
543.862 39.949 L
544.133 39.939 L
544.405 39.929 L
544.677 39.919 L
544.948 39.909 L
545.219 39.899 L
545.491 39.889 L
545.763 39.879 L
546.034 39.87 L
546.305 39.86 L
546.577 39.851 L
546.849 39.841 L
547.12 39.832 L
547.391 39.823 L
547.663 39.814 L
547.935 39.804 L
548.206 39.795 L
548.477 39.786 L
548.749 39.777 L
549.021 39.769 L
549.292 39.76 L
549.564 39.751 L
549.835 39.742 L
550.107 39.734 L
550.378 39.725 L
550.65 39.717 L
550.921 39.709 L
551.193 39.7 L
551.464 39.692 L
551.735 39.684 L
552.007 39.676 L
552.279 39.668 L
552.55 39.66 L
552.821 39.652 L
553.093 39.644 L
553.365 39.636 L
553.636 39.628 L
553.907 39.621 L
554.179 39.613 L
554.451 39.606 L
554.722 39.598 L
554.993 39.591 L
555.265 39.584 L
555.536 39.576 L
555.808 39.569 L
556.08 39.562 L
556.351 39.555 L
556.622 39.548 L
556.894 39.541 L
557.166 39.534 L
557.437 39.527 L
557.708 39.52 L
557.98 39.514 L
558.252 39.507 L
558.523 39.5 L
558.794 39.494 L
559.066 39.487 L
559.338 39.481 L
559.609 39.475 L
559.88 39.468 L
560.152 39.462 L
560.424 39.456 L
560.695 39.45 L
560.966 39.444 L
561.238 39.438 L
561.509 39.432 L
561.781 39.426 L
562.052 39.42 L
562.324 39.414 L
562.596 39.408 L
562.867 39.403 L
563.138 39.397 L
563.41 39.392 L
563.682 39.386 L
563.953 39.381 L
564.224 39.375 L
564.496 39.37 L
564.768 39.365 L
565.039 39.359 L
565.31 39.354 L
565.582 39.349 L
565.854 39.344 L
566.125 39.339 L
566.396 39.334 L
566.668 39.329 L
566.94 39.324 L
567.211 39.319 L
567.482 39.314 L
567.754 39.31 L
568.026 39.305 L
568.297 39.3 L
568.568 39.296 L
568.84 39.291 L
569.112 39.287 L
569.383 39.282 L
569.654 39.278 L
569.926 39.274 L
570.198 39.269 L
570.469 39.265 L
570.74 39.261 L
571.012 39.257 L
571.284 39.253 L
571.555 39.249 L
571.826 39.245 L
572.098 39.241 L
572.37 39.237 L
572.641 39.233 L
572.912 39.229 L
573.184 39.225 L
573.456 39.221 L
573.727 39.218 L
573.998 39.214 L
574.27 39.21 L
574.542 39.207 L
574.813 39.203 L
575.084 39.2 L
575.356 39.196 L
575.628 39.193 L
575.899 39.19 L
576.17 39.186 L
576.442 39.183 L
576.714 39.18 L
576.985 39.177 L
577.257 39.174 L
577.528 39.17 L
577.799 39.167 L
578.071 39.164 L
578.343 39.161 L
578.614 39.158 L
578.885 39.156 L
579.157 39.153 L
579.429 39.15 L
579.7 39.147 L
579.971 39.144 L
580.243 39.142 L
580.515 39.139 L
580.786 39.136 L
581.057 39.134 L
581.329 39.131 L
581.601 39.128 L
581.872 39.126 L
582.143 39.123 L
582.415 39.121 L
582.686 39.119 L
582.958 39.116 L
583.229 39.114 L
583.501 39.112 L
583.773 39.109 L
584.044 39.107 L
584.315 39.105 L
584.587 39.103 L
584.859 39.101 L
585.13 39.098 L
585.401 39.096 L
585.673 39.094 L
585.945 39.092 L
586.216 39.09 L
586.487 39.088 L
586.759 39.086 L
587.031 39.085 L
587.302 39.083 L
587.573 39.081 L
587.845 39.079 L
588.117 39.077 L
588.388 39.076 L
588.659 39.074 L
588.931 39.072 L
589.203 39.071 L
589.474 39.069 L
589.745 39.067 L
590.017 39.066 L
590.289 39.064 L
590.56 39.063 L
590.831 39.061 L
591.103 39.06 L
591.375 39.058 L
591.646 39.057 L
591.917 39.055 L
592.189 39.054 L
592.461 39.053 L
592.732 39.051 L
593.003 39.05 L
593.275 39.049 L
593.547 39.048 L
593.818 39.046 L
594.089 39.045 L
594.361 39.044 L
594.633 39.043 L
594.904 39.042 L
595.175 39.041 L
595.447 39.04 L
595.719 39.038 L
595.99 39.037 L
596.261 39.036 L
596.533 39.035 L
596.805 39.034 L
597.076 39.033 L
597.347 39.032 L
597.619 39.032 L
597.891 39.031 L
598.162 39.03 L
598.434 39.029 L
598.705 39.028 L
598.977 39.027 L
599.248 39.026 L
599.52 39.026 L
599.791 39.025 L
600.063 39.024 L
600.334 39.023 L
600.606 39.023 L
600.877 39.022 L
601.148 39.021 L
601.42 39.021 L
601.692 39.02 L
601.963 39.019 L
602.234 39.019 L
602.506 39.018 L
602.777 39.017 L
603.049 39.017 L
603.32 39.016 L
603.592 39.016 L
603.863 39.015 L
604.135 39.015 L
604.406 39.014 L
604.678 39.014 L
604.95 39.013 L
605.221 39.013 L
605.492 39.012 L
605.764 39.012 L
606.036 39.011 L
606.307 39.011 L
606.578 39.01 L
606.85 39.01 L
607.122 39.01 L
607.393 39.009 L
607.664 39.009 L
607.936 39.009 L
608.208 39.008 L
608.479 39.008 L
608.75 39.008 L
609.022 39.007 L
609.294 39.007 L
609.565 39.007 L
609.836 39.006 L
610.108 39.006 L
610.38 39.006 L
610.651 39.006 L
610.922 39.005 L
611.194 39.005 L
611.466 39.005 L
611.737 39.005 L
612.008 39.004 L
612.28 39.004 L
612.552 39.004 L
612.823 39.004 L
613.094 39.004 L
613.366 39.003 L
613.638 39.003 L
613.909 39.003 L
614.18 39.003 L
614.452 39.003 L
614.724 39.003 L
614.995 39.002 L
615.266 39.002 L
615.538 39.002 L
615.81 39.002 L
616.081 39.002 L
616.352 39.002 L
616.624 39.002 L
616.896 39.002 L
617.167 39.002 L
617.438 39.001 L
617.71 39.001 L
617.982 39.001 L
618.253 39.001 L
618.524 39.001 L
618.796 39.001 L
619.068 39.001 L
619.339 39.001 L
619.611 39.001 L
619.882 39.001 L
620.154 39.001 L
620.425 39.001 L
620.697 39.001 L
620.968 39.001 L
621.24 39 L
621.511 39 L
621.783 39 L
622.054 39 L
622.326 39 L
622.597 39 L
622.868 39 L
623.14 39 L
623.411 39 L
623.683 39 L
623.954 39 L
624.226 39 L
624.497 39 L
624.769 39 L
625.04 39 L
625.312 39 L
625.583 39 L
625.855 39 L
626.127 39 L
626.398 39 L
626.669 39 L
626.941 39 L
627.213 39 L
627.484 39 L
627.755 39 L
628.027 39 L
628.299 39 L
628.57 39 L
628.841 39 L
629.113 39 L
629.385 39 L
629.656 39 L
629.927 39 L
630.199 39 L
630.471 39 L
630.742 39 L
631.013 39 L
631.285 39 L
631.557 39 L
631.828 39 L
632.099 39 L
632.371 39 L
632.643 39 L
632.914 39 L
633.185 39 L
633.457 39 L
633.729 39 L
634 39 L
S
GR
GS
[0.6 0 0 0.6 0 0] CT
1 GC
N
617 101 M
617 56 L
386 56 L
386 101 L
cp
f
GR
GS
[0.6 0 0 0.6 266.73593 40.99726] CT
/Helvetica 15 F
GS
[1 0 0 1 0 0] CT
0 6 moveto 
1 -1 scale
(Low pass decomposition) t 
GR
GR
GS
[0.6 0 0 0.6 0 0] CT
0 0.447 0.741 RC
1 LJ
3.333 LW
N
390.984 68.329 M
440.822 68.329 L
S
GR
GS
[0.6 0 0 0.6 266.73593 53.20274] CT
/Helvetica 15 F
GS
[1 0 0 1 0 0] CT
0 6 moveto 
1 -1 scale
(High pass decomposition) t 
GR
GR
GS
[0.6 0 0 0.6 0 0] CT
0.851 0.325 0.098 RC
1 LJ
3.333 LW
N
390.984 88.671 M
440.822 88.671 L
S
GR
GS
[0.6 0 0 0.6 0 0] CT
0.149 GC
10.0 ML
0.833 LW
N
386 101 M
386 56 L
617 56 L
617 101 L
cp
S
GR
%%Trailer
%%Pages: 1
%%EOF
