%!PS-Adobe-3.0 EPSF-3.0
%%Creator: (MATLAB, The Mathworks, Inc. Version 9.3.0.713579 \(R2017b\). Operating System: Windows 10)
%%Title: C:/Users/simon/Documents/Unief/M2/Wavelets/Project/report/plots/freqDiv22.eps
%%CreationDate: 2017-11-25T16:32:27
%%Pages: (atend)
%%BoundingBox: 0 0 1152 525
%%LanguageLevel: 3
%%EndComments
%%BeginProlog
%%BeginResource: procset (Apache XML Graphics Std ProcSet) 1.2 0
%%Version: 1.2 0
%%Copyright: (Copyright 2001-2003,2010 The Apache Software Foundation. License terms: http://www.apache.org/licenses/LICENSE-2.0)
/bd{bind def}bind def
/ld{load def}bd
/GR/grestore ld
/GS/gsave ld
/RM/rmoveto ld
/C/curveto ld
/t/show ld
/L/lineto ld
/ML/setmiterlimit ld
/CT/concat ld
/f/fill ld
/N/newpath ld
/S/stroke ld
/CC/setcmykcolor ld
/A/ashow ld
/cp/closepath ld
/RC/setrgbcolor ld
/LJ/setlinejoin ld
/GC/setgray ld
/LW/setlinewidth ld
/M/moveto ld
/re {4 2 roll M
1 index 0 rlineto
0 exch rlineto
neg 0 rlineto
cp } bd
/_ctm matrix def
/_tm matrix def
/BT { _ctm currentmatrix pop matrix _tm copy pop 0 0 moveto } bd
/ET { _ctm setmatrix } bd
/iTm { _ctm setmatrix _tm concat } bd
/Tm { _tm astore pop iTm 0 0 moveto } bd
/ux 0.0 def
/uy 0.0 def
/F {
  /Tp exch def
  /Tf exch def
  Tf findfont Tp scalefont setfont
  /cf Tf def  /cs Tp def
} bd
/ULS {currentpoint /uy exch def /ux exch def} bd
/ULE {
  /Tcx currentpoint pop def
  gsave
  newpath
  cf findfont cs scalefont dup
  /FontMatrix get 0 get /Ts exch def /FontInfo get dup
  /UnderlinePosition get Ts mul /To exch def
  /UnderlineThickness get Ts mul /Tt exch def
  ux uy To add moveto  Tcx uy To add lineto
  Tt setlinewidth stroke
  grestore
} bd
/OLE {
  /Tcx currentpoint pop def
  gsave
  newpath
  cf findfont cs scalefont dup
  /FontMatrix get 0 get /Ts exch def /FontInfo get dup
  /UnderlinePosition get Ts mul /To exch def
  /UnderlineThickness get Ts mul /Tt exch def
  ux uy To add cs add moveto Tcx uy To add cs add lineto
  Tt setlinewidth stroke
  grestore
} bd
/SOE {
  /Tcx currentpoint pop def
  gsave
  newpath
  cf findfont cs scalefont dup
  /FontMatrix get 0 get /Ts exch def /FontInfo get dup
  /UnderlinePosition get Ts mul /To exch def
  /UnderlineThickness get Ts mul /Tt exch def
  ux uy To add cs 10 mul 26 idiv add moveto Tcx uy To add cs 10 mul 26 idiv add lineto
  Tt setlinewidth stroke
  grestore
} bd
/QT {
/Y22 exch store
/X22 exch store
/Y21 exch store
/X21 exch store
currentpoint
/Y21 load 2 mul add 3 div exch
/X21 load 2 mul add 3 div exch
/X21 load 2 mul /X22 load add 3 div
/Y21 load 2 mul /Y22 load add 3 div
/X22 load /Y22 load curveto
} bd
/SSPD {
dup length /d exch dict def
{
/v exch def
/k exch def
currentpagedevice k known {
/cpdv currentpagedevice k get def
v cpdv ne {
/upd false def
/nullv v type /nulltype eq def
/nullcpdv cpdv type /nulltype eq def
nullv nullcpdv or
{
/upd true def
} {
/sametype v type cpdv type eq def
sametype {
v type /arraytype eq {
/vlen v length def
/cpdvlen cpdv length def
vlen cpdvlen eq {
0 1 vlen 1 sub {
/i exch def
/obj v i get def
/cpdobj cpdv i get def
obj cpdobj ne {
/upd true def
exit
} if
} for
} {
/upd true def
} ifelse
} {
v type /dicttype eq {
v {
/dv exch def
/dk exch def
/cpddv cpdv dk get def
dv cpddv ne {
/upd true def
exit
} if
} forall
} {
/upd true def
} ifelse
} ifelse
} if
} ifelse
upd true eq {
d k v put
} if
} if
} if
} forall
d length 0 gt {
d setpagedevice
} if
} bd
/RE { % /NewFontName [NewEncodingArray] /FontName RE -
  findfont dup length dict begin
  {
    1 index /FID ne
    {def} {pop pop} ifelse
  } forall
  /Encoding exch def
  /FontName 1 index def
  currentdict definefont pop
  end
} bind def
%%EndResource
%%BeginResource: procset (Apache XML Graphics EPS ProcSet) 1.0 0
%%Version: 1.0 0
%%Copyright: (Copyright 2002-2003 The Apache Software Foundation. License terms: http://www.apache.org/licenses/LICENSE-2.0)
/BeginEPSF { %def
/b4_Inc_state save def         % Save state for cleanup
/dict_count countdictstack def % Count objects on dict stack
/op_count count 1 sub def      % Count objects on operand stack
userdict begin                 % Push userdict on dict stack
/showpage { } def              % Redefine showpage, { } = null proc
0 setgray 0 setlinecap         % Prepare graphics state
1 setlinewidth 0 setlinejoin
10 setmiterlimit [ ] 0 setdash newpath
/languagelevel where           % If level not equal to 1 then
{pop languagelevel             % set strokeadjust and
1 ne                           % overprint to their defaults.
{false setstrokeadjust false setoverprint
} if
} if
} bd
/EndEPSF { %def
count op_count sub {pop} repeat            % Clean up stacks
countdictstack dict_count sub {end} repeat
b4_Inc_state restore
} bd
%%EndResource
%FOPBeginFontDict
%%IncludeResource: font Courier-Oblique
%%IncludeResource: font Courier-BoldOblique
%%IncludeResource: font Courier-Bold
%%IncludeResource: font ZapfDingbats
%%IncludeResource: font Symbol
%%IncludeResource: font Helvetica
%%IncludeResource: font Helvetica-Oblique
%%IncludeResource: font Helvetica-Bold
%%IncludeResource: font Helvetica-BoldOblique
%%IncludeResource: font Times-Roman
%%IncludeResource: font Times-Italic
%%IncludeResource: font Times-Bold
%%IncludeResource: font Times-BoldItalic
%%IncludeResource: font Courier
%FOPEndFontDict
%%BeginResource: encoding WinAnsiEncoding
/WinAnsiEncoding [
/.notdef /.notdef /.notdef /.notdef /.notdef
/.notdef /.notdef /.notdef /.notdef /.notdef
/.notdef /.notdef /.notdef /.notdef /.notdef
/.notdef /.notdef /.notdef /.notdef /.notdef
/.notdef /.notdef /.notdef /.notdef /.notdef
/.notdef /.notdef /.notdef /.notdef /.notdef
/.notdef /.notdef /space /exclam /quotedbl
/numbersign /dollar /percent /ampersand /quotesingle
/parenleft /parenright /asterisk /plus /comma
/hyphen /period /slash /zero /one
/two /three /four /five /six
/seven /eight /nine /colon /semicolon
/less /equal /greater /question /at
/A /B /C /D /E
/F /G /H /I /J
/K /L /M /N /O
/P /Q /R /S /T
/U /V /W /X /Y
/Z /bracketleft /backslash /bracketright /asciicircum
/underscore /quoteleft /a /b /c
/d /e /f /g /h
/i /j /k /l /m
/n /o /p /q /r
/s /t /u /v /w
/x /y /z /braceleft /bar
/braceright /asciitilde /bullet /Euro /bullet
/quotesinglbase /florin /quotedblbase /ellipsis /dagger
/daggerdbl /circumflex /perthousand /Scaron /guilsinglleft
/OE /bullet /Zcaron /bullet /bullet
/quoteleft /quoteright /quotedblleft /quotedblright /bullet
/endash /emdash /asciitilde /trademark /scaron
/guilsinglright /oe /bullet /zcaron /Ydieresis
/space /exclamdown /cent /sterling /currency
/yen /brokenbar /section /dieresis /copyright
/ordfeminine /guillemotleft /logicalnot /sfthyphen /registered
/macron /degree /plusminus /twosuperior /threesuperior
/acute /mu /paragraph /middot /cedilla
/onesuperior /ordmasculine /guillemotright /onequarter /onehalf
/threequarters /questiondown /Agrave /Aacute /Acircumflex
/Atilde /Adieresis /Aring /AE /Ccedilla
/Egrave /Eacute /Ecircumflex /Edieresis /Igrave
/Iacute /Icircumflex /Idieresis /Eth /Ntilde
/Ograve /Oacute /Ocircumflex /Otilde /Odieresis
/multiply /Oslash /Ugrave /Uacute /Ucircumflex
/Udieresis /Yacute /Thorn /germandbls /agrave
/aacute /acircumflex /atilde /adieresis /aring
/ae /ccedilla /egrave /eacute /ecircumflex
/edieresis /igrave /iacute /icircumflex /idieresis
/eth /ntilde /ograve /oacute /ocircumflex
/otilde /odieresis /divide /oslash /ugrave
/uacute /ucircumflex /udieresis /yacute /thorn
/ydieresis
] def
%%EndResource
%FOPBeginFontReencode
/Courier-Oblique findfont
dup length dict begin
  {1 index /FID ne {def} {pop pop} ifelse} forall
  /Encoding WinAnsiEncoding def
  currentdict
end
/Courier-Oblique exch definefont pop
/Courier-BoldOblique findfont
dup length dict begin
  {1 index /FID ne {def} {pop pop} ifelse} forall
  /Encoding WinAnsiEncoding def
  currentdict
end
/Courier-BoldOblique exch definefont pop
/Courier-Bold findfont
dup length dict begin
  {1 index /FID ne {def} {pop pop} ifelse} forall
  /Encoding WinAnsiEncoding def
  currentdict
end
/Courier-Bold exch definefont pop
/Helvetica findfont
dup length dict begin
  {1 index /FID ne {def} {pop pop} ifelse} forall
  /Encoding WinAnsiEncoding def
  currentdict
end
/Helvetica exch definefont pop
/Helvetica-Oblique findfont
dup length dict begin
  {1 index /FID ne {def} {pop pop} ifelse} forall
  /Encoding WinAnsiEncoding def
  currentdict
end
/Helvetica-Oblique exch definefont pop
/Helvetica-Bold findfont
dup length dict begin
  {1 index /FID ne {def} {pop pop} ifelse} forall
  /Encoding WinAnsiEncoding def
  currentdict
end
/Helvetica-Bold exch definefont pop
/Helvetica-BoldOblique findfont
dup length dict begin
  {1 index /FID ne {def} {pop pop} ifelse} forall
  /Encoding WinAnsiEncoding def
  currentdict
end
/Helvetica-BoldOblique exch definefont pop
/Times-Roman findfont
dup length dict begin
  {1 index /FID ne {def} {pop pop} ifelse} forall
  /Encoding WinAnsiEncoding def
  currentdict
end
/Times-Roman exch definefont pop
/Times-Italic findfont
dup length dict begin
  {1 index /FID ne {def} {pop pop} ifelse} forall
  /Encoding WinAnsiEncoding def
  currentdict
end
/Times-Italic exch definefont pop
/Times-Bold findfont
dup length dict begin
  {1 index /FID ne {def} {pop pop} ifelse} forall
  /Encoding WinAnsiEncoding def
  currentdict
end
/Times-Bold exch definefont pop
/Times-BoldItalic findfont
dup length dict begin
  {1 index /FID ne {def} {pop pop} ifelse} forall
  /Encoding WinAnsiEncoding def
  currentdict
end
/Times-BoldItalic exch definefont pop
/Courier findfont
dup length dict begin
  {1 index /FID ne {def} {pop pop} ifelse} forall
  /Encoding WinAnsiEncoding def
  currentdict
end
/Courier exch definefont pop
%FOPEndFontReencode
%%EndProlog
%%Page: 1 1
%%PageBoundingBox: 0 0 1152 525
%%BeginPageSetup
[1 0 0 -1 0 525] CT
%%EndPageSetup
GS
[0.75 0 0 0.75 0 0] CT
1 GC
N
0 0 1536 700 re
f
GR
GS
[0.75 0 0 0.75 0 0] CT
1 GC
N
0 0 1536 700 re
f
GR
GS
[0.75 0 0 0.75 0 0] CT
1 GC
N
200 623 M
1390 623 L
1390 52 L
200 52 L
cp
f
GR
GS
[0.75 0 0 0.75 0 0] CT
0.149 GC
2 setlinecap
1 LJ
0.667 LW
N
200 623 M
1390 623 L
S
GR
GS
[0.75 0 0 0.75 0 0] CT
0.149 GC
2 setlinecap
1 LJ
0.667 LW
N
200 623 M
200 611.1 L
S
GR
GS
[0.75 0 0 0.75 0 0] CT
0.149 GC
2 setlinecap
1 LJ
0.667 LW
N
247.6 623 M
247.6 611.1 L
S
GR
GS
[0.75 0 0 0.75 0 0] CT
0.149 GC
2 setlinecap
1 LJ
0.667 LW
N
438 623 M
438 611.1 L
S
GR
GS
[0.75 0 0 0.75 0 0] CT
0.149 GC
2 setlinecap
1 LJ
0.667 LW
N
676 623 M
676 611.1 L
S
GR
GS
[0.75 0 0 0.75 0 0] CT
0.149 GC
2 setlinecap
1 LJ
0.667 LW
N
914 623 M
914 611.1 L
S
GR
GS
[0.75 0 0 0.75 0 0] CT
0.149 GC
2 setlinecap
1 LJ
0.667 LW
N
1152 623 M
1152 611.1 L
S
GR
GS
[0.75 0 0 0.75 0 0] CT
0.149 GC
2 setlinecap
1 LJ
0.667 LW
N
1390 623 M
1390 611.1 L
S
GR
GS
[0.75 0 0 0.75 150 472.05002] CT
0.149 GC
/Helvetica 18.667 F
GS
[1 0 0 1 0 0] CT
-5.5 19 moveto 
1 -1 scale
(0) t 
GR
GR
GS
[0.75 0 0 0.75 185.7 472.05002] CT
0.149 GC
/Helvetica 18.667 F
GS
[1 0 0 1 0 0] CT
-18.5 19 moveto 
1 -1 scale
(0.01) t 
GR
GR
GS
[0.75 0 0 0.75 328.5 472.05002] CT
0.149 GC
/Helvetica 18.667 F
GS
[1 0 0 1 0 0] CT
-18.5 19 moveto 
1 -1 scale
(0.05) t 
GR
GR
GS
[0.75 0 0 0.75 507 472.05002] CT
0.149 GC
/Helvetica 18.667 F
GS
[1 0 0 1 0 0] CT
-13 19 moveto 
1 -1 scale
(0.1) t 
GR
GR
GS
[0.75 0 0 0.75 685.5 472.05002] CT
0.149 GC
/Helvetica 18.667 F
GS
[1 0 0 1 0 0] CT
-18.5 19 moveto 
1 -1 scale
(0.15) t 
GR
GR
GS
[0.75 0 0 0.75 864 472.05002] CT
0.149 GC
/Helvetica 18.667 F
GS
[1 0 0 1 0 0] CT
-13 19 moveto 
1 -1 scale
(0.2) t 
GR
GR
GS
[0.75 0 0 0.75 1042.5 472.05002] CT
0.149 GC
/Helvetica 18.667 F
GS
[1 0 0 1 0 0] CT
-18.5 19 moveto 
1 -1 scale
(0.25) t 
GR
GR
GS
[0.75 0 0 0.75 596.25041 491.05] CT
0.149 GC
N
-25.474 20.717 M
-25.083 21.014 -24.536 21.014 QT
-23.786 21.014 -23.317 19.357 QT
-23.114 18.545 -22.255 14.076 QT
-21.286 8.935 L
-23.083 8.935 L
-23.302 8.935 -23.302 8.654 QT
-23.208 8.201 -23.036 8.201 QT
-21.145 8.201 L
-20.911 6.826 L
-20.786 6.201 -20.684 5.74 QT
-20.583 5.279 -20.466 4.889 QT
-20.349 4.498 -20.114 4.014 QT
-19.755 3.326 -19.138 2.881 QT
-18.52 2.435 -17.817 2.435 QT
-17.364 2.435 -16.927 2.607 QT
-16.489 2.779 -16.208 3.115 QT
-15.927 3.451 -15.927 3.92 QT
-15.927 4.451 -16.286 4.849 QT
-16.645 5.248 -17.145 5.248 QT
-17.489 5.248 -17.724 5.037 QT
-17.958 4.826 -17.958 4.482 QT
-17.958 4.014 -17.645 3.67 QT
-17.333 3.326 -16.88 3.279 QT
-17.27 2.982 -17.833 2.982 QT
-18.161 2.982 -18.442 3.279 QT
-18.724 3.576 -18.802 3.92 QT
-18.942 4.451 -19.395 6.81 QT
-19.645 8.201 L
-17.489 8.201 L
-17.27 8.201 -17.27 8.467 QT
-17.286 8.529 -17.317 8.654 QT
-17.349 8.779 -17.403 8.857 QT
-17.458 8.935 -17.536 8.935 QT
-19.786 8.935 L
-20.77 14.06 L
-20.942 15.17 -21.184 16.326 QT
-21.427 17.482 -21.864 18.701 QT
-22.302 19.92 -22.981 20.74 QT
-23.661 21.56 -24.583 21.56 QT
-25.286 21.56 -25.841 21.154 QT
-26.395 20.748 -26.395 20.076 QT
-26.395 19.545 -26.052 19.146 QT
-25.708 18.748 -25.192 18.748 QT
-24.849 18.748 -24.614 18.959 QT
-24.38 19.17 -24.38 19.514 QT
-24.38 19.967 -24.708 20.342 QT
-25.036 20.717 -25.474 20.717 QT
cp
f
GR
GS
[0.75 0 0 0.75 596.25041 491.05] CT
0.149 GC
N
-5.929 22.498 M
-5.929 1.498 L
-3.054 1.498 L
-3.054 2.342 L
-5.085 2.342 L
-5.085 21.654 L
-3.054 21.654 L
-3.054 22.498 L
-5.929 22.498 L
cp
f
GR
GS
[0.75 0 0 0.75 596.25041 491.05] CT
0.149 GC
N
-2.069 17.248 M
-2.069 16.514 L
0.103 16.514 0.103 15.842 QT
0.103 4.31 L
0.103 3.639 -2.069 3.639 QT
-2.069 2.904 L
4.228 2.904 L
4.228 3.639 L
2.056 3.639 2.056 4.31 QT
2.056 9.42 L
8.26 9.42 L
8.26 4.31 L
8.26 3.639 6.088 3.639 QT
6.088 2.904 L
12.369 2.904 L
12.369 3.639 L
10.213 3.639 10.213 4.31 QT
10.213 15.842 L
10.213 16.514 12.369 16.514 QT
12.369 17.248 L
6.088 17.248 L
6.088 16.514 L
8.26 16.514 8.26 15.842 QT
8.26 10.154 L
2.056 10.154 L
2.056 15.842 L
2.056 16.514 4.228 16.514 QT
4.228 17.248 L
-2.069 17.248 L
cp
f
GR
GS
[0.75 0 0 0.75 596.25041 491.05] CT
0.149 GC
N
13.519 17.248 M
13.269 17.248 13.269 17.014 QT
13.269 16.842 L
13.269 16.764 13.331 16.701 QT
19.206 8.748 L
17.316 8.748 L
16.425 8.748 15.847 8.857 QT
15.269 8.967 14.894 9.279 QT
14.519 9.592 14.347 10.146 QT
14.175 10.701 14.175 11.654 QT
13.566 11.654 L
13.816 8.201 L
20.847 8.201 L
20.941 8.201 21.003 8.264 QT
21.066 8.326 21.066 8.435 QT
21.066 8.545 L
21.066 8.607 21.035 8.701 QT
15.16 16.639 L
17.16 16.639 L
18.081 16.639 18.691 16.529 QT
19.3 16.42 19.722 15.982 QT
20.128 15.592 20.277 14.912 QT
20.425 14.232 20.503 13.232 QT
21.113 13.232 L
20.753 17.248 L
13.519 17.248 L
cp
f
GR
GS
[0.75 0 0 0.75 596.25041 491.05] CT
0.149 GC
N
22.285 22.498 M
22.285 21.654 L
24.317 21.654 L
24.317 2.342 L
22.285 2.342 L
22.285 1.498 L
25.16 1.498 L
25.16 22.498 L
22.285 22.498 L
cp
f
GR
GS
[0.75 0 0 0.75 0 0] CT
0.149 GC
2 setlinecap
1 LJ
0.667 LW
N
200 623 M
200 52 L
S
GR
GS
[0.75 0 0 0.75 0 0] CT
0.149 GC
2 setlinecap
1 LJ
0.667 LW
N
200 623 M
211.9 623 L
S
GR
GS
[0.75 0 0 0.75 0 0] CT
0.149 GC
2 setlinecap
1 LJ
0.667 LW
N
200 565.9 M
211.9 565.9 L
S
GR
GS
[0.75 0 0 0.75 0 0] CT
0.149 GC
2 setlinecap
1 LJ
0.667 LW
N
200 508.8 M
211.9 508.8 L
S
GR
GS
[0.75 0 0 0.75 0 0] CT
0.149 GC
2 setlinecap
1 LJ
0.667 LW
N
200 451.7 M
211.9 451.7 L
S
GR
GS
[0.75 0 0 0.75 0 0] CT
0.149 GC
2 setlinecap
1 LJ
0.667 LW
N
200 394.6 M
211.9 394.6 L
S
GR
GS
[0.75 0 0 0.75 0 0] CT
0.149 GC
2 setlinecap
1 LJ
0.667 LW
N
200 337.5 M
211.9 337.5 L
S
GR
GS
[0.75 0 0 0.75 0 0] CT
0.149 GC
2 setlinecap
1 LJ
0.667 LW
N
200 280.4 M
211.9 280.4 L
S
GR
GS
[0.75 0 0 0.75 0 0] CT
0.149 GC
2 setlinecap
1 LJ
0.667 LW
N
200 223.3 M
211.9 223.3 L
S
GR
GS
[0.75 0 0 0.75 0 0] CT
0.149 GC
2 setlinecap
1 LJ
0.667 LW
N
200 166.2 M
211.9 166.2 L
S
GR
GS
[0.75 0 0 0.75 0 0] CT
0.149 GC
2 setlinecap
1 LJ
0.667 LW
N
200 109.1 M
211.9 109.1 L
S
GR
GS
[0.75 0 0 0.75 0 0] CT
0.149 GC
2 setlinecap
1 LJ
0.667 LW
N
200 52 M
211.9 52 L
S
GR
GS
[0 -0.75 0.75 0 142.2 253.12479] CT
0.149 GC
N
-88.337 -7.392 M
-88.337 -8.126 L
-86.166 -8.126 -86.166 -9.376 QT
-86.166 -20.876 L
-86.853 -21.001 -88.337 -21.001 QT
-88.337 -21.736 L
-84.306 -21.736 L
-84.212 -21.736 -84.166 -21.658 QT
-76.728 -10.72 L
-76.728 -19.751 L
-76.728 -21.001 -78.9 -21.001 QT
-78.9 -21.736 L
-73.9 -21.736 L
-73.9 -21.001 L
-76.056 -21.001 -76.056 -19.751 QT
-76.056 -7.58 L
-76.056 -7.517 -76.142 -7.455 QT
-76.228 -7.392 -76.275 -7.392 QT
-76.525 -7.392 L
-76.634 -7.392 -76.666 -7.47 QT
-85.494 -20.455 L
-85.494 -9.376 L
-85.494 -8.126 -83.322 -8.126 QT
-83.322 -7.392 L
-88.337 -7.392 L
cp
f
GR
GS
[0 -0.75 0.75 0 142.2 253.12479] CT
0.149 GC
N
-68.328 -7.158 M
-69.594 -7.158 -70.672 -7.798 QT
-71.75 -8.439 -72.375 -9.517 QT
-73 -10.595 -73 -11.861 QT
-73 -12.83 -72.656 -13.72 QT
-72.312 -14.611 -71.672 -15.314 QT
-71.031 -16.017 -70.18 -16.408 QT
-69.328 -16.798 -68.328 -16.798 QT
-67.031 -16.798 -65.969 -16.119 QT
-64.906 -15.439 -64.297 -14.298 QT
-63.687 -13.158 -63.687 -11.861 QT
-63.687 -10.595 -64.312 -9.517 QT
-64.937 -8.439 -66.008 -7.798 QT
-67.078 -7.158 -68.328 -7.158 QT
cp
-68.328 -7.767 M
-66.64 -7.767 -66.078 -8.986 QT
-65.515 -10.205 -65.515 -12.095 QT
-65.515 -13.158 -65.633 -13.845 QT
-65.75 -14.533 -66.125 -15.111 QT
-66.359 -15.455 -66.726 -15.712 QT
-67.094 -15.97 -67.492 -16.111 QT
-67.89 -16.251 -68.328 -16.251 QT
-68.984 -16.251 -69.57 -15.955 QT
-70.156 -15.658 -70.547 -15.111 QT
-70.937 -14.501 -71.047 -13.791 QT
-71.156 -13.08 -71.156 -12.095 QT
-71.156 -10.923 -70.953 -9.986 QT
-70.75 -9.048 -70.125 -8.408 QT
-69.5 -7.767 -68.328 -7.767 QT
cp
f
GR
GS
[0 -0.75 0.75 0 142.2 253.12479] CT
0.149 GC
N
-61.171 -9.908 M
-61.171 -15.705 L
-62.905 -15.705 L
-62.905 -16.251 L
-61.53 -16.251 -60.889 -17.533 QT
-60.249 -18.814 -60.249 -20.314 QT
-59.639 -20.314 L
-59.639 -16.439 L
-56.671 -16.439 L
-56.671 -15.705 L
-59.639 -15.705 L
-59.639 -9.955 L
-59.639 -9.08 -59.35 -8.423 QT
-59.061 -7.767 -58.296 -7.767 QT
-57.577 -7.767 -57.257 -8.462 QT
-56.936 -9.158 -56.936 -9.955 QT
-56.936 -11.189 L
-56.343 -11.189 L
-56.343 -9.908 L
-56.343 -9.251 -56.585 -8.611 QT
-56.827 -7.97 -57.296 -7.564 QT
-57.764 -7.158 -58.436 -7.158 QT
-59.702 -7.158 -60.436 -7.908 QT
-61.171 -8.658 -61.171 -9.908 QT
cp
f
GR
GS
[0 -0.75 0.75 0 142.2 253.12479] CT
0.149 GC
N
-54.701 -7.392 M
-54.701 -8.126 L
-53.982 -8.126 -53.521 -8.244 QT
-53.06 -8.361 -53.06 -8.798 QT
-53.06 -19.814 L
-53.06 -20.376 -53.232 -20.634 QT
-53.404 -20.892 -53.717 -20.947 QT
-54.029 -21.001 -54.701 -21.001 QT
-54.701 -21.736 L
-51.576 -21.97 L
-51.576 -14.751 L
-51.139 -15.611 -50.35 -16.142 QT
-49.56 -16.673 -48.607 -16.673 QT
-47.154 -16.673 -46.42 -15.978 QT
-45.685 -15.283 -45.685 -13.845 QT
-45.685 -8.798 L
-45.685 -8.361 -45.225 -8.244 QT
-44.764 -8.126 -44.045 -8.126 QT
-44.045 -7.392 L
-48.857 -7.392 L
-48.857 -8.126 L
-48.139 -8.126 -47.678 -8.244 QT
-47.217 -8.361 -47.217 -8.798 QT
-47.217 -13.783 L
-47.217 -14.798 -47.514 -15.462 QT
-47.81 -16.126 -48.732 -16.126 QT
-49.951 -16.126 -50.74 -15.15 QT
-51.529 -14.173 -51.529 -12.939 QT
-51.529 -8.798 L
-51.529 -8.361 -51.06 -8.244 QT
-50.592 -8.126 -49.889 -8.126 QT
-49.889 -7.392 L
-54.701 -7.392 L
cp
f
GR
GS
[0 -0.75 0.75 0 142.2 253.12479] CT
0.149 GC
N
-43.278 -7.392 M
-43.278 -8.126 L
-42.559 -8.126 -42.098 -8.244 QT
-41.637 -8.361 -41.637 -8.798 QT
-41.637 -14.533 L
-41.637 -15.345 -41.95 -15.525 QT
-42.262 -15.705 -43.184 -15.705 QT
-43.184 -16.439 L
-40.153 -16.673 L
-40.153 -8.798 L
-40.153 -8.361 -39.755 -8.244 QT
-39.356 -8.126 -38.684 -8.126 QT
-38.684 -7.392 L
-43.278 -7.392 L
cp
-42.387 -20.283 M
-42.387 -20.736 -42.036 -21.087 QT
-41.684 -21.439 -41.231 -21.439 QT
-40.934 -21.439 -40.661 -21.283 QT
-40.387 -21.126 -40.231 -20.853 QT
-40.075 -20.58 -40.075 -20.283 QT
-40.075 -19.83 -40.426 -19.478 QT
-40.778 -19.126 -41.231 -19.126 QT
-41.684 -19.126 -42.036 -19.478 QT
-42.387 -19.83 -42.387 -20.283 QT
cp
f
GR
GS
[0 -0.75 0.75 0 142.2 253.12479] CT
0.149 GC
N
-37.59 -7.392 M
-37.59 -8.126 L
-36.871 -8.126 -36.41 -8.244 QT
-35.949 -8.361 -35.949 -8.798 QT
-35.949 -14.533 L
-35.949 -15.095 -36.121 -15.345 QT
-36.293 -15.595 -36.606 -15.65 QT
-36.918 -15.705 -37.59 -15.705 QT
-37.59 -16.439 L
-34.543 -16.673 L
-34.543 -14.626 L
-34.121 -15.517 -33.293 -16.095 QT
-32.465 -16.673 -31.496 -16.673 QT
-30.043 -16.673 -29.309 -15.978 QT
-28.574 -15.283 -28.574 -13.845 QT
-28.574 -8.798 L
-28.574 -8.361 -28.113 -8.244 QT
-27.652 -8.126 -26.934 -8.126 QT
-26.934 -7.392 L
-31.746 -7.392 L
-31.746 -8.126 L
-31.027 -8.126 -30.566 -8.244 QT
-30.106 -8.361 -30.106 -8.798 QT
-30.106 -13.783 L
-30.106 -14.798 -30.402 -15.462 QT
-30.699 -16.126 -31.621 -16.126 QT
-32.84 -16.126 -33.629 -15.15 QT
-34.418 -14.173 -34.418 -12.939 QT
-34.418 -8.798 L
-34.418 -8.361 -33.949 -8.244 QT
-33.481 -8.126 -32.777 -8.126 QT
-32.777 -7.392 L
-37.59 -7.392 L
cp
f
GR
GS
[0 -0.75 0.75 0 142.2 253.12479] CT
0.149 GC
N
-26.229 -5.751 M
-26.229 -6.501 -25.682 -7.056 QT
-25.136 -7.611 -24.386 -7.861 QT
-24.807 -8.173 -25.026 -8.658 QT
-25.245 -9.142 -25.245 -9.673 QT
-25.245 -10.658 -24.62 -11.423 QT
-25.589 -12.361 -25.589 -13.58 QT
-25.589 -14.236 -25.307 -14.814 QT
-25.026 -15.392 -24.518 -15.814 QT
-24.011 -16.236 -23.401 -16.455 QT
-22.792 -16.673 -22.136 -16.673 QT
-20.886 -16.673 -19.901 -15.939 QT
-19.464 -16.408 -18.878 -16.658 QT
-18.292 -16.908 -17.651 -16.908 QT
-17.198 -16.908 -16.909 -16.587 QT
-16.62 -16.267 -16.62 -15.814 QT
-16.62 -15.548 -16.815 -15.353 QT
-17.011 -15.158 -17.276 -15.158 QT
-17.542 -15.158 -17.737 -15.353 QT
-17.932 -15.548 -17.932 -15.814 QT
-17.932 -16.205 -17.667 -16.361 QT
-18.761 -16.361 -19.542 -15.611 QT
-19.151 -15.22 -18.925 -14.673 QT
-18.698 -14.126 -18.698 -13.58 QT
-18.698 -12.689 -19.19 -11.978 QT
-19.682 -11.267 -20.487 -10.876 QT
-21.292 -10.486 -22.136 -10.486 QT
-23.292 -10.486 -24.245 -11.111 QT
-24.542 -10.689 -24.542 -10.189 QT
-24.542 -9.626 -24.175 -9.212 QT
-23.807 -8.798 -23.261 -8.798 QT
-21.542 -8.798 L
-20.292 -8.798 -19.284 -8.572 QT
-18.276 -8.345 -17.597 -7.666 QT
-16.917 -6.986 -16.917 -5.751 QT
-16.917 -4.83 -17.69 -4.22 QT
-18.464 -3.611 -19.55 -3.337 QT
-20.636 -3.064 -21.557 -3.064 QT
-22.495 -3.064 -23.581 -3.337 QT
-24.667 -3.611 -25.448 -4.22 QT
-26.229 -4.83 -26.229 -5.751 QT
cp
-25.042 -5.751 M
-25.042 -5.048 -24.472 -4.572 QT
-23.901 -4.095 -23.089 -3.861 QT
-22.276 -3.626 -21.557 -3.626 QT
-20.854 -3.626 -20.042 -3.861 QT
-19.229 -4.095 -18.659 -4.572 QT
-18.089 -5.048 -18.089 -5.751 QT
-18.089 -6.845 -19.097 -7.173 QT
-20.104 -7.501 -21.542 -7.501 QT
-23.261 -7.501 L
-23.745 -7.501 -24.151 -7.267 QT
-24.557 -7.033 -24.8 -6.619 QT
-25.042 -6.205 -25.042 -5.751 QT
cp
-22.136 -11.048 M
-20.354 -11.048 -20.354 -13.58 QT
-20.354 -14.689 -20.737 -15.4 QT
-21.12 -16.111 -22.136 -16.111 QT
-23.167 -16.111 -23.55 -15.4 QT
-23.932 -14.689 -23.932 -13.58 QT
-23.932 -12.892 -23.784 -12.33 QT
-23.636 -11.767 -23.245 -11.408 QT
-22.854 -11.048 -22.136 -11.048 QT
cp
f
GR
GS
[0 -0.75 0.75 0 142.2 253.12479] CT
0.149 GC
N
-9.071 -7.392 M
-9.071 -8.126 L
-8.353 -8.126 -7.892 -8.244 QT
-7.431 -8.361 -7.431 -8.798 QT
-7.431 -14.533 L
-7.431 -15.095 -7.603 -15.345 QT
-7.774 -15.595 -8.087 -15.65 QT
-8.399 -15.705 -9.071 -15.705 QT
-9.071 -16.439 L
-6.024 -16.673 L
-6.024 -14.626 L
-5.603 -15.517 -4.774 -16.095 QT
-3.946 -16.673 -2.978 -16.673 QT
-0.556 -16.673 -0.134 -14.705 QT
0.288 -15.58 1.093 -16.126 QT
1.897 -16.673 2.866 -16.673 QT
3.819 -16.673 4.468 -16.369 QT
5.116 -16.064 5.444 -15.431 QT
5.772 -14.798 5.772 -13.845 QT
5.772 -8.798 L
5.772 -8.361 6.241 -8.244 QT
6.71 -8.126 7.413 -8.126 QT
7.413 -7.392 L
2.616 -7.392 L
2.616 -8.126 L
3.319 -8.126 3.788 -8.244 QT
4.257 -8.361 4.257 -8.798 QT
4.257 -13.783 L
4.257 -14.83 3.952 -15.478 QT
3.647 -16.126 2.726 -16.126 QT
1.522 -16.126 0.733 -15.15 QT
-0.056 -14.173 -0.056 -12.939 QT
-0.056 -8.798 L
-0.056 -8.361 0.405 -8.244 QT
0.866 -8.126 1.585 -8.126 QT
1.585 -7.392 L
-3.228 -7.392 L
-3.228 -8.126 L
-2.509 -8.126 -2.048 -8.244 QT
-1.587 -8.361 -1.587 -8.798 QT
-1.587 -13.783 L
-1.587 -14.798 -1.884 -15.462 QT
-2.181 -16.126 -3.103 -16.126 QT
-4.321 -16.126 -5.11 -15.15 QT
-5.899 -14.173 -5.899 -12.939 QT
-5.899 -8.798 L
-5.899 -8.361 -5.431 -8.244 QT
-4.962 -8.126 -4.259 -8.126 QT
-4.259 -7.392 L
-9.071 -7.392 L
cp
f
GR
GS
[0 -0.75 0.75 0 142.2 253.12479] CT
0.149 GC
N
12.649 -7.158 M
11.368 -7.158 10.298 -7.83 QT
9.227 -8.501 8.61 -9.626 QT
7.993 -10.751 7.993 -12.001 QT
7.993 -13.22 8.555 -14.33 QT
9.118 -15.439 10.118 -16.119 QT
11.118 -16.798 12.352 -16.798 QT
13.305 -16.798 14.024 -16.478 QT
14.743 -16.158 15.204 -15.587 QT
15.665 -15.017 15.899 -14.236 QT
16.134 -13.455 16.134 -12.517 QT
16.134 -12.236 15.915 -12.236 QT
9.837 -12.236 L
9.837 -12.017 L
9.837 -10.267 10.54 -9.017 QT
11.243 -7.767 12.837 -7.767 QT
13.477 -7.767 14.024 -8.056 QT
14.571 -8.345 14.977 -8.861 QT
15.384 -9.376 15.524 -9.955 QT
15.54 -10.033 15.602 -10.087 QT
15.665 -10.142 15.727 -10.142 QT
15.915 -10.142 L
16.134 -10.142 16.134 -9.876 QT
15.837 -8.689 14.852 -7.923 QT
13.868 -7.158 12.649 -7.158 QT
cp
9.852 -12.767 M
14.649 -12.767 L
14.649 -13.548 14.423 -14.361 QT
14.196 -15.173 13.688 -15.712 QT
13.18 -16.251 12.352 -16.251 QT
11.165 -16.251 10.509 -15.142 QT
9.852 -14.033 9.852 -12.767 QT
cp
f
GR
GS
[0 -0.75 0.75 0 142.2 253.12479] CT
0.149 GC
N
17.384 -9.455 M
17.384 -10.705 18.369 -11.486 QT
19.353 -12.267 20.728 -12.595 QT
22.103 -12.923 23.353 -12.923 QT
23.353 -13.783 L
23.353 -14.392 23.088 -14.955 QT
22.822 -15.517 22.314 -15.884 QT
21.806 -16.251 21.213 -16.251 QT
19.806 -16.251 19.088 -15.626 QT
19.478 -15.626 19.744 -15.322 QT
20.009 -15.017 20.009 -14.626 QT
20.009 -14.205 19.713 -13.908 QT
19.416 -13.611 19.009 -13.611 QT
18.588 -13.611 18.291 -13.908 QT
17.994 -14.205 17.994 -14.626 QT
17.994 -15.736 18.994 -16.267 QT
19.994 -16.798 21.213 -16.798 QT
22.056 -16.798 22.916 -16.439 QT
23.775 -16.08 24.33 -15.4 QT
24.884 -14.72 24.884 -13.814 QT
24.884 -9.095 L
24.884 -8.689 25.056 -8.345 QT
25.228 -8.001 25.588 -8.001 QT
25.947 -8.001 26.111 -8.345 QT
26.275 -8.689 26.275 -9.095 QT
26.275 -10.439 L
26.9 -10.439 L
26.9 -9.095 L
26.9 -8.626 26.65 -8.197 QT
26.4 -7.767 25.986 -7.517 QT
25.572 -7.267 25.088 -7.267 QT
24.478 -7.267 24.033 -7.744 QT
23.588 -8.22 23.541 -8.876 QT
23.15 -8.095 22.392 -7.626 QT
21.634 -7.158 20.759 -7.158 QT
19.963 -7.158 19.189 -7.392 QT
18.416 -7.626 17.9 -8.134 QT
17.384 -8.642 17.384 -9.455 QT
cp
19.088 -9.455 M
19.088 -8.72 19.627 -8.212 QT
20.166 -7.705 20.916 -7.705 QT
21.588 -7.705 22.142 -8.048 QT
22.697 -8.392 23.025 -8.97 QT
23.353 -9.548 23.353 -10.205 QT
23.353 -12.392 L
22.4 -12.392 21.4 -12.08 QT
20.4 -11.767 19.744 -11.095 QT
19.088 -10.423 19.088 -9.455 QT
cp
f
GR
GS
[0 -0.75 0.75 0 142.2 253.12479] CT
0.149 GC
N
27.432 -7.392 M
27.432 -8.126 L
28.151 -8.126 28.612 -8.244 QT
29.073 -8.361 29.073 -8.798 QT
29.073 -14.533 L
29.073 -15.095 28.901 -15.345 QT
28.729 -15.595 28.417 -15.65 QT
28.104 -15.705 27.432 -15.705 QT
27.432 -16.439 L
30.479 -16.673 L
30.479 -14.626 L
30.901 -15.517 31.729 -16.095 QT
32.557 -16.673 33.526 -16.673 QT
34.979 -16.673 35.714 -15.978 QT
36.448 -15.283 36.448 -13.845 QT
36.448 -8.798 L
36.448 -8.361 36.909 -8.244 QT
37.37 -8.126 38.089 -8.126 QT
38.089 -7.392 L
33.276 -7.392 L
33.276 -8.126 L
33.995 -8.126 34.456 -8.244 QT
34.917 -8.361 34.917 -8.798 QT
34.917 -13.783 L
34.917 -14.798 34.62 -15.462 QT
34.323 -16.126 33.401 -16.126 QT
32.182 -16.126 31.393 -15.15 QT
30.604 -14.173 30.604 -12.939 QT
30.604 -8.798 L
30.604 -8.361 31.073 -8.244 QT
31.542 -8.126 32.245 -8.126 QT
32.245 -7.392 L
27.432 -7.392 L
cp
f
GR
GS
[0 -0.75 0.75 0 142.2 253.12479] CT
0.149 GC
N
38.856 -7.392 M
38.856 -8.126 L
39.574 -8.126 40.035 -8.244 QT
40.496 -8.361 40.496 -8.798 QT
40.496 -14.533 L
40.496 -15.345 40.184 -15.525 QT
39.871 -15.705 38.949 -15.705 QT
38.949 -16.439 L
41.981 -16.673 L
41.981 -8.798 L
41.981 -8.361 42.379 -8.244 QT
42.777 -8.126 43.449 -8.126 QT
43.449 -7.392 L
38.856 -7.392 L
cp
39.746 -20.283 M
39.746 -20.736 40.098 -21.087 QT
40.449 -21.439 40.902 -21.439 QT
41.199 -21.439 41.473 -21.283 QT
41.746 -21.126 41.902 -20.853 QT
42.059 -20.58 42.059 -20.283 QT
42.059 -19.83 41.707 -19.478 QT
41.356 -19.126 40.902 -19.126 QT
40.449 -19.126 40.098 -19.478 QT
39.746 -19.83 39.746 -20.283 QT
cp
f
GR
GS
[0 -0.75 0.75 0 142.2 253.12479] CT
0.149 GC
N
44.544 -7.392 M
44.544 -8.126 L
45.262 -8.126 45.723 -8.244 QT
46.184 -8.361 46.184 -8.798 QT
46.184 -14.533 L
46.184 -15.095 46.012 -15.345 QT
45.84 -15.595 45.528 -15.65 QT
45.215 -15.705 44.544 -15.705 QT
44.544 -16.439 L
47.59 -16.673 L
47.59 -14.626 L
48.012 -15.517 48.84 -16.095 QT
49.669 -16.673 50.637 -16.673 QT
52.09 -16.673 52.825 -15.978 QT
53.559 -15.283 53.559 -13.845 QT
53.559 -8.798 L
53.559 -8.361 54.02 -8.244 QT
54.481 -8.126 55.2 -8.126 QT
55.2 -7.392 L
50.387 -7.392 L
50.387 -8.126 L
51.106 -8.126 51.567 -8.244 QT
52.028 -8.361 52.028 -8.798 QT
52.028 -13.783 L
52.028 -14.798 51.731 -15.462 QT
51.434 -16.126 50.512 -16.126 QT
49.294 -16.126 48.505 -15.15 QT
47.715 -14.173 47.715 -12.939 QT
47.715 -8.798 L
47.715 -8.361 48.184 -8.244 QT
48.653 -8.126 49.356 -8.126 QT
49.356 -7.392 L
44.544 -7.392 L
cp
f
GR
GS
[0 -0.75 0.75 0 142.2 253.12479] CT
0.149 GC
N
55.904 -5.751 M
55.904 -6.501 56.451 -7.056 QT
56.998 -7.611 57.748 -7.861 QT
57.326 -8.173 57.107 -8.658 QT
56.889 -9.142 56.889 -9.673 QT
56.889 -10.658 57.514 -11.423 QT
56.545 -12.361 56.545 -13.58 QT
56.545 -14.236 56.826 -14.814 QT
57.107 -15.392 57.615 -15.814 QT
58.123 -16.236 58.732 -16.455 QT
59.342 -16.673 59.998 -16.673 QT
61.248 -16.673 62.232 -15.939 QT
62.67 -16.408 63.256 -16.658 QT
63.842 -16.908 64.482 -16.908 QT
64.935 -16.908 65.224 -16.587 QT
65.514 -16.267 65.514 -15.814 QT
65.514 -15.548 65.318 -15.353 QT
65.123 -15.158 64.857 -15.158 QT
64.592 -15.158 64.396 -15.353 QT
64.201 -15.548 64.201 -15.814 QT
64.201 -16.205 64.467 -16.361 QT
63.373 -16.361 62.592 -15.611 QT
62.982 -15.22 63.209 -14.673 QT
63.435 -14.126 63.435 -13.58 QT
63.435 -12.689 62.943 -11.978 QT
62.451 -11.267 61.646 -10.876 QT
60.842 -10.486 59.998 -10.486 QT
58.842 -10.486 57.889 -11.111 QT
57.592 -10.689 57.592 -10.189 QT
57.592 -9.626 57.959 -9.212 QT
58.326 -8.798 58.873 -8.798 QT
60.592 -8.798 L
61.842 -8.798 62.849 -8.572 QT
63.857 -8.345 64.537 -7.666 QT
65.217 -6.986 65.217 -5.751 QT
65.217 -4.83 64.443 -4.22 QT
63.67 -3.611 62.584 -3.337 QT
61.498 -3.064 60.576 -3.064 QT
59.639 -3.064 58.553 -3.337 QT
57.467 -3.611 56.685 -4.22 QT
55.904 -4.83 55.904 -5.751 QT
cp
57.092 -5.751 M
57.092 -5.048 57.662 -4.572 QT
58.232 -4.095 59.045 -3.861 QT
59.857 -3.626 60.576 -3.626 QT
61.279 -3.626 62.092 -3.861 QT
62.904 -4.095 63.474 -4.572 QT
64.045 -5.048 64.045 -5.751 QT
64.045 -6.845 63.037 -7.173 QT
62.029 -7.501 60.592 -7.501 QT
58.873 -7.501 L
58.389 -7.501 57.982 -7.267 QT
57.576 -7.033 57.334 -6.619 QT
57.092 -6.205 57.092 -5.751 QT
cp
59.998 -11.048 M
61.779 -11.048 61.779 -13.58 QT
61.779 -14.689 61.396 -15.4 QT
61.014 -16.111 59.998 -16.111 QT
58.967 -16.111 58.584 -15.4 QT
58.201 -14.689 58.201 -13.58 QT
58.201 -12.892 58.349 -12.33 QT
58.498 -11.767 58.889 -11.408 QT
59.279 -11.048 59.998 -11.048 QT
cp
f
GR
GS
[0 -0.75 0.75 0 142.2 253.12479] CT
0.149 GC
N
66.265 -7.392 M
66.265 -8.126 L
66.983 -8.126 67.444 -8.244 QT
67.905 -8.361 67.905 -8.798 QT
67.905 -15.705 L
66.296 -15.705 L
66.296 -16.439 L
67.905 -16.439 L
67.905 -18.955 L
67.905 -19.642 68.186 -20.228 QT
68.468 -20.814 68.944 -21.251 QT
69.421 -21.689 70.038 -21.947 QT
70.655 -22.205 71.327 -22.205 QT
72.03 -22.205 72.601 -21.783 QT
73.171 -21.361 73.171 -20.658 QT
73.171 -20.267 72.897 -19.994 QT
72.624 -19.72 72.233 -19.72 QT
71.827 -19.72 71.546 -19.994 QT
71.265 -20.267 71.265 -20.658 QT
71.265 -21.314 71.827 -21.548 QT
71.483 -21.658 71.218 -21.658 QT
70.608 -21.658 70.171 -21.22 QT
69.733 -20.783 69.522 -20.158 QT
69.311 -19.533 69.311 -18.923 QT
69.311 -16.439 L
71.718 -16.439 L
71.718 -15.705 L
69.374 -15.705 L
69.374 -8.798 L
69.374 -8.361 69.991 -8.244 QT
70.608 -8.126 71.405 -8.126 QT
71.405 -7.392 L
66.265 -7.392 L
cp
f
GR
GS
[0 -0.75 0.75 0 142.2 253.12479] CT
0.149 GC
N
74.132 -9.892 M
74.132 -14.533 L
74.132 -15.095 73.961 -15.345 QT
73.789 -15.595 73.476 -15.65 QT
73.164 -15.705 72.492 -15.705 QT
72.492 -16.439 L
75.664 -16.673 L
75.664 -9.892 L
75.664 -9.08 75.789 -8.619 QT
75.914 -8.158 76.297 -7.931 QT
76.679 -7.705 77.523 -7.705 QT
78.648 -7.705 79.312 -8.65 QT
79.976 -9.595 79.976 -10.798 QT
79.976 -14.533 L
79.976 -15.095 79.804 -15.345 QT
79.632 -15.595 79.32 -15.65 QT
79.007 -15.705 78.336 -15.705 QT
78.336 -16.439 L
81.507 -16.673 L
81.507 -9.298 L
81.507 -8.751 81.679 -8.494 QT
81.851 -8.236 82.164 -8.181 QT
82.476 -8.126 83.148 -8.126 QT
83.148 -7.392 L
80.039 -7.158 L
80.039 -8.923 L
79.648 -8.142 78.953 -7.65 QT
78.257 -7.158 77.414 -7.158 QT
75.914 -7.158 75.023 -7.798 QT
74.132 -8.439 74.132 -9.892 QT
cp
f
GR
GS
[0 -0.75 0.75 0 142.2 253.12479] CT
0.149 GC
N
83.915 -7.392 M
83.915 -8.126 L
84.634 -8.126 85.095 -8.244 QT
85.556 -8.361 85.556 -8.798 QT
85.556 -19.814 L
85.556 -20.376 85.391 -20.634 QT
85.227 -20.892 84.907 -20.947 QT
84.587 -21.001 83.915 -21.001 QT
83.915 -21.736 L
87.04 -21.97 L
87.04 -8.798 L
87.04 -8.361 87.501 -8.244 QT
87.962 -8.126 88.665 -8.126 QT
88.665 -7.392 L
83.915 -7.392 L
cp
f
GR
GS
[0.75 0 0 0.75 596.2506 36.11251] CT
N
-148.392 -7.392 M
-148.392 -8.126 L
-146.236 -8.126 -146.236 -8.798 QT
-146.236 -20.33 L
-146.236 -21.001 -148.392 -21.001 QT
-148.392 -21.736 L
-140.658 -21.736 L
-139.22 -21.736 -138.033 -21.119 QT
-136.845 -20.501 -136.001 -19.462 QT
-135.158 -18.423 -134.705 -17.111 QT
-134.251 -15.798 -134.251 -14.423 QT
-134.251 -13.095 -134.712 -11.837 QT
-135.173 -10.58 -136.04 -9.572 QT
-136.908 -8.564 -138.087 -7.978 QT
-139.267 -7.392 -140.658 -7.392 QT
-148.392 -7.392 L
cp
-144.345 -8.798 M
-144.345 -8.345 -144.087 -8.236 QT
-143.83 -8.126 -143.283 -8.126 QT
-141.205 -8.126 L
-140.126 -8.126 -139.158 -8.595 QT
-138.189 -9.064 -137.548 -9.892 QT
-136.876 -10.783 -136.658 -11.869 QT
-136.439 -12.955 -136.439 -14.423 QT
-136.439 -15.955 -136.658 -17.103 QT
-136.876 -18.251 -137.548 -19.158 QT
-138.173 -20.048 -139.134 -20.525 QT
-140.095 -21.001 -141.205 -21.001 QT
-143.283 -21.001 L
-143.658 -21.001 -143.869 -20.97 QT
-144.08 -20.939 -144.212 -20.791 QT
-144.345 -20.642 -144.345 -20.33 QT
-144.345 -8.798 L
cp
f
GR
GS
[0.75 0 0 0.75 596.2506 36.11251] CT
N
-132.769 -7.392 M
-132.769 -8.126 L
-132.051 -8.126 -131.59 -8.244 QT
-131.129 -8.361 -131.129 -8.798 QT
-131.129 -14.533 L
-131.129 -15.345 -131.441 -15.525 QT
-131.754 -15.705 -132.676 -15.705 QT
-132.676 -16.439 L
-129.644 -16.673 L
-129.644 -8.798 L
-129.644 -8.361 -129.246 -8.244 QT
-128.847 -8.126 -128.176 -8.126 QT
-128.176 -7.392 L
-132.769 -7.392 L
cp
-131.879 -20.283 M
-131.879 -20.736 -131.527 -21.087 QT
-131.176 -21.439 -130.722 -21.439 QT
-130.426 -21.439 -130.152 -21.283 QT
-129.879 -21.126 -129.722 -20.853 QT
-129.566 -20.58 -129.566 -20.283 QT
-129.566 -19.83 -129.918 -19.478 QT
-130.269 -19.126 -130.722 -19.126 QT
-131.176 -19.126 -131.527 -19.478 QT
-131.879 -19.83 -131.879 -20.283 QT
cp
f
GR
GS
[0.75 0 0 0.75 596.2506 36.11251] CT
N
-122.581 -7.392 M
-125.644 -15.111 L
-125.847 -15.486 -126.245 -15.595 QT
-126.644 -15.705 -127.3 -15.705 QT
-127.3 -16.439 L
-122.894 -16.439 L
-122.894 -15.705 L
-124.081 -15.705 -124.081 -15.205 QT
-124.081 -15.126 -124.05 -15.08 QT
-121.691 -9.158 L
-119.581 -14.501 L
-119.519 -14.673 -119.519 -14.845 QT
-119.519 -15.251 -119.816 -15.478 QT
-120.112 -15.705 -120.534 -15.705 QT
-120.534 -16.439 L
-117.034 -16.439 L
-117.034 -15.705 L
-117.691 -15.705 -118.175 -15.408 QT
-118.659 -15.111 -118.925 -14.533 QT
-121.753 -7.392 L
-121.847 -7.158 -122.097 -7.158 QT
-122.253 -7.158 L
-122.503 -7.158 -122.581 -7.392 QT
cp
f
GR
GS
[0.75 0 0 0.75 596.2506 36.11251] CT
N
-116.228 -7.392 M
-116.228 -8.126 L
-115.51 -8.126 -115.049 -8.244 QT
-114.588 -8.361 -114.588 -8.798 QT
-114.588 -14.533 L
-114.588 -15.345 -114.9 -15.525 QT
-115.213 -15.705 -116.135 -15.705 QT
-116.135 -16.439 L
-113.103 -16.673 L
-113.103 -8.798 L
-113.103 -8.361 -112.705 -8.244 QT
-112.307 -8.126 -111.635 -8.126 QT
-111.635 -7.392 L
-116.228 -7.392 L
cp
-115.338 -20.283 M
-115.338 -20.736 -114.986 -21.087 QT
-114.635 -21.439 -114.182 -21.439 QT
-113.885 -21.439 -113.611 -21.283 QT
-113.338 -21.126 -113.182 -20.853 QT
-113.025 -20.58 -113.025 -20.283 QT
-113.025 -19.83 -113.377 -19.478 QT
-113.728 -19.126 -114.182 -19.126 QT
-114.635 -19.126 -114.986 -19.478 QT
-115.338 -19.83 -115.338 -20.283 QT
cp
f
GR
GS
[0.75 0 0 0.75 596.2506 36.11251] CT
N
-110.462 -7.33 M
-110.462 -10.751 L
-110.462 -10.923 -110.29 -10.923 QT
-110.025 -10.923 L
-109.9 -10.923 -109.869 -10.751 QT
-109.275 -7.705 -107.04 -7.705 QT
-106.04 -7.705 -105.369 -8.158 QT
-104.697 -8.611 -104.697 -9.548 QT
-104.697 -10.236 -105.22 -10.712 QT
-105.744 -11.189 -106.462 -11.361 QT
-107.869 -11.642 L
-108.572 -11.798 -109.15 -12.111 QT
-109.728 -12.423 -110.095 -12.955 QT
-110.462 -13.486 -110.462 -14.173 QT
-110.462 -15.111 -109.978 -15.697 QT
-109.494 -16.283 -108.712 -16.541 QT
-107.931 -16.798 -107.04 -16.798 QT
-105.962 -16.798 -105.15 -16.236 QT
-104.556 -16.751 L
-104.556 -16.798 -104.447 -16.798 QT
-104.29 -16.798 L
-104.228 -16.798 -104.181 -16.744 QT
-104.134 -16.689 -104.134 -16.626 QT
-104.134 -13.876 L
-104.134 -13.689 -104.29 -13.689 QT
-104.556 -13.689 L
-104.744 -13.689 -104.744 -13.876 QT
-104.744 -14.986 -105.353 -15.65 QT
-105.962 -16.314 -107.056 -16.314 QT
-107.994 -16.314 -108.689 -15.962 QT
-109.384 -15.611 -109.384 -14.767 QT
-109.384 -14.173 -108.884 -13.806 QT
-108.384 -13.439 -107.712 -13.267 QT
-106.29 -13.001 L
-105.572 -12.83 -104.954 -12.447 QT
-104.337 -12.064 -103.97 -11.462 QT
-103.603 -10.861 -103.603 -10.126 QT
-103.603 -9.361 -103.869 -8.798 QT
-104.134 -8.236 -104.603 -7.869 QT
-105.072 -7.501 -105.704 -7.33 QT
-106.337 -7.158 -107.04 -7.158 QT
-108.353 -7.158 -109.275 -8.033 QT
-110.04 -7.205 L
-110.04 -7.158 -110.165 -7.158 QT
-110.29 -7.158 L
-110.462 -7.158 -110.462 -7.33 QT
cp
f
GR
GS
[0.75 0 0 0.75 596.2506 36.11251] CT
N
-102.426 -7.392 M
-102.426 -8.126 L
-101.707 -8.126 -101.246 -8.244 QT
-100.785 -8.361 -100.785 -8.798 QT
-100.785 -14.533 L
-100.785 -15.345 -101.097 -15.525 QT
-101.41 -15.705 -102.332 -15.705 QT
-102.332 -16.439 L
-99.301 -16.673 L
-99.301 -8.798 L
-99.301 -8.361 -98.902 -8.244 QT
-98.504 -8.126 -97.832 -8.126 QT
-97.832 -7.392 L
-102.426 -7.392 L
cp
-101.535 -20.283 M
-101.535 -20.736 -101.183 -21.087 QT
-100.832 -21.439 -100.379 -21.439 QT
-100.082 -21.439 -99.808 -21.283 QT
-99.535 -21.126 -99.379 -20.853 QT
-99.222 -20.58 -99.222 -20.283 QT
-99.222 -19.83 -99.574 -19.478 QT
-99.926 -19.126 -100.379 -19.126 QT
-100.832 -19.126 -101.183 -19.478 QT
-101.535 -19.83 -101.535 -20.283 QT
cp
f
GR
GS
[0.75 0 0 0.75 596.2506 36.11251] CT
N
-92.112 -7.158 M
-93.378 -7.158 -94.456 -7.798 QT
-95.534 -8.439 -96.159 -9.517 QT
-96.784 -10.595 -96.784 -11.861 QT
-96.784 -12.83 -96.441 -13.72 QT
-96.097 -14.611 -95.456 -15.314 QT
-94.816 -16.017 -93.964 -16.408 QT
-93.112 -16.798 -92.112 -16.798 QT
-90.816 -16.798 -89.753 -16.119 QT
-88.691 -15.439 -88.081 -14.298 QT
-87.472 -13.158 -87.472 -11.861 QT
-87.472 -10.595 -88.097 -9.517 QT
-88.722 -8.439 -89.792 -7.798 QT
-90.862 -7.158 -92.112 -7.158 QT
cp
-92.112 -7.767 M
-90.425 -7.767 -89.862 -8.986 QT
-89.3 -10.205 -89.3 -12.095 QT
-89.3 -13.158 -89.417 -13.845 QT
-89.534 -14.533 -89.909 -15.111 QT
-90.144 -15.455 -90.511 -15.712 QT
-90.878 -15.97 -91.276 -16.111 QT
-91.675 -16.251 -92.112 -16.251 QT
-92.769 -16.251 -93.355 -15.955 QT
-93.941 -15.658 -94.331 -15.111 QT
-94.722 -14.501 -94.831 -13.791 QT
-94.941 -13.08 -94.941 -12.095 QT
-94.941 -10.923 -94.737 -9.986 QT
-94.534 -9.048 -93.909 -8.408 QT
-93.284 -7.767 -92.112 -7.767 QT
cp
f
GR
GS
[0.75 0 0 0.75 596.2506 36.11251] CT
N
-86.471 -7.392 M
-86.471 -8.126 L
-85.752 -8.126 -85.291 -8.244 QT
-84.83 -8.361 -84.83 -8.798 QT
-84.83 -14.533 L
-84.83 -15.095 -85.002 -15.345 QT
-85.174 -15.595 -85.486 -15.65 QT
-85.799 -15.705 -86.471 -15.705 QT
-86.471 -16.439 L
-83.424 -16.673 L
-83.424 -14.626 L
-83.002 -15.517 -82.174 -16.095 QT
-81.346 -16.673 -80.377 -16.673 QT
-78.924 -16.673 -78.189 -15.978 QT
-77.455 -15.283 -77.455 -13.845 QT
-77.455 -8.798 L
-77.455 -8.361 -76.994 -8.244 QT
-76.533 -8.126 -75.814 -8.126 QT
-75.814 -7.392 L
-80.627 -7.392 L
-80.627 -8.126 L
-79.908 -8.126 -79.447 -8.244 QT
-78.986 -8.361 -78.986 -8.798 QT
-78.986 -13.783 L
-78.986 -14.798 -79.283 -15.462 QT
-79.58 -16.126 -80.502 -16.126 QT
-81.721 -16.126 -82.51 -15.15 QT
-83.299 -14.173 -83.299 -12.939 QT
-83.299 -8.798 L
-83.299 -8.361 -82.83 -8.244 QT
-82.361 -8.126 -81.658 -8.126 QT
-81.658 -7.392 L
-86.471 -7.392 L
cp
f
GR
GS
[0.75 0 0 0.75 596.2506 36.11251] CT
N
-63.594 -7.158 M
-64.859 -7.158 -65.938 -7.798 QT
-67.016 -8.439 -67.641 -9.517 QT
-68.266 -10.595 -68.266 -11.861 QT
-68.266 -12.83 -67.922 -13.72 QT
-67.578 -14.611 -66.938 -15.314 QT
-66.297 -16.017 -65.445 -16.408 QT
-64.594 -16.798 -63.594 -16.798 QT
-62.297 -16.798 -61.234 -16.119 QT
-60.172 -15.439 -59.563 -14.298 QT
-58.953 -13.158 -58.953 -11.861 QT
-58.953 -10.595 -59.578 -9.517 QT
-60.203 -8.439 -61.274 -7.798 QT
-62.344 -7.158 -63.594 -7.158 QT
cp
-63.594 -7.767 M
-61.906 -7.767 -61.344 -8.986 QT
-60.781 -10.205 -60.781 -12.095 QT
-60.781 -13.158 -60.899 -13.845 QT
-61.016 -14.533 -61.391 -15.111 QT
-61.625 -15.455 -61.992 -15.712 QT
-62.359 -15.97 -62.758 -16.111 QT
-63.156 -16.251 -63.594 -16.251 QT
-64.25 -16.251 -64.836 -15.955 QT
-65.422 -15.658 -65.813 -15.111 QT
-66.203 -14.501 -66.313 -13.791 QT
-66.422 -13.08 -66.422 -12.095 QT
-66.422 -10.923 -66.219 -9.986 QT
-66.016 -9.048 -65.391 -8.408 QT
-64.766 -7.767 -63.594 -7.767 QT
cp
f
GR
GS
[0.75 0 0 0.75 596.2506 36.11251] CT
N
-57.905 -7.392 M
-57.905 -8.126 L
-57.187 -8.126 -56.726 -8.244 QT
-56.265 -8.361 -56.265 -8.798 QT
-56.265 -15.705 L
-57.874 -15.705 L
-57.874 -16.439 L
-56.265 -16.439 L
-56.265 -18.955 L
-56.265 -19.642 -55.983 -20.228 QT
-55.702 -20.814 -55.226 -21.251 QT
-54.749 -21.689 -54.132 -21.947 QT
-53.515 -22.205 -52.843 -22.205 QT
-52.14 -22.205 -51.569 -21.783 QT
-50.999 -21.361 -50.999 -20.658 QT
-50.999 -20.267 -51.272 -19.994 QT
-51.546 -19.72 -51.937 -19.72 QT
-52.343 -19.72 -52.624 -19.994 QT
-52.905 -20.267 -52.905 -20.658 QT
-52.905 -21.314 -52.343 -21.548 QT
-52.687 -21.658 -52.952 -21.658 QT
-53.562 -21.658 -53.999 -21.22 QT
-54.437 -20.783 -54.647 -20.158 QT
-54.858 -19.533 -54.858 -18.923 QT
-54.858 -16.439 L
-52.452 -16.439 L
-52.452 -15.705 L
-54.796 -15.705 L
-54.796 -8.798 L
-54.796 -8.361 -54.179 -8.244 QT
-53.562 -8.126 -52.765 -8.126 QT
-52.765 -7.392 L
-57.905 -7.392 L
cp
f
GR
GS
[0.75 0 0 0.75 596.2506 36.11251] CT
N
-43.318 -9.908 M
-43.318 -15.705 L
-45.052 -15.705 L
-45.052 -16.251 L
-43.677 -16.251 -43.037 -17.533 QT
-42.396 -18.814 -42.396 -20.314 QT
-41.787 -20.314 L
-41.787 -16.439 L
-38.818 -16.439 L
-38.818 -15.705 L
-41.787 -15.705 L
-41.787 -9.955 L
-41.787 -9.08 -41.498 -8.423 QT
-41.209 -7.767 -40.443 -7.767 QT
-39.724 -7.767 -39.404 -8.462 QT
-39.084 -9.158 -39.084 -9.955 QT
-39.084 -11.189 L
-38.49 -11.189 L
-38.49 -9.908 L
-38.49 -9.251 -38.732 -8.611 QT
-38.974 -7.97 -39.443 -7.564 QT
-39.912 -7.158 -40.584 -7.158 QT
-41.849 -7.158 -42.584 -7.908 QT
-43.318 -8.658 -43.318 -9.908 QT
cp
f
GR
GS
[0.75 0 0 0.75 596.2506 36.11251] CT
N
-36.848 -7.392 M
-36.848 -8.126 L
-36.13 -8.126 -35.669 -8.244 QT
-35.208 -8.361 -35.208 -8.798 QT
-35.208 -19.814 L
-35.208 -20.376 -35.38 -20.634 QT
-35.552 -20.892 -35.864 -20.947 QT
-36.177 -21.001 -36.848 -21.001 QT
-36.848 -21.736 L
-33.723 -21.97 L
-33.723 -14.751 L
-33.286 -15.611 -32.497 -16.142 QT
-31.708 -16.673 -30.755 -16.673 QT
-29.302 -16.673 -28.567 -15.978 QT
-27.833 -15.283 -27.833 -13.845 QT
-27.833 -8.798 L
-27.833 -8.361 -27.372 -8.244 QT
-26.911 -8.126 -26.192 -8.126 QT
-26.192 -7.392 L
-31.005 -7.392 L
-31.005 -8.126 L
-30.286 -8.126 -29.825 -8.244 QT
-29.364 -8.361 -29.364 -8.798 QT
-29.364 -13.783 L
-29.364 -14.798 -29.661 -15.462 QT
-29.958 -16.126 -30.88 -16.126 QT
-32.098 -16.126 -32.887 -15.15 QT
-33.677 -14.173 -33.677 -12.939 QT
-33.677 -8.798 L
-33.677 -8.361 -33.208 -8.244 QT
-32.739 -8.126 -32.036 -8.126 QT
-32.036 -7.392 L
-36.848 -7.392 L
cp
f
GR
GS
[0.75 0 0 0.75 596.2506 36.11251] CT
N
-20.832 -7.158 M
-22.113 -7.158 -23.183 -7.83 QT
-24.253 -8.501 -24.871 -9.626 QT
-25.488 -10.751 -25.488 -12.001 QT
-25.488 -13.22 -24.925 -14.33 QT
-24.363 -15.439 -23.363 -16.119 QT
-22.363 -16.798 -21.128 -16.798 QT
-20.175 -16.798 -19.457 -16.478 QT
-18.738 -16.158 -18.277 -15.587 QT
-17.816 -15.017 -17.582 -14.236 QT
-17.347 -13.455 -17.347 -12.517 QT
-17.347 -12.236 -17.566 -12.236 QT
-23.644 -12.236 L
-23.644 -12.017 L
-23.644 -10.267 -22.941 -9.017 QT
-22.238 -7.767 -20.644 -7.767 QT
-20.003 -7.767 -19.457 -8.056 QT
-18.91 -8.345 -18.503 -8.861 QT
-18.097 -9.376 -17.957 -9.955 QT
-17.941 -10.033 -17.878 -10.087 QT
-17.816 -10.142 -17.753 -10.142 QT
-17.566 -10.142 L
-17.347 -10.142 -17.347 -9.876 QT
-17.644 -8.689 -18.628 -7.923 QT
-19.613 -7.158 -20.832 -7.158 QT
cp
-23.628 -12.767 M
-18.832 -12.767 L
-18.832 -13.548 -19.058 -14.361 QT
-19.285 -15.173 -19.793 -15.712 QT
-20.3 -16.251 -21.128 -16.251 QT
-22.316 -16.251 -22.972 -15.142 QT
-23.628 -14.033 -23.628 -12.767 QT
cp
f
GR
GS
[0.75 0 0 0.75 596.2506 36.11251] CT
N
-9.424 -7.392 M
-9.424 -8.126 L
-8.705 -8.126 -8.244 -8.244 QT
-7.783 -8.361 -7.783 -8.798 QT
-7.783 -15.705 L
-9.392 -15.705 L
-9.392 -16.439 L
-7.783 -16.439 L
-7.783 -18.955 L
-7.783 -19.642 -7.502 -20.228 QT
-7.221 -20.814 -6.744 -21.251 QT
-6.267 -21.689 -5.65 -21.947 QT
-5.033 -22.205 -4.361 -22.205 QT
-3.658 -22.205 -3.088 -21.783 QT
-2.517 -21.361 -2.517 -20.658 QT
-2.517 -20.267 -2.791 -19.994 QT
-3.064 -19.72 -3.455 -19.72 QT
-3.861 -19.72 -4.142 -19.994 QT
-4.424 -20.267 -4.424 -20.658 QT
-4.424 -21.314 -3.861 -21.548 QT
-4.205 -21.658 -4.471 -21.658 QT
-5.08 -21.658 -5.517 -21.22 QT
-5.955 -20.783 -6.166 -20.158 QT
-6.377 -19.533 -6.377 -18.923 QT
-6.377 -16.439 L
-3.971 -16.439 L
-3.971 -15.705 L
-6.314 -15.705 L
-6.314 -8.798 L
-6.314 -8.361 -5.697 -8.244 QT
-5.08 -8.126 -4.283 -8.126 QT
-4.283 -7.392 L
-9.424 -7.392 L
cp
f
GR
GS
[0.75 0 0 0.75 596.2506 36.11251] CT
N
-3.275 -7.392 M
-3.275 -8.126 L
-2.556 -8.126 -2.095 -8.244 QT
-1.634 -8.361 -1.634 -8.798 QT
-1.634 -14.533 L
-1.634 -15.095 -1.806 -15.345 QT
-1.978 -15.595 -2.298 -15.65 QT
-2.618 -15.705 -3.275 -15.705 QT
-3.275 -16.439 L
-0.275 -16.673 L
-0.275 -14.626 L
0.069 -15.533 0.694 -16.103 QT
1.319 -16.673 2.21 -16.673 QT
2.835 -16.673 3.327 -16.306 QT
3.819 -15.939 3.819 -15.33 QT
3.819 -14.955 3.546 -14.673 QT
3.272 -14.392 2.882 -14.392 QT
2.491 -14.392 2.21 -14.666 QT
1.929 -14.939 1.929 -15.33 QT
1.929 -15.892 2.335 -16.126 QT
2.21 -16.126 L
1.35 -16.126 0.819 -15.509 QT
0.288 -14.892 0.061 -13.986 QT
-0.165 -13.08 -0.165 -12.236 QT
-0.165 -8.798 L
-0.165 -8.126 1.866 -8.126 QT
1.866 -7.392 L
-3.275 -7.392 L
cp
f
GR
GS
[0.75 0 0 0.75 596.2506 36.11251] CT
N
9.455 -7.158 M
8.174 -7.158 7.104 -7.83 QT
6.033 -8.501 5.416 -9.626 QT
4.799 -10.751 4.799 -12.001 QT
4.799 -13.22 5.361 -14.33 QT
5.924 -15.439 6.924 -16.119 QT
7.924 -16.798 9.158 -16.798 QT
10.111 -16.798 10.83 -16.478 QT
11.549 -16.158 12.01 -15.587 QT
12.471 -15.017 12.705 -14.236 QT
12.939 -13.455 12.939 -12.517 QT
12.939 -12.236 12.721 -12.236 QT
6.643 -12.236 L
6.643 -12.017 L
6.643 -10.267 7.346 -9.017 QT
8.049 -7.767 9.643 -7.767 QT
10.283 -7.767 10.83 -8.056 QT
11.377 -8.345 11.783 -8.861 QT
12.189 -9.376 12.33 -9.955 QT
12.346 -10.033 12.408 -10.087 QT
12.471 -10.142 12.533 -10.142 QT
12.721 -10.142 L
12.939 -10.142 12.939 -9.876 QT
12.643 -8.689 11.658 -7.923 QT
10.674 -7.158 9.455 -7.158 QT
cp
6.658 -12.767 M
11.455 -12.767 L
11.455 -13.548 11.229 -14.361 QT
11.002 -15.173 10.494 -15.712 QT
9.986 -16.251 9.158 -16.251 QT
7.971 -16.251 7.314 -15.142 QT
6.658 -14.033 6.658 -12.767 QT
cp
f
GR
GS
[0.75 0 0 0.75 596.2506 36.11251] CT
N
19.644 -3.314 M
19.644 -4.048 L
20.362 -4.048 20.823 -4.173 QT
21.284 -4.298 21.284 -4.72 QT
21.284 -8.611 L
20.784 -7.955 20.042 -7.556 QT
19.3 -7.158 18.472 -7.158 QT
17.534 -7.158 16.722 -7.548 QT
15.909 -7.939 15.308 -8.603 QT
14.706 -9.267 14.378 -10.142 QT
14.05 -11.017 14.05 -11.923 QT
14.05 -13.173 14.659 -14.275 QT
15.269 -15.376 16.347 -16.025 QT
17.425 -16.673 18.659 -16.673 QT
19.55 -16.673 20.308 -16.173 QT
21.065 -15.673 21.519 -14.83 QT
22.269 -16.673 L
22.815 -16.673 L
22.815 -4.72 L
22.815 -4.298 23.276 -4.173 QT
23.737 -4.048 24.456 -4.048 QT
24.456 -3.314 L
19.644 -3.314 L
cp
18.597 -7.705 M
19.534 -7.705 20.269 -8.33 QT
21.003 -8.955 21.347 -9.892 QT
21.347 -13.58 L
21.128 -14.595 20.448 -15.33 QT
19.769 -16.064 18.831 -16.064 QT
18.112 -16.064 17.55 -15.689 QT
16.987 -15.314 16.612 -14.673 QT
16.237 -14.033 16.05 -13.298 QT
15.862 -12.564 15.862 -11.908 QT
15.862 -11.064 16.167 -10.072 QT
16.472 -9.08 17.081 -8.392 QT
17.69 -7.705 18.597 -7.705 QT
cp
f
GR
GS
[0.75 0 0 0.75 596.2506 36.11251] CT
N
26.449 -9.892 M
26.449 -14.533 L
26.449 -15.095 26.277 -15.345 QT
26.106 -15.595 25.793 -15.65 QT
25.481 -15.705 24.809 -15.705 QT
24.809 -16.439 L
27.981 -16.673 L
27.981 -9.892 L
27.981 -9.08 28.106 -8.619 QT
28.231 -8.158 28.613 -7.931 QT
28.996 -7.705 29.84 -7.705 QT
30.965 -7.705 31.629 -8.65 QT
32.293 -9.595 32.293 -10.798 QT
32.293 -14.533 L
32.293 -15.095 32.121 -15.345 QT
31.949 -15.595 31.637 -15.65 QT
31.324 -15.705 30.652 -15.705 QT
30.652 -16.439 L
33.824 -16.673 L
33.824 -9.298 L
33.824 -8.751 33.996 -8.494 QT
34.168 -8.236 34.481 -8.181 QT
34.793 -8.126 35.465 -8.126 QT
35.465 -7.392 L
32.356 -7.158 L
32.356 -8.923 L
31.965 -8.142 31.27 -7.65 QT
30.574 -7.158 29.731 -7.158 QT
28.231 -7.158 27.34 -7.798 QT
26.449 -8.439 26.449 -9.892 QT
cp
f
GR
GS
[0.75 0 0 0.75 596.2506 36.11251] CT
N
40.826 -7.158 M
39.544 -7.158 38.474 -7.83 QT
37.404 -8.501 36.786 -9.626 QT
36.169 -10.751 36.169 -12.001 QT
36.169 -13.22 36.732 -14.33 QT
37.294 -15.439 38.294 -16.119 QT
39.294 -16.798 40.529 -16.798 QT
41.482 -16.798 42.201 -16.478 QT
42.919 -16.158 43.38 -15.587 QT
43.841 -15.017 44.076 -14.236 QT
44.31 -13.455 44.31 -12.517 QT
44.31 -12.236 44.091 -12.236 QT
38.013 -12.236 L
38.013 -12.017 L
38.013 -10.267 38.716 -9.017 QT
39.419 -7.767 41.013 -7.767 QT
41.654 -7.767 42.201 -8.056 QT
42.747 -8.345 43.154 -8.861 QT
43.56 -9.376 43.701 -9.955 QT
43.716 -10.033 43.779 -10.087 QT
43.841 -10.142 43.904 -10.142 QT
44.091 -10.142 L
44.31 -10.142 44.31 -9.876 QT
44.013 -8.689 43.029 -7.923 QT
42.044 -7.158 40.826 -7.158 QT
cp
38.029 -12.767 M
42.826 -12.767 L
42.826 -13.548 42.599 -14.361 QT
42.372 -15.173 41.865 -15.712 QT
41.357 -16.251 40.529 -16.251 QT
39.341 -16.251 38.685 -15.142 QT
38.029 -14.033 38.029 -12.767 QT
cp
f
GR
GS
[0.75 0 0 0.75 596.2506 36.11251] CT
N
45.342 -7.392 M
45.342 -8.126 L
46.061 -8.126 46.522 -8.244 QT
46.983 -8.361 46.983 -8.798 QT
46.983 -14.533 L
46.983 -15.095 46.811 -15.345 QT
46.639 -15.595 46.326 -15.65 QT
46.014 -15.705 45.342 -15.705 QT
45.342 -16.439 L
48.389 -16.673 L
48.389 -14.626 L
48.811 -15.517 49.639 -16.095 QT
50.467 -16.673 51.436 -16.673 QT
52.889 -16.673 53.623 -15.978 QT
54.358 -15.283 54.358 -13.845 QT
54.358 -8.798 L
54.358 -8.361 54.819 -8.244 QT
55.28 -8.126 55.998 -8.126 QT
55.998 -7.392 L
51.186 -7.392 L
51.186 -8.126 L
51.905 -8.126 52.366 -8.244 QT
52.826 -8.361 52.826 -8.798 QT
52.826 -13.783 L
52.826 -14.798 52.53 -15.462 QT
52.233 -16.126 51.311 -16.126 QT
50.092 -16.126 49.303 -15.15 QT
48.514 -14.173 48.514 -12.939 QT
48.514 -8.798 L
48.514 -8.361 48.983 -8.244 QT
49.451 -8.126 50.155 -8.126 QT
50.155 -7.392 L
45.342 -7.392 L
cp
f
GR
GS
[0.75 0 0 0.75 596.2506 36.11251] CT
N
61.359 -7.158 M
60.078 -7.158 59.046 -7.822 QT
58.015 -8.486 57.421 -9.587 QT
56.828 -10.689 56.828 -11.923 QT
56.828 -13.158 57.414 -14.298 QT
58 -15.439 59.039 -16.119 QT
60.078 -16.798 61.359 -16.798 QT
62.578 -16.798 63.593 -16.322 QT
64.609 -15.845 64.609 -14.751 QT
64.609 -14.33 64.312 -14.033 QT
64.015 -13.736 63.593 -13.736 QT
63.187 -13.736 62.89 -14.033 QT
62.593 -14.33 62.593 -14.751 QT
62.593 -15.111 62.828 -15.384 QT
63.062 -15.658 63.421 -15.736 QT
62.687 -16.189 61.375 -16.189 QT
60.375 -16.189 59.757 -15.525 QT
59.14 -14.861 58.89 -13.876 QT
58.64 -12.892 58.64 -11.923 QT
58.64 -10.908 58.945 -9.962 QT
59.25 -9.017 59.921 -8.392 QT
60.593 -7.767 61.609 -7.767 QT
62.609 -7.767 63.304 -8.376 QT
64 -8.986 64.25 -9.97 QT
64.25 -10.095 64.421 -10.095 QT
64.671 -10.095 L
64.734 -10.095 64.789 -10.041 QT
64.843 -9.986 64.843 -9.908 QT
64.843 -9.861 L
64.515 -8.611 63.578 -7.884 QT
62.64 -7.158 61.359 -7.158 QT
cp
f
GR
GS
[0.75 0 0 0.75 596.2506 36.11251] CT
N
66.704 -3.939 M
67.094 -3.626 67.579 -3.626 QT
68.907 -3.626 69.735 -5.626 QT
70.454 -7.392 L
67.313 -15.111 L
67.11 -15.486 66.711 -15.595 QT
66.313 -15.705 65.657 -15.705 QT
65.657 -16.439 L
70.063 -16.439 L
70.063 -15.705 L
68.907 -15.705 68.907 -15.205 QT
68.907 -15.126 68.922 -15.08 QT
71.266 -9.345 L
73.36 -14.501 L
73.422 -14.673 73.422 -14.861 QT
73.422 -15.126 73.282 -15.314 QT
73.141 -15.501 72.922 -15.603 QT
72.704 -15.705 72.422 -15.705 QT
72.422 -16.439 L
75.922 -16.439 L
75.922 -15.705 L
75.266 -15.705 74.782 -15.408 QT
74.297 -15.111 74.032 -14.533 QT
70.391 -5.626 L
70.11 -4.955 69.727 -4.384 QT
69.344 -3.814 68.79 -3.447 QT
68.235 -3.08 67.579 -3.08 QT
66.813 -3.08 66.235 -3.587 QT
65.657 -4.095 65.657 -4.845 QT
65.657 -5.236 65.922 -5.501 QT
66.188 -5.767 66.579 -5.767 QT
66.844 -5.767 67.055 -5.65 QT
67.266 -5.533 67.383 -5.33 QT
67.5 -5.126 67.5 -4.845 QT
67.5 -4.517 67.274 -4.244 QT
67.047 -3.97 66.704 -3.939 QT
cp
f
GR
GS
[0.75 0 0 0.75 596.2506 36.11251] CT
N
88.057 -7.158 M
86.823 -7.158 85.791 -7.83 QT
84.76 -8.501 84.198 -9.595 QT
83.635 -10.689 83.635 -11.923 QT
83.635 -13.189 84.252 -14.283 QT
84.869 -15.376 85.94 -16.025 QT
87.01 -16.673 88.291 -16.673 QT
89.057 -16.673 89.744 -16.353 QT
90.432 -16.033 90.932 -15.455 QT
90.932 -19.814 L
90.932 -20.376 90.76 -20.634 QT
90.588 -20.892 90.276 -20.947 QT
89.963 -21.001 89.307 -21.001 QT
89.307 -21.736 L
92.401 -21.97 L
92.401 -9.298 L
92.401 -8.751 92.573 -8.494 QT
92.744 -8.236 93.057 -8.181 QT
93.369 -8.126 94.041 -8.126 QT
94.041 -7.392 L
90.869 -7.158 L
90.869 -8.486 L
90.323 -7.861 89.573 -7.509 QT
88.823 -7.158 88.057 -7.158 QT
cp
85.916 -9.22 M
86.276 -8.533 86.877 -8.119 QT
87.479 -7.705 88.182 -7.705 QT
89.057 -7.705 89.784 -8.212 QT
90.51 -8.72 90.869 -9.517 QT
90.869 -14.548 L
90.619 -15.017 90.244 -15.376 QT
89.869 -15.736 89.409 -15.931 QT
88.948 -16.126 88.416 -16.126 QT
87.323 -16.126 86.659 -15.509 QT
85.994 -14.892 85.721 -13.923 QT
85.448 -12.955 85.448 -11.908 QT
85.448 -11.064 85.541 -10.439 QT
85.635 -9.814 85.916 -9.22 QT
cp
f
GR
GS
[0.75 0 0 0.75 596.2506 36.11251] CT
N
99.589 -7.158 M
98.324 -7.158 97.246 -7.798 QT
96.168 -8.439 95.543 -9.517 QT
94.918 -10.595 94.918 -11.861 QT
94.918 -12.83 95.261 -13.72 QT
95.605 -14.611 96.246 -15.314 QT
96.886 -16.017 97.738 -16.408 QT
98.589 -16.798 99.589 -16.798 QT
100.886 -16.798 101.949 -16.119 QT
103.011 -15.439 103.621 -14.298 QT
104.23 -13.158 104.23 -11.861 QT
104.23 -10.595 103.605 -9.517 QT
102.98 -8.439 101.91 -7.798 QT
100.839 -7.158 99.589 -7.158 QT
cp
99.589 -7.767 M
101.277 -7.767 101.839 -8.986 QT
102.402 -10.205 102.402 -12.095 QT
102.402 -13.158 102.285 -13.845 QT
102.168 -14.533 101.793 -15.111 QT
101.558 -15.455 101.191 -15.712 QT
100.824 -15.97 100.425 -16.111 QT
100.027 -16.251 99.589 -16.251 QT
98.933 -16.251 98.347 -15.955 QT
97.761 -15.658 97.371 -15.111 QT
96.98 -14.501 96.871 -13.791 QT
96.761 -13.08 96.761 -12.095 QT
96.761 -10.923 96.964 -9.986 QT
97.168 -9.048 97.793 -8.408 QT
98.418 -7.767 99.589 -7.767 QT
cp
f
GR
GS
[0.75 0 0 0.75 596.2506 36.11251] CT
N
105.231 -7.392 M
105.231 -8.126 L
105.95 -8.126 106.411 -8.244 QT
106.872 -8.361 106.872 -8.798 QT
106.872 -14.533 L
106.872 -15.095 106.7 -15.345 QT
106.528 -15.595 106.215 -15.65 QT
105.903 -15.705 105.231 -15.705 QT
105.231 -16.439 L
108.278 -16.673 L
108.278 -14.626 L
108.7 -15.517 109.528 -16.095 QT
110.356 -16.673 111.325 -16.673 QT
113.747 -16.673 114.169 -14.705 QT
114.59 -15.58 115.395 -16.126 QT
116.2 -16.673 117.169 -16.673 QT
118.122 -16.673 118.77 -16.369 QT
119.419 -16.064 119.747 -15.431 QT
120.075 -14.798 120.075 -13.845 QT
120.075 -8.798 L
120.075 -8.361 120.544 -8.244 QT
121.012 -8.126 121.715 -8.126 QT
121.715 -7.392 L
116.919 -7.392 L
116.919 -8.126 L
117.622 -8.126 118.09 -8.244 QT
118.559 -8.361 118.559 -8.798 QT
118.559 -13.783 L
118.559 -14.83 118.255 -15.478 QT
117.95 -16.126 117.028 -16.126 QT
115.825 -16.126 115.036 -15.15 QT
114.247 -14.173 114.247 -12.939 QT
114.247 -8.798 L
114.247 -8.361 114.708 -8.244 QT
115.169 -8.126 115.887 -8.126 QT
115.887 -7.392 L
111.075 -7.392 L
111.075 -8.126 L
111.794 -8.126 112.255 -8.244 QT
112.715 -8.361 112.715 -8.798 QT
112.715 -13.783 L
112.715 -14.798 112.419 -15.462 QT
112.122 -16.126 111.2 -16.126 QT
109.981 -16.126 109.192 -15.15 QT
108.403 -14.173 108.403 -12.939 QT
108.403 -8.798 L
108.403 -8.361 108.872 -8.244 QT
109.34 -8.126 110.044 -8.126 QT
110.044 -7.392 L
105.231 -7.392 L
cp
f
GR
GS
[0.75 0 0 0.75 596.2506 36.11251] CT
N
122.561 -9.455 M
122.561 -10.705 123.545 -11.486 QT
124.53 -12.267 125.905 -12.595 QT
127.28 -12.923 128.53 -12.923 QT
128.53 -13.783 L
128.53 -14.392 128.264 -14.955 QT
127.999 -15.517 127.491 -15.884 QT
126.983 -16.251 126.389 -16.251 QT
124.983 -16.251 124.264 -15.626 QT
124.655 -15.626 124.92 -15.322 QT
125.186 -15.017 125.186 -14.626 QT
125.186 -14.205 124.889 -13.908 QT
124.592 -13.611 124.186 -13.611 QT
123.764 -13.611 123.467 -13.908 QT
123.17 -14.205 123.17 -14.626 QT
123.17 -15.736 124.17 -16.267 QT
125.17 -16.798 126.389 -16.798 QT
127.233 -16.798 128.092 -16.439 QT
128.952 -16.08 129.506 -15.4 QT
130.061 -14.72 130.061 -13.814 QT
130.061 -9.095 L
130.061 -8.689 130.233 -8.345 QT
130.405 -8.001 130.764 -8.001 QT
131.124 -8.001 131.288 -8.345 QT
131.452 -8.689 131.452 -9.095 QT
131.452 -10.439 L
132.077 -10.439 L
132.077 -9.095 L
132.077 -8.626 131.827 -8.197 QT
131.577 -7.767 131.163 -7.517 QT
130.749 -7.267 130.264 -7.267 QT
129.655 -7.267 129.209 -7.744 QT
128.764 -8.22 128.717 -8.876 QT
128.327 -8.095 127.569 -7.626 QT
126.811 -7.158 125.936 -7.158 QT
125.139 -7.158 124.366 -7.392 QT
123.592 -7.626 123.077 -8.134 QT
122.561 -8.642 122.561 -9.455 QT
cp
124.264 -9.455 M
124.264 -8.72 124.803 -8.212 QT
125.342 -7.705 126.092 -7.705 QT
126.764 -7.705 127.319 -8.048 QT
127.874 -8.392 128.202 -8.97 QT
128.53 -9.548 128.53 -10.205 QT
128.53 -12.392 L
127.577 -12.392 126.577 -12.08 QT
125.577 -11.767 124.92 -11.095 QT
124.264 -10.423 124.264 -9.455 QT
cp
f
GR
GS
[0.75 0 0 0.75 596.2506 36.11251] CT
N
132.625 -7.392 M
132.625 -8.126 L
133.343 -8.126 133.804 -8.244 QT
134.265 -8.361 134.265 -8.798 QT
134.265 -14.533 L
134.265 -15.345 133.953 -15.525 QT
133.64 -15.705 132.718 -15.705 QT
132.718 -16.439 L
135.75 -16.673 L
135.75 -8.798 L
135.75 -8.361 136.148 -8.244 QT
136.546 -8.126 137.218 -8.126 QT
137.218 -7.392 L
132.625 -7.392 L
cp
133.515 -20.283 M
133.515 -20.736 133.867 -21.087 QT
134.218 -21.439 134.671 -21.439 QT
134.968 -21.439 135.242 -21.283 QT
135.515 -21.126 135.671 -20.853 QT
135.828 -20.58 135.828 -20.283 QT
135.828 -19.83 135.476 -19.478 QT
135.125 -19.126 134.671 -19.126 QT
134.218 -19.126 133.867 -19.478 QT
133.515 -19.83 133.515 -20.283 QT
cp
f
GR
GS
[0.75 0 0 0.75 596.2506 36.11251] CT
N
138.313 -7.392 M
138.313 -8.126 L
139.031 -8.126 139.492 -8.244 QT
139.953 -8.361 139.953 -8.798 QT
139.953 -14.533 L
139.953 -15.095 139.781 -15.345 QT
139.61 -15.595 139.297 -15.65 QT
138.985 -15.705 138.313 -15.705 QT
138.313 -16.439 L
141.36 -16.673 L
141.36 -14.626 L
141.781 -15.517 142.61 -16.095 QT
143.438 -16.673 144.406 -16.673 QT
145.86 -16.673 146.594 -15.978 QT
147.328 -15.283 147.328 -13.845 QT
147.328 -8.798 L
147.328 -8.361 147.789 -8.244 QT
148.25 -8.126 148.969 -8.126 QT
148.969 -7.392 L
144.156 -7.392 L
144.156 -8.126 L
144.875 -8.126 145.336 -8.244 QT
145.797 -8.361 145.797 -8.798 QT
145.797 -13.783 L
145.797 -14.798 145.5 -15.462 QT
145.203 -16.126 144.281 -16.126 QT
143.063 -16.126 142.274 -15.15 QT
141.485 -14.173 141.485 -12.939 QT
141.485 -8.798 L
141.485 -8.361 141.953 -8.244 QT
142.422 -8.126 143.125 -8.126 QT
143.125 -7.392 L
138.313 -7.392 L
cp
f
GR
GS
[0.75 0 0 0.75 0 0] CT
1 LJ
2 LW
N
795 337.5 M
1390 337.5 L
S
GR
GS
[0.75 0 0 0.75 0 0] CT
0 0 1 RC
1 LJ
2 LW
N
795 423.15 M
795 251.85 L
S
GR
GS
[0.75 0 0 0.75 819.375 167.475] CT
1 0 0 RC
N
-17.287 4.347 M
-18.084 -6.481 L
-18.13 -6.731 -18.451 -6.793 QT
-18.771 -6.856 -19.224 -6.856 QT
-19.396 -6.856 -19.396 -7.074 QT
-19.334 -7.293 -19.302 -7.371 QT
-19.271 -7.449 -19.115 -7.449 QT
-15.068 -7.449 L
-14.896 -7.449 -14.896 -7.231 QT
-14.959 -6.856 -15.115 -6.856 QT
-16.474 -6.856 -16.552 -6.387 QT
-15.959 2.207 L
-11.709 -5.199 L
-11.787 -6.481 L
-11.849 -6.731 -12.162 -6.793 QT
-12.474 -6.856 -12.943 -6.856 QT
-13.115 -6.856 -13.115 -7.074 QT
-13.052 -7.293 -13.021 -7.371 QT
-12.99 -7.449 -12.818 -7.449 QT
-8.771 -7.449 L
-8.599 -7.449 -8.599 -7.231 QT
-8.615 -7.184 -8.638 -7.082 QT
-8.662 -6.981 -8.701 -6.918 QT
-8.74 -6.856 -8.834 -6.856 QT
-10.193 -6.856 -10.271 -6.387 QT
-10.271 -6.262 L
-9.662 2.207 L
-5.037 -5.871 L
-4.943 -6.043 -4.943 -6.231 QT
-4.943 -6.574 -5.279 -6.715 QT
-5.615 -6.856 -6.037 -6.856 QT
-6.209 -6.856 -6.209 -7.074 QT
-6.177 -7.215 -6.154 -7.285 QT
-6.13 -7.356 -6.076 -7.403 QT
-6.021 -7.449 -5.912 -7.449 QT
-2.677 -7.449 L
-2.505 -7.449 -2.505 -7.231 QT
-2.505 -7.184 -2.537 -7.082 QT
-2.568 -6.981 -2.607 -6.918 QT
-2.646 -6.856 -2.724 -6.856 QT
-3.927 -6.856 -4.568 -5.746 QT
-4.615 -5.699 -4.615 -5.699 QT
-10.38 4.347 L
-10.459 4.535 -10.662 4.535 QT
-10.802 4.535 L
-11.005 4.535 -11.005 4.347 QT
-11.646 -4.403 L
-16.646 4.347 L
-16.771 4.535 -16.943 4.535 QT
-17.084 4.535 L
-17.287 4.535 -17.287 4.347 QT
cp
f
GR
GS
[0.75 0 0 0.75 819.375 167.475] CT
1 0 0 RC
N
-2.635 6.041 M
-2.526 6.369 -2.205 6.541 QT
-1.885 6.713 -1.526 6.713 QT
-1.151 6.713 -0.799 6.455 QT
-0.448 6.197 -0.205 5.799 QT
0.037 5.401 0.131 5.026 QT
1.552 -0.662 L
1.568 -0.709 1.568 -0.732 QT
1.568 -0.756 1.568 -0.771 QT
1.568 -0.912 1.474 -0.928 QT
1.162 -1.021 0.193 -1.021 QT
0.068 -1.021 0.068 -1.178 QT
0.099 -1.271 0.115 -1.326 QT
0.131 -1.381 0.17 -1.412 QT
0.209 -1.443 0.271 -1.443 QT
3.537 -1.443 L
3.646 -1.443 3.646 -1.287 QT
3.599 -1.021 3.49 -1.021 QT
3.068 -1.021 2.857 -0.951 QT
2.646 -0.881 2.552 -0.599 QT
1.146 5.072 L
1.006 5.619 0.592 6.072 QT
0.177 6.526 -0.393 6.776 QT
-0.963 7.026 -1.526 7.026 QT
-2.166 7.026 -2.643 6.674 QT
-3.119 6.322 -3.119 5.713 QT
-3.119 5.322 -2.901 5.033 QT
-2.682 4.744 -2.291 4.744 QT
-2.057 4.744 -1.901 4.885 QT
-1.744 5.026 -1.744 5.244 QT
-1.744 5.572 -1.987 5.815 QT
-2.229 6.057 -2.557 6.057 QT
-2.619 6.057 -2.635 6.041 QT
cp
f
GR
GS
[0.75 0 0 0.75 819.375 167.475] CT
1 0 0 RC
N
5.166 3.994 M
5.073 3.994 5.01 3.924 QT
4.948 3.854 4.948 3.76 QT
4.948 3.666 5.01 3.596 QT
5.073 3.526 5.166 3.526 QT
12.057 3.526 L
12.151 3.526 12.213 3.596 QT
12.276 3.666 12.276 3.76 QT
12.276 3.854 12.213 3.924 QT
12.151 3.994 12.057 3.994 QT
5.166 3.994 L
cp
f
GR
GS
[0.75 0 0 0.75 819.375 167.475] CT
1 0 0 RC
N
14.494 6.76 M
14.494 6.338 L
15.994 6.338 15.994 5.963 QT
15.994 -0.349 L
15.385 -0.037 14.431 -0.037 QT
14.431 -0.459 L
15.9 -0.459 16.65 -1.24 QT
16.822 -1.24 L
16.853 -1.24 16.892 -1.201 QT
16.931 -1.162 16.931 -1.131 QT
16.931 5.963 L
16.931 6.338 18.431 6.338 QT
18.431 6.76 L
14.494 6.76 L
cp
f
GR
GS
[0.75 0 0 0.75 0 0] CT
1 LJ
2 LW
N
497.5 337.5 M
795 337.5 L
S
GR
GS
[0.75 0 0 0.75 0 0] CT
0 0 1 RC
1 LJ
2 LW
N
497.5 423.15 M
497.5 251.85 L
S
GR
GS
[0.75 0 0 0.75 484.6875 167.475] CT
1 0 0 RC
N
/f919897922{-17.287 4.347 M
-18.084 -6.481 L
-18.13 -6.731 -18.451 -6.793 QT
-18.771 -6.856 -19.224 -6.856 QT
-19.396 -6.856 -19.396 -7.074 QT
-19.334 -7.293 -19.302 -7.371 QT
-19.271 -7.449 -19.115 -7.449 QT
-15.068 -7.449 L
-14.896 -7.449 -14.896 -7.231 QT
-14.959 -6.856 -15.115 -6.856 QT
-16.474 -6.856 -16.552 -6.387 QT
-15.959 2.207 L
-11.709 -5.199 L
-11.787 -6.481 L
-11.849 -6.731 -12.162 -6.793 QT
-12.474 -6.856 -12.943 -6.856 QT
-13.115 -6.856 -13.115 -7.074 QT
-13.052 -7.293 -13.021 -7.371 QT
-12.99 -7.449 -12.818 -7.449 QT
-8.771 -7.449 L
-8.599 -7.449 -8.599 -7.231 QT
-8.615 -7.184 -8.638 -7.082 QT
-8.662 -6.981 -8.701 -6.918 QT
-8.74 -6.856 -8.834 -6.856 QT
-10.193 -6.856 -10.271 -6.387 QT
-10.271 -6.262 L
-9.662 2.207 L
-5.037 -5.871 L
-4.943 -6.043 -4.943 -6.231 QT
-4.943 -6.574 -5.279 -6.715 QT
-5.615 -6.856 -6.037 -6.856 QT
-6.209 -6.856 -6.209 -7.074 QT
-6.177 -7.215 -6.154 -7.285 QT
-6.13 -7.356 -6.076 -7.403 QT
-6.021 -7.449 -5.912 -7.449 QT
-2.677 -7.449 L
-2.505 -7.449 -2.505 -7.231 QT
-2.505 -7.184 -2.537 -7.082 QT
-2.568 -6.981 -2.607 -6.918 QT
-2.646 -6.856 -2.724 -6.856 QT
-3.927 -6.856 -4.568 -5.746 QT
-4.615 -5.699 -4.615 -5.699 QT
-10.38 4.347 L
-10.459 4.535 -10.662 4.535 QT
-10.802 4.535 L
-11.005 4.535 -11.005 4.347 QT
-11.646 -4.403 L
-16.646 4.347 L
-16.771 4.535 -16.943 4.535 QT
-17.084 4.535 L
-17.287 4.535 -17.287 4.347 QT
cp}def
f919897922
f
GR
GS
[0.75 0 0 0.75 484.6875 167.475] CT
1 0 0 RC
N
/f139714199{-2.635 6.041 M
-2.526 6.369 -2.205 6.541 QT
-1.885 6.713 -1.526 6.713 QT
-1.151 6.713 -0.799 6.455 QT
-0.448 6.197 -0.205 5.799 QT
0.037 5.401 0.131 5.026 QT
1.552 -0.662 L
1.568 -0.709 1.568 -0.732 QT
1.568 -0.756 1.568 -0.771 QT
1.568 -0.912 1.474 -0.928 QT
1.162 -1.021 0.193 -1.021 QT
0.068 -1.021 0.068 -1.178 QT
0.099 -1.271 0.115 -1.326 QT
0.131 -1.381 0.17 -1.412 QT
0.209 -1.443 0.271 -1.443 QT
3.537 -1.443 L
3.646 -1.443 3.646 -1.287 QT
3.599 -1.021 3.49 -1.021 QT
3.068 -1.021 2.857 -0.951 QT
2.646 -0.881 2.552 -0.599 QT
1.146 5.072 L
1.006 5.619 0.592 6.072 QT
0.177 6.526 -0.393 6.776 QT
-0.963 7.026 -1.526 7.026 QT
-2.166 7.026 -2.643 6.674 QT
-3.119 6.322 -3.119 5.713 QT
-3.119 5.322 -2.901 5.033 QT
-2.682 4.744 -2.291 4.744 QT
-2.057 4.744 -1.901 4.885 QT
-1.744 5.026 -1.744 5.244 QT
-1.744 5.572 -1.987 5.815 QT
-2.229 6.057 -2.557 6.057 QT
-2.619 6.057 -2.635 6.041 QT
cp}def
f139714199
f
GR
GS
[0.75 0 0 0.75 484.6875 167.475] CT
1 0 0 RC
N
/f820977332{5.166 3.994 M
5.073 3.994 5.01 3.924 QT
4.948 3.854 4.948 3.76 QT
4.948 3.666 5.01 3.596 QT
5.073 3.526 5.166 3.526 QT
12.057 3.526 L
12.151 3.526 12.213 3.596 QT
12.276 3.666 12.276 3.76 QT
12.276 3.854 12.213 3.924 QT
12.151 3.994 12.057 3.994 QT
5.166 3.994 L
cp}def
f820977332
f
GR
GS
[0.75 0 0 0.75 484.6875 167.475] CT
1 0 0 RC
N
/f2038195657{13.978 6.76 M
13.978 6.432 L
13.978 6.401 14.01 6.369 QT
15.869 4.307 L
16.291 3.854 16.556 3.541 QT
16.822 3.229 17.08 2.822 QT
17.338 2.416 17.486 2.002 QT
17.635 1.588 17.635 1.119 QT
17.635 0.619 17.455 0.174 QT
17.275 -0.271 16.916 -0.545 QT
16.556 -0.818 16.041 -0.818 QT
15.525 -0.818 15.103 -0.498 QT
14.681 -0.178 14.51 0.307 QT
14.556 0.307 14.65 0.307 QT
14.916 0.307 15.103 0.486 QT
15.291 0.666 15.291 0.947 QT
15.291 1.229 15.103 1.416 QT
14.916 1.604 14.65 1.604 QT
14.369 1.604 14.174 1.408 QT
13.978 1.213 13.978 0.947 QT
13.978 0.494 14.15 0.104 QT
14.322 -0.287 14.642 -0.599 QT
14.963 -0.912 15.361 -1.076 QT
15.76 -1.24 16.213 -1.24 QT
16.9 -1.24 17.494 -0.943 QT
18.088 -0.646 18.431 -0.123 QT
18.775 0.401 18.775 1.119 QT
18.775 1.635 18.549 2.104 QT
18.322 2.572 17.963 2.955 QT
17.603 3.338 17.049 3.83 QT
16.494 4.322 16.322 4.479 QT
14.963 5.791 L
16.103 5.791 L
16.963 5.791 17.533 5.776 QT
18.103 5.76 18.135 5.729 QT
18.275 5.572 18.431 4.619 QT
18.775 4.619 L
18.431 6.76 L
13.978 6.76 L
cp}def
f2038195657
f
GR
GS
[0.75 0 0 0.75 0 0] CT
1 LJ
2 LW
N
348.75 337.5 M
497.5 337.5 L
S
GR
GS
[0.75 0 0 0.75 0 0] CT
0 0 1 RC
1 LJ
2 LW
N
348.75 423.15 M
348.75 251.85 L
S
GR
GS
[0.75 0 0 0.75 317.34375 167.475] CT
1 0 0 RC
N
f919897922
f
GR
GS
[0.75 0 0 0.75 317.34375 167.475] CT
1 0 0 RC
N
f139714199
f
GR
GS
[0.75 0 0 0.75 317.34375 167.475] CT
1 0 0 RC
N
f820977332
f
GR
GS
[0.75 0 0 0.75 317.34375 167.475] CT
1 0 0 RC
N
/f1655665329{14.525 5.838 M
14.806 6.244 15.283 6.44 QT
15.76 6.635 16.306 6.635 QT
16.994 6.635 17.291 6.041 QT
17.588 5.447 17.588 4.697 QT
17.588 4.354 17.525 4.018 QT
17.463 3.682 17.314 3.385 QT
17.166 3.088 16.916 2.916 QT
16.666 2.744 16.291 2.744 QT
15.494 2.744 L
15.385 2.744 15.385 2.635 QT
15.385 2.526 L
15.385 2.432 15.494 2.432 QT
16.15 2.369 L
16.572 2.369 16.853 2.057 QT
17.135 1.744 17.267 1.291 QT
17.4 0.838 17.4 0.432 QT
17.4 -0.146 17.127 -0.514 QT
16.853 -0.881 16.306 -0.881 QT
15.853 -0.881 15.431 -0.709 QT
15.01 -0.537 14.775 -0.193 QT
14.791 -0.193 14.806 -0.201 QT
14.822 -0.209 14.853 -0.209 QT
15.119 -0.209 15.299 -0.021 QT
15.478 0.166 15.478 0.432 QT
15.478 0.697 15.299 0.885 QT
15.119 1.072 14.853 1.072 QT
14.588 1.072 14.4 0.885 QT
14.213 0.697 14.213 0.432 QT
14.213 -0.084 14.525 -0.459 QT
14.838 -0.834 15.322 -1.037 QT
15.806 -1.24 16.306 -1.24 QT
16.666 -1.24 17.072 -1.131 QT
17.478 -1.021 17.806 -0.818 QT
18.135 -0.615 18.338 -0.295 QT
18.541 0.026 18.541 0.432 QT
18.541 0.932 18.322 1.361 QT
18.103 1.791 17.705 2.096 QT
17.306 2.401 16.838 2.557 QT
17.369 2.651 17.838 2.947 QT
18.306 3.244 18.588 3.697 QT
18.869 4.151 18.869 4.682 QT
18.869 5.354 18.51 5.885 QT
18.15 6.416 17.556 6.721 QT
16.963 7.026 16.306 7.026 QT
15.744 7.026 15.174 6.807 QT
14.603 6.588 14.244 6.166 QT
13.885 5.744 13.885 5.135 QT
13.885 4.838 14.088 4.643 QT
14.291 4.447 14.588 4.447 QT
14.775 4.447 14.939 4.533 QT
15.103 4.619 15.197 4.783 QT
15.291 4.947 15.291 5.135 QT
15.291 5.432 15.08 5.635 QT
14.869 5.838 14.588 5.838 QT
14.525 5.838 L
cp}def
f1655665329
f
GR
GS
[0.75 0 0 0.75 0 0] CT
1 LJ
2 LW
N
274.375 337.5 M
348.75 337.5 L
S
GR
GS
[0.75 0 0 0.75 0 0] CT
0 0 1 RC
1 LJ
2 LW
N
274.375 423.15 M
274.375 251.85 L
S
GR
GS
[0.75 0 0 0.75 233.67188 167.475] CT
1 0 0 RC
N
f919897922
f
GR
GS
[0.75 0 0 0.75 233.67188 167.475] CT
1 0 0 RC
N
f139714199
f
GR
GS
[0.75 0 0 0.75 233.67188 167.475] CT
1 0 0 RC
N
f820977332
f
GR
GS
[0.75 0 0 0.75 233.67188 167.475] CT
1 0 0 RC
N
/f370788630{13.713 4.776 M
13.713 4.354 L
17.431 -1.178 L
17.463 -1.24 17.556 -1.24 QT
17.728 -1.24 L
17.869 -1.24 17.869 -1.099 QT
17.869 4.354 L
19.041 4.354 L
19.041 4.776 L
17.869 4.776 L
17.869 5.963 L
17.869 6.197 18.221 6.268 QT
18.572 6.338 19.025 6.338 QT
19.025 6.76 L
15.728 6.76 L
15.728 6.338 L
16.181 6.338 16.533 6.268 QT
16.885 6.197 16.885 5.963 QT
16.885 4.776 L
13.713 4.776 L
cp
14.119 4.354 M
16.963 4.354 L
16.963 0.104 L
14.119 4.354 L
cp}def
f370788630
f
GR
GS
[0.75 0 0 0.75 0 0] CT
1 LJ
2 LW
N
237.188 337.5 M
274.375 337.5 L
S
GR
GS
[0.75 0 0 0.75 0 0] CT
0 0 1 RC
1 LJ
2 LW
N
237.188 423.15 M
237.188 251.85 L
S
GR
GS
[0.75 0 0 0.75 191.83594 167.475] CT
1 0 0 RC
N
f919897922
f
GR
GS
[0.75 0 0 0.75 191.83594 167.475] CT
1 0 0 RC
N
f139714199
f
GR
GS
[0.75 0 0 0.75 191.83594 167.475] CT
1 0 0 RC
N
f820977332
f
GR
GS
[0.75 0 0 0.75 191.83594 167.475] CT
1 0 0 RC
N
/f1247005485{14.431 5.401 M
14.556 5.744 14.806 6.033 QT
15.056 6.322 15.408 6.479 QT
15.76 6.635 16.135 6.635 QT
16.994 6.635 17.322 5.963 QT
17.65 5.291 17.65 4.338 QT
17.65 3.916 17.642 3.635 QT
17.635 3.354 17.556 3.088 QT
17.447 2.666 17.174 2.346 QT
16.9 2.026 16.494 2.026 QT
16.088 2.026 15.799 2.151 QT
15.51 2.276 15.33 2.44 QT
15.15 2.604 15.01 2.783 QT
14.869 2.963 14.822 2.979 QT
14.697 2.979 L
14.666 2.979 14.619 2.94 QT
14.572 2.901 14.572 2.869 QT
14.572 -1.146 L
14.572 -1.162 14.611 -1.201 QT
14.65 -1.24 14.697 -1.24 QT
14.728 -1.24 L
15.541 -0.849 16.447 -0.849 QT
17.338 -0.849 18.166 -1.24 QT
18.197 -1.24 L
18.244 -1.24 18.275 -1.209 QT
18.306 -1.178 18.306 -1.146 QT
18.306 -1.021 L
18.306 -0.974 18.291 -0.974 QT
17.869 -0.428 17.252 -0.123 QT
16.635 0.182 15.978 0.182 QT
15.494 0.182 14.994 0.057 QT
14.994 2.322 L
15.385 1.994 15.697 1.854 QT
16.01 1.713 16.51 1.713 QT
17.166 1.713 17.689 2.096 QT
18.213 2.479 18.494 3.096 QT
18.775 3.713 18.775 4.338 QT
18.775 5.072 18.424 5.682 QT
18.072 6.291 17.463 6.658 QT
16.853 7.026 16.135 7.026 QT
15.541 7.026 15.049 6.721 QT
14.556 6.416 14.267 5.901 QT
13.978 5.385 13.978 4.807 QT
13.978 4.526 14.158 4.361 QT
14.338 4.197 14.603 4.197 QT
14.869 4.197 15.041 4.369 QT
15.213 4.541 15.213 4.807 QT
15.213 5.057 15.041 5.236 QT
14.869 5.416 14.603 5.416 QT
14.556 5.416 14.502 5.408 QT
14.447 5.401 14.431 5.401 QT
cp}def
f1247005485
f
GR
GS
[0.75 0 0 0.75 0 0] CT
1 LJ
2 LW
N
200 337.5 M
237.188 337.5 L
S
GR
GS
[0.75 0 0 0.75 0 0] CT
0 0 1 RC
1 LJ
2 LW
N
200 423.15 M
200 251.85 L
S
GR
GS
[0.75 0 0 0.75 163.94531 167.475] CT
1 0 0 RC
N
/f792608193{-13.438 4.347 M
-14.813 -6.481 L
-14.923 -6.856 -16.079 -6.856 QT
-16.251 -6.856 -16.251 -7.074 QT
-16.22 -7.262 -16.165 -7.356 QT
-16.11 -7.449 -15.97 -7.449 QT
-11.813 -7.449 L
-11.72 -7.449 -11.68 -7.387 QT
-11.641 -7.324 -11.641 -7.231 QT
-11.704 -6.856 -11.86 -6.856 QT
-13.188 -6.856 -13.282 -6.403 QT
-12.157 2.488 L
-6.923 -5.871 L
-6.766 -6.153 -6.766 -6.309 QT
-6.766 -6.621 -7.04 -6.739 QT
-7.313 -6.856 -7.673 -6.856 QT
-7.845 -6.856 -7.845 -7.074 QT
-7.813 -7.215 -7.782 -7.285 QT
-7.751 -7.356 -7.704 -7.403 QT
-7.657 -7.449 -7.548 -7.449 QT
-4.266 -7.449 L
-4.11 -7.449 -4.11 -7.231 QT
-4.188 -6.856 -4.345 -6.856 QT
-5.61 -6.856 -6.345 -5.731 QT
-6.376 -5.699 -6.391 -5.699 QT
-12.657 4.347 L
-12.782 4.535 -12.985 4.535 QT
-13.235 4.535 L
-13.423 4.535 -13.438 4.347 QT
cp}def
f792608193
f
GR
GS
[0.75 0 0 0.75 163.94531 167.475] CT
1 0 0 RC
N
/f-2019398909{-5.765 6.041 M
-5.655 6.369 -5.335 6.541 QT
-5.015 6.713 -4.655 6.713 QT
-4.28 6.713 -3.929 6.455 QT
-3.577 6.197 -3.335 5.799 QT
-3.093 5.401 -2.999 5.026 QT
-1.577 -0.662 L
-1.562 -0.709 -1.562 -0.732 QT
-1.562 -0.756 -1.562 -0.771 QT
-1.562 -0.912 -1.655 -0.928 QT
-1.968 -1.021 -2.937 -1.021 QT
-3.062 -1.021 -3.062 -1.178 QT
-3.03 -1.271 -3.015 -1.326 QT
-2.999 -1.381 -2.96 -1.412 QT
-2.921 -1.443 -2.858 -1.443 QT
0.407 -1.443 L
0.517 -1.443 0.517 -1.287 QT
0.47 -1.021 0.36 -1.021 QT
-0.062 -1.021 -0.272 -0.951 QT
-0.483 -0.881 -0.577 -0.599 QT
-1.983 5.072 L
-2.124 5.619 -2.538 6.072 QT
-2.952 6.526 -3.522 6.776 QT
-4.093 7.026 -4.655 7.026 QT
-5.296 7.026 -5.772 6.674 QT
-6.249 6.322 -6.249 5.713 QT
-6.249 5.322 -6.03 5.033 QT
-5.812 4.744 -5.421 4.744 QT
-5.187 4.744 -5.03 4.885 QT
-4.874 5.026 -4.874 5.244 QT
-4.874 5.572 -5.116 5.815 QT
-5.358 6.057 -5.687 6.057 QT
-5.749 6.057 -5.765 6.041 QT
cp}def
f-2019398909
f
GR
GS
[0.75 0 0 0.75 163.94531 167.475] CT
1 0 0 RC
N
/f78324513{2.037 3.994 M
1.943 3.994 1.88 3.924 QT
1.818 3.854 1.818 3.76 QT
1.818 3.666 1.88 3.596 QT
1.943 3.526 2.037 3.526 QT
8.927 3.526 L
9.021 3.526 9.084 3.596 QT
9.146 3.666 9.146 3.76 QT
9.146 3.854 9.084 3.924 QT
9.021 3.994 8.927 3.994 QT
2.037 3.994 L
cp}def
f78324513
f
GR
GS
[0.75 0 0 0.75 163.94531 167.475] CT
1 0 0 RC
N
/f1913666641{11.302 5.401 M
11.427 5.744 11.677 6.033 QT
11.927 6.322 12.278 6.479 QT
12.63 6.635 13.005 6.635 QT
13.864 6.635 14.192 5.963 QT
14.521 5.291 14.521 4.338 QT
14.521 3.916 14.513 3.635 QT
14.505 3.354 14.427 3.088 QT
14.317 2.666 14.044 2.346 QT
13.771 2.026 13.364 2.026 QT
12.958 2.026 12.669 2.151 QT
12.38 2.276 12.2 2.44 QT
12.021 2.604 11.88 2.783 QT
11.739 2.963 11.692 2.979 QT
11.567 2.979 L
11.536 2.979 11.489 2.94 QT
11.442 2.901 11.442 2.869 QT
11.442 -1.146 L
11.442 -1.162 11.482 -1.201 QT
11.521 -1.24 11.567 -1.24 QT
11.599 -1.24 L
12.411 -0.849 13.317 -0.849 QT
14.208 -0.849 15.036 -1.24 QT
15.067 -1.24 L
15.114 -1.24 15.146 -1.209 QT
15.177 -1.178 15.177 -1.146 QT
15.177 -1.021 L
15.177 -0.974 15.161 -0.974 QT
14.739 -0.428 14.122 -0.123 QT
13.505 0.182 12.849 0.182 QT
12.364 0.182 11.864 0.057 QT
11.864 2.322 L
12.255 1.994 12.567 1.854 QT
12.88 1.713 13.38 1.713 QT
14.036 1.713 14.56 2.096 QT
15.083 2.479 15.364 3.096 QT
15.646 3.713 15.646 4.338 QT
15.646 5.072 15.294 5.682 QT
14.942 6.291 14.333 6.658 QT
13.724 7.026 13.005 7.026 QT
12.411 7.026 11.919 6.721 QT
11.427 6.416 11.138 5.901 QT
10.849 5.385 10.849 4.807 QT
10.849 4.526 11.028 4.361 QT
11.208 4.197 11.474 4.197 QT
11.739 4.197 11.911 4.369 QT
12.083 4.541 12.083 4.807 QT
12.083 5.057 11.911 5.236 QT
11.739 5.416 11.474 5.416 QT
11.427 5.416 11.372 5.408 QT
11.317 5.401 11.302 5.401 QT
cp}def
f1913666641
f
GR
GS
[0.75 0 0 0.75 0 0] CT
0 0 1 RC
1 LJ
2 LW
N
1390 423.15 M
1390 251.85 L
S
GR
GS
[0.75 0 0 0.75 1042.5 253.125] CT
0 0 1 RC
10.0 ML
2.667 LW
N
4 0 M
4 -2.209 2.209 -4 0 -4 C
-2.209 -4 -4 -2.209 -4 0 C
-4 2.209 -2.209 4 0 4 C
2.209 4 4 2.209 4 0 C
S
GR
GS
[0.75 0 0 0.75 596.25 253.125] CT
0 0 1 RC
10.0 ML
2.667 LW
N
4 0 M
4 -2.209 2.209 -4 0 -4 C
-2.209 -4 -4 -2.209 -4 0 C
-4 2.209 -2.209 4 0 4 C
2.209 4 4 2.209 4 0 C
S
GR
GS
[0.75 0 0 0.75 373.125 253.125] CT
0 0 1 RC
10.0 ML
2.667 LW
N
4 0 M
4 -2.209 2.209 -4 0 -4 C
-2.209 -4 -4 -2.209 -4 0 C
-4 2.209 -2.209 4 0 4 C
2.209 4 4 2.209 4 0 C
S
GR
GS
[0.75 0 0 0.75 261.5625 253.125] CT
0 0 1 RC
10.0 ML
2.667 LW
N
4 0 M
4 -2.209 2.209 -4 0 -4 C
-2.209 -4 -4 -2.209 -4 0 C
-4 2.209 -2.209 4 0 4 C
2.209 4 4 2.209 4 0 C
S
GR
GS
[0.75 0 0 0.75 205.78125 253.125] CT
0 0 1 RC
10.0 ML
2.667 LW
N
4 0 M
4 -2.209 2.209 -4 0 -4 C
-2.209 -4 -4 -2.209 -4 0 C
-4 2.209 -2.209 4 0 4 C
2.209 4 4 2.209 4 0 C
S
GR
GS
[0.75 0 0 0.75 177.89063 253.125] CT
0 0 1 RC
10.0 ML
2.667 LW
N
4 0 M
4 -2.209 2.209 -4 0 -4 C
-2.209 -4 -4 -2.209 -4 0 C
-4 2.209 -2.209 4 0 4 C
2.209 4 4 2.209 4 0 C
S
GR
GS
[0.75 0 0 0.75 150 253.125] CT
0 0 1 RC
10.0 ML
2.667 LW
N
4 0 M
4 -2.209 2.209 -4 0 -4 C
-2.209 -4 -4 -2.209 -4 0 C
-4 2.209 -2.209 4 0 4 C
2.209 4 4 2.209 4 0 C
S
GR
%%Trailer
%%Pages: 1
%%EOF
