%!PS-Adobe-3.0 EPSF-3.0
%%Creator: (MATLAB, The Mathworks, Inc. Version 9.3.0.713579 \(R2017b\). Operating System: Windows 10)
%%Title: C:/Users/simon/Documents/Unief/M2/Wavelets/Project/report/plots/freqDiv12.eps
%%CreationDate: 2017-11-24T22:12:27
%%Pages: (atend)
%%BoundingBox: 0 0 1152 527
%%LanguageLevel: 3
%%EndComments
%%BeginProlog
%%BeginResource: procset (Apache XML Graphics Std ProcSet) 1.2 0
%%Version: 1.2 0
%%Copyright: (Copyright 2001-2003,2010 The Apache Software Foundation. License terms: http://www.apache.org/licenses/LICENSE-2.0)
/bd{bind def}bind def
/ld{load def}bd
/GR/grestore ld
/GS/gsave ld
/RM/rmoveto ld
/C/curveto ld
/t/show ld
/L/lineto ld
/ML/setmiterlimit ld
/CT/concat ld
/f/fill ld
/N/newpath ld
/S/stroke ld
/CC/setcmykcolor ld
/A/ashow ld
/cp/closepath ld
/RC/setrgbcolor ld
/LJ/setlinejoin ld
/GC/setgray ld
/LW/setlinewidth ld
/M/moveto ld
/re {4 2 roll M
1 index 0 rlineto
0 exch rlineto
neg 0 rlineto
cp } bd
/_ctm matrix def
/_tm matrix def
/BT { _ctm currentmatrix pop matrix _tm copy pop 0 0 moveto } bd
/ET { _ctm setmatrix } bd
/iTm { _ctm setmatrix _tm concat } bd
/Tm { _tm astore pop iTm 0 0 moveto } bd
/ux 0.0 def
/uy 0.0 def
/F {
  /Tp exch def
  /Tf exch def
  Tf findfont Tp scalefont setfont
  /cf Tf def  /cs Tp def
} bd
/ULS {currentpoint /uy exch def /ux exch def} bd
/ULE {
  /Tcx currentpoint pop def
  gsave
  newpath
  cf findfont cs scalefont dup
  /FontMatrix get 0 get /Ts exch def /FontInfo get dup
  /UnderlinePosition get Ts mul /To exch def
  /UnderlineThickness get Ts mul /Tt exch def
  ux uy To add moveto  Tcx uy To add lineto
  Tt setlinewidth stroke
  grestore
} bd
/OLE {
  /Tcx currentpoint pop def
  gsave
  newpath
  cf findfont cs scalefont dup
  /FontMatrix get 0 get /Ts exch def /FontInfo get dup
  /UnderlinePosition get Ts mul /To exch def
  /UnderlineThickness get Ts mul /Tt exch def
  ux uy To add cs add moveto Tcx uy To add cs add lineto
  Tt setlinewidth stroke
  grestore
} bd
/SOE {
  /Tcx currentpoint pop def
  gsave
  newpath
  cf findfont cs scalefont dup
  /FontMatrix get 0 get /Ts exch def /FontInfo get dup
  /UnderlinePosition get Ts mul /To exch def
  /UnderlineThickness get Ts mul /Tt exch def
  ux uy To add cs 10 mul 26 idiv add moveto Tcx uy To add cs 10 mul 26 idiv add lineto
  Tt setlinewidth stroke
  grestore
} bd
/QT {
/Y22 exch store
/X22 exch store
/Y21 exch store
/X21 exch store
currentpoint
/Y21 load 2 mul add 3 div exch
/X21 load 2 mul add 3 div exch
/X21 load 2 mul /X22 load add 3 div
/Y21 load 2 mul /Y22 load add 3 div
/X22 load /Y22 load curveto
} bd
/SSPD {
dup length /d exch dict def
{
/v exch def
/k exch def
currentpagedevice k known {
/cpdv currentpagedevice k get def
v cpdv ne {
/upd false def
/nullv v type /nulltype eq def
/nullcpdv cpdv type /nulltype eq def
nullv nullcpdv or
{
/upd true def
} {
/sametype v type cpdv type eq def
sametype {
v type /arraytype eq {
/vlen v length def
/cpdvlen cpdv length def
vlen cpdvlen eq {
0 1 vlen 1 sub {
/i exch def
/obj v i get def
/cpdobj cpdv i get def
obj cpdobj ne {
/upd true def
exit
} if
} for
} {
/upd true def
} ifelse
} {
v type /dicttype eq {
v {
/dv exch def
/dk exch def
/cpddv cpdv dk get def
dv cpddv ne {
/upd true def
exit
} if
} forall
} {
/upd true def
} ifelse
} ifelse
} if
} ifelse
upd true eq {
d k v put
} if
} if
} if
} forall
d length 0 gt {
d setpagedevice
} if
} bd
/RE { % /NewFontName [NewEncodingArray] /FontName RE -
  findfont dup length dict begin
  {
    1 index /FID ne
    {def} {pop pop} ifelse
  } forall
  /Encoding exch def
  /FontName 1 index def
  currentdict definefont pop
  end
} bind def
%%EndResource
%%BeginResource: procset (Apache XML Graphics EPS ProcSet) 1.0 0
%%Version: 1.0 0
%%Copyright: (Copyright 2002-2003 The Apache Software Foundation. License terms: http://www.apache.org/licenses/LICENSE-2.0)
/BeginEPSF { %def
/b4_Inc_state save def         % Save state for cleanup
/dict_count countdictstack def % Count objects on dict stack
/op_count count 1 sub def      % Count objects on operand stack
userdict begin                 % Push userdict on dict stack
/showpage { } def              % Redefine showpage, { } = null proc
0 setgray 0 setlinecap         % Prepare graphics state
1 setlinewidth 0 setlinejoin
10 setmiterlimit [ ] 0 setdash newpath
/languagelevel where           % If level not equal to 1 then
{pop languagelevel             % set strokeadjust and
1 ne                           % overprint to their defaults.
{false setstrokeadjust false setoverprint
} if
} if
} bd
/EndEPSF { %def
count op_count sub {pop} repeat            % Clean up stacks
countdictstack dict_count sub {end} repeat
b4_Inc_state restore
} bd
%%EndResource
%FOPBeginFontDict
%%IncludeResource: font Courier-Oblique
%%IncludeResource: font Courier-BoldOblique
%%IncludeResource: font Courier-Bold
%%IncludeResource: font ZapfDingbats
%%IncludeResource: font Symbol
%%IncludeResource: font Helvetica
%%IncludeResource: font Helvetica-Oblique
%%IncludeResource: font Helvetica-Bold
%%IncludeResource: font Helvetica-BoldOblique
%%IncludeResource: font Times-Roman
%%IncludeResource: font Times-Italic
%%IncludeResource: font Times-Bold
%%IncludeResource: font Times-BoldItalic
%%IncludeResource: font Courier
%FOPEndFontDict
%%BeginResource: encoding WinAnsiEncoding
/WinAnsiEncoding [
/.notdef /.notdef /.notdef /.notdef /.notdef
/.notdef /.notdef /.notdef /.notdef /.notdef
/.notdef /.notdef /.notdef /.notdef /.notdef
/.notdef /.notdef /.notdef /.notdef /.notdef
/.notdef /.notdef /.notdef /.notdef /.notdef
/.notdef /.notdef /.notdef /.notdef /.notdef
/.notdef /.notdef /space /exclam /quotedbl
/numbersign /dollar /percent /ampersand /quotesingle
/parenleft /parenright /asterisk /plus /comma
/hyphen /period /slash /zero /one
/two /three /four /five /six
/seven /eight /nine /colon /semicolon
/less /equal /greater /question /at
/A /B /C /D /E
/F /G /H /I /J
/K /L /M /N /O
/P /Q /R /S /T
/U /V /W /X /Y
/Z /bracketleft /backslash /bracketright /asciicircum
/underscore /quoteleft /a /b /c
/d /e /f /g /h
/i /j /k /l /m
/n /o /p /q /r
/s /t /u /v /w
/x /y /z /braceleft /bar
/braceright /asciitilde /bullet /Euro /bullet
/quotesinglbase /florin /quotedblbase /ellipsis /dagger
/daggerdbl /circumflex /perthousand /Scaron /guilsinglleft
/OE /bullet /Zcaron /bullet /bullet
/quoteleft /quoteright /quotedblleft /quotedblright /bullet
/endash /emdash /asciitilde /trademark /scaron
/guilsinglright /oe /bullet /zcaron /Ydieresis
/space /exclamdown /cent /sterling /currency
/yen /brokenbar /section /dieresis /copyright
/ordfeminine /guillemotleft /logicalnot /sfthyphen /registered
/macron /degree /plusminus /twosuperior /threesuperior
/acute /mu /paragraph /middot /cedilla
/onesuperior /ordmasculine /guillemotright /onequarter /onehalf
/threequarters /questiondown /Agrave /Aacute /Acircumflex
/Atilde /Adieresis /Aring /AE /Ccedilla
/Egrave /Eacute /Ecircumflex /Edieresis /Igrave
/Iacute /Icircumflex /Idieresis /Eth /Ntilde
/Ograve /Oacute /Ocircumflex /Otilde /Odieresis
/multiply /Oslash /Ugrave /Uacute /Ucircumflex
/Udieresis /Yacute /Thorn /germandbls /agrave
/aacute /acircumflex /atilde /adieresis /aring
/ae /ccedilla /egrave /eacute /ecircumflex
/edieresis /igrave /iacute /icircumflex /idieresis
/eth /ntilde /ograve /oacute /ocircumflex
/otilde /odieresis /divide /oslash /ugrave
/uacute /ucircumflex /udieresis /yacute /thorn
/ydieresis
] def
%%EndResource
%FOPBeginFontReencode
/Courier-Oblique findfont
dup length dict begin
  {1 index /FID ne {def} {pop pop} ifelse} forall
  /Encoding WinAnsiEncoding def
  currentdict
end
/Courier-Oblique exch definefont pop
/Courier-BoldOblique findfont
dup length dict begin
  {1 index /FID ne {def} {pop pop} ifelse} forall
  /Encoding WinAnsiEncoding def
  currentdict
end
/Courier-BoldOblique exch definefont pop
/Courier-Bold findfont
dup length dict begin
  {1 index /FID ne {def} {pop pop} ifelse} forall
  /Encoding WinAnsiEncoding def
  currentdict
end
/Courier-Bold exch definefont pop
/Helvetica findfont
dup length dict begin
  {1 index /FID ne {def} {pop pop} ifelse} forall
  /Encoding WinAnsiEncoding def
  currentdict
end
/Helvetica exch definefont pop
/Helvetica-Oblique findfont
dup length dict begin
  {1 index /FID ne {def} {pop pop} ifelse} forall
  /Encoding WinAnsiEncoding def
  currentdict
end
/Helvetica-Oblique exch definefont pop
/Helvetica-Bold findfont
dup length dict begin
  {1 index /FID ne {def} {pop pop} ifelse} forall
  /Encoding WinAnsiEncoding def
  currentdict
end
/Helvetica-Bold exch definefont pop
/Helvetica-BoldOblique findfont
dup length dict begin
  {1 index /FID ne {def} {pop pop} ifelse} forall
  /Encoding WinAnsiEncoding def
  currentdict
end
/Helvetica-BoldOblique exch definefont pop
/Times-Roman findfont
dup length dict begin
  {1 index /FID ne {def} {pop pop} ifelse} forall
  /Encoding WinAnsiEncoding def
  currentdict
end
/Times-Roman exch definefont pop
/Times-Italic findfont
dup length dict begin
  {1 index /FID ne {def} {pop pop} ifelse} forall
  /Encoding WinAnsiEncoding def
  currentdict
end
/Times-Italic exch definefont pop
/Times-Bold findfont
dup length dict begin
  {1 index /FID ne {def} {pop pop} ifelse} forall
  /Encoding WinAnsiEncoding def
  currentdict
end
/Times-Bold exch definefont pop
/Times-BoldItalic findfont
dup length dict begin
  {1 index /FID ne {def} {pop pop} ifelse} forall
  /Encoding WinAnsiEncoding def
  currentdict
end
/Times-BoldItalic exch definefont pop
/Courier findfont
dup length dict begin
  {1 index /FID ne {def} {pop pop} ifelse} forall
  /Encoding WinAnsiEncoding def
  currentdict
end
/Courier exch definefont pop
%FOPEndFontReencode
%%EndProlog
%%Page: 1 1
%%PageBoundingBox: 0 0 1152 527
%%BeginPageSetup
[1 0 0 -1 0 527] CT
%%EndPageSetup
GS
[0.6 0 0 0.60068 0 -0.39996] CT
1 GC
N
0 0 1920 878 re
f
GR
GS
[0.6 0 0 0.60068 0 -0.39996] CT
1 GC
N
0 0 1920 878 re
f
GR
GS
[0.6 0 0 0.60068 0 -0.39996] CT
1 GC
N
250 782 M
1738 782 L
1738 66 L
250 66 L
cp
f
GR
GS
[0.6 0 0 0.60068 0 -0.39996] CT
0.873 GC
1 LJ
0.833 LW
N
250 782 M
250 66 L
S
GR
GS
[0.6 0 0 0.60068 0 -0.39996] CT
0.873 GC
1 LJ
0.833 LW
N
398.8 782 M
398.8 66 L
S
GR
GS
[0.6 0 0 0.60068 0 -0.39996] CT
0.873 GC
1 LJ
0.833 LW
N
547.6 782 M
547.6 66 L
S
GR
GS
[0.6 0 0 0.60068 0 -0.39996] CT
0.873 GC
1 LJ
0.833 LW
N
696.4 782 M
696.4 66 L
S
GR
GS
[0.6 0 0 0.60068 0 -0.39996] CT
0.873 GC
1 LJ
0.833 LW
N
845.2 782 M
845.2 66 L
S
GR
GS
[0.6 0 0 0.60068 0 -0.39996] CT
0.873 GC
1 LJ
0.833 LW
N
994 782 M
994 66 L
S
GR
GS
[0.6 0 0 0.60068 0 -0.39996] CT
0.873 GC
1 LJ
0.833 LW
N
1142.8 782 M
1142.8 66 L
S
GR
GS
[0.6 0 0 0.60068 0 -0.39996] CT
0.873 GC
1 LJ
0.833 LW
N
1291.6 782 M
1291.6 66 L
S
GR
GS
[0.6 0 0 0.60068 0 -0.39996] CT
0.873 GC
1 LJ
0.833 LW
N
1440.4 782 M
1440.4 66 L
S
GR
GS
[0.6 0 0 0.60068 0 -0.39996] CT
0.873 GC
1 LJ
0.833 LW
N
1589.2 782 M
1589.2 66 L
S
GR
GS
[0.6 0 0 0.60068 0 -0.39996] CT
0.873 GC
1 LJ
0.833 LW
N
1738 782 M
1738 66 L
S
GR
GS
[0.6 0 0 0.60068 0 -0.39996] CT
0.873 GC
1 LJ
0.833 LW
N
1738 782 M
250 782 L
S
GR
GS
[0.6 0 0 0.60068 0 -0.39996] CT
0.873 GC
1 LJ
0.833 LW
N
1738 710.4 M
250 710.4 L
S
GR
GS
[0.6 0 0 0.60068 0 -0.39996] CT
0.873 GC
1 LJ
0.833 LW
N
1738 638.8 M
250 638.8 L
S
GR
GS
[0.6 0 0 0.60068 0 -0.39996] CT
0.873 GC
1 LJ
0.833 LW
N
1738 567.2 M
250 567.2 L
S
GR
GS
[0.6 0 0 0.60068 0 -0.39996] CT
0.873 GC
1 LJ
0.833 LW
N
1738 495.6 M
250 495.6 L
S
GR
GS
[0.6 0 0 0.60068 0 -0.39996] CT
0.873 GC
1 LJ
0.833 LW
N
1738 424 M
250 424 L
S
GR
GS
[0.6 0 0 0.60068 0 -0.39996] CT
0.873 GC
1 LJ
0.833 LW
N
1738 352.4 M
250 352.4 L
S
GR
GS
[0.6 0 0 0.60068 0 -0.39996] CT
0.873 GC
1 LJ
0.833 LW
N
1738 280.8 M
250 280.8 L
S
GR
GS
[0.6 0 0 0.60068 0 -0.39996] CT
0.873 GC
1 LJ
0.833 LW
N
1738 209.2 M
250 209.2 L
S
GR
GS
[0.6 0 0 0.60068 0 -0.39996] CT
0.873 GC
1 LJ
0.833 LW
N
1738 137.6 M
250 137.6 L
S
GR
GS
[0.6 0 0 0.60068 0 -0.39996] CT
0.873 GC
1 LJ
0.833 LW
N
1738 66 M
250 66 L
S
GR
GS
[0.6 0 0 0.60068 0 -0.39996] CT
0.149 GC
2 setlinecap
1 LJ
0.833 LW
N
250 782 M
1738 782 L
S
GR
GS
[0.6 0 0 0.60068 0 -0.39996] CT
0.149 GC
2 setlinecap
1 LJ
0.833 LW
N
250 782 M
250 767.12 L
S
GR
GS
[0.6 0 0 0.60068 0 -0.39996] CT
0.149 GC
2 setlinecap
1 LJ
0.833 LW
N
398.8 782 M
398.8 767.12 L
S
GR
GS
[0.6 0 0 0.60068 0 -0.39996] CT
0.149 GC
2 setlinecap
1 LJ
0.833 LW
N
547.6 782 M
547.6 767.12 L
S
GR
GS
[0.6 0 0 0.60068 0 -0.39996] CT
0.149 GC
2 setlinecap
1 LJ
0.833 LW
N
696.4 782 M
696.4 767.12 L
S
GR
GS
[0.6 0 0 0.60068 0 -0.39996] CT
0.149 GC
2 setlinecap
1 LJ
0.833 LW
N
845.2 782 M
845.2 767.12 L
S
GR
GS
[0.6 0 0 0.60068 0 -0.39996] CT
0.149 GC
2 setlinecap
1 LJ
0.833 LW
N
994 782 M
994 767.12 L
S
GR
GS
[0.6 0 0 0.60068 0 -0.39996] CT
0.149 GC
2 setlinecap
1 LJ
0.833 LW
N
1142.8 782 M
1142.8 767.12 L
S
GR
GS
[0.6 0 0 0.60068 0 -0.39996] CT
0.149 GC
2 setlinecap
1 LJ
0.833 LW
N
1291.6 782 M
1291.6 767.12 L
S
GR
GS
[0.6 0 0 0.60068 0 -0.39996] CT
0.149 GC
2 setlinecap
1 LJ
0.833 LW
N
1440.4 782 M
1440.4 767.12 L
S
GR
GS
[0.6 0 0 0.60068 0 -0.39996] CT
0.149 GC
2 setlinecap
1 LJ
0.833 LW
N
1589.2 782 M
1589.2 767.12 L
S
GR
GS
[0.6 0 0 0.60068 0 -0.39996] CT
0.149 GC
2 setlinecap
1 LJ
0.833 LW
N
1738 782 M
1738 767.12 L
S
GR
GS
[0.6 0 0 0.60068 150 474.54033] CT
0.149 GC
/Helvetica 26.667 F
GS
[1 0 0 1 0 0] CT
-7.5 27 moveto 
1 -1 scale
(0) t 
GR
GR
GS
[0.6 0 0 0.60068 239.27999 474.54033] CT
0.149 GC
/Helvetica 26.667 F
GS
[1 0 0 1 0 0] CT
-15 27 moveto 
1 -1 scale
(50) t 
GR
GR
GS
[0.6 0 0 0.60068 328.55999 474.54033] CT
0.149 GC
/Helvetica 26.667 F
GS
[1 0 0 1 0 0] CT
-22.5 27 moveto 
1 -1 scale
(100) t 
GR
GR
GS
[0.6 0 0 0.60068 417.84001 474.54033] CT
0.149 GC
/Helvetica 26.667 F
GS
[1 0 0 1 0 0] CT
-22.5 27 moveto 
1 -1 scale
(150) t 
GR
GR
GS
[0.6 0 0 0.60068 507.12001 474.54033] CT
0.149 GC
/Helvetica 26.667 F
GS
[1 0 0 1 0 0] CT
-22.5 27 moveto 
1 -1 scale
(200) t 
GR
GR
GS
[0.6 0 0 0.60068 596.4 474.54033] CT
0.149 GC
/Helvetica 26.667 F
GS
[1 0 0 1 0 0] CT
-22.5 27 moveto 
1 -1 scale
(250) t 
GR
GR
GS
[0.6 0 0 0.60068 685.68003 474.54033] CT
0.149 GC
/Helvetica 26.667 F
GS
[1 0 0 1 0 0] CT
-22.5 27 moveto 
1 -1 scale
(300) t 
GR
GR
GS
[0.6 0 0 0.60068 774.95999 474.54033] CT
0.149 GC
/Helvetica 26.667 F
GS
[1 0 0 1 0 0] CT
-22.5 27 moveto 
1 -1 scale
(350) t 
GR
GR
GS
[0.6 0 0 0.60068 864.24001 474.54033] CT
0.149 GC
/Helvetica 26.667 F
GS
[1 0 0 1 0 0] CT
-22.5 27 moveto 
1 -1 scale
(400) t 
GR
GR
GS
[0.6 0 0 0.60068 953.51997 474.54033] CT
0.149 GC
/Helvetica 26.667 F
GS
[1 0 0 1 0 0] CT
-22.5 27 moveto 
1 -1 scale
(450) t 
GR
GR
GS
[0.6 0 0 0.60068 1042.8 474.54033] CT
0.149 GC
/Helvetica 26.667 F
GS
[1 0 0 1 0 0] CT
-22.5 27 moveto 
1 -1 scale
(500) t 
GR
GR
GS
[0.6 0 0 0.60068 596.40044 495.364] CT
0.149 GC
N
-36.502 29.421 M
-35.956 29.843 -35.19 29.843 QT
-34.159 29.843 -33.502 27.546 QT
-33.237 26.437 -32.034 20.265 QT
-30.706 13.156 L
-33.19 13.156 L
-33.487 13.156 -33.487 12.781 QT
-33.362 12.14 -33.112 12.14 QT
-30.518 12.14 L
-30.174 10.249 L
-30.018 9.374 -29.87 8.741 QT
-29.721 8.109 -29.565 7.577 QT
-29.409 7.046 -29.081 6.374 QT
-28.581 5.421 -27.737 4.804 QT
-26.893 4.187 -25.924 4.187 QT
-25.284 4.187 -24.682 4.421 QT
-24.081 4.656 -23.698 5.124 QT
-23.315 5.593 -23.315 6.234 QT
-23.315 6.968 -23.799 7.515 QT
-24.284 8.062 -24.987 8.062 QT
-25.456 8.062 -25.784 7.773 QT
-26.112 7.484 -26.112 7.015 QT
-26.112 6.374 -25.682 5.898 QT
-25.252 5.421 -24.612 5.359 QT
-25.159 4.937 -25.94 4.937 QT
-26.393 4.937 -26.776 5.351 QT
-27.159 5.765 -27.284 6.234 QT
-27.456 6.968 -28.081 10.218 QT
-28.44 12.14 L
-25.456 12.14 L
-25.174 12.14 -25.174 12.515 QT
-25.19 12.593 -25.229 12.765 QT
-25.268 12.937 -25.346 13.046 QT
-25.424 13.156 -25.534 13.156 QT
-28.643 13.156 L
-29.987 20.234 L
-30.237 21.781 -30.573 23.374 QT
-30.909 24.968 -31.51 26.648 QT
-32.112 28.327 -33.041 29.46 QT
-33.971 30.593 -35.252 30.593 QT
-36.221 30.593 -36.995 30.031 QT
-37.768 29.468 -37.768 28.546 QT
-37.768 27.812 -37.291 27.265 QT
-36.815 26.718 -36.096 26.718 QT
-35.612 26.718 -35.291 27.007 QT
-34.971 27.296 -34.971 27.765 QT
-34.971 28.39 -35.432 28.906 QT
-35.893 29.421 -36.502 29.421 QT
cp
f
GR
GS
[0.6 0 0 0.60068 596.40044 495.364] CT
0.149 GC
N
-8.597 31.89 M
-8.597 2.89 L
-4.628 2.89 L
-4.628 4.046 L
-7.425 4.046 L
-7.425 30.734 L
-4.628 30.734 L
-4.628 31.89 L
-8.597 31.89 L
cp
f
GR
GS
[0.6 0 0 0.60068 596.40044 495.364] CT
0.149 GC
N
-2.98 24.64 M
-2.98 23.624 L
0.005 23.624 0.005 22.702 QT
0.005 6.765 L
0.005 5.843 -2.98 5.843 QT
-2.98 4.827 L
5.708 4.827 L
5.708 5.843 L
2.708 5.843 2.708 6.765 QT
2.708 13.827 L
11.27 13.827 L
11.27 6.765 L
11.27 5.843 8.286 5.843 QT
8.286 4.827 L
16.942 4.827 L
16.942 5.843 L
13.973 5.843 13.973 6.765 QT
13.973 22.702 L
13.973 23.624 16.942 23.624 QT
16.942 24.64 L
8.286 24.64 L
8.286 23.624 L
11.27 23.624 11.27 22.702 QT
11.27 14.843 L
2.708 14.843 L
2.708 22.702 L
2.708 23.624 5.708 23.624 QT
5.708 24.64 L
-2.98 24.64 L
cp
f
GR
GS
[0.6 0 0 0.60068 596.40044 495.364] CT
0.149 GC
N
19.27 24.64 M
18.942 24.64 18.942 24.312 QT
18.942 24.093 L
18.942 23.968 19.02 23.89 QT
27.114 12.906 L
24.52 12.906 L
23.286 12.906 22.481 13.062 QT
21.677 13.218 21.161 13.648 QT
20.645 14.077 20.411 14.835 QT
20.177 15.593 20.177 16.921 QT
19.348 16.921 L
19.677 12.14 L
29.38 12.14 L
29.52 12.14 29.606 12.234 QT
29.692 12.327 29.692 12.468 QT
29.692 12.624 L
29.692 12.718 29.645 12.827 QT
21.536 23.812 L
24.302 23.812 L
25.567 23.812 26.411 23.656 QT
27.255 23.499 27.848 22.906 QT
28.395 22.343 28.598 21.413 QT
28.802 20.484 28.927 19.109 QT
29.755 19.109 L
29.255 24.64 L
19.27 24.64 L
cp
f
GR
GS
[0.6 0 0 0.60068 596.40044 495.364] CT
0.149 GC
N
31.807 31.89 M
31.807 30.734 L
34.62 30.734 L
34.62 4.046 L
31.807 4.046 L
31.807 2.89 L
35.776 2.89 L
35.776 31.89 L
31.807 31.89 L
cp
f
GR
GS
[0.6 0 0 0.60068 0 -0.39996] CT
0.149 GC
2 setlinecap
1 LJ
0.833 LW
N
250 782 M
250 66 L
S
GR
GS
[0.6 0 0 0.60068 0 -0.39996] CT
0.149 GC
2 setlinecap
1 LJ
0.833 LW
N
250 782 M
264.88 782 L
S
GR
GS
[0.6 0 0 0.60068 0 -0.39996] CT
0.149 GC
2 setlinecap
1 LJ
0.833 LW
N
250 710.4 M
264.88 710.4 L
S
GR
GS
[0.6 0 0 0.60068 0 -0.39996] CT
0.149 GC
2 setlinecap
1 LJ
0.833 LW
N
250 638.8 M
264.88 638.8 L
S
GR
GS
[0.6 0 0 0.60068 0 -0.39996] CT
0.149 GC
2 setlinecap
1 LJ
0.833 LW
N
250 567.2 M
264.88 567.2 L
S
GR
GS
[0.6 0 0 0.60068 0 -0.39996] CT
0.149 GC
2 setlinecap
1 LJ
0.833 LW
N
250 495.6 M
264.88 495.6 L
S
GR
GS
[0.6 0 0 0.60068 0 -0.39996] CT
0.149 GC
2 setlinecap
1 LJ
0.833 LW
N
250 424 M
264.88 424 L
S
GR
GS
[0.6 0 0 0.60068 0 -0.39996] CT
0.149 GC
2 setlinecap
1 LJ
0.833 LW
N
250 352.4 M
264.88 352.4 L
S
GR
GS
[0.6 0 0 0.60068 0 -0.39996] CT
0.149 GC
2 setlinecap
1 LJ
0.833 LW
N
250 280.8 M
264.88 280.8 L
S
GR
GS
[0.6 0 0 0.60068 0 -0.39996] CT
0.149 GC
2 setlinecap
1 LJ
0.833 LW
N
250 209.2 M
264.88 209.2 L
S
GR
GS
[0.6 0 0 0.60068 0 -0.39996] CT
0.149 GC
2 setlinecap
1 LJ
0.833 LW
N
250 137.6 M
264.88 137.6 L
S
GR
GS
[0.6 0 0 0.60068 0 -0.39996] CT
0.149 GC
2 setlinecap
1 LJ
0.833 LW
N
250 66 M
264.88 66 L
S
GR
GS
[0 -0.60068 0.6 0 144.8 254.28957] CT
0.149 GC
N
-126.221 -10.56 M
-126.221 -11.576 L
-123.236 -11.576 -123.236 -13.294 QT
-123.236 -29.185 L
-124.174 -29.357 -126.221 -29.357 QT
-126.221 -30.373 L
-120.674 -30.373 L
-120.533 -30.373 -120.471 -30.263 QT
-110.205 -15.154 L
-110.205 -27.638 L
-110.205 -29.357 -113.19 -29.357 QT
-113.19 -30.373 L
-106.299 -30.373 L
-106.299 -29.357 L
-109.268 -29.357 -109.268 -27.638 QT
-109.268 -10.81 L
-109.268 -10.732 -109.385 -10.646 QT
-109.502 -10.56 -109.565 -10.56 QT
-109.924 -10.56 L
-110.065 -10.56 -110.111 -10.669 QT
-122.299 -28.607 L
-122.299 -13.294 L
-122.299 -11.576 -119.315 -11.576 QT
-119.315 -10.56 L
-126.221 -10.56 L
cp
f
GR
GS
[0 -0.60068 0.6 0 144.8 254.28957] CT
0.149 GC
N
-97.861 -10.232 M
-99.596 -10.232 -101.088 -11.115 QT
-102.58 -11.998 -103.44 -13.49 QT
-104.299 -14.982 -104.299 -16.732 QT
-104.299 -18.06 -103.83 -19.294 QT
-103.361 -20.529 -102.471 -21.498 QT
-101.58 -22.466 -100.408 -23.013 QT
-99.236 -23.56 -97.861 -23.56 QT
-96.08 -23.56 -94.611 -22.615 QT
-93.143 -21.669 -92.291 -20.091 QT
-91.44 -18.513 -91.44 -16.732 QT
-91.44 -14.998 -92.307 -13.498 QT
-93.174 -11.998 -94.65 -11.115 QT
-96.127 -10.232 -97.861 -10.232 QT
cp
-97.861 -11.091 M
-95.533 -11.091 -94.76 -12.771 QT
-93.986 -14.451 -93.986 -17.06 QT
-93.986 -18.513 -94.143 -19.474 QT
-94.299 -20.435 -94.815 -21.216 QT
-95.143 -21.685 -95.643 -22.052 QT
-96.143 -22.419 -96.705 -22.607 QT
-97.268 -22.794 -97.861 -22.794 QT
-98.768 -22.794 -99.58 -22.38 QT
-100.393 -21.966 -100.94 -21.216 QT
-101.471 -20.388 -101.619 -19.404 QT
-101.768 -18.419 -101.768 -17.06 QT
-101.768 -15.435 -101.486 -14.138 QT
-101.205 -12.841 -100.346 -11.966 QT
-99.486 -11.091 -97.861 -11.091 QT
cp
f
GR
GS
[0 -0.60068 0.6 0 144.8 254.28957] CT
0.149 GC
N
-87.492 -14.044 M
-87.492 -22.044 L
-89.898 -22.044 L
-89.898 -22.794 L
-87.992 -22.794 -87.101 -24.568 QT
-86.21 -26.341 -86.21 -28.404 QT
-85.382 -28.404 L
-85.382 -23.06 L
-81.288 -23.06 L
-81.288 -22.044 L
-85.382 -22.044 L
-85.382 -14.107 L
-85.382 -12.904 -84.976 -11.998 QT
-84.57 -11.091 -83.523 -11.091 QT
-82.523 -11.091 -82.085 -12.044 QT
-81.648 -12.998 -81.648 -14.107 QT
-81.648 -15.81 L
-80.82 -15.81 L
-80.82 -14.044 L
-80.82 -13.138 -81.148 -12.255 QT
-81.476 -11.373 -82.132 -10.802 QT
-82.788 -10.232 -83.726 -10.232 QT
-85.46 -10.232 -86.476 -11.271 QT
-87.492 -12.31 -87.492 -14.044 QT
cp
f
GR
GS
[0 -0.60068 0.6 0 144.8 254.28957] CT
0.149 GC
N
-78.178 -10.56 M
-78.178 -11.576 L
-77.178 -11.576 -76.545 -11.732 QT
-75.912 -11.888 -75.912 -12.498 QT
-75.912 -27.716 L
-75.912 -28.498 -76.147 -28.849 QT
-76.381 -29.201 -76.819 -29.279 QT
-77.256 -29.357 -78.178 -29.357 QT
-78.178 -30.373 L
-73.865 -30.685 L
-73.865 -20.716 L
-73.256 -21.919 -72.17 -22.646 QT
-71.084 -23.373 -69.756 -23.373 QT
-67.756 -23.373 -66.74 -22.412 QT
-65.725 -21.451 -65.725 -19.466 QT
-65.725 -12.498 L
-65.725 -11.888 -65.092 -11.732 QT
-64.459 -11.576 -63.459 -11.576 QT
-63.459 -10.56 L
-70.1 -10.56 L
-70.1 -11.576 L
-69.115 -11.576 -68.475 -11.732 QT
-67.834 -11.888 -67.834 -12.498 QT
-67.834 -19.388 L
-67.834 -20.794 -68.248 -21.709 QT
-68.662 -22.623 -69.928 -22.623 QT
-71.615 -22.623 -72.701 -21.279 QT
-73.787 -19.935 -73.787 -18.216 QT
-73.787 -12.498 L
-73.787 -11.888 -73.147 -11.732 QT
-72.506 -11.576 -71.537 -11.576 QT
-71.537 -10.56 L
-78.178 -10.56 L
cp
f
GR
GS
[0 -0.60068 0.6 0 144.8 254.28957] CT
0.149 GC
N
-61.85 -10.56 M
-61.85 -11.576 L
-60.85 -11.576 -60.217 -11.732 QT
-59.585 -11.888 -59.585 -12.498 QT
-59.585 -20.419 L
-59.585 -21.529 -60.014 -21.787 QT
-60.444 -22.044 -61.725 -22.044 QT
-61.725 -23.06 L
-57.538 -23.373 L
-57.538 -12.498 L
-57.538 -11.888 -56.991 -11.732 QT
-56.444 -11.576 -55.522 -11.576 QT
-55.522 -10.56 L
-61.85 -10.56 L
cp
-60.616 -28.357 M
-60.616 -28.998 -60.132 -29.482 QT
-59.647 -29.966 -59.038 -29.966 QT
-58.616 -29.966 -58.233 -29.748 QT
-57.85 -29.529 -57.639 -29.146 QT
-57.428 -28.763 -57.428 -28.357 QT
-57.428 -27.732 -57.913 -27.255 QT
-58.397 -26.779 -59.038 -26.779 QT
-59.647 -26.779 -60.132 -27.255 QT
-60.616 -27.732 -60.616 -28.357 QT
cp
f
GR
GS
[0 -0.60068 0.6 0 144.8 254.28957] CT
0.149 GC
N
-53.733 -10.56 M
-53.733 -11.576 L
-52.733 -11.576 -52.101 -11.732 QT
-51.468 -11.888 -51.468 -12.498 QT
-51.468 -20.419 L
-51.468 -21.201 -51.702 -21.544 QT
-51.936 -21.888 -52.374 -21.966 QT
-52.811 -22.044 -53.733 -22.044 QT
-53.733 -23.06 L
-49.53 -23.373 L
-49.53 -20.544 L
-48.936 -21.794 -47.796 -22.584 QT
-46.655 -23.373 -45.311 -23.373 QT
-43.311 -23.373 -42.296 -22.412 QT
-41.28 -21.451 -41.28 -19.466 QT
-41.28 -12.498 L
-41.28 -11.888 -40.647 -11.732 QT
-40.015 -11.576 -39.015 -11.576 QT
-39.015 -10.56 L
-45.655 -10.56 L
-45.655 -11.576 L
-44.671 -11.576 -44.03 -11.732 QT
-43.39 -11.888 -43.39 -12.498 QT
-43.39 -19.388 L
-43.39 -20.794 -43.804 -21.709 QT
-44.218 -22.623 -45.483 -22.623 QT
-47.171 -22.623 -48.257 -21.279 QT
-49.343 -19.935 -49.343 -18.216 QT
-49.343 -12.498 L
-49.343 -11.888 -48.702 -11.732 QT
-48.061 -11.576 -47.093 -11.576 QT
-47.093 -10.56 L
-53.733 -10.56 L
cp
f
GR
GS
[0 -0.60068 0.6 0 144.8 254.28957] CT
0.149 GC
N
-37.484 -8.294 M
-37.484 -9.326 -36.734 -10.099 QT
-35.984 -10.873 -34.953 -11.201 QT
-35.531 -11.638 -35.835 -12.302 QT
-36.14 -12.966 -36.14 -13.716 QT
-36.14 -15.076 -35.281 -16.123 QT
-36.609 -17.435 -36.609 -19.107 QT
-36.609 -20.013 -36.218 -20.81 QT
-35.828 -21.607 -35.132 -22.185 QT
-34.437 -22.763 -33.593 -23.068 QT
-32.75 -23.373 -31.859 -23.373 QT
-30.125 -23.373 -28.75 -22.373 QT
-28.156 -23.013 -27.343 -23.357 QT
-26.531 -23.701 -25.656 -23.701 QT
-25.031 -23.701 -24.632 -23.255 QT
-24.234 -22.81 -24.234 -22.185 QT
-24.234 -21.826 -24.507 -21.56 QT
-24.781 -21.294 -25.125 -21.294 QT
-25.5 -21.294 -25.765 -21.56 QT
-26.031 -21.826 -26.031 -22.185 QT
-26.031 -22.716 -25.687 -22.935 QT
-27.187 -22.935 -28.25 -21.904 QT
-27.734 -21.373 -27.414 -20.615 QT
-27.093 -19.857 -27.093 -19.107 QT
-27.093 -17.888 -27.773 -16.904 QT
-28.453 -15.919 -29.562 -15.373 QT
-30.671 -14.826 -31.859 -14.826 QT
-33.437 -14.826 -34.75 -15.685 QT
-35.171 -15.123 -35.171 -14.419 QT
-35.171 -13.654 -34.664 -13.076 QT
-34.156 -12.498 -33.39 -12.498 QT
-31.015 -12.498 L
-29.296 -12.498 -27.906 -12.185 QT
-26.515 -11.873 -25.57 -10.943 QT
-24.625 -10.013 -24.625 -8.294 QT
-24.625 -7.013 -25.703 -6.177 QT
-26.781 -5.341 -28.273 -4.966 QT
-29.765 -4.591 -31.046 -4.591 QT
-32.328 -4.591 -33.835 -4.966 QT
-35.343 -5.341 -36.414 -6.177 QT
-37.484 -7.013 -37.484 -8.294 QT
cp
-35.859 -8.294 M
-35.859 -7.31 -35.07 -6.654 QT
-34.281 -5.998 -33.156 -5.677 QT
-32.031 -5.357 -31.046 -5.357 QT
-30.062 -5.357 -28.945 -5.677 QT
-27.828 -5.998 -27.046 -6.654 QT
-26.265 -7.31 -26.265 -8.294 QT
-26.265 -9.81 -27.648 -10.255 QT
-29.031 -10.701 -31.015 -10.701 QT
-33.39 -10.701 L
-34.062 -10.701 -34.625 -10.38 QT
-35.187 -10.06 -35.523 -9.49 QT
-35.859 -8.919 -35.859 -8.294 QT
cp
-31.859 -15.607 M
-29.39 -15.607 -29.39 -19.107 QT
-29.39 -20.623 -29.914 -21.607 QT
-30.437 -22.591 -31.859 -22.591 QT
-33.265 -22.591 -33.789 -21.607 QT
-34.312 -20.623 -34.312 -19.107 QT
-34.312 -18.154 -34.117 -17.373 QT
-33.921 -16.591 -33.382 -16.099 QT
-32.843 -15.607 -31.859 -15.607 QT
cp
f
GR
GS
[0 -0.60068 0.6 0 144.8 254.28957] CT
0.149 GC
N
-12.993 -10.56 M
-12.993 -11.576 L
-11.993 -11.576 -11.36 -11.732 QT
-10.727 -11.888 -10.727 -12.498 QT
-10.727 -20.419 L
-10.727 -21.201 -10.961 -21.544 QT
-11.196 -21.888 -11.633 -21.966 QT
-12.071 -22.044 -12.993 -22.044 QT
-12.993 -23.06 L
-8.789 -23.373 L
-8.789 -20.544 L
-8.196 -21.794 -7.055 -22.584 QT
-5.914 -23.373 -4.571 -23.373 QT
-1.243 -23.373 -0.649 -20.654 QT
-0.071 -21.873 1.047 -22.623 QT
2.164 -23.373 3.492 -23.373 QT
4.804 -23.373 5.711 -22.951 QT
6.617 -22.529 7.07 -21.654 QT
7.523 -20.779 7.523 -19.466 QT
7.523 -12.498 L
7.523 -11.888 8.164 -11.732 QT
8.804 -11.576 9.789 -11.576 QT
9.789 -10.56 L
3.148 -10.56 L
3.148 -11.576 L
4.132 -11.576 4.773 -11.732 QT
5.414 -11.888 5.414 -12.498 QT
5.414 -19.388 L
5.414 -20.841 5 -21.732 QT
4.586 -22.623 3.304 -22.623 QT
1.632 -22.623 0.547 -21.279 QT
-0.539 -19.935 -0.539 -18.216 QT
-0.539 -12.498 L
-0.539 -11.888 0.093 -11.732 QT
0.726 -11.576 1.726 -11.576 QT
1.726 -10.56 L
-4.914 -10.56 L
-4.914 -11.576 L
-3.93 -11.576 -3.289 -11.732 QT
-2.649 -11.888 -2.649 -12.498 QT
-2.649 -19.388 L
-2.649 -20.794 -3.063 -21.709 QT
-3.477 -22.623 -4.743 -22.623 QT
-6.43 -22.623 -7.516 -21.279 QT
-8.602 -19.935 -8.602 -18.216 QT
-8.602 -12.498 L
-8.602 -11.888 -7.961 -11.732 QT
-7.321 -11.576 -6.352 -11.576 QT
-6.352 -10.56 L
-12.993 -10.56 L
cp
f
GR
GS
[0 -0.60068 0.6 0 144.8 254.28957] CT
0.149 GC
N
17.811 -10.232 M
16.046 -10.232 14.569 -11.162 QT
13.093 -12.091 12.249 -13.638 QT
11.405 -15.185 11.405 -16.919 QT
11.405 -18.623 12.171 -20.146 QT
12.936 -21.669 14.319 -22.615 QT
15.702 -23.56 17.405 -23.56 QT
18.733 -23.56 19.718 -23.115 QT
20.702 -22.669 21.343 -21.873 QT
21.983 -21.076 22.304 -20.005 QT
22.624 -18.935 22.624 -17.638 QT
22.624 -17.263 22.327 -17.263 QT
13.936 -17.263 L
13.936 -16.951 L
13.936 -14.544 14.905 -12.818 QT
15.874 -11.091 18.077 -11.091 QT
18.968 -11.091 19.725 -11.482 QT
20.483 -11.873 21.038 -12.584 QT
21.593 -13.294 21.796 -14.107 QT
21.827 -14.201 21.905 -14.279 QT
21.983 -14.357 22.077 -14.357 QT
22.327 -14.357 L
22.624 -14.357 22.624 -13.982 QT
22.218 -12.341 20.858 -11.287 QT
19.499 -10.232 17.811 -10.232 QT
cp
13.968 -17.982 M
20.577 -17.982 L
20.577 -19.076 20.272 -20.193 QT
19.968 -21.31 19.257 -22.052 QT
18.546 -22.794 17.405 -22.794 QT
15.764 -22.794 14.866 -21.255 QT
13.968 -19.716 13.968 -17.982 QT
cp
f
GR
GS
[0 -0.60068 0.6 0 144.8 254.28957] CT
0.149 GC
N
24.786 -13.404 M
24.786 -15.138 26.145 -16.216 QT
27.505 -17.294 29.411 -17.74 QT
31.317 -18.185 33.036 -18.185 QT
33.036 -19.388 L
33.036 -20.216 32.669 -21.005 QT
32.302 -21.794 31.606 -22.294 QT
30.911 -22.794 30.067 -22.794 QT
28.145 -22.794 27.145 -21.935 QT
27.692 -21.935 28.052 -21.513 QT
28.411 -21.091 28.411 -20.544 QT
28.411 -19.966 28.005 -19.552 QT
27.598 -19.138 27.036 -19.138 QT
26.442 -19.138 26.036 -19.552 QT
25.63 -19.966 25.63 -20.544 QT
25.63 -22.076 27.012 -22.818 QT
28.395 -23.56 30.067 -23.56 QT
31.255 -23.56 32.442 -23.06 QT
33.63 -22.56 34.387 -21.623 QT
35.145 -20.685 35.145 -19.435 QT
35.145 -12.904 L
35.145 -12.341 35.387 -11.865 QT
35.63 -11.388 36.13 -11.388 QT
36.614 -11.388 36.848 -11.873 QT
37.083 -12.357 37.083 -12.904 QT
37.083 -14.763 L
37.927 -14.763 L
37.927 -12.904 L
37.927 -12.263 37.591 -11.677 QT
37.255 -11.091 36.677 -10.74 QT
36.098 -10.388 35.442 -10.388 QT
34.583 -10.388 33.973 -11.044 QT
33.364 -11.701 33.286 -12.607 QT
32.755 -11.529 31.708 -10.88 QT
30.661 -10.232 29.458 -10.232 QT
28.364 -10.232 27.294 -10.56 QT
26.223 -10.888 25.505 -11.591 QT
24.786 -12.294 24.786 -13.404 QT
cp
27.145 -13.404 M
27.145 -12.388 27.895 -11.693 QT
28.645 -10.998 29.661 -10.998 QT
30.598 -10.998 31.364 -11.466 QT
32.13 -11.935 32.583 -12.74 QT
33.036 -13.544 33.036 -14.435 QT
33.036 -17.451 L
31.708 -17.451 30.333 -17.021 QT
28.958 -16.591 28.052 -15.669 QT
27.145 -14.748 27.145 -13.404 QT
cp
f
GR
GS
[0 -0.60068 0.6 0 144.8 254.28957] CT
0.149 GC
N
39.156 -10.56 M
39.156 -11.576 L
40.156 -11.576 40.789 -11.732 QT
41.421 -11.888 41.421 -12.498 QT
41.421 -20.419 L
41.421 -21.201 41.187 -21.544 QT
40.953 -21.888 40.515 -21.966 QT
40.078 -22.044 39.156 -22.044 QT
39.156 -23.06 L
43.359 -23.373 L
43.359 -20.544 L
43.953 -21.794 45.093 -22.584 QT
46.234 -23.373 47.578 -23.373 QT
49.578 -23.373 50.593 -22.412 QT
51.609 -21.451 51.609 -19.466 QT
51.609 -12.498 L
51.609 -11.888 52.242 -11.732 QT
52.874 -11.576 53.874 -11.576 QT
53.874 -10.56 L
47.234 -10.56 L
47.234 -11.576 L
48.218 -11.576 48.859 -11.732 QT
49.499 -11.888 49.499 -12.498 QT
49.499 -19.388 L
49.499 -20.794 49.085 -21.709 QT
48.671 -22.623 47.406 -22.623 QT
45.718 -22.623 44.632 -21.279 QT
43.546 -19.935 43.546 -18.216 QT
43.546 -12.498 L
43.546 -11.888 44.187 -11.732 QT
44.828 -11.576 45.796 -11.576 QT
45.796 -10.56 L
39.156 -10.56 L
cp
f
GR
GS
[0 -0.60068 0.6 0 144.8 254.28957] CT
0.149 GC
N
55.483 -10.56 M
55.483 -11.576 L
56.483 -11.576 57.116 -11.732 QT
57.749 -11.888 57.749 -12.498 QT
57.749 -20.419 L
57.749 -21.529 57.319 -21.787 QT
56.89 -22.044 55.608 -22.044 QT
55.608 -23.06 L
59.796 -23.373 L
59.796 -12.498 L
59.796 -11.888 60.343 -11.732 QT
60.89 -11.576 61.811 -11.576 QT
61.811 -10.56 L
55.483 -10.56 L
cp
56.718 -28.357 M
56.718 -28.998 57.202 -29.482 QT
57.686 -29.966 58.296 -29.966 QT
58.718 -29.966 59.101 -29.748 QT
59.483 -29.529 59.694 -29.146 QT
59.905 -28.763 59.905 -28.357 QT
59.905 -27.732 59.421 -27.255 QT
58.936 -26.779 58.296 -26.779 QT
57.686 -26.779 57.202 -27.255 QT
56.718 -27.732 56.718 -28.357 QT
cp
f
GR
GS
[0 -0.60068 0.6 0 144.8 254.28957] CT
0.149 GC
N
63.6 -10.56 M
63.6 -11.576 L
64.6 -11.576 65.233 -11.732 QT
65.866 -11.888 65.866 -12.498 QT
65.866 -20.419 L
65.866 -21.201 65.631 -21.544 QT
65.397 -21.888 64.96 -21.966 QT
64.522 -22.044 63.6 -22.044 QT
63.6 -23.06 L
67.803 -23.373 L
67.803 -20.544 L
68.397 -21.794 69.538 -22.584 QT
70.678 -23.373 72.022 -23.373 QT
74.022 -23.373 75.038 -22.412 QT
76.053 -21.451 76.053 -19.466 QT
76.053 -12.498 L
76.053 -11.888 76.686 -11.732 QT
77.319 -11.576 78.319 -11.576 QT
78.319 -10.56 L
71.678 -10.56 L
71.678 -11.576 L
72.663 -11.576 73.303 -11.732 QT
73.944 -11.888 73.944 -12.498 QT
73.944 -19.388 L
73.944 -20.794 73.53 -21.709 QT
73.116 -22.623 71.85 -22.623 QT
70.163 -22.623 69.077 -21.279 QT
67.991 -19.935 67.991 -18.216 QT
67.991 -12.498 L
67.991 -11.888 68.631 -11.732 QT
69.272 -11.576 70.241 -11.576 QT
70.241 -10.56 L
63.6 -10.56 L
cp
f
GR
GS
[0 -0.60068 0.6 0 144.8 254.28957] CT
0.149 GC
N
79.85 -8.294 M
79.85 -9.326 80.6 -10.099 QT
81.35 -10.873 82.381 -11.201 QT
81.803 -11.638 81.498 -12.302 QT
81.193 -12.966 81.193 -13.716 QT
81.193 -15.076 82.053 -16.123 QT
80.725 -17.435 80.725 -19.107 QT
80.725 -20.013 81.115 -20.81 QT
81.506 -21.607 82.201 -22.185 QT
82.897 -22.763 83.74 -23.068 QT
84.584 -23.373 85.475 -23.373 QT
87.209 -23.373 88.584 -22.373 QT
89.178 -23.013 89.99 -23.357 QT
90.803 -23.701 91.678 -23.701 QT
92.303 -23.701 92.701 -23.255 QT
93.1 -22.81 93.1 -22.185 QT
93.1 -21.826 92.826 -21.56 QT
92.553 -21.294 92.209 -21.294 QT
91.834 -21.294 91.568 -21.56 QT
91.303 -21.826 91.303 -22.185 QT
91.303 -22.716 91.647 -22.935 QT
90.147 -22.935 89.084 -21.904 QT
89.6 -21.373 89.92 -20.615 QT
90.24 -19.857 90.24 -19.107 QT
90.24 -17.888 89.561 -16.904 QT
88.881 -15.919 87.772 -15.373 QT
86.662 -14.826 85.475 -14.826 QT
83.897 -14.826 82.584 -15.685 QT
82.162 -15.123 82.162 -14.419 QT
82.162 -13.654 82.67 -13.076 QT
83.178 -12.498 83.943 -12.498 QT
86.318 -12.498 L
88.037 -12.498 89.428 -12.185 QT
90.818 -11.873 91.764 -10.943 QT
92.709 -10.013 92.709 -8.294 QT
92.709 -7.013 91.631 -6.177 QT
90.553 -5.341 89.061 -4.966 QT
87.568 -4.591 86.287 -4.591 QT
85.006 -4.591 83.498 -4.966 QT
81.99 -5.341 80.92 -6.177 QT
79.85 -7.013 79.85 -8.294 QT
cp
81.475 -8.294 M
81.475 -7.31 82.264 -6.654 QT
83.053 -5.998 84.178 -5.677 QT
85.303 -5.357 86.287 -5.357 QT
87.272 -5.357 88.389 -5.677 QT
89.506 -5.998 90.287 -6.654 QT
91.068 -7.31 91.068 -8.294 QT
91.068 -9.81 89.686 -10.255 QT
88.303 -10.701 86.318 -10.701 QT
83.943 -10.701 L
83.272 -10.701 82.709 -10.38 QT
82.147 -10.06 81.811 -9.49 QT
81.475 -8.919 81.475 -8.294 QT
cp
85.475 -15.607 M
87.943 -15.607 87.943 -19.107 QT
87.943 -20.623 87.42 -21.607 QT
86.897 -22.591 85.475 -22.591 QT
84.068 -22.591 83.545 -21.607 QT
83.022 -20.623 83.022 -19.107 QT
83.022 -18.154 83.217 -17.373 QT
83.412 -16.591 83.951 -16.099 QT
84.49 -15.607 85.475 -15.607 QT
cp
f
GR
GS
[0 -0.60068 0.6 0 144.8 254.28957] CT
0.149 GC
N
94.641 -10.56 M
94.641 -11.576 L
95.61 -11.576 96.251 -11.732 QT
96.891 -11.888 96.891 -12.498 QT
96.891 -22.044 L
94.673 -22.044 L
94.673 -23.06 L
96.891 -23.06 L
96.891 -26.529 L
96.891 -27.466 97.282 -28.279 QT
97.673 -29.091 98.329 -29.701 QT
98.985 -30.31 99.845 -30.662 QT
100.704 -31.013 101.626 -31.013 QT
102.595 -31.013 103.384 -30.427 QT
104.173 -29.841 104.173 -28.888 QT
104.173 -28.326 103.798 -27.951 QT
103.423 -27.576 102.86 -27.576 QT
102.313 -27.576 101.923 -27.951 QT
101.532 -28.326 101.532 -28.888 QT
101.532 -29.794 102.313 -30.107 QT
101.845 -30.263 101.485 -30.263 QT
100.626 -30.263 100.024 -29.662 QT
99.423 -29.06 99.126 -28.193 QT
98.829 -27.326 98.829 -26.482 QT
98.829 -23.06 L
102.173 -23.06 L
102.173 -22.044 L
98.923 -22.044 L
98.923 -12.498 L
98.923 -11.904 99.774 -11.74 QT
100.626 -11.576 101.735 -11.576 QT
101.735 -10.56 L
94.641 -10.56 L
cp
f
GR
GS
[0 -0.60068 0.6 0 144.8 254.28957] CT
0.149 GC
N
105.792 -14.013 M
105.792 -20.419 L
105.792 -21.201 105.558 -21.544 QT
105.323 -21.888 104.886 -21.966 QT
104.448 -22.044 103.526 -22.044 QT
103.526 -23.06 L
107.917 -23.373 L
107.917 -14.013 L
107.917 -12.888 108.081 -12.255 QT
108.245 -11.623 108.776 -11.31 QT
109.308 -10.998 110.464 -10.998 QT
112.026 -10.998 112.948 -12.302 QT
113.87 -13.607 113.87 -15.263 QT
113.87 -20.419 L
113.87 -21.201 113.628 -21.544 QT
113.386 -21.888 112.956 -21.966 QT
112.526 -22.044 111.604 -22.044 QT
111.604 -23.06 L
115.979 -23.373 L
115.979 -13.201 L
115.979 -12.435 116.214 -12.084 QT
116.448 -11.732 116.886 -11.654 QT
117.323 -11.576 118.245 -11.576 QT
118.245 -10.56 L
113.948 -10.232 L
113.948 -12.685 L
113.417 -11.591 112.456 -10.912 QT
111.495 -10.232 110.323 -10.232 QT
108.245 -10.232 107.018 -11.115 QT
105.792 -11.998 105.792 -14.013 QT
cp
f
GR
GS
[0 -0.60068 0.6 0 144.8 254.28957] CT
0.149 GC
N
119.854 -10.56 M
119.854 -11.576 L
120.854 -11.576 121.487 -11.732 QT
122.12 -11.888 122.12 -12.498 QT
122.12 -27.716 L
122.12 -28.498 121.885 -28.849 QT
121.651 -29.201 121.213 -29.279 QT
120.776 -29.357 119.854 -29.357 QT
119.854 -30.373 L
124.166 -30.685 L
124.166 -12.498 L
124.166 -11.888 124.799 -11.732 QT
125.432 -11.576 126.416 -11.576 QT
126.416 -10.56 L
119.854 -10.56 L
cp
f
GR
GS
[0.6 0 0 0.60068 596.40059 36.60214] CT
N
-212.024 -10.56 M
-212.024 -11.576 L
-209.04 -11.576 -209.04 -12.498 QT
-209.04 -28.435 L
-209.04 -29.357 -212.024 -29.357 QT
-212.024 -30.373 L
-201.337 -30.373 L
-199.352 -30.373 -197.712 -29.513 QT
-196.071 -28.654 -194.907 -27.224 QT
-193.743 -25.794 -193.118 -23.982 QT
-192.493 -22.169 -192.493 -20.279 QT
-192.493 -18.435 -193.126 -16.701 QT
-193.759 -14.966 -194.954 -13.568 QT
-196.149 -12.169 -197.79 -11.365 QT
-199.431 -10.56 -201.337 -10.56 QT
-212.024 -10.56 L
cp
-206.431 -12.498 M
-206.431 -11.873 -206.079 -11.724 QT
-205.727 -11.576 -204.962 -11.576 QT
-202.087 -11.576 L
-200.602 -11.576 -199.267 -12.224 QT
-197.931 -12.873 -197.056 -14.013 QT
-196.134 -15.232 -195.821 -16.74 QT
-195.509 -18.248 -195.509 -20.279 QT
-195.509 -22.388 -195.821 -23.974 QT
-196.134 -25.56 -197.056 -26.794 QT
-197.915 -28.029 -199.243 -28.693 QT
-200.571 -29.357 -202.087 -29.357 QT
-204.962 -29.357 L
-205.493 -29.357 -205.782 -29.31 QT
-206.071 -29.263 -206.251 -29.06 QT
-206.431 -28.857 -206.431 -28.435 QT
-206.431 -12.498 L
cp
f
GR
GS
[0.6 0 0 0.60068 596.40059 36.60214] CT
N
-189.695 -10.56 M
-189.695 -11.576 L
-188.695 -11.576 -188.062 -11.732 QT
-187.429 -11.888 -187.429 -12.498 QT
-187.429 -20.419 L
-187.429 -21.529 -187.859 -21.787 QT
-188.289 -22.044 -189.57 -22.044 QT
-189.57 -23.06 L
-185.383 -23.373 L
-185.383 -12.498 L
-185.383 -11.888 -184.836 -11.732 QT
-184.289 -11.576 -183.367 -11.576 QT
-183.367 -10.56 L
-189.695 -10.56 L
cp
-188.461 -28.357 M
-188.461 -28.998 -187.976 -29.482 QT
-187.492 -29.966 -186.883 -29.966 QT
-186.461 -29.966 -186.078 -29.748 QT
-185.695 -29.529 -185.484 -29.146 QT
-185.273 -28.763 -185.273 -28.357 QT
-185.273 -27.732 -185.758 -27.255 QT
-186.242 -26.779 -186.883 -26.779 QT
-187.492 -26.779 -187.976 -27.255 QT
-188.461 -27.732 -188.461 -28.357 QT
cp
f
GR
GS
[0.6 0 0 0.60068 596.40059 36.60214] CT
N
-175.359 -10.56 M
-179.594 -21.216 L
-179.859 -21.748 -180.422 -21.896 QT
-180.984 -22.044 -181.891 -22.044 QT
-181.891 -23.06 L
-175.797 -23.06 L
-175.797 -22.044 L
-177.422 -22.044 -177.422 -21.357 QT
-177.422 -21.232 -177.391 -21.185 QT
-174.141 -12.998 L
-171.203 -20.388 L
-171.125 -20.607 -171.125 -20.857 QT
-171.125 -21.404 -171.539 -21.724 QT
-171.953 -22.044 -172.531 -22.044 QT
-172.531 -23.06 L
-167.703 -23.06 L
-167.703 -22.044 L
-168.609 -22.044 -169.281 -21.63 QT
-169.953 -21.216 -170.312 -20.419 QT
-174.219 -10.56 L
-174.344 -10.232 -174.687 -10.232 QT
-174.906 -10.232 L
-175.266 -10.232 -175.359 -10.56 QT
cp
f
GR
GS
[0.6 0 0 0.60068 596.40059 36.60214] CT
N
-166.065 -10.56 M
-166.065 -11.576 L
-165.065 -11.576 -164.432 -11.732 QT
-163.8 -11.888 -163.8 -12.498 QT
-163.8 -20.419 L
-163.8 -21.529 -164.229 -21.787 QT
-164.659 -22.044 -165.94 -22.044 QT
-165.94 -23.06 L
-161.753 -23.373 L
-161.753 -12.498 L
-161.753 -11.888 -161.206 -11.732 QT
-160.659 -11.576 -159.737 -11.576 QT
-159.737 -10.56 L
-166.065 -10.56 L
cp
-164.831 -28.357 M
-164.831 -28.998 -164.347 -29.482 QT
-163.862 -29.966 -163.253 -29.966 QT
-162.831 -29.966 -162.448 -29.748 QT
-162.065 -29.529 -161.854 -29.146 QT
-161.643 -28.763 -161.643 -28.357 QT
-161.643 -27.732 -162.128 -27.255 QT
-162.612 -26.779 -163.253 -26.779 QT
-163.862 -26.779 -164.347 -27.255 QT
-164.831 -27.732 -164.831 -28.357 QT
cp
f
GR
GS
[0.6 0 0 0.60068 596.40059 36.60214] CT
N
-157.839 -10.482 M
-157.839 -15.201 L
-157.839 -15.435 -157.589 -15.435 QT
-157.23 -15.435 L
-157.073 -15.435 -157.011 -15.201 QT
-156.198 -10.998 -153.105 -10.998 QT
-151.73 -10.998 -150.8 -11.623 QT
-149.87 -12.248 -149.87 -13.544 QT
-149.87 -14.482 -150.597 -15.138 QT
-151.323 -15.794 -152.308 -16.044 QT
-154.245 -16.419 L
-155.23 -16.638 -156.026 -17.076 QT
-156.823 -17.513 -157.331 -18.24 QT
-157.839 -18.966 -157.839 -19.935 QT
-157.839 -21.216 -157.167 -22.029 QT
-156.495 -22.841 -155.425 -23.201 QT
-154.355 -23.56 -153.105 -23.56 QT
-151.62 -23.56 -150.511 -22.763 QT
-149.667 -23.482 L
-149.667 -23.56 -149.526 -23.56 QT
-149.323 -23.56 L
-149.23 -23.56 -149.159 -23.482 QT
-149.089 -23.404 -149.089 -23.326 QT
-149.089 -19.529 L
-149.089 -19.248 -149.323 -19.248 QT
-149.667 -19.248 L
-149.933 -19.248 -149.933 -19.529 QT
-149.933 -21.044 -150.776 -21.959 QT
-151.62 -22.873 -153.136 -22.873 QT
-154.433 -22.873 -155.386 -22.396 QT
-156.339 -21.919 -156.339 -20.748 QT
-156.339 -19.935 -155.651 -19.419 QT
-154.964 -18.904 -154.042 -18.669 QT
-152.089 -18.31 L
-151.089 -18.076 -150.23 -17.537 QT
-149.37 -16.998 -148.87 -16.177 QT
-148.37 -15.357 -148.37 -14.326 QT
-148.37 -13.279 -148.73 -12.505 QT
-149.089 -11.732 -149.737 -11.224 QT
-150.386 -10.716 -151.261 -10.474 QT
-152.136 -10.232 -153.105 -10.232 QT
-154.917 -10.232 -156.198 -11.451 QT
-157.261 -10.31 L
-157.261 -10.232 -157.417 -10.232 QT
-157.589 -10.232 L
-157.839 -10.232 -157.839 -10.482 QT
cp
f
GR
GS
[0.6 0 0 0.60068 596.40059 36.60214] CT
N
-146.347 -10.56 M
-146.347 -11.576 L
-145.347 -11.576 -144.714 -11.732 QT
-144.081 -11.888 -144.081 -12.498 QT
-144.081 -20.419 L
-144.081 -21.529 -144.511 -21.787 QT
-144.941 -22.044 -146.222 -22.044 QT
-146.222 -23.06 L
-142.034 -23.373 L
-142.034 -12.498 L
-142.034 -11.888 -141.487 -11.732 QT
-140.941 -11.576 -140.019 -11.576 QT
-140.019 -10.56 L
-146.347 -10.56 L
cp
-145.112 -28.357 M
-145.112 -28.998 -144.628 -29.482 QT
-144.144 -29.966 -143.534 -29.966 QT
-143.112 -29.966 -142.73 -29.748 QT
-142.347 -29.529 -142.136 -29.146 QT
-141.925 -28.763 -141.925 -28.357 QT
-141.925 -27.732 -142.409 -27.255 QT
-142.894 -26.779 -143.534 -26.779 QT
-144.144 -26.779 -144.628 -27.255 QT
-145.112 -27.732 -145.112 -28.357 QT
cp
f
GR
GS
[0.6 0 0 0.60068 596.40059 36.60214] CT
N
-131.839 -10.232 M
-133.574 -10.232 -135.066 -11.115 QT
-136.558 -11.998 -137.417 -13.49 QT
-138.277 -14.982 -138.277 -16.732 QT
-138.277 -18.06 -137.808 -19.294 QT
-137.339 -20.529 -136.449 -21.498 QT
-135.558 -22.466 -134.386 -23.013 QT
-133.214 -23.56 -131.839 -23.56 QT
-130.058 -23.56 -128.589 -22.615 QT
-127.12 -21.669 -126.269 -20.091 QT
-125.417 -18.513 -125.417 -16.732 QT
-125.417 -14.998 -126.285 -13.498 QT
-127.152 -11.998 -128.628 -11.115 QT
-130.105 -10.232 -131.839 -10.232 QT
cp
-131.839 -11.091 M
-129.511 -11.091 -128.738 -12.771 QT
-127.964 -14.451 -127.964 -17.06 QT
-127.964 -18.513 -128.12 -19.474 QT
-128.277 -20.435 -128.792 -21.216 QT
-129.12 -21.685 -129.62 -22.052 QT
-130.12 -22.419 -130.683 -22.607 QT
-131.245 -22.794 -131.839 -22.794 QT
-132.745 -22.794 -133.558 -22.38 QT
-134.37 -21.966 -134.917 -21.216 QT
-135.449 -20.388 -135.597 -19.404 QT
-135.745 -18.419 -135.745 -17.06 QT
-135.745 -15.435 -135.464 -14.138 QT
-135.183 -12.841 -134.324 -11.966 QT
-133.464 -11.091 -131.839 -11.091 QT
cp
f
GR
GS
[0.6 0 0 0.60068 596.40059 36.60214] CT
N
-123.563 -10.56 M
-123.563 -11.576 L
-122.563 -11.576 -121.93 -11.732 QT
-121.298 -11.888 -121.298 -12.498 QT
-121.298 -20.419 L
-121.298 -21.201 -121.532 -21.544 QT
-121.766 -21.888 -122.204 -21.966 QT
-122.641 -22.044 -123.563 -22.044 QT
-123.563 -23.06 L
-119.36 -23.373 L
-119.36 -20.544 L
-118.766 -21.794 -117.626 -22.584 QT
-116.485 -23.373 -115.141 -23.373 QT
-113.141 -23.373 -112.126 -22.412 QT
-111.11 -21.451 -111.11 -19.466 QT
-111.11 -12.498 L
-111.11 -11.888 -110.477 -11.732 QT
-109.844 -11.576 -108.844 -11.576 QT
-108.844 -10.56 L
-115.485 -10.56 L
-115.485 -11.576 L
-114.501 -11.576 -113.86 -11.732 QT
-113.219 -11.888 -113.219 -12.498 QT
-113.219 -19.388 L
-113.219 -20.794 -113.633 -21.709 QT
-114.048 -22.623 -115.313 -22.623 QT
-117.001 -22.623 -118.087 -21.279 QT
-119.173 -19.935 -119.173 -18.216 QT
-119.173 -12.498 L
-119.173 -11.888 -118.532 -11.732 QT
-117.891 -11.576 -116.923 -11.576 QT
-116.923 -10.56 L
-123.563 -10.56 L
cp
f
GR
GS
[0.6 0 0 0.60068 596.40059 36.60214] CT
N
-91.098 -10.232 M
-92.833 -10.232 -94.325 -11.115 QT
-95.817 -11.998 -96.677 -13.49 QT
-97.536 -14.982 -97.536 -16.732 QT
-97.536 -18.06 -97.067 -19.294 QT
-96.598 -20.529 -95.708 -21.498 QT
-94.817 -22.466 -93.645 -23.013 QT
-92.473 -23.56 -91.098 -23.56 QT
-89.317 -23.56 -87.848 -22.615 QT
-86.38 -21.669 -85.528 -20.091 QT
-84.677 -18.513 -84.677 -16.732 QT
-84.677 -14.998 -85.544 -13.498 QT
-86.411 -11.998 -87.887 -11.115 QT
-89.364 -10.232 -91.098 -10.232 QT
cp
-91.098 -11.091 M
-88.77 -11.091 -87.997 -12.771 QT
-87.223 -14.451 -87.223 -17.06 QT
-87.223 -18.513 -87.38 -19.474 QT
-87.536 -20.435 -88.052 -21.216 QT
-88.38 -21.685 -88.88 -22.052 QT
-89.38 -22.419 -89.942 -22.607 QT
-90.505 -22.794 -91.098 -22.794 QT
-92.005 -22.794 -92.817 -22.38 QT
-93.63 -21.966 -94.177 -21.216 QT
-94.708 -20.388 -94.856 -19.404 QT
-95.005 -18.419 -95.005 -17.06 QT
-95.005 -15.435 -94.723 -14.138 QT
-94.442 -12.841 -93.583 -11.966 QT
-92.723 -11.091 -91.098 -11.091 QT
cp
f
GR
GS
[0.6 0 0 0.60068 596.40059 36.60214] CT
N
-82.744 -10.56 M
-82.744 -11.576 L
-81.775 -11.576 -81.135 -11.732 QT
-80.494 -11.888 -80.494 -12.498 QT
-80.494 -22.044 L
-82.713 -22.044 L
-82.713 -23.06 L
-80.494 -23.06 L
-80.494 -26.529 L
-80.494 -27.466 -80.104 -28.279 QT
-79.713 -29.091 -79.057 -29.701 QT
-78.4 -30.31 -77.541 -30.662 QT
-76.682 -31.013 -75.76 -31.013 QT
-74.791 -31.013 -74.002 -30.427 QT
-73.213 -29.841 -73.213 -28.888 QT
-73.213 -28.326 -73.588 -27.951 QT
-73.963 -27.576 -74.525 -27.576 QT
-75.072 -27.576 -75.463 -27.951 QT
-75.854 -28.326 -75.854 -28.888 QT
-75.854 -29.794 -75.072 -30.107 QT
-75.541 -30.263 -75.9 -30.263 QT
-76.76 -30.263 -77.361 -29.662 QT
-77.963 -29.06 -78.26 -28.193 QT
-78.557 -27.326 -78.557 -26.482 QT
-78.557 -23.06 L
-75.213 -23.06 L
-75.213 -22.044 L
-78.463 -22.044 L
-78.463 -12.498 L
-78.463 -11.904 -77.611 -11.74 QT
-76.76 -11.576 -75.65 -11.576 QT
-75.65 -10.56 L
-82.744 -10.56 L
cp
f
GR
GS
[0.6 0 0 0.60068 596.40059 36.60214] CT
N
-61.988 -14.044 M
-61.988 -22.044 L
-64.394 -22.044 L
-64.394 -22.794 L
-62.488 -22.794 -61.597 -24.568 QT
-60.707 -26.341 -60.707 -28.404 QT
-59.878 -28.404 L
-59.878 -23.06 L
-55.785 -23.06 L
-55.785 -22.044 L
-59.878 -22.044 L
-59.878 -14.107 L
-59.878 -12.904 -59.472 -11.998 QT
-59.066 -11.091 -58.019 -11.091 QT
-57.019 -11.091 -56.582 -12.044 QT
-56.144 -12.998 -56.144 -14.107 QT
-56.144 -15.81 L
-55.316 -15.81 L
-55.316 -14.044 L
-55.316 -13.138 -55.644 -12.255 QT
-55.972 -11.373 -56.628 -10.802 QT
-57.285 -10.232 -58.222 -10.232 QT
-59.957 -10.232 -60.972 -11.271 QT
-61.988 -12.31 -61.988 -14.044 QT
cp
f
GR
GS
[0.6 0 0 0.60068 596.40059 36.60214] CT
N
-52.674 -10.56 M
-52.674 -11.576 L
-51.674 -11.576 -51.041 -11.732 QT
-50.408 -11.888 -50.408 -12.498 QT
-50.408 -27.716 L
-50.408 -28.498 -50.643 -28.849 QT
-50.877 -29.201 -51.315 -29.279 QT
-51.752 -29.357 -52.674 -29.357 QT
-52.674 -30.373 L
-48.362 -30.685 L
-48.362 -20.716 L
-47.752 -21.919 -46.666 -22.646 QT
-45.58 -23.373 -44.252 -23.373 QT
-42.252 -23.373 -41.237 -22.412 QT
-40.221 -21.451 -40.221 -19.466 QT
-40.221 -12.498 L
-40.221 -11.888 -39.588 -11.732 QT
-38.955 -11.576 -37.955 -11.576 QT
-37.955 -10.56 L
-44.596 -10.56 L
-44.596 -11.576 L
-43.612 -11.576 -42.971 -11.732 QT
-42.33 -11.888 -42.33 -12.498 QT
-42.33 -19.388 L
-42.33 -20.794 -42.744 -21.709 QT
-43.158 -22.623 -44.424 -22.623 QT
-46.112 -22.623 -47.198 -21.279 QT
-48.283 -19.935 -48.283 -18.216 QT
-48.283 -12.498 L
-48.283 -11.888 -47.643 -11.732 QT
-47.002 -11.576 -46.033 -11.576 QT
-46.033 -10.56 L
-52.674 -10.56 L
cp
f
GR
GS
[0.6 0 0 0.60068 596.40059 36.60214] CT
N
-30.018 -10.232 M
-31.784 -10.232 -33.261 -11.162 QT
-34.737 -12.091 -35.581 -13.638 QT
-36.425 -15.185 -36.425 -16.919 QT
-36.425 -18.623 -35.659 -20.146 QT
-34.893 -21.669 -33.511 -22.615 QT
-32.128 -23.56 -30.425 -23.56 QT
-29.096 -23.56 -28.112 -23.115 QT
-27.128 -22.669 -26.487 -21.873 QT
-25.846 -21.076 -25.526 -20.005 QT
-25.206 -18.935 -25.206 -17.638 QT
-25.206 -17.263 -25.503 -17.263 QT
-33.893 -17.263 L
-33.893 -16.951 L
-33.893 -14.544 -32.925 -12.818 QT
-31.956 -11.091 -29.753 -11.091 QT
-28.862 -11.091 -28.104 -11.482 QT
-27.346 -11.873 -26.792 -12.584 QT
-26.237 -13.294 -26.034 -14.107 QT
-26.003 -14.201 -25.925 -14.279 QT
-25.846 -14.357 -25.753 -14.357 QT
-25.503 -14.357 L
-25.206 -14.357 -25.206 -13.982 QT
-25.612 -12.341 -26.971 -11.287 QT
-28.331 -10.232 -30.018 -10.232 QT
cp
-33.862 -17.982 M
-27.253 -17.982 L
-27.253 -19.076 -27.557 -20.193 QT
-27.862 -21.31 -28.573 -22.052 QT
-29.284 -22.794 -30.425 -22.794 QT
-32.065 -22.794 -32.964 -21.255 QT
-33.862 -19.716 -33.862 -17.982 QT
cp
f
GR
GS
[0.6 0 0 0.60068 596.40059 36.60214] CT
N
-13.485 -10.56 M
-13.485 -11.576 L
-12.516 -11.576 -11.875 -11.732 QT
-11.235 -11.888 -11.235 -12.498 QT
-11.235 -22.044 L
-13.454 -22.044 L
-13.454 -23.06 L
-11.235 -23.06 L
-11.235 -26.529 L
-11.235 -27.466 -10.844 -28.279 QT
-10.454 -29.091 -9.797 -29.701 QT
-9.141 -30.31 -8.282 -30.662 QT
-7.422 -31.013 -6.5 -31.013 QT
-5.532 -31.013 -4.743 -30.427 QT
-3.954 -29.841 -3.954 -28.888 QT
-3.954 -28.326 -4.329 -27.951 QT
-4.704 -27.576 -5.266 -27.576 QT
-5.813 -27.576 -6.204 -27.951 QT
-6.594 -28.326 -6.594 -28.888 QT
-6.594 -29.794 -5.813 -30.107 QT
-6.282 -30.263 -6.641 -30.263 QT
-7.5 -30.263 -8.102 -29.662 QT
-8.704 -29.06 -9 -28.193 QT
-9.297 -27.326 -9.297 -26.482 QT
-9.297 -23.06 L
-5.954 -23.06 L
-5.954 -22.044 L
-9.204 -22.044 L
-9.204 -12.498 L
-9.204 -11.904 -8.352 -11.74 QT
-7.5 -11.576 -6.391 -11.576 QT
-6.391 -10.56 L
-13.485 -10.56 L
cp
f
GR
GS
[0.6 0 0 0.60068 596.40059 36.60214] CT
N
-4.709 -10.56 M
-4.709 -11.576 L
-3.725 -11.576 -3.084 -11.732 QT
-2.444 -11.888 -2.444 -12.498 QT
-2.444 -20.419 L
-2.444 -21.201 -2.678 -21.544 QT
-2.912 -21.888 -3.35 -21.966 QT
-3.787 -22.044 -4.709 -22.044 QT
-4.709 -23.06 L
-0.553 -23.373 L
-0.553 -20.544 L
-0.1 -21.81 0.767 -22.591 QT
1.634 -23.373 2.869 -23.373 QT
3.728 -23.373 4.408 -22.865 QT
5.088 -22.357 5.088 -21.513 QT
5.088 -20.998 4.713 -20.607 QT
4.338 -20.216 3.791 -20.216 QT
3.244 -20.216 2.861 -20.599 QT
2.478 -20.982 2.478 -21.513 QT
2.478 -22.294 3.041 -22.623 QT
2.869 -22.623 L
1.697 -22.623 0.955 -21.771 QT
0.213 -20.919 -0.1 -19.662 QT
-0.412 -18.404 -0.412 -17.263 QT
-0.412 -12.498 L
-0.412 -11.576 2.4 -11.576 QT
2.4 -10.56 L
-4.709 -10.56 L
cp
f
GR
GS
[0.6 0 0 0.60068 596.40059 36.60214] CT
N
13.248 -10.232 M
11.483 -10.232 10.006 -11.162 QT
8.53 -12.091 7.686 -13.638 QT
6.842 -15.185 6.842 -16.919 QT
6.842 -18.623 7.608 -20.146 QT
8.373 -21.669 9.756 -22.615 QT
11.139 -23.56 12.842 -23.56 QT
14.17 -23.56 15.155 -23.115 QT
16.139 -22.669 16.78 -21.873 QT
17.42 -21.076 17.741 -20.005 QT
18.061 -18.935 18.061 -17.638 QT
18.061 -17.263 17.764 -17.263 QT
9.373 -17.263 L
9.373 -16.951 L
9.373 -14.544 10.342 -12.818 QT
11.311 -11.091 13.514 -11.091 QT
14.405 -11.091 15.162 -11.482 QT
15.92 -11.873 16.475 -12.584 QT
17.03 -13.294 17.233 -14.107 QT
17.264 -14.201 17.342 -14.279 QT
17.42 -14.357 17.514 -14.357 QT
17.764 -14.357 L
18.061 -14.357 18.061 -13.982 QT
17.655 -12.341 16.295 -11.287 QT
14.936 -10.232 13.248 -10.232 QT
cp
9.405 -17.982 M
16.014 -17.982 L
16.014 -19.076 15.709 -20.193 QT
15.405 -21.31 14.694 -22.052 QT
13.983 -22.794 12.842 -22.794 QT
11.201 -22.794 10.303 -21.255 QT
9.405 -19.716 9.405 -17.982 QT
cp
f
GR
GS
[0.6 0 0 0.60068 596.40059 36.60214] CT
N
27.754 -4.935 M
27.754 -5.951 L
28.754 -5.951 29.387 -6.115 QT
30.02 -6.279 30.02 -6.873 QT
30.02 -12.248 L
29.348 -11.341 28.317 -10.787 QT
27.285 -10.232 26.145 -10.232 QT
24.848 -10.232 23.731 -10.771 QT
22.613 -11.31 21.785 -12.232 QT
20.957 -13.154 20.496 -14.365 QT
20.035 -15.576 20.035 -16.826 QT
20.035 -18.544 20.879 -20.068 QT
21.723 -21.591 23.207 -22.482 QT
24.692 -23.373 26.395 -23.373 QT
27.629 -23.373 28.676 -22.677 QT
29.723 -21.982 30.348 -20.826 QT
31.379 -23.373 L
32.145 -23.373 L
32.145 -6.873 L
32.145 -6.279 32.785 -6.115 QT
33.426 -5.951 34.395 -5.951 QT
34.395 -4.935 L
27.754 -4.935 L
cp
26.317 -10.998 M
27.598 -10.998 28.613 -11.857 QT
29.629 -12.716 30.113 -14.013 QT
30.113 -19.107 L
29.817 -20.498 28.879 -21.521 QT
27.942 -22.544 26.645 -22.544 QT
25.645 -22.544 24.871 -22.021 QT
24.098 -21.498 23.582 -20.615 QT
23.067 -19.732 22.809 -18.716 QT
22.551 -17.701 22.551 -16.794 QT
22.551 -15.623 22.965 -14.263 QT
23.379 -12.904 24.223 -11.951 QT
25.067 -10.998 26.317 -10.998 QT
cp
f
GR
GS
[0.6 0 0 0.60068 596.40059 36.60214] CT
N
37.673 -14.013 M
37.673 -20.419 L
37.673 -21.201 37.439 -21.544 QT
37.204 -21.888 36.767 -21.966 QT
36.329 -22.044 35.408 -22.044 QT
35.408 -23.06 L
39.798 -23.373 L
39.798 -14.013 L
39.798 -12.888 39.962 -12.255 QT
40.126 -11.623 40.658 -11.31 QT
41.189 -10.998 42.345 -10.998 QT
43.908 -10.998 44.829 -12.302 QT
45.751 -13.607 45.751 -15.263 QT
45.751 -20.419 L
45.751 -21.201 45.509 -21.544 QT
45.267 -21.888 44.837 -21.966 QT
44.408 -22.044 43.486 -22.044 QT
43.486 -23.06 L
47.861 -23.373 L
47.861 -13.201 L
47.861 -12.435 48.095 -12.084 QT
48.329 -11.732 48.767 -11.654 QT
49.204 -11.576 50.126 -11.576 QT
50.126 -10.56 L
45.829 -10.232 L
45.829 -12.685 L
45.298 -11.591 44.337 -10.912 QT
43.376 -10.232 42.204 -10.232 QT
40.126 -10.232 38.9 -11.115 QT
37.673 -11.998 37.673 -14.013 QT
cp
f
GR
GS
[0.6 0 0 0.60068 596.40059 36.60214] CT
N
58.063 -10.232 M
56.298 -10.232 54.821 -11.162 QT
53.344 -12.091 52.501 -13.638 QT
51.657 -15.185 51.657 -16.919 QT
51.657 -18.623 52.423 -20.146 QT
53.188 -21.669 54.571 -22.615 QT
55.954 -23.56 57.657 -23.56 QT
58.985 -23.56 59.969 -23.115 QT
60.954 -22.669 61.594 -21.873 QT
62.235 -21.076 62.555 -20.005 QT
62.876 -18.935 62.876 -17.638 QT
62.876 -17.263 62.579 -17.263 QT
54.188 -17.263 L
54.188 -16.951 L
54.188 -14.544 55.157 -12.818 QT
56.126 -11.091 58.329 -11.091 QT
59.219 -11.091 59.977 -11.482 QT
60.735 -11.873 61.29 -12.584 QT
61.844 -13.294 62.048 -14.107 QT
62.079 -14.201 62.157 -14.279 QT
62.235 -14.357 62.329 -14.357 QT
62.579 -14.357 L
62.876 -14.357 62.876 -13.982 QT
62.469 -12.341 61.11 -11.287 QT
59.751 -10.232 58.063 -10.232 QT
cp
54.219 -17.982 M
60.829 -17.982 L
60.829 -19.076 60.524 -20.193 QT
60.219 -21.31 59.509 -22.052 QT
58.798 -22.794 57.657 -22.794 QT
56.016 -22.794 55.118 -21.255 QT
54.219 -19.716 54.219 -17.982 QT
cp
f
GR
GS
[0.6 0 0 0.60068 596.40059 36.60214] CT
N
64.741 -10.56 M
64.741 -11.576 L
65.741 -11.576 66.374 -11.732 QT
67.007 -11.888 67.007 -12.498 QT
67.007 -20.419 L
67.007 -21.201 66.772 -21.544 QT
66.538 -21.888 66.1 -21.966 QT
65.663 -22.044 64.741 -22.044 QT
64.741 -23.06 L
68.944 -23.373 L
68.944 -20.544 L
69.538 -21.794 70.678 -22.584 QT
71.819 -23.373 73.163 -23.373 QT
75.163 -23.373 76.178 -22.412 QT
77.194 -21.451 77.194 -19.466 QT
77.194 -12.498 L
77.194 -11.888 77.827 -11.732 QT
78.46 -11.576 79.46 -11.576 QT
79.46 -10.56 L
72.819 -10.56 L
72.819 -11.576 L
73.803 -11.576 74.444 -11.732 QT
75.085 -11.888 75.085 -12.498 QT
75.085 -19.388 L
75.085 -20.794 74.671 -21.709 QT
74.257 -22.623 72.991 -22.623 QT
71.303 -22.623 70.217 -21.279 QT
69.132 -19.935 69.132 -18.216 QT
69.132 -12.498 L
69.132 -11.888 69.772 -11.732 QT
70.413 -11.576 71.382 -11.576 QT
71.382 -10.56 L
64.741 -10.56 L
cp
f
GR
GS
[0.6 0 0 0.60068 596.40059 36.60214] CT
N
87.397 -10.232 M
85.647 -10.232 84.217 -11.146 QT
82.787 -12.06 81.967 -13.584 QT
81.147 -15.107 81.147 -16.826 QT
81.147 -18.529 81.959 -20.099 QT
82.772 -21.669 84.209 -22.615 QT
85.647 -23.56 87.397 -23.56 QT
89.1 -23.56 90.49 -22.896 QT
91.881 -22.232 91.881 -20.716 QT
91.881 -20.154 91.483 -19.732 QT
91.084 -19.31 90.506 -19.31 QT
89.928 -19.31 89.522 -19.732 QT
89.115 -20.154 89.115 -20.716 QT
89.115 -21.216 89.443 -21.591 QT
89.772 -21.966 90.24 -22.076 QT
89.24 -22.716 87.428 -22.716 QT
86.037 -22.716 85.186 -21.794 QT
84.334 -20.873 83.998 -19.513 QT
83.662 -18.154 83.662 -16.826 QT
83.662 -15.419 84.076 -14.107 QT
84.49 -12.794 85.42 -11.943 QT
86.35 -11.091 87.756 -11.091 QT
89.131 -11.091 90.092 -11.927 QT
91.053 -12.763 91.412 -14.123 QT
91.412 -14.294 91.631 -14.294 QT
91.99 -14.294 L
92.068 -14.294 92.139 -14.216 QT
92.209 -14.138 92.209 -14.044 QT
92.209 -13.966 L
91.772 -12.248 90.467 -11.24 QT
89.162 -10.232 87.397 -10.232 QT
cp
f
GR
GS
[0.6 0 0 0.60068 596.40059 36.60214] CT
N
95.215 -5.794 M
95.762 -5.357 96.434 -5.357 QT
98.262 -5.357 99.418 -8.123 QT
100.402 -10.56 L
96.059 -21.216 L
95.793 -21.748 95.238 -21.896 QT
94.684 -22.044 93.762 -22.044 QT
93.762 -23.06 L
99.856 -23.06 L
99.856 -22.044 L
98.262 -22.044 98.262 -21.357 QT
98.262 -21.232 98.277 -21.185 QT
101.512 -13.248 L
104.418 -20.388 L
104.496 -20.607 104.496 -20.888 QT
104.496 -21.232 104.309 -21.498 QT
104.121 -21.763 103.816 -21.904 QT
103.512 -22.044 103.121 -22.044 QT
103.121 -23.06 L
107.949 -23.06 L
107.949 -22.044 L
107.043 -22.044 106.371 -21.63 QT
105.699 -21.216 105.34 -20.419 QT
100.324 -8.123 L
99.934 -7.185 99.402 -6.404 QT
98.871 -5.623 98.106 -5.115 QT
97.34 -4.607 96.434 -4.607 QT
95.371 -4.607 94.566 -5.31 QT
93.762 -6.013 93.762 -7.044 QT
93.762 -7.591 94.129 -7.959 QT
94.496 -8.326 95.043 -8.326 QT
95.402 -8.326 95.699 -8.162 QT
95.996 -7.998 96.152 -7.716 QT
96.309 -7.435 96.309 -7.044 QT
96.309 -6.576 96.004 -6.209 QT
95.699 -5.841 95.215 -5.794 QT
cp
f
GR
GS
[0.6 0 0 0.60068 596.40059 36.60214] CT
N
125.552 -10.232 M
123.834 -10.232 122.42 -11.162 QT
121.005 -12.091 120.224 -13.607 QT
119.443 -15.123 119.443 -16.826 QT
119.443 -18.576 120.295 -20.084 QT
121.146 -21.591 122.623 -22.482 QT
124.099 -23.373 125.865 -23.373 QT
126.927 -23.373 127.873 -22.927 QT
128.818 -22.482 129.521 -21.685 QT
129.521 -27.716 L
129.521 -28.498 129.287 -28.849 QT
129.052 -29.201 128.623 -29.279 QT
128.193 -29.357 127.271 -29.357 QT
127.271 -30.373 L
131.552 -30.685 L
131.552 -13.201 L
131.552 -12.435 131.787 -12.084 QT
132.021 -11.732 132.459 -11.654 QT
132.896 -11.576 133.802 -11.576 QT
133.802 -10.56 L
129.427 -10.232 L
129.427 -12.06 L
128.677 -11.201 127.646 -10.716 QT
126.615 -10.232 125.552 -10.232 QT
cp
122.599 -13.076 M
123.084 -12.138 123.912 -11.568 QT
124.74 -10.998 125.724 -10.998 QT
126.927 -10.998 127.935 -11.693 QT
128.943 -12.388 129.427 -13.498 QT
129.427 -20.451 L
129.099 -21.076 128.584 -21.584 QT
128.068 -22.091 127.42 -22.357 QT
126.771 -22.623 126.052 -22.623 QT
124.537 -22.623 123.615 -21.763 QT
122.693 -20.904 122.326 -19.576 QT
121.959 -18.248 121.959 -16.794 QT
121.959 -15.623 122.076 -14.763 QT
122.193 -13.904 122.599 -13.076 QT
cp
f
GR
GS
[0.6 0 0 0.60068 596.40059 36.60214] CT
N
142.021 -10.232 M
140.286 -10.232 138.794 -11.115 QT
137.302 -11.998 136.442 -13.49 QT
135.583 -14.982 135.583 -16.732 QT
135.583 -18.06 136.052 -19.294 QT
136.521 -20.529 137.411 -21.498 QT
138.302 -22.466 139.474 -23.013 QT
140.646 -23.56 142.021 -23.56 QT
143.802 -23.56 145.271 -22.615 QT
146.739 -21.669 147.591 -20.091 QT
148.442 -18.513 148.442 -16.732 QT
148.442 -14.998 147.575 -13.498 QT
146.708 -11.998 145.231 -11.115 QT
143.755 -10.232 142.021 -10.232 QT
cp
142.021 -11.091 M
144.349 -11.091 145.122 -12.771 QT
145.896 -14.451 145.896 -17.06 QT
145.896 -18.513 145.739 -19.474 QT
145.583 -20.435 145.067 -21.216 QT
144.739 -21.685 144.239 -22.052 QT
143.739 -22.419 143.177 -22.607 QT
142.614 -22.794 142.021 -22.794 QT
141.114 -22.794 140.302 -22.38 QT
139.489 -21.966 138.942 -21.216 QT
138.411 -20.388 138.263 -19.404 QT
138.114 -18.419 138.114 -17.06 QT
138.114 -15.435 138.396 -14.138 QT
138.677 -12.841 139.536 -11.966 QT
140.396 -11.091 142.021 -11.091 QT
cp
f
GR
GS
[0.6 0 0 0.60068 596.40059 36.60214] CT
N
150.297 -10.56 M
150.297 -11.576 L
151.297 -11.576 151.929 -11.732 QT
152.562 -11.888 152.562 -12.498 QT
152.562 -20.419 L
152.562 -21.201 152.328 -21.544 QT
152.093 -21.888 151.656 -21.966 QT
151.218 -22.044 150.297 -22.044 QT
150.297 -23.06 L
154.5 -23.373 L
154.5 -20.544 L
155.093 -21.794 156.234 -22.584 QT
157.375 -23.373 158.718 -23.373 QT
162.047 -23.373 162.64 -20.654 QT
163.218 -21.873 164.336 -22.623 QT
165.453 -23.373 166.781 -23.373 QT
168.093 -23.373 169 -22.951 QT
169.906 -22.529 170.359 -21.654 QT
170.812 -20.779 170.812 -19.466 QT
170.812 -12.498 L
170.812 -11.888 171.453 -11.732 QT
172.093 -11.576 173.078 -11.576 QT
173.078 -10.56 L
166.437 -10.56 L
166.437 -11.576 L
167.422 -11.576 168.062 -11.732 QT
168.703 -11.888 168.703 -12.498 QT
168.703 -19.388 L
168.703 -20.841 168.289 -21.732 QT
167.875 -22.623 166.593 -22.623 QT
164.922 -22.623 163.836 -21.279 QT
162.75 -19.935 162.75 -18.216 QT
162.75 -12.498 L
162.75 -11.888 163.383 -11.732 QT
164.015 -11.576 165.015 -11.576 QT
165.015 -10.56 L
158.375 -10.56 L
158.375 -11.576 L
159.359 -11.576 160 -11.732 QT
160.64 -11.888 160.64 -12.498 QT
160.64 -19.388 L
160.64 -20.794 160.226 -21.709 QT
159.812 -22.623 158.547 -22.623 QT
156.859 -22.623 155.773 -21.279 QT
154.687 -19.935 154.687 -18.216 QT
154.687 -12.498 L
154.687 -11.888 155.328 -11.732 QT
155.968 -11.576 156.937 -11.576 QT
156.937 -10.56 L
150.297 -10.56 L
cp
f
GR
GS
[0.6 0 0 0.60068 596.40059 36.60214] CT
N
175.038 -13.404 M
175.038 -15.138 176.397 -16.216 QT
177.757 -17.294 179.663 -17.74 QT
181.569 -18.185 183.288 -18.185 QT
183.288 -19.388 L
183.288 -20.216 182.921 -21.005 QT
182.554 -21.794 181.858 -22.294 QT
181.163 -22.794 180.319 -22.794 QT
178.397 -22.794 177.397 -21.935 QT
177.944 -21.935 178.304 -21.513 QT
178.663 -21.091 178.663 -20.544 QT
178.663 -19.966 178.257 -19.552 QT
177.851 -19.138 177.288 -19.138 QT
176.694 -19.138 176.288 -19.552 QT
175.882 -19.966 175.882 -20.544 QT
175.882 -22.076 177.265 -22.818 QT
178.647 -23.56 180.319 -23.56 QT
181.507 -23.56 182.694 -23.06 QT
183.882 -22.56 184.64 -21.623 QT
185.397 -20.685 185.397 -19.435 QT
185.397 -12.904 L
185.397 -12.341 185.64 -11.865 QT
185.882 -11.388 186.382 -11.388 QT
186.866 -11.388 187.101 -11.873 QT
187.335 -12.357 187.335 -12.904 QT
187.335 -14.763 L
188.179 -14.763 L
188.179 -12.904 L
188.179 -12.263 187.843 -11.677 QT
187.507 -11.091 186.929 -10.74 QT
186.351 -10.388 185.694 -10.388 QT
184.835 -10.388 184.226 -11.044 QT
183.616 -11.701 183.538 -12.607 QT
183.007 -11.529 181.96 -10.88 QT
180.913 -10.232 179.71 -10.232 QT
178.616 -10.232 177.546 -10.56 QT
176.476 -10.888 175.757 -11.591 QT
175.038 -12.294 175.038 -13.404 QT
cp
177.397 -13.404 M
177.397 -12.388 178.147 -11.693 QT
178.897 -10.998 179.913 -10.998 QT
180.851 -10.998 181.616 -11.466 QT
182.382 -11.935 182.835 -12.74 QT
183.288 -13.544 183.288 -14.435 QT
183.288 -17.451 L
181.96 -17.451 180.585 -17.021 QT
179.21 -16.591 178.304 -15.669 QT
177.397 -14.748 177.397 -13.404 QT
cp
f
GR
GS
[0.6 0 0 0.60068 596.40059 36.60214] CT
N
189.439 -10.56 M
189.439 -11.576 L
190.439 -11.576 191.072 -11.732 QT
191.705 -11.888 191.705 -12.498 QT
191.705 -20.419 L
191.705 -21.529 191.275 -21.787 QT
190.845 -22.044 189.564 -22.044 QT
189.564 -23.06 L
193.752 -23.373 L
193.752 -12.498 L
193.752 -11.888 194.298 -11.732 QT
194.845 -11.576 195.767 -11.576 QT
195.767 -10.56 L
189.439 -10.56 L
cp
190.673 -28.357 M
190.673 -28.998 191.158 -29.482 QT
191.642 -29.966 192.252 -29.966 QT
192.673 -29.966 193.056 -29.748 QT
193.439 -29.529 193.65 -29.146 QT
193.861 -28.763 193.861 -28.357 QT
193.861 -27.732 193.377 -27.255 QT
192.892 -26.779 192.252 -26.779 QT
191.642 -26.779 191.158 -27.255 QT
190.673 -27.732 190.673 -28.357 QT
cp
f
GR
GS
[0.6 0 0 0.60068 596.40059 36.60214] CT
N
197.556 -10.56 M
197.556 -11.576 L
198.556 -11.576 199.189 -11.732 QT
199.822 -11.888 199.822 -12.498 QT
199.822 -20.419 L
199.822 -21.201 199.587 -21.544 QT
199.353 -21.888 198.915 -21.966 QT
198.478 -22.044 197.556 -22.044 QT
197.556 -23.06 L
201.759 -23.373 L
201.759 -20.544 L
202.353 -21.794 203.494 -22.584 QT
204.634 -23.373 205.978 -23.373 QT
207.978 -23.373 208.994 -22.412 QT
210.009 -21.451 210.009 -19.466 QT
210.009 -12.498 L
210.009 -11.888 210.642 -11.732 QT
211.275 -11.576 212.275 -11.576 QT
212.275 -10.56 L
205.634 -10.56 L
205.634 -11.576 L
206.619 -11.576 207.259 -11.732 QT
207.9 -11.888 207.9 -12.498 QT
207.9 -19.388 L
207.9 -20.794 207.486 -21.709 QT
207.072 -22.623 205.806 -22.623 QT
204.119 -22.623 203.033 -21.279 QT
201.947 -19.935 201.947 -18.216 QT
201.947 -12.498 L
201.947 -11.888 202.587 -11.732 QT
203.228 -11.576 204.197 -11.576 QT
204.197 -10.56 L
197.556 -10.56 L
cp
f
GR
GS
[0.6 0 0 0.60068 0 -0.39996] CT
1 LJ
5 LW
N
994 424 M
1738 424 L
S
GR
GS
[0.6 0 0 0.60068 0 -0.39996] CT
0 0 1 RC
1 LJ
5 LW
N
994 531.4 M
994 316.6 L
S
GR
GS
[0.6 0 0 0.60068 819.6 168.27191] CT
1 0 0 RC
N
-21.476 5.45 M
-22.491 -8.566 L
-22.569 -8.894 -22.976 -8.972 QT
-23.382 -9.05 -23.991 -9.05 QT
-24.21 -9.05 -24.21 -9.347 QT
-24.132 -9.628 -24.085 -9.73 QT
-24.038 -9.831 -23.835 -9.831 QT
-18.601 -9.831 L
-18.382 -9.831 -18.382 -9.534 QT
-18.476 -9.05 -18.663 -9.05 QT
-20.429 -9.05 -20.538 -8.441 QT
-19.741 2.669 L
-14.241 -6.925 L
-14.351 -8.566 L
-14.429 -8.894 -14.835 -8.972 QT
-15.241 -9.05 -15.851 -9.05 QT
-16.069 -9.05 -16.069 -9.347 QT
-15.991 -9.628 -15.952 -9.73 QT
-15.913 -9.831 -15.694 -9.831 QT
-10.46 -9.831 L
-10.241 -9.831 -10.241 -9.534 QT
-10.257 -9.488 -10.288 -9.355 QT
-10.319 -9.222 -10.374 -9.136 QT
-10.429 -9.05 -10.522 -9.05 QT
-12.304 -9.05 -12.397 -8.441 QT
-12.397 -8.284 L
-11.601 2.669 L
-5.616 -7.784 L
-5.491 -8.019 -5.491 -8.238 QT
-5.491 -8.691 -5.929 -8.87 QT
-6.366 -9.05 -6.913 -9.05 QT
-7.132 -9.05 -7.132 -9.347 QT
-7.085 -9.519 -7.061 -9.613 QT
-7.038 -9.706 -6.968 -9.769 QT
-6.897 -9.831 -6.757 -9.831 QT
-2.554 -9.831 L
-2.351 -9.831 -2.351 -9.534 QT
-2.351 -9.488 -2.382 -9.355 QT
-2.413 -9.222 -2.476 -9.136 QT
-2.538 -9.05 -2.616 -9.05 QT
-4.194 -9.05 -5.007 -7.628 QT
-5.069 -7.566 -5.069 -7.566 QT
-12.522 5.45 L
-12.647 5.684 -12.897 5.684 QT
-13.069 5.684 L
-13.351 5.684 -13.351 5.45 QT
-14.179 -5.894 L
-20.647 5.45 L
-20.804 5.684 -21.038 5.684 QT
-21.226 5.684 L
-21.476 5.684 -21.476 5.45 QT
cp
f
GR
GS
[0.6 0 0 0.60068 819.6 168.27191] CT
1 0 0 RC
N
-3.294 7.544 M
-3.153 7.966 -2.755 8.176 QT
-2.356 8.387 -1.903 8.387 QT
-1.434 8.387 -0.997 8.067 QT
-0.559 7.747 -0.255 7.255 QT
0.05 6.762 0.159 6.278 QT
1.941 -0.816 L
1.956 -0.878 1.956 -0.909 QT
1.956 -0.941 1.972 -0.972 QT
1.972 -1.128 1.847 -1.159 QT
1.456 -1.269 0.237 -1.269 QT
0.097 -1.269 0.097 -1.472 QT
0.112 -1.581 0.136 -1.652 QT
0.159 -1.722 0.206 -1.761 QT
0.253 -1.8 0.347 -1.8 QT
4.409 -1.8 L
4.566 -1.8 4.566 -1.597 QT
4.503 -1.269 4.362 -1.269 QT
3.847 -1.269 3.573 -1.191 QT
3.3 -1.113 3.191 -0.753 QT
1.425 6.341 L
1.253 7.028 0.737 7.591 QT
0.222 8.153 -0.489 8.466 QT
-1.2 8.778 -1.919 8.778 QT
-2.7 8.778 -3.302 8.341 QT
-3.903 7.903 -3.903 7.153 QT
-3.903 6.653 -3.63 6.294 QT
-3.356 5.934 -2.856 5.934 QT
-2.575 5.934 -2.38 6.106 QT
-2.184 6.278 -2.184 6.559 QT
-2.184 6.966 -2.489 7.262 QT
-2.794 7.559 -3.184 7.559 QT
-3.278 7.559 -3.294 7.544 QT
cp
f
GR
GS
[0.6 0 0 0.60068 819.6 168.27191] CT
1 0 0 RC
N
6.466 4.997 M
6.341 4.997 6.263 4.903 QT
6.184 4.809 6.184 4.7 QT
6.184 4.591 6.263 4.497 QT
6.341 4.403 6.466 4.403 QT
15.075 4.403 L
15.184 4.403 15.263 4.497 QT
15.341 4.591 15.341 4.7 QT
15.341 4.809 15.263 4.903 QT
15.184 4.997 15.075 4.997 QT
6.466 4.997 L
cp
f
GR
GS
[0.6 0 0 0.60068 819.6 168.27191] CT
1 0 0 RC
N
18.121 8.45 M
18.121 7.919 L
19.996 7.919 19.996 7.45 QT
19.996 -0.425 L
19.215 -0.05 18.028 -0.05 QT
18.028 -0.581 L
19.871 -0.581 20.809 -1.534 QT
21.028 -1.534 L
21.074 -1.534 21.121 -1.495 QT
21.168 -1.456 21.168 -1.409 QT
21.168 7.45 L
21.168 7.919 23.043 7.919 QT
23.043 8.45 L
18.121 8.45 L
cp
f
GR
GS
[0.6 0 0 0.60068 0 -0.39996] CT
1 LJ
5 LW
N
622 424 M
994 424 L
S
GR
GS
[0.6 0 0 0.60068 0 -0.39996] CT
0 0 1 RC
1 LJ
5 LW
N
622 531.4 M
622 316.6 L
S
GR
GS
[0.6 0 0 0.60068 484.8 168.27191] CT
1 0 0 RC
N
/f-540729833{-21.476 5.45 M
-22.491 -8.566 L
-22.569 -8.894 -22.976 -8.972 QT
-23.382 -9.05 -23.991 -9.05 QT
-24.21 -9.05 -24.21 -9.347 QT
-24.132 -9.628 -24.085 -9.73 QT
-24.038 -9.831 -23.835 -9.831 QT
-18.601 -9.831 L
-18.382 -9.831 -18.382 -9.534 QT
-18.476 -9.05 -18.663 -9.05 QT
-20.429 -9.05 -20.538 -8.441 QT
-19.741 2.669 L
-14.241 -6.925 L
-14.351 -8.566 L
-14.429 -8.894 -14.835 -8.972 QT
-15.241 -9.05 -15.851 -9.05 QT
-16.069 -9.05 -16.069 -9.347 QT
-15.991 -9.628 -15.952 -9.73 QT
-15.913 -9.831 -15.694 -9.831 QT
-10.46 -9.831 L
-10.241 -9.831 -10.241 -9.534 QT
-10.257 -9.488 -10.288 -9.355 QT
-10.319 -9.222 -10.374 -9.136 QT
-10.429 -9.05 -10.522 -9.05 QT
-12.304 -9.05 -12.397 -8.441 QT
-12.397 -8.284 L
-11.601 2.669 L
-5.616 -7.784 L
-5.491 -8.019 -5.491 -8.238 QT
-5.491 -8.691 -5.929 -8.87 QT
-6.366 -9.05 -6.913 -9.05 QT
-7.132 -9.05 -7.132 -9.347 QT
-7.085 -9.519 -7.061 -9.613 QT
-7.038 -9.706 -6.968 -9.769 QT
-6.897 -9.831 -6.757 -9.831 QT
-2.554 -9.831 L
-2.351 -9.831 -2.351 -9.534 QT
-2.351 -9.488 -2.382 -9.355 QT
-2.413 -9.222 -2.476 -9.136 QT
-2.538 -9.05 -2.616 -9.05 QT
-4.194 -9.05 -5.007 -7.628 QT
-5.069 -7.566 -5.069 -7.566 QT
-12.522 5.45 L
-12.647 5.684 -12.897 5.684 QT
-13.069 5.684 L
-13.351 5.684 -13.351 5.45 QT
-14.179 -5.894 L
-20.647 5.45 L
-20.804 5.684 -21.038 5.684 QT
-21.226 5.684 L
-21.476 5.684 -21.476 5.45 QT
cp}def
f-540729833
f
GR
GS
[0.6 0 0 0.60068 484.8 168.27191] CT
1 0 0 RC
N
/f1534967396{-3.294 7.544 M
-3.153 7.966 -2.755 8.176 QT
-2.356 8.387 -1.903 8.387 QT
-1.434 8.387 -0.997 8.067 QT
-0.559 7.747 -0.255 7.255 QT
0.05 6.762 0.159 6.278 QT
1.941 -0.816 L
1.956 -0.878 1.956 -0.909 QT
1.956 -0.941 1.972 -0.972 QT
1.972 -1.128 1.847 -1.159 QT
1.456 -1.269 0.237 -1.269 QT
0.097 -1.269 0.097 -1.472 QT
0.112 -1.581 0.136 -1.652 QT
0.159 -1.722 0.206 -1.761 QT
0.253 -1.8 0.347 -1.8 QT
4.409 -1.8 L
4.566 -1.8 4.566 -1.597 QT
4.503 -1.269 4.362 -1.269 QT
3.847 -1.269 3.573 -1.191 QT
3.3 -1.113 3.191 -0.753 QT
1.425 6.341 L
1.253 7.028 0.737 7.591 QT
0.222 8.153 -0.489 8.466 QT
-1.2 8.778 -1.919 8.778 QT
-2.7 8.778 -3.302 8.341 QT
-3.903 7.903 -3.903 7.153 QT
-3.903 6.653 -3.63 6.294 QT
-3.356 5.934 -2.856 5.934 QT
-2.575 5.934 -2.38 6.106 QT
-2.184 6.278 -2.184 6.559 QT
-2.184 6.966 -2.489 7.262 QT
-2.794 7.559 -3.184 7.559 QT
-3.278 7.559 -3.294 7.544 QT
cp}def
f1534967396
f
GR
GS
[0.6 0 0 0.60068 484.8 168.27191] CT
1 0 0 RC
N
/f1184566920{6.466 4.997 M
6.341 4.997 6.263 4.903 QT
6.184 4.809 6.184 4.7 QT
6.184 4.591 6.263 4.497 QT
6.341 4.403 6.466 4.403 QT
15.075 4.403 L
15.184 4.403 15.263 4.497 QT
15.341 4.591 15.341 4.7 QT
15.341 4.809 15.263 4.903 QT
15.184 4.997 15.075 4.997 QT
6.466 4.997 L
cp}def
f1184566920
f
GR
GS
[0.6 0 0 0.60068 484.8 168.27191] CT
1 0 0 RC
N
/f245849302{17.481 8.45 M
17.481 8.044 L
17.481 8.012 17.512 7.966 QT
19.84 5.387 L
20.371 4.809 20.699 4.426 QT
21.028 4.044 21.348 3.536 QT
21.668 3.028 21.856 2.505 QT
22.043 1.981 22.043 1.403 QT
22.043 0.778 21.817 0.216 QT
21.59 -0.347 21.137 -0.683 QT
20.684 -1.019 20.043 -1.019 QT
19.403 -1.019 18.879 -0.62 QT
18.356 -0.222 18.137 0.387 QT
18.199 0.372 18.309 0.372 QT
18.637 0.372 18.879 0.598 QT
19.121 0.825 19.121 1.184 QT
19.121 1.528 18.879 1.77 QT
18.637 2.012 18.309 2.012 QT
17.949 2.012 17.715 1.77 QT
17.481 1.528 17.481 1.184 QT
17.481 0.622 17.692 0.13 QT
17.903 -0.363 18.301 -0.745 QT
18.699 -1.128 19.199 -1.331 QT
19.699 -1.534 20.262 -1.534 QT
21.121 -1.534 21.864 -1.175 QT
22.606 -0.816 23.035 -0.152 QT
23.465 0.512 23.465 1.403 QT
23.465 2.044 23.184 2.63 QT
22.903 3.216 22.457 3.7 QT
22.012 4.184 21.309 4.794 QT
20.606 5.403 20.387 5.606 QT
18.699 7.231 L
20.137 7.231 L
21.199 7.231 21.91 7.216 QT
22.621 7.2 22.668 7.153 QT
22.84 6.966 23.028 5.778 QT
23.465 5.778 L
23.043 8.45 L
17.481 8.45 L
cp}def
f245849302
f
GR
GS
[0.6 0 0 0.60068 0 -0.39996] CT
1 LJ
5 LW
N
436 424 M
622 424 L
S
GR
GS
[0.6 0 0 0.60068 0 -0.39996] CT
0 0 1 RC
1 LJ
5 LW
N
436 531.4 M
436 316.6 L
S
GR
GS
[0.6 0 0 0.60068 318 168.87261] CT
1 0 0 RC
N
f-540729833
f
GR
GS
[0.6 0 0 0.60068 318 168.87261] CT
1 0 0 RC
N
f1534967396
f
GR
GS
[0.6 0 0 0.60068 318 168.87261] CT
1 0 0 RC
N
f1184566920
f
GR
GS
[0.6 0 0 0.60068 318 168.87261] CT
1 0 0 RC
N
/f-606279189{18.153 7.294 M
18.512 7.809 19.106 8.059 QT
19.699 8.309 20.371 8.309 QT
21.246 8.309 21.614 7.559 QT
21.981 6.809 21.981 5.872 QT
21.981 5.45 21.903 5.02 QT
21.824 4.591 21.645 4.231 QT
21.465 3.872 21.145 3.645 QT
20.824 3.419 20.371 3.419 QT
19.371 3.419 L
19.231 3.419 19.231 3.294 QT
19.231 3.153 L
19.231 3.044 19.371 3.044 QT
20.199 2.966 L
20.715 2.966 21.067 2.575 QT
21.418 2.184 21.582 1.614 QT
21.746 1.044 21.746 0.528 QT
21.746 -0.191 21.41 -0.652 QT
21.074 -1.113 20.371 -1.113 QT
19.809 -1.113 19.285 -0.894 QT
18.762 -0.675 18.465 -0.238 QT
18.496 -0.238 18.512 -0.245 QT
18.528 -0.253 18.559 -0.253 QT
18.903 -0.253 19.129 -0.019 QT
19.356 0.216 19.356 0.544 QT
19.356 0.872 19.129 1.106 QT
18.903 1.341 18.559 1.341 QT
18.231 1.341 17.996 1.106 QT
17.762 0.872 17.762 0.544 QT
17.762 -0.097 18.153 -0.574 QT
18.543 -1.05 19.153 -1.292 QT
19.762 -1.534 20.371 -1.534 QT
20.84 -1.534 21.34 -1.402 QT
21.84 -1.269 22.254 -1.019 QT
22.668 -0.769 22.926 -0.37 QT
23.184 0.028 23.184 0.528 QT
23.184 1.169 22.903 1.7 QT
22.621 2.231 22.129 2.622 QT
21.637 3.012 21.059 3.2 QT
21.699 3.325 22.285 3.692 QT
22.871 4.059 23.231 4.63 QT
23.59 5.2 23.59 5.856 QT
23.59 6.684 23.137 7.356 QT
22.684 8.028 21.942 8.403 QT
21.199 8.778 20.371 8.778 QT
19.668 8.778 18.965 8.512 QT
18.262 8.247 17.809 7.708 QT
17.356 7.169 17.356 6.434 QT
17.356 6.059 17.606 5.809 QT
17.856 5.559 18.231 5.559 QT
18.481 5.559 18.676 5.669 QT
18.871 5.778 18.989 5.989 QT
19.106 6.2 19.106 6.434 QT
19.106 6.794 18.848 7.044 QT
18.59 7.294 18.231 7.294 QT
18.153 7.294 L
cp}def
f-606279189
f
GR
GS
[0.6 0 0 0.60068 0 -0.39996] CT
1 LJ
5 LW
N
343 424 M
436 424 L
S
GR
GS
[0.6 0 0 0.60068 0 -0.39996] CT
0 0 1 RC
1 LJ
5 LW
N
343 531.4 M
343 316.6 L
S
GR
GS
[0.6 0 0 0.60068 233.7 168.27191] CT
1 0 0 RC
N
f-540729833
f
GR
GS
[0.6 0 0 0.60068 233.7 168.27191] CT
1 0 0 RC
N
f1534967396
f
GR
GS
[0.6 0 0 0.60068 233.7 168.27191] CT
1 0 0 RC
N
f1184566920
f
GR
GS
[0.6 0 0 0.60068 233.7 168.27191] CT
1 0 0 RC
N
/f-1570390517{17.153 5.981 M
17.153 5.45 L
21.778 -1.472 L
21.84 -1.534 21.934 -1.534 QT
22.153 -1.534 L
22.324 -1.534 22.324 -1.378 QT
22.324 5.45 L
23.793 5.45 L
23.793 5.981 L
22.324 5.981 L
22.324 7.45 L
22.324 7.747 22.762 7.833 QT
23.199 7.919 23.778 7.919 QT
23.778 8.45 L
19.653 8.45 L
19.653 7.919 L
20.231 7.919 20.668 7.833 QT
21.106 7.747 21.106 7.45 QT
21.106 5.981 L
17.153 5.981 L
cp
17.653 5.45 M
21.199 5.45 L
21.199 0.137 L
17.653 5.45 L
cp}def
f-1570390517
f
GR
GS
[0.6 0 0 0.60068 0 -0.39996] CT
1 LJ
5 LW
N
296.5 424 M
343 424 L
S
GR
GS
[0.6 0 0 0.60068 0 -0.39996] CT
0 0 1 RC
1 LJ
5 LW
N
296.5 531.4 M
296.5 316.6 L
S
GR
GS
[0.6 0 0 0.60068 191.85 168.27191] CT
1 0 0 RC
N
f-540729833
f
GR
GS
[0.6 0 0 0.60068 191.85 168.27191] CT
1 0 0 RC
N
f1534967396
f
GR
GS
[0.6 0 0 0.60068 191.85 168.27191] CT
1 0 0 RC
N
f1184566920
f
GR
GS
[0.6 0 0 0.60068 191.85 168.27191] CT
1 0 0 RC
N
/f-603818028{18.028 6.747 M
18.184 7.184 18.504 7.544 QT
18.824 7.903 19.262 8.106 QT
19.699 8.309 20.168 8.309 QT
21.246 8.309 21.66 7.466 QT
22.074 6.622 22.074 5.419 QT
22.074 4.903 22.051 4.544 QT
22.028 4.184 21.949 3.856 QT
21.809 3.325 21.465 2.934 QT
21.121 2.544 20.606 2.544 QT
20.106 2.544 19.746 2.692 QT
19.387 2.841 19.16 3.051 QT
18.934 3.262 18.754 3.489 QT
18.574 3.716 18.528 3.731 QT
18.371 3.731 L
18.324 3.731 18.27 3.684 QT
18.215 3.637 18.215 3.591 QT
18.215 -1.425 L
18.215 -1.456 18.262 -1.495 QT
18.309 -1.534 18.371 -1.534 QT
18.403 -1.534 L
19.418 -1.05 20.559 -1.05 QT
21.668 -1.05 22.699 -1.534 QT
22.746 -1.534 L
22.793 -1.534 22.84 -1.503 QT
22.887 -1.472 22.887 -1.425 QT
22.887 -1.284 L
22.887 -1.206 22.856 -1.206 QT
22.34 -0.534 21.567 -0.152 QT
20.793 0.231 19.965 0.231 QT
19.371 0.231 18.731 0.059 QT
18.731 2.903 L
19.231 2.497 19.621 2.325 QT
20.012 2.153 20.621 2.153 QT
21.449 2.153 22.106 2.63 QT
22.762 3.106 23.114 3.872 QT
23.465 4.637 23.465 5.434 QT
23.465 6.341 23.028 7.106 QT
22.59 7.872 21.824 8.325 QT
21.059 8.778 20.168 8.778 QT
19.434 8.778 18.809 8.395 QT
18.184 8.012 17.832 7.372 QT
17.481 6.731 17.481 5.997 QT
17.481 5.669 17.699 5.458 QT
17.918 5.247 18.246 5.247 QT
18.574 5.247 18.801 5.458 QT
19.028 5.669 19.028 5.997 QT
19.028 6.325 18.801 6.551 QT
18.574 6.778 18.246 6.778 QT
18.199 6.778 18.129 6.762 QT
18.059 6.747 18.028 6.747 QT
cp}def
f-603818028
f
GR
GS
[0.6 0 0 0.60068 0 -0.39996] CT
1 LJ
5 LW
N
250 424 M
296.5 424 L
S
GR
GS
[0.6 0 0 0.60068 0 -0.39996] CT
0 0 1 RC
1 LJ
5 LW
N
250 531.4 M
250 316.6 L
S
GR
GS
[0.6 0 0 0.60068 163.95 168.27191] CT
1 0 0 RC
N
/f1448493264{-16.642 5.45 M
-18.407 -8.566 L
-18.563 -9.05 -20.063 -9.05 QT
-20.267 -9.05 -20.267 -9.347 QT
-20.235 -9.581 -20.165 -9.706 QT
-20.095 -9.831 -19.907 -9.831 QT
-14.532 -9.831 L
-14.423 -9.831 -14.368 -9.745 QT
-14.313 -9.659 -14.313 -9.534 QT
-14.392 -9.05 -14.595 -9.05 QT
-16.313 -9.05 -16.423 -8.472 QT
-14.97 3.044 L
-8.204 -7.784 L
-8.001 -8.144 -8.001 -8.363 QT
-8.001 -8.738 -8.353 -8.894 QT
-8.704 -9.05 -9.157 -9.05 QT
-9.392 -9.05 -9.392 -9.347 QT
-9.345 -9.519 -9.313 -9.613 QT
-9.282 -9.706 -9.22 -9.769 QT
-9.157 -9.831 -9.017 -9.831 QT
-4.767 -9.831 L
-4.563 -9.831 -4.563 -9.534 QT
-4.657 -9.05 -4.86 -9.05 QT
-6.517 -9.05 -7.438 -7.613 QT
-7.485 -7.566 -7.517 -7.566 QT
-15.626 5.45 L
-15.798 5.684 -16.048 5.684 QT
-16.36 5.684 L
-16.61 5.684 -16.642 5.45 QT
cp}def
f1448493264
f
GR
GS
[0.6 0 0 0.60068 163.95 168.27191] CT
1 0 0 RC
N
/f1887270878{-7.206 7.544 M
-7.065 7.966 -6.667 8.176 QT
-6.268 8.387 -5.815 8.387 QT
-5.346 8.387 -4.909 8.067 QT
-4.471 7.747 -4.167 7.255 QT
-3.862 6.762 -3.753 6.278 QT
-1.971 -0.816 L
-1.956 -0.878 -1.956 -0.909 QT
-1.956 -0.941 -1.94 -0.972 QT
-1.94 -1.128 -2.065 -1.159 QT
-2.456 -1.269 -3.675 -1.269 QT
-3.815 -1.269 -3.815 -1.472 QT
-3.8 -1.581 -3.776 -1.652 QT
-3.753 -1.722 -3.706 -1.761 QT
-3.659 -1.8 -3.565 -1.8 QT
0.497 -1.8 L
0.654 -1.8 0.654 -1.597 QT
0.591 -1.269 0.45 -1.269 QT
-0.065 -1.269 -0.339 -1.191 QT
-0.612 -1.113 -0.721 -0.753 QT
-2.487 6.341 L
-2.659 7.028 -3.175 7.591 QT
-3.69 8.153 -4.401 8.466 QT
-5.112 8.778 -5.831 8.778 QT
-6.612 8.778 -7.214 8.341 QT
-7.815 7.903 -7.815 7.153 QT
-7.815 6.653 -7.542 6.294 QT
-7.268 5.934 -6.768 5.934 QT
-6.487 5.934 -6.292 6.106 QT
-6.096 6.278 -6.096 6.559 QT
-6.096 6.966 -6.401 7.262 QT
-6.706 7.559 -7.096 7.559 QT
-7.19 7.559 -7.206 7.544 QT
cp}def
f1887270878
f
GR
GS
[0.6 0 0 0.60068 163.95 168.27191] CT
1 0 0 RC
N
/f-495345625{2.554 4.997 M
2.429 4.997 2.35 4.903 QT
2.272 4.809 2.272 4.7 QT
2.272 4.591 2.35 4.497 QT
2.429 4.403 2.554 4.403 QT
11.163 4.403 L
11.272 4.403 11.35 4.497 QT
11.429 4.591 11.429 4.7 QT
11.429 4.809 11.35 4.903 QT
11.272 4.997 11.163 4.997 QT
2.554 4.997 L
cp}def
f-495345625
f
GR
GS
[0.6 0 0 0.60068 163.95 168.27191] CT
1 0 0 RC
N
/f-1005631963{14.116 6.747 M
14.272 7.184 14.592 7.544 QT
14.912 7.903 15.35 8.106 QT
15.787 8.309 16.256 8.309 QT
17.334 8.309 17.748 7.466 QT
18.162 6.622 18.162 5.419 QT
18.162 4.903 18.139 4.544 QT
18.116 4.184 18.037 3.856 QT
17.897 3.325 17.553 2.934 QT
17.209 2.544 16.694 2.544 QT
16.194 2.544 15.834 2.692 QT
15.475 2.841 15.248 3.051 QT
15.022 3.262 14.842 3.489 QT
14.662 3.716 14.616 3.731 QT
14.459 3.731 L
14.412 3.731 14.358 3.684 QT
14.303 3.637 14.303 3.591 QT
14.303 -1.425 L
14.303 -1.456 14.35 -1.495 QT
14.397 -1.534 14.459 -1.534 QT
14.491 -1.534 L
15.506 -1.05 16.647 -1.05 QT
17.756 -1.05 18.787 -1.534 QT
18.834 -1.534 L
18.881 -1.534 18.928 -1.503 QT
18.975 -1.472 18.975 -1.425 QT
18.975 -1.284 L
18.975 -1.206 18.944 -1.206 QT
18.428 -0.534 17.655 -0.152 QT
16.881 0.231 16.053 0.231 QT
15.459 0.231 14.819 0.059 QT
14.819 2.903 L
15.319 2.497 15.709 2.325 QT
16.1 2.153 16.709 2.153 QT
17.537 2.153 18.194 2.63 QT
18.85 3.106 19.202 3.872 QT
19.553 4.637 19.553 5.434 QT
19.553 6.341 19.116 7.106 QT
18.678 7.872 17.912 8.325 QT
17.147 8.778 16.256 8.778 QT
15.522 8.778 14.897 8.395 QT
14.272 8.012 13.92 7.372 QT
13.569 6.731 13.569 5.997 QT
13.569 5.669 13.787 5.458 QT
14.006 5.247 14.334 5.247 QT
14.662 5.247 14.889 5.458 QT
15.116 5.669 15.116 5.997 QT
15.116 6.325 14.889 6.551 QT
14.662 6.778 14.334 6.778 QT
14.287 6.778 14.217 6.762 QT
14.147 6.747 14.116 6.747 QT
cp}def
f-1005631963
f
GR
GS
[0.6 0 0 0.60068 0 -0.39996] CT
0 0 1 RC
1 LJ
5 LW
N
1738 531.4 M
1738 316.6 L
S
GR
GS
[0.6 0 0 0.60068 1042.8 254.28977] CT
0 0 1 RC
10.0 ML
3.333 LW
N
5 0 M
5 -2.761 2.761 -5 0 -5 C
-2.761 -5 -5 -2.761 -5 0 C
-5 2.761 -2.761 5 0 5 C
2.761 5 5 2.761 5 0 C
S
GR
GS
[0.6 0 0 0.60068 596.4 254.28977] CT
0 0 1 RC
10.0 ML
3.333 LW
N
5 0 M
5 -2.761 2.761 -5 0 -5 C
-2.761 -5 -5 -2.761 -5 0 C
-5 2.761 -2.761 5 0 5 C
2.761 5 5 2.761 5 0 C
S
GR
GS
[0.6 0 0 0.60068 373.2 254.28977] CT
0 0 1 RC
10.0 ML
3.333 LW
N
5 0 M
5 -2.761 2.761 -5 0 -5 C
-2.761 -5 -5 -2.761 -5 0 C
-5 2.761 -2.761 5 0 5 C
2.761 5 5 2.761 5 0 C
S
GR
GS
[0.6 0 0 0.60068 261.6 254.28977] CT
0 0 1 RC
10.0 ML
3.333 LW
N
5 0 M
5 -2.761 2.761 -5 0 -5 C
-2.761 -5 -5 -2.761 -5 0 C
-5 2.761 -2.761 5 0 5 C
2.761 5 5 2.761 5 0 C
S
GR
GS
[0.6 0 0 0.60068 205.8 254.28977] CT
0 0 1 RC
10.0 ML
3.333 LW
N
5 0 M
5 -2.761 2.761 -5 0 -5 C
-2.761 -5 -5 -2.761 -5 0 C
-5 2.761 -2.761 5 0 5 C
2.761 5 5 2.761 5 0 C
S
GR
GS
[0.6 0 0 0.60068 177.9 254.28977] CT
0 0 1 RC
10.0 ML
3.333 LW
N
5 0 M
5 -2.761 2.761 -5 0 -5 C
-2.761 -5 -5 -2.761 -5 0 C
-5 2.761 -2.761 5 0 5 C
2.761 5 5 2.761 5 0 C
S
GR
GS
[0.6 0 0 0.60068 150 254.28977] CT
0 0 1 RC
10.0 ML
3.333 LW
N
5 0 M
5 -2.761 2.761 -5 0 -5 C
-2.761 -5 -5 -2.761 -5 0 C
-5 2.761 -2.761 5 0 5 C
2.761 5 5 2.761 5 0 C
S
GR
%%Trailer
%%Pages: 1
%%EOF
