%!PS-Adobe-3.0 EPSF-3.0
%%Creator: (MATLAB, The Mathworks, Inc. Version 9.3.0.713579 \(R2017b\). Operating System: Mac OS X)
%%Title: /Users/hannesvdc/WIT/Wavelets/wavelets/report/plots/scaling3.eps
%%CreationDate: 2017-11-25T20:51:21
%%Pages: (atend)
%%BoundingBox: 0 0 812 639
%%LanguageLevel: 3
%%EndComments
%%BeginProlog
%%BeginResource: procset (Apache XML Graphics Std ProcSet) 1.2 0
%%Version: 1.2 0
%%Copyright: (Copyright 2001-2003,2010 The Apache Software Foundation. License terms: http://www.apache.org/licenses/LICENSE-2.0)
/bd{bind def}bind def
/ld{load def}bd
/GR/grestore ld
/GS/gsave ld
/RM/rmoveto ld
/C/curveto ld
/t/show ld
/L/lineto ld
/ML/setmiterlimit ld
/CT/concat ld
/f/fill ld
/N/newpath ld
/S/stroke ld
/CC/setcmykcolor ld
/A/ashow ld
/cp/closepath ld
/RC/setrgbcolor ld
/LJ/setlinejoin ld
/GC/setgray ld
/LW/setlinewidth ld
/M/moveto ld
/re {4 2 roll M
1 index 0 rlineto
0 exch rlineto
neg 0 rlineto
cp } bd
/_ctm matrix def
/_tm matrix def
/BT { _ctm currentmatrix pop matrix _tm copy pop 0 0 moveto } bd
/ET { _ctm setmatrix } bd
/iTm { _ctm setmatrix _tm concat } bd
/Tm { _tm astore pop iTm 0 0 moveto } bd
/ux 0.0 def
/uy 0.0 def
/F {
  /Tp exch def
  /Tf exch def
  Tf findfont Tp scalefont setfont
  /cf Tf def  /cs Tp def
} bd
/ULS {currentpoint /uy exch def /ux exch def} bd
/ULE {
  /Tcx currentpoint pop def
  gsave
  newpath
  cf findfont cs scalefont dup
  /FontMatrix get 0 get /Ts exch def /FontInfo get dup
  /UnderlinePosition get Ts mul /To exch def
  /UnderlineThickness get Ts mul /Tt exch def
  ux uy To add moveto  Tcx uy To add lineto
  Tt setlinewidth stroke
  grestore
} bd
/OLE {
  /Tcx currentpoint pop def
  gsave
  newpath
  cf findfont cs scalefont dup
  /FontMatrix get 0 get /Ts exch def /FontInfo get dup
  /UnderlinePosition get Ts mul /To exch def
  /UnderlineThickness get Ts mul /Tt exch def
  ux uy To add cs add moveto Tcx uy To add cs add lineto
  Tt setlinewidth stroke
  grestore
} bd
/SOE {
  /Tcx currentpoint pop def
  gsave
  newpath
  cf findfont cs scalefont dup
  /FontMatrix get 0 get /Ts exch def /FontInfo get dup
  /UnderlinePosition get Ts mul /To exch def
  /UnderlineThickness get Ts mul /Tt exch def
  ux uy To add cs 10 mul 26 idiv add moveto Tcx uy To add cs 10 mul 26 idiv add lineto
  Tt setlinewidth stroke
  grestore
} bd
/QT {
/Y22 exch store
/X22 exch store
/Y21 exch store
/X21 exch store
currentpoint
/Y21 load 2 mul add 3 div exch
/X21 load 2 mul add 3 div exch
/X21 load 2 mul /X22 load add 3 div
/Y21 load 2 mul /Y22 load add 3 div
/X22 load /Y22 load curveto
} bd
/SSPD {
dup length /d exch dict def
{
/v exch def
/k exch def
currentpagedevice k known {
/cpdv currentpagedevice k get def
v cpdv ne {
/upd false def
/nullv v type /nulltype eq def
/nullcpdv cpdv type /nulltype eq def
nullv nullcpdv or
{
/upd true def
} {
/sametype v type cpdv type eq def
sametype {
v type /arraytype eq {
/vlen v length def
/cpdvlen cpdv length def
vlen cpdvlen eq {
0 1 vlen 1 sub {
/i exch def
/obj v i get def
/cpdobj cpdv i get def
obj cpdobj ne {
/upd true def
exit
} if
} for
} {
/upd true def
} ifelse
} {
v type /dicttype eq {
v {
/dv exch def
/dk exch def
/cpddv cpdv dk get def
dv cpddv ne {
/upd true def
exit
} if
} forall
} {
/upd true def
} ifelse
} ifelse
} if
} ifelse
upd true eq {
d k v put
} if
} if
} if
} forall
d length 0 gt {
d setpagedevice
} if
} bd
/RE { % /NewFontName [NewEncodingArray] /FontName RE -
  findfont dup length dict begin
  {
    1 index /FID ne
    {def} {pop pop} ifelse
  } forall
  /Encoding exch def
  /FontName 1 index def
  currentdict definefont pop
  end
} bind def
%%EndResource
%%BeginResource: procset (Apache XML Graphics EPS ProcSet) 1.0 0
%%Version: 1.0 0
%%Copyright: (Copyright 2002-2003 The Apache Software Foundation. License terms: http://www.apache.org/licenses/LICENSE-2.0)
/BeginEPSF { %def
/b4_Inc_state save def         % Save state for cleanup
/dict_count countdictstack def % Count objects on dict stack
/op_count count 1 sub def      % Count objects on operand stack
userdict begin                 % Push userdict on dict stack
/showpage { } def              % Redefine showpage, { } = null proc
0 setgray 0 setlinecap         % Prepare graphics state
1 setlinewidth 0 setlinejoin
10 setmiterlimit [ ] 0 setdash newpath
/languagelevel where           % If level not equal to 1 then
{pop languagelevel             % set strokeadjust and
1 ne                           % overprint to their defaults.
{false setstrokeadjust false setoverprint
} if
} if
} bd
/EndEPSF { %def
count op_count sub {pop} repeat            % Clean up stacks
countdictstack dict_count sub {end} repeat
b4_Inc_state restore
} bd
%%EndResource
%FOPBeginFontDict
%%IncludeResource: font Courier-Oblique
%%IncludeResource: font Courier-BoldOblique
%%IncludeResource: font Courier-Bold
%%IncludeResource: font ZapfDingbats
%%IncludeResource: font Symbol
%%IncludeResource: font Helvetica
%%IncludeResource: font Helvetica-Oblique
%%IncludeResource: font Helvetica-Bold
%%IncludeResource: font Helvetica-BoldOblique
%%IncludeResource: font Times-Roman
%%IncludeResource: font Times-Italic
%%IncludeResource: font Times-Bold
%%IncludeResource: font Times-BoldItalic
%%IncludeResource: font Courier
%FOPEndFontDict
%%BeginResource: encoding WinAnsiEncoding
/WinAnsiEncoding [
/.notdef /.notdef /.notdef /.notdef /.notdef
/.notdef /.notdef /.notdef /.notdef /.notdef
/.notdef /.notdef /.notdef /.notdef /.notdef
/.notdef /.notdef /.notdef /.notdef /.notdef
/.notdef /.notdef /.notdef /.notdef /.notdef
/.notdef /.notdef /.notdef /.notdef /.notdef
/.notdef /.notdef /space /exclam /quotedbl
/numbersign /dollar /percent /ampersand /quotesingle
/parenleft /parenright /asterisk /plus /comma
/hyphen /period /slash /zero /one
/two /three /four /five /six
/seven /eight /nine /colon /semicolon
/less /equal /greater /question /at
/A /B /C /D /E
/F /G /H /I /J
/K /L /M /N /O
/P /Q /R /S /T
/U /V /W /X /Y
/Z /bracketleft /backslash /bracketright /asciicircum
/underscore /quoteleft /a /b /c
/d /e /f /g /h
/i /j /k /l /m
/n /o /p /q /r
/s /t /u /v /w
/x /y /z /braceleft /bar
/braceright /asciitilde /bullet /Euro /bullet
/quotesinglbase /florin /quotedblbase /ellipsis /dagger
/daggerdbl /circumflex /perthousand /Scaron /guilsinglleft
/OE /bullet /Zcaron /bullet /bullet
/quoteleft /quoteright /quotedblleft /quotedblright /bullet
/endash /emdash /asciitilde /trademark /scaron
/guilsinglright /oe /bullet /zcaron /Ydieresis
/space /exclamdown /cent /sterling /currency
/yen /brokenbar /section /dieresis /copyright
/ordfeminine /guillemotleft /logicalnot /sfthyphen /registered
/macron /degree /plusminus /twosuperior /threesuperior
/acute /mu /paragraph /middot /cedilla
/onesuperior /ordmasculine /guillemotright /onequarter /onehalf
/threequarters /questiondown /Agrave /Aacute /Acircumflex
/Atilde /Adieresis /Aring /AE /Ccedilla
/Egrave /Eacute /Ecircumflex /Edieresis /Igrave
/Iacute /Icircumflex /Idieresis /Eth /Ntilde
/Ograve /Oacute /Ocircumflex /Otilde /Odieresis
/multiply /Oslash /Ugrave /Uacute /Ucircumflex
/Udieresis /Yacute /Thorn /germandbls /agrave
/aacute /acircumflex /atilde /adieresis /aring
/ae /ccedilla /egrave /eacute /ecircumflex
/edieresis /igrave /iacute /icircumflex /idieresis
/eth /ntilde /ograve /oacute /ocircumflex
/otilde /odieresis /divide /oslash /ugrave
/uacute /ucircumflex /udieresis /yacute /thorn
/ydieresis
] def
%%EndResource
%FOPBeginFontReencode
/Courier-Oblique findfont
dup length dict begin
  {1 index /FID ne {def} {pop pop} ifelse} forall
  /Encoding WinAnsiEncoding def
  currentdict
end
/Courier-Oblique exch definefont pop
/Courier-BoldOblique findfont
dup length dict begin
  {1 index /FID ne {def} {pop pop} ifelse} forall
  /Encoding WinAnsiEncoding def
  currentdict
end
/Courier-BoldOblique exch definefont pop
/Courier-Bold findfont
dup length dict begin
  {1 index /FID ne {def} {pop pop} ifelse} forall
  /Encoding WinAnsiEncoding def
  currentdict
end
/Courier-Bold exch definefont pop
/Helvetica findfont
dup length dict begin
  {1 index /FID ne {def} {pop pop} ifelse} forall
  /Encoding WinAnsiEncoding def
  currentdict
end
/Helvetica exch definefont pop
/Helvetica-Oblique findfont
dup length dict begin
  {1 index /FID ne {def} {pop pop} ifelse} forall
  /Encoding WinAnsiEncoding def
  currentdict
end
/Helvetica-Oblique exch definefont pop
/Helvetica-Bold findfont
dup length dict begin
  {1 index /FID ne {def} {pop pop} ifelse} forall
  /Encoding WinAnsiEncoding def
  currentdict
end
/Helvetica-Bold exch definefont pop
/Helvetica-BoldOblique findfont
dup length dict begin
  {1 index /FID ne {def} {pop pop} ifelse} forall
  /Encoding WinAnsiEncoding def
  currentdict
end
/Helvetica-BoldOblique exch definefont pop
/Times-Roman findfont
dup length dict begin
  {1 index /FID ne {def} {pop pop} ifelse} forall
  /Encoding WinAnsiEncoding def
  currentdict
end
/Times-Roman exch definefont pop
/Times-Italic findfont
dup length dict begin
  {1 index /FID ne {def} {pop pop} ifelse} forall
  /Encoding WinAnsiEncoding def
  currentdict
end
/Times-Italic exch definefont pop
/Times-Bold findfont
dup length dict begin
  {1 index /FID ne {def} {pop pop} ifelse} forall
  /Encoding WinAnsiEncoding def
  currentdict
end
/Times-Bold exch definefont pop
/Times-BoldItalic findfont
dup length dict begin
  {1 index /FID ne {def} {pop pop} ifelse} forall
  /Encoding WinAnsiEncoding def
  currentdict
end
/Times-BoldItalic exch definefont pop
/Courier findfont
dup length dict begin
  {1 index /FID ne {def} {pop pop} ifelse} forall
  /Encoding WinAnsiEncoding def
  currentdict
end
/Courier exch definefont pop
%FOPEndFontReencode
%%EndProlog
%%Page: 1 1
%%PageBoundingBox: 0 0 812 639
%%BeginPageSetup
[1 0 0 -1 0 639] CT
%%EndPageSetup
GS
1 GC
N
0 0 812 639 re
f
GR
GS
1 GC
N
0 0 812 639 re
f
GR
GS
1 GC
N
105.5 568.5 M
735 568.5 L
735 48 L
105.5 48 L
cp
f
GR
GS
0.149 GC
2 setlinecap
1 LJ
0.5 LW
N
105.5 568.5 M
735 568.5 L
S
GR
GS
0.149 GC
2 setlinecap
1 LJ
0.5 LW
N
105.5 48 M
735 48 L
S
GR
GS
0.149 GC
2 setlinecap
1 LJ
0.5 LW
N
105.5 568.5 M
105.5 562.205 L
S
GR
GS
0.149 GC
2 setlinecap
1 LJ
0.5 LW
N
195.429 568.5 M
195.429 562.205 L
S
GR
GS
0.149 GC
2 setlinecap
1 LJ
0.5 LW
N
285.357 568.5 M
285.357 562.205 L
S
GR
GS
0.149 GC
2 setlinecap
1 LJ
0.5 LW
N
375.286 568.5 M
375.286 562.205 L
S
GR
GS
0.149 GC
2 setlinecap
1 LJ
0.5 LW
N
465.214 568.5 M
465.214 562.205 L
S
GR
GS
0.149 GC
2 setlinecap
1 LJ
0.5 LW
N
555.143 568.5 M
555.143 562.205 L
S
GR
GS
0.149 GC
2 setlinecap
1 LJ
0.5 LW
N
645.071 568.5 M
645.071 562.205 L
S
GR
GS
0.149 GC
2 setlinecap
1 LJ
0.5 LW
N
735 568.5 M
735 562.205 L
S
GR
GS
0.149 GC
2 setlinecap
1 LJ
0.5 LW
N
105.5 48 M
105.5 54.295 L
S
GR
GS
0.149 GC
2 setlinecap
1 LJ
0.5 LW
N
195.429 48 M
195.429 54.295 L
S
GR
GS
0.149 GC
2 setlinecap
1 LJ
0.5 LW
N
285.357 48 M
285.357 54.295 L
S
GR
GS
0.149 GC
2 setlinecap
1 LJ
0.5 LW
N
375.286 48 M
375.286 54.295 L
S
GR
GS
0.149 GC
2 setlinecap
1 LJ
0.5 LW
N
465.214 48 M
465.214 54.295 L
S
GR
GS
0.149 GC
2 setlinecap
1 LJ
0.5 LW
N
555.143 48 M
555.143 54.295 L
S
GR
GS
0.149 GC
2 setlinecap
1 LJ
0.5 LW
N
645.071 48 M
645.071 54.295 L
S
GR
GS
0.149 GC
2 setlinecap
1 LJ
0.5 LW
N
735 48 M
735 54.295 L
S
GR
GS
[1 0 0 1 105.5 574.09998] CT
0.149 GC
/Helvetica 18 F
GS
[1 0 0 1 0 0] CT
-5.5 18 moveto 
1 -1 scale
(0) t 
GR
GR
GS
[1 0 0 1 195.42857 574.09998] CT
0.149 GC
/Helvetica 18 F
GS
[1 0 0 1 0 0] CT
-10.5 18 moveto 
1 -1 scale
(20) t 
GR
GR
GS
[1 0 0 1 285.35715 574.09998] CT
0.149 GC
/Helvetica 18 F
GS
[1 0 0 1 0 0] CT
-10.5 18 moveto 
1 -1 scale
(40) t 
GR
GR
GS
[1 0 0 1 375.28571 574.09998] CT
0.149 GC
/Helvetica 18 F
GS
[1 0 0 1 0 0] CT
-10.5 18 moveto 
1 -1 scale
(60) t 
GR
GR
GS
[1 0 0 1 465.21429 574.09998] CT
0.149 GC
/Helvetica 18 F
GS
[1 0 0 1 0 0] CT
-10.5 18 moveto 
1 -1 scale
(80) t 
GR
GR
GS
[1 0 0 1 555.14288 574.09998] CT
0.149 GC
/Helvetica 18 F
GS
[1 0 0 1 0 0] CT
-15.5 18 moveto 
1 -1 scale
(100) t 
GR
GR
GS
[1 0 0 1 645.07141 574.09998] CT
0.149 GC
/Helvetica 18 F
GS
[1 0 0 1 0 0] CT
-15.5 18 moveto 
1 -1 scale
(120) t 
GR
GR
GS
[1 0 0 1 735 574.09998] CT
0.149 GC
/Helvetica 18 F
GS
[1 0 0 1 0 0] CT
-15.5 18 moveto 
1 -1 scale
(140) t 
GR
GR
GS
[1 0 0 1 420.25031 596.59998] CT
0.149 GC
/Helvetica 19.8 F
GS
[1 0 0 1 0 0] CT
-72 19 moveto 
1 -1 scale
(Sequence Index) t 
GR
GR
GS
0.149 GC
2 setlinecap
1 LJ
0.5 LW
N
105.5 568.5 M
105.5 48 L
S
GR
GS
0.149 GC
2 setlinecap
1 LJ
0.5 LW
N
735 568.5 M
735 48 L
S
GR
GS
0.149 GC
2 setlinecap
1 LJ
0.5 LW
N
105.5 568.5 M
111.795 568.5 L
S
GR
GS
0.149 GC
2 setlinecap
1 LJ
0.5 LW
N
105.5 510.667 M
111.795 510.667 L
S
GR
GS
0.149 GC
2 setlinecap
1 LJ
0.5 LW
N
105.5 452.833 M
111.795 452.833 L
S
GR
GS
0.149 GC
2 setlinecap
1 LJ
0.5 LW
N
105.5 395 M
111.795 395 L
S
GR
GS
0.149 GC
2 setlinecap
1 LJ
0.5 LW
N
105.5 337.167 M
111.795 337.167 L
S
GR
GS
0.149 GC
2 setlinecap
1 LJ
0.5 LW
N
105.5 279.333 M
111.795 279.333 L
S
GR
GS
0.149 GC
2 setlinecap
1 LJ
0.5 LW
N
105.5 221.5 M
111.795 221.5 L
S
GR
GS
0.149 GC
2 setlinecap
1 LJ
0.5 LW
N
105.5 163.667 M
111.795 163.667 L
S
GR
GS
0.149 GC
2 setlinecap
1 LJ
0.5 LW
N
105.5 105.833 M
111.795 105.833 L
S
GR
GS
0.149 GC
2 setlinecap
1 LJ
0.5 LW
N
105.5 48 M
111.795 48 L
S
GR
GS
0.149 GC
2 setlinecap
1 LJ
0.5 LW
N
735 568.5 M
728.705 568.5 L
S
GR
GS
0.149 GC
2 setlinecap
1 LJ
0.5 LW
N
735 510.667 M
728.705 510.667 L
S
GR
GS
0.149 GC
2 setlinecap
1 LJ
0.5 LW
N
735 452.833 M
728.705 452.833 L
S
GR
GS
0.149 GC
2 setlinecap
1 LJ
0.5 LW
N
735 395 M
728.705 395 L
S
GR
GS
0.149 GC
2 setlinecap
1 LJ
0.5 LW
N
735 337.167 M
728.705 337.167 L
S
GR
GS
0.149 GC
2 setlinecap
1 LJ
0.5 LW
N
735 279.333 M
728.705 279.333 L
S
GR
GS
0.149 GC
2 setlinecap
1 LJ
0.5 LW
N
735 221.5 M
728.705 221.5 L
S
GR
GS
0.149 GC
2 setlinecap
1 LJ
0.5 LW
N
735 163.667 M
728.705 163.667 L
S
GR
GS
0.149 GC
2 setlinecap
1 LJ
0.5 LW
N
735 105.833 M
728.705 105.833 L
S
GR
GS
0.149 GC
2 setlinecap
1 LJ
0.5 LW
N
735 48 M
728.705 48 L
S
GR
GS
[1 0 0 1 99.9 568.5] CT
0.149 GC
/Helvetica 18 F
GS
[1 0 0 1 0 0] CT
-33 7 moveto 
1 -1 scale
(-0.1) t 
GR
GR
GS
[1 0 0 1 99.9 510.66666] CT
0.149 GC
/Helvetica 18 F
GS
[1 0 0 1 0 0] CT
-43 7 moveto 
1 -1 scale
(-0.05) t 
GR
GR
GS
[1 0 0 1 99.9 452.83334] CT
0.149 GC
/Helvetica 18 F
GS
[1 0 0 1 0 0] CT
-11 7 moveto 
1 -1 scale
(0) t 
GR
GR
GS
[1 0 0 1 99.9 395] CT
0.149 GC
/Helvetica 18 F
GS
[1 0 0 1 0 0] CT
-36 7 moveto 
1 -1 scale
(0.05) t 
GR
GR
GS
[1 0 0 1 99.9 337.16666] CT
0.149 GC
/Helvetica 18 F
GS
[1 0 0 1 0 0] CT
-26 7 moveto 
1 -1 scale
(0.1) t 
GR
GR
GS
[1 0 0 1 99.9 279.33331] CT
0.149 GC
/Helvetica 18 F
GS
[1 0 0 1 0 0] CT
-36 7 moveto 
1 -1 scale
(0.15) t 
GR
GR
GS
[1 0 0 1 99.9 221.5] CT
0.149 GC
/Helvetica 18 F
GS
[1 0 0 1 0 0] CT
-26 7 moveto 
1 -1 scale
(0.2) t 
GR
GR
GS
[1 0 0 1 99.9 163.66667] CT
0.149 GC
/Helvetica 18 F
GS
[1 0 0 1 0 0] CT
-36 7 moveto 
1 -1 scale
(0.25) t 
GR
GR
GS
[1 0 0 1 99.9 105.83332] CT
0.149 GC
/Helvetica 18 F
GS
[1 0 0 1 0 0] CT
-26 7 moveto 
1 -1 scale
(0.3) t 
GR
GR
GS
[1 0 0 1 99.9 48.00001] CT
0.149 GC
/Helvetica 18 F
GS
[1 0 0 1 0 0] CT
-36 7 moveto 
1 -1 scale
(0.35) t 
GR
GR
GS
[1 0 0 1 420.2504 45.525] CT
/Helvetica-Bold 19.8 F
GS
[1 0 0 1 0 0] CT
-82 -5 moveto 
1 -1 scale
(Scaling functions) t 
GR
GR
GS
0 0.447 0.741 RC
1 LJ
2 LW
N
109.996 533.988 M
114.493 552.061 L
118.989 507.203 L
123.486 479.207 L
127.982 468.074 L
132.479 452.422 L
136.975 453.633 L
141.471 450.325 L
145.968 442.499 L
150.464 435.884 L
154.961 446.131 L
159.457 451.86 L
163.954 453.071 L
168.45 455.492 L
172.946 453.395 L
177.443 452.509 L
181.939 452.833 L
186.436 452.833 L
190.932 452.833 L
195.429 452.833 L
199.925 452.833 L
204.421 452.833 L
208.918 452.833 L
213.414 452.833 L
217.911 452.833 L
222.407 452.833 L
226.904 452.833 L
231.4 452.833 L
235.896 452.833 L
240.393 452.833 L
244.889 452.833 L
249.386 452.833 L
253.882 452.833 L
258.379 452.833 L
262.875 452.833 L
267.371 452.833 L
271.868 452.833 L
276.364 452.833 L
280.861 452.833 L
285.357 452.833 L
289.854 452.833 L
294.35 452.833 L
298.846 452.833 L
303.343 452.833 L
307.839 452.833 L
312.336 452.833 L
316.832 452.833 L
321.329 452.833 L
325.825 452.833 L
330.321 452.833 L
334.818 452.833 L
339.314 452.833 L
343.811 452.833 L
348.307 452.833 L
352.804 452.833 L
357.3 452.833 L
361.796 452.833 L
366.293 452.833 L
370.789 452.833 L
375.286 452.833 L
379.782 452.833 L
384.279 452.833 L
388.775 452.833 L
393.271 452.833 L
397.768 452.833 L
402.264 452.833 L
406.761 452.833 L
411.257 452.833 L
415.754 452.833 L
420.25 452.833 L
424.746 452.833 L
429.243 452.833 L
433.739 452.833 L
438.236 452.833 L
442.732 452.833 L
447.229 452.833 L
451.725 452.833 L
456.221 452.833 L
460.718 452.833 L
465.214 452.833 L
469.711 452.833 L
474.207 452.833 L
478.704 452.833 L
483.2 452.833 L
487.696 452.833 L
492.193 452.833 L
496.689 452.833 L
501.186 452.833 L
505.682 452.833 L
510.179 452.833 L
514.675 452.833 L
519.171 452.833 L
523.668 452.833 L
528.164 452.833 L
532.661 452.833 L
537.157 452.833 L
541.654 452.833 L
546.15 452.833 L
550.646 452.833 L
555.143 452.833 L
559.639 452.833 L
564.136 452.833 L
568.632 452.833 L
573.129 452.833 L
577.625 452.833 L
582.121 452.833 L
586.618 452.833 L
591.114 452.833 L
595.611 452.833 L
600.107 452.833 L
604.604 452.833 L
609.1 452.833 L
613.596 452.833 L
618.093 452.833 L
622.589 452.833 L
627.086 452.833 L
631.582 452.833 L
636.079 452.833 L
640.575 452.833 L
645.071 452.833 L
649.568 452.833 L
654.064 452.833 L
658.561 452.833 L
663.057 452.833 L
667.554 452.833 L
672.05 452.833 L
676.546 452.833 L
681.043 452.833 L
S
GR
GS
0.851 0.325 0.098 RC
1 LJ
2 LW
N
109.996 452.833 M
114.493 452.833 L
118.989 389.903 L
123.486 343.834 L
127.982 314.628 L
132.479 280.903 L
136.975 264.041 L
141.471 242.66 L
145.968 216.762 L
150.464 192.074 L
154.961 184.248 L
159.457 171.904 L
163.954 155.042 L
168.45 139.39 L
172.946 119.22 L
177.443 100.261 L
181.939 82.512 L
186.436 64.439 L
190.932 172.228 L
195.429 246.292 L
199.925 286.632 L
204.421 336.008 L
208.918 351.66 L
213.414 376.348 L
217.911 410.072 L
222.407 441.376 L
226.904 438.954 L
231.4 445.569 L
235.896 461.221 L
240.393 474.451 L
244.889 496.718 L
249.386 516.563 L
253.882 533.988 L
258.379 552.061 L
262.875 507.203 L
267.371 479.207 L
271.868 468.074 L
276.364 452.422 L
280.861 453.633 L
285.357 450.325 L
289.854 442.499 L
294.35 435.884 L
298.846 446.131 L
303.343 451.86 L
307.839 453.071 L
312.336 455.492 L
316.832 453.395 L
321.329 452.509 L
325.825 452.833 L
330.321 452.833 L
334.818 452.833 L
339.314 452.833 L
343.811 452.833 L
348.307 452.833 L
352.804 452.833 L
357.3 452.833 L
361.796 452.833 L
366.293 452.833 L
370.789 452.833 L
375.286 452.833 L
379.782 452.833 L
384.279 452.833 L
388.775 452.833 L
393.271 452.833 L
397.768 452.833 L
402.264 452.833 L
406.761 452.833 L
411.257 452.833 L
415.754 452.833 L
420.25 452.833 L
424.746 452.833 L
429.243 452.833 L
433.739 452.833 L
438.236 452.833 L
442.732 452.833 L
447.229 452.833 L
451.725 452.833 L
456.221 452.833 L
460.718 452.833 L
465.214 452.833 L
469.711 452.833 L
474.207 452.833 L
478.704 452.833 L
483.2 452.833 L
487.696 452.833 L
492.193 452.833 L
496.689 452.833 L
501.186 452.833 L
505.682 452.833 L
510.179 452.833 L
514.675 452.833 L
519.171 452.833 L
523.668 452.833 L
528.164 452.833 L
532.661 452.833 L
537.157 452.833 L
541.654 452.833 L
546.15 452.833 L
550.646 452.833 L
555.143 452.833 L
559.639 452.833 L
564.136 452.833 L
568.632 452.833 L
573.129 452.833 L
577.625 452.833 L
582.121 452.833 L
586.618 452.833 L
591.114 452.833 L
595.611 452.833 L
600.107 452.833 L
604.604 452.833 L
609.1 452.833 L
613.596 452.833 L
618.093 452.833 L
622.589 452.833 L
627.086 452.833 L
631.582 452.833 L
636.079 452.833 L
640.575 452.833 L
645.071 452.833 L
649.568 452.833 L
654.064 452.833 L
658.561 452.833 L
663.057 452.833 L
667.554 452.833 L
672.05 452.833 L
676.546 452.833 L
681.043 452.833 L
S
GR
GS
0.929 0.694 0.125 RC
1 LJ
2 LW
N
109.996 452.833 M
114.493 452.833 L
118.989 452.833 L
123.486 452.833 L
127.982 452.833 L
132.479 452.833 L
136.975 452.833 L
141.471 452.833 L
145.968 452.833 L
150.464 452.833 L
154.961 452.833 L
159.457 452.833 L
163.954 452.833 L
168.45 452.833 L
172.946 452.833 L
177.443 452.833 L
181.939 452.833 L
186.436 452.833 L
190.932 452.833 L
195.429 452.833 L
199.925 452.833 L
204.421 452.833 L
208.918 452.833 L
213.414 452.833 L
217.911 452.833 L
222.407 452.833 L
226.904 452.833 L
231.4 452.833 L
235.896 452.833 L
240.393 452.833 L
244.889 452.833 L
249.386 452.833 L
253.882 452.833 L
258.379 452.833 L
262.875 389.903 L
267.371 343.834 L
271.868 314.628 L
276.364 280.903 L
280.861 264.041 L
285.357 242.66 L
289.854 216.762 L
294.35 192.074 L
298.846 184.248 L
303.343 171.904 L
307.839 155.042 L
312.336 139.39 L
316.832 119.22 L
321.329 100.261 L
325.825 82.512 L
330.321 64.439 L
334.818 172.228 L
339.314 246.292 L
343.811 286.632 L
348.307 336.008 L
352.804 351.66 L
357.3 376.348 L
361.796 410.072 L
366.293 441.376 L
370.789 438.954 L
375.286 445.569 L
379.782 461.221 L
384.279 474.451 L
388.775 496.718 L
393.271 516.563 L
397.768 533.988 L
402.264 552.061 L
406.761 507.203 L
411.257 479.207 L
415.754 468.074 L
420.25 452.422 L
424.746 453.633 L
429.243 450.325 L
433.739 442.499 L
438.236 435.884 L
442.732 446.131 L
447.229 451.86 L
451.725 453.071 L
456.221 455.492 L
460.718 453.395 L
465.214 452.509 L
469.711 452.833 L
474.207 452.833 L
478.704 452.833 L
483.2 452.833 L
487.696 452.833 L
492.193 452.833 L
496.689 452.833 L
501.186 452.833 L
505.682 452.833 L
510.179 452.833 L
514.675 452.833 L
519.171 452.833 L
523.668 452.833 L
528.164 452.833 L
532.661 452.833 L
537.157 452.833 L
541.654 452.833 L
546.15 452.833 L
550.646 452.833 L
555.143 452.833 L
559.639 452.833 L
564.136 452.833 L
568.632 452.833 L
573.129 452.833 L
577.625 452.833 L
582.121 452.833 L
586.618 452.833 L
591.114 452.833 L
595.611 452.833 L
600.107 452.833 L
604.604 452.833 L
609.1 452.833 L
613.596 452.833 L
618.093 452.833 L
622.589 452.833 L
627.086 452.833 L
631.582 452.833 L
636.079 452.833 L
640.575 452.833 L
645.071 452.833 L
649.568 452.833 L
654.064 452.833 L
658.561 452.833 L
663.057 452.833 L
667.554 452.833 L
672.05 452.833 L
676.546 452.833 L
681.043 452.833 L
S
GR
GS
0.494 0.184 0.557 RC
1 LJ
2 LW
N
109.996 452.833 M
114.493 452.833 L
118.989 452.833 L
123.486 452.833 L
127.982 452.833 L
132.479 452.833 L
136.975 452.833 L
141.471 452.833 L
145.968 452.833 L
150.464 452.833 L
154.961 452.833 L
159.457 452.833 L
163.954 452.833 L
168.45 452.833 L
172.946 452.833 L
177.443 452.833 L
181.939 452.833 L
186.436 452.833 L
190.932 452.833 L
195.429 452.833 L
199.925 452.833 L
204.421 452.833 L
208.918 452.833 L
213.414 452.833 L
217.911 452.833 L
222.407 452.833 L
226.904 452.833 L
231.4 452.833 L
235.896 452.833 L
240.393 452.833 L
244.889 452.833 L
249.386 452.833 L
253.882 452.833 L
258.379 452.833 L
262.875 452.833 L
267.371 452.833 L
271.868 452.833 L
276.364 452.833 L
280.861 452.833 L
285.357 452.833 L
289.854 452.833 L
294.35 452.833 L
298.846 452.833 L
303.343 452.833 L
307.839 452.833 L
312.336 452.833 L
316.832 452.833 L
321.329 452.833 L
325.825 452.833 L
330.321 452.833 L
334.818 452.833 L
339.314 452.833 L
343.811 452.833 L
348.307 452.833 L
352.804 452.833 L
357.3 452.833 L
361.796 452.833 L
366.293 452.833 L
370.789 452.833 L
375.286 452.833 L
379.782 452.833 L
384.279 452.833 L
388.775 452.833 L
393.271 452.833 L
397.768 452.833 L
402.264 452.833 L
406.761 389.903 L
411.257 343.834 L
415.754 314.628 L
420.25 280.903 L
424.746 264.041 L
429.243 242.66 L
433.739 216.762 L
438.236 192.074 L
442.732 184.248 L
447.229 171.904 L
451.725 155.042 L
456.221 139.39 L
460.718 119.22 L
465.214 100.261 L
469.711 82.512 L
474.207 64.439 L
478.704 172.228 L
483.2 246.292 L
487.696 286.632 L
492.193 336.008 L
496.689 351.66 L
501.186 376.348 L
505.682 410.072 L
510.179 441.376 L
514.675 438.954 L
519.171 445.569 L
523.668 461.221 L
528.164 474.451 L
532.661 496.718 L
537.157 516.563 L
541.654 533.988 L
546.15 552.061 L
550.646 507.203 L
555.143 479.207 L
559.639 468.074 L
564.136 452.422 L
568.632 453.633 L
573.129 450.325 L
577.625 442.499 L
582.121 435.884 L
586.618 446.131 L
591.114 451.86 L
595.611 453.071 L
600.107 455.492 L
604.604 453.395 L
609.1 452.509 L
613.596 452.833 L
618.093 452.833 L
622.589 452.833 L
627.086 452.833 L
631.582 452.833 L
636.079 452.833 L
640.575 452.833 L
645.071 452.833 L
649.568 452.833 L
654.064 452.833 L
658.561 452.833 L
663.057 452.833 L
667.554 452.833 L
672.05 452.833 L
676.546 452.833 L
681.043 452.833 L
S
GR
GS
0.467 0.675 0.188 RC
1 LJ
2 LW
N
109.996 452.833 M
114.493 452.833 L
118.989 452.833 L
123.486 452.833 L
127.982 452.833 L
132.479 452.833 L
136.975 452.833 L
141.471 452.833 L
145.968 452.833 L
150.464 452.833 L
154.961 452.833 L
159.457 452.833 L
163.954 452.833 L
168.45 452.833 L
172.946 452.833 L
177.443 452.833 L
181.939 452.833 L
186.436 452.833 L
190.932 452.833 L
195.429 452.833 L
199.925 452.833 L
204.421 452.833 L
208.918 452.833 L
213.414 452.833 L
217.911 452.833 L
222.407 452.833 L
226.904 452.833 L
231.4 452.833 L
235.896 452.833 L
240.393 452.833 L
244.889 452.833 L
249.386 452.833 L
253.882 452.833 L
258.379 452.833 L
262.875 452.833 L
267.371 452.833 L
271.868 452.833 L
276.364 452.833 L
280.861 452.833 L
285.357 452.833 L
289.854 452.833 L
294.35 452.833 L
298.846 452.833 L
303.343 452.833 L
307.839 452.833 L
312.336 452.833 L
316.832 452.833 L
321.329 452.833 L
325.825 452.833 L
330.321 452.833 L
334.818 452.833 L
339.314 452.833 L
343.811 452.833 L
348.307 452.833 L
352.804 452.833 L
357.3 452.833 L
361.796 452.833 L
366.293 452.833 L
370.789 452.833 L
375.286 452.833 L
379.782 452.833 L
384.279 452.833 L
388.775 452.833 L
393.271 452.833 L
397.768 452.833 L
402.264 452.833 L
406.761 452.833 L
411.257 452.833 L
415.754 452.833 L
420.25 452.833 L
424.746 452.833 L
429.243 452.833 L
433.739 452.833 L
438.236 452.833 L
442.732 452.833 L
447.229 452.833 L
451.725 452.833 L
456.221 452.833 L
460.718 452.833 L
465.214 452.833 L
469.711 452.833 L
474.207 452.833 L
478.704 452.833 L
483.2 452.833 L
487.696 452.833 L
492.193 452.833 L
496.689 452.833 L
501.186 452.833 L
505.682 452.833 L
510.179 452.833 L
514.675 452.833 L
519.171 452.833 L
523.668 452.833 L
528.164 452.833 L
532.661 452.833 L
537.157 452.833 L
541.654 452.833 L
546.15 452.833 L
550.646 389.903 L
555.143 343.834 L
559.639 314.628 L
564.136 280.903 L
568.632 264.041 L
573.129 242.66 L
577.625 216.762 L
582.121 192.074 L
586.618 184.248 L
591.114 171.904 L
595.611 155.042 L
600.107 139.39 L
604.604 119.22 L
609.1 100.261 L
613.596 82.512 L
618.093 64.439 L
622.589 172.228 L
627.086 246.292 L
631.582 286.632 L
636.079 336.008 L
640.575 351.66 L
645.071 376.348 L
649.568 410.072 L
654.064 441.376 L
658.561 438.954 L
663.057 445.569 L
667.554 461.221 L
672.05 474.451 L
676.546 496.718 L
681.043 516.563 L
S
GR
%%Trailer
%%Pages: 1
%%EOF
