%!PS-Adobe-3.0 EPSF-3.0
%%Creator: (MATLAB, The Mathworks, Inc. Version 9.1.0.441655 \(R2016b\). Operating System: Windows 8)
%%Title: C:/Users/Eigenaar/WIT/Wavelets/wavelets/report/plots/scalingdb4.eps
%%CreationDate: 2017-11-29T15:48:31
%%Pages: (atend)
%%BoundingBox: 0 0 738 575
%%LanguageLevel: 3
%%EndComments
%%BeginProlog
%%BeginResource: procset (Apache XML Graphics Std ProcSet) 1.2 0
%%Version: 1.2 0
%%Copyright: (Copyright 2001-2003,2010 The Apache Software Foundation. License terms: http://www.apache.org/licenses/LICENSE-2.0)
/bd{bind def}bind def
/ld{load def}bd
/GR/grestore ld
/M/moveto ld
/LJ/setlinejoin ld
/C/curveto ld
/f/fill ld
/LW/setlinewidth ld
/GC/setgray ld
/t/show ld
/N/newpath ld
/CT/concat ld
/cp/closepath ld
/S/stroke ld
/L/lineto ld
/CC/setcmykcolor ld
/A/ashow ld
/GS/gsave ld
/RC/setrgbcolor ld
/RM/rmoveto ld
/ML/setmiterlimit ld
/re {4 2 roll M
1 index 0 rlineto
0 exch rlineto
neg 0 rlineto
cp } bd
/_ctm matrix def
/_tm matrix def
/BT { _ctm currentmatrix pop matrix _tm copy pop 0 0 moveto } bd
/ET { _ctm setmatrix } bd
/iTm { _ctm setmatrix _tm concat } bd
/Tm { _tm astore pop iTm 0 0 moveto } bd
/ux 0.0 def
/uy 0.0 def
/F {
  /Tp exch def
  /Tf exch def
  Tf findfont Tp scalefont setfont
  /cf Tf def  /cs Tp def
} bd
/ULS {currentpoint /uy exch def /ux exch def} bd
/ULE {
  /Tcx currentpoint pop def
  gsave
  newpath
  cf findfont cs scalefont dup
  /FontMatrix get 0 get /Ts exch def /FontInfo get dup
  /UnderlinePosition get Ts mul /To exch def
  /UnderlineThickness get Ts mul /Tt exch def
  ux uy To add moveto  Tcx uy To add lineto
  Tt setlinewidth stroke
  grestore
} bd
/OLE {
  /Tcx currentpoint pop def
  gsave
  newpath
  cf findfont cs scalefont dup
  /FontMatrix get 0 get /Ts exch def /FontInfo get dup
  /UnderlinePosition get Ts mul /To exch def
  /UnderlineThickness get Ts mul /Tt exch def
  ux uy To add cs add moveto Tcx uy To add cs add lineto
  Tt setlinewidth stroke
  grestore
} bd
/SOE {
  /Tcx currentpoint pop def
  gsave
  newpath
  cf findfont cs scalefont dup
  /FontMatrix get 0 get /Ts exch def /FontInfo get dup
  /UnderlinePosition get Ts mul /To exch def
  /UnderlineThickness get Ts mul /Tt exch def
  ux uy To add cs 10 mul 26 idiv add moveto Tcx uy To add cs 10 mul 26 idiv add lineto
  Tt setlinewidth stroke
  grestore
} bd
/QT {
/Y22 exch store
/X22 exch store
/Y21 exch store
/X21 exch store
currentpoint
/Y21 load 2 mul add 3 div exch
/X21 load 2 mul add 3 div exch
/X21 load 2 mul /X22 load add 3 div
/Y21 load 2 mul /Y22 load add 3 div
/X22 load /Y22 load curveto
} bd
/SSPD {
dup length /d exch dict def
{
/v exch def
/k exch def
currentpagedevice k known {
/cpdv currentpagedevice k get def
v cpdv ne {
/upd false def
/nullv v type /nulltype eq def
/nullcpdv cpdv type /nulltype eq def
nullv nullcpdv or
{
/upd true def
} {
/sametype v type cpdv type eq def
sametype {
v type /arraytype eq {
/vlen v length def
/cpdvlen cpdv length def
vlen cpdvlen eq {
0 1 vlen 1 sub {
/i exch def
/obj v i get def
/cpdobj cpdv i get def
obj cpdobj ne {
/upd true def
exit
} if
} for
} {
/upd true def
} ifelse
} {
v type /dicttype eq {
v {
/dv exch def
/dk exch def
/cpddv cpdv dk get def
dv cpddv ne {
/upd true def
exit
} if
} forall
} {
/upd true def
} ifelse
} ifelse
} if
} ifelse
upd true eq {
d k v put
} if
} if
} if
} forall
d length 0 gt {
d setpagedevice
} if
} bd
/RE { % /NewFontName [NewEncodingArray] /FontName RE -
  findfont dup length dict begin
  {
    1 index /FID ne
    {def} {pop pop} ifelse
  } forall
  /Encoding exch def
  /FontName 1 index def
  currentdict definefont pop
  end
} bind def
%%EndResource
%%BeginResource: procset (Apache XML Graphics EPS ProcSet) 1.0 0
%%Version: 1.0 0
%%Copyright: (Copyright 2002-2003 The Apache Software Foundation. License terms: http://www.apache.org/licenses/LICENSE-2.0)
/BeginEPSF { %def
/b4_Inc_state save def         % Save state for cleanup
/dict_count countdictstack def % Count objects on dict stack
/op_count count 1 sub def      % Count objects on operand stack
userdict begin                 % Push userdict on dict stack
/showpage { } def              % Redefine showpage, { } = null proc
0 setgray 0 setlinecap         % Prepare graphics state
1 setlinewidth 0 setlinejoin
10 setmiterlimit [ ] 0 setdash newpath
/languagelevel where           % If level not equal to 1 then
{pop languagelevel             % set strokeadjust and
1 ne                           % overprint to their defaults.
{false setstrokeadjust false setoverprint
} if
} if
} bd
/EndEPSF { %def
count op_count sub {pop} repeat            % Clean up stacks
countdictstack dict_count sub {end} repeat
b4_Inc_state restore
} bd
%%EndResource
%FOPBeginFontDict
%%IncludeResource: font Courier-Bold
%%IncludeResource: font Helvetica
%%IncludeResource: font Courier-BoldOblique
%%IncludeResource: font Courier-Oblique
%%IncludeResource: font Times-Roman
%%IncludeResource: font Helvetica-BoldOblique
%%IncludeResource: font Helvetica-Bold
%%IncludeResource: font Helvetica-Oblique
%%IncludeResource: font Times-BoldItalic
%%IncludeResource: font Courier
%%IncludeResource: font Times-Italic
%%IncludeResource: font Times-Bold
%%IncludeResource: font Symbol
%%IncludeResource: font ZapfDingbats
%FOPEndFontDict
%%BeginResource: encoding WinAnsiEncoding
/WinAnsiEncoding [
/.notdef /.notdef /.notdef /.notdef /.notdef
/.notdef /.notdef /.notdef /.notdef /.notdef
/.notdef /.notdef /.notdef /.notdef /.notdef
/.notdef /.notdef /.notdef /.notdef /.notdef
/.notdef /.notdef /.notdef /.notdef /.notdef
/.notdef /.notdef /.notdef /.notdef /.notdef
/.notdef /.notdef /space /exclam /quotedbl
/numbersign /dollar /percent /ampersand /quotesingle
/parenleft /parenright /asterisk /plus /comma
/hyphen /period /slash /zero /one
/two /three /four /five /six
/seven /eight /nine /colon /semicolon
/less /equal /greater /question /at
/A /B /C /D /E
/F /G /H /I /J
/K /L /M /N /O
/P /Q /R /S /T
/U /V /W /X /Y
/Z /bracketleft /backslash /bracketright /asciicircum
/underscore /quoteleft /a /b /c
/d /e /f /g /h
/i /j /k /l /m
/n /o /p /q /r
/s /t /u /v /w
/x /y /z /braceleft /bar
/braceright /asciitilde /bullet /Euro /bullet
/quotesinglbase /florin /quotedblbase /ellipsis /dagger
/daggerdbl /circumflex /perthousand /Scaron /guilsinglleft
/OE /bullet /Zcaron /bullet /bullet
/quoteleft /quoteright /quotedblleft /quotedblright /bullet
/endash /emdash /asciitilde /trademark /scaron
/guilsinglright /oe /bullet /zcaron /Ydieresis
/space /exclamdown /cent /sterling /currency
/yen /brokenbar /section /dieresis /copyright
/ordfeminine /guillemotleft /logicalnot /sfthyphen /registered
/macron /degree /plusminus /twosuperior /threesuperior
/acute /mu /paragraph /middot /cedilla
/onesuperior /ordmasculine /guillemotright /onequarter /onehalf
/threequarters /questiondown /Agrave /Aacute /Acircumflex
/Atilde /Adieresis /Aring /AE /Ccedilla
/Egrave /Eacute /Ecircumflex /Edieresis /Igrave
/Iacute /Icircumflex /Idieresis /Eth /Ntilde
/Ograve /Oacute /Ocircumflex /Otilde /Odieresis
/multiply /Oslash /Ugrave /Uacute /Ucircumflex
/Udieresis /Yacute /Thorn /germandbls /agrave
/aacute /acircumflex /atilde /adieresis /aring
/ae /ccedilla /egrave /eacute /ecircumflex
/edieresis /igrave /iacute /icircumflex /idieresis
/eth /ntilde /ograve /oacute /ocircumflex
/otilde /odieresis /divide /oslash /ugrave
/uacute /ucircumflex /udieresis /yacute /thorn
/ydieresis
] def
%%EndResource
%FOPBeginFontReencode
/Courier-Bold findfont
dup length dict begin
  {1 index /FID ne {def} {pop pop} ifelse} forall
  /Encoding WinAnsiEncoding def
  currentdict
end
/Courier-Bold exch definefont pop
/Helvetica findfont
dup length dict begin
  {1 index /FID ne {def} {pop pop} ifelse} forall
  /Encoding WinAnsiEncoding def
  currentdict
end
/Helvetica exch definefont pop
/Courier-BoldOblique findfont
dup length dict begin
  {1 index /FID ne {def} {pop pop} ifelse} forall
  /Encoding WinAnsiEncoding def
  currentdict
end
/Courier-BoldOblique exch definefont pop
/Courier-Oblique findfont
dup length dict begin
  {1 index /FID ne {def} {pop pop} ifelse} forall
  /Encoding WinAnsiEncoding def
  currentdict
end
/Courier-Oblique exch definefont pop
/Times-Roman findfont
dup length dict begin
  {1 index /FID ne {def} {pop pop} ifelse} forall
  /Encoding WinAnsiEncoding def
  currentdict
end
/Times-Roman exch definefont pop
/Helvetica-BoldOblique findfont
dup length dict begin
  {1 index /FID ne {def} {pop pop} ifelse} forall
  /Encoding WinAnsiEncoding def
  currentdict
end
/Helvetica-BoldOblique exch definefont pop
/Helvetica-Bold findfont
dup length dict begin
  {1 index /FID ne {def} {pop pop} ifelse} forall
  /Encoding WinAnsiEncoding def
  currentdict
end
/Helvetica-Bold exch definefont pop
/Helvetica-Oblique findfont
dup length dict begin
  {1 index /FID ne {def} {pop pop} ifelse} forall
  /Encoding WinAnsiEncoding def
  currentdict
end
/Helvetica-Oblique exch definefont pop
/Times-BoldItalic findfont
dup length dict begin
  {1 index /FID ne {def} {pop pop} ifelse} forall
  /Encoding WinAnsiEncoding def
  currentdict
end
/Times-BoldItalic exch definefont pop
/Courier findfont
dup length dict begin
  {1 index /FID ne {def} {pop pop} ifelse} forall
  /Encoding WinAnsiEncoding def
  currentdict
end
/Courier exch definefont pop
/Times-Italic findfont
dup length dict begin
  {1 index /FID ne {def} {pop pop} ifelse} forall
  /Encoding WinAnsiEncoding def
  currentdict
end
/Times-Italic exch definefont pop
/Times-Bold findfont
dup length dict begin
  {1 index /FID ne {def} {pop pop} ifelse} forall
  /Encoding WinAnsiEncoding def
  currentdict
end
/Times-Bold exch definefont pop
%FOPEndFontReencode
%%EndProlog
%%Page: 1 1
%%PageBoundingBox: 0 0 738 575
%%BeginPageSetup
[1 0 0 -1 0 575] CT
%%EndPageSetup
GS
[0.75 0 0 0.75 0 0.5] CT
1 GC
N
0 0 984 766 re
f
GR
GS
[0.75 0 0 0.75 0 0.5] CT
1 GC
N
0 0 984 766 re
f
GR
GS
[0.75 0 0 0.75 0 0.5] CT
1 GC
N
128 682 M
891 682 L
891 57 L
128 57 L
cp
f
GR
GS
[0.75 0 0 0.75 0 0.5] CT
0.149 GC
2 setlinecap
1 LJ
0.667 LW
N
128 682 M
891 682 L
S
GR
GS
[0.75 0 0 0.75 0 0.5] CT
0.149 GC
2 setlinecap
1 LJ
0.667 LW
N
128 57 M
891 57 L
S
GR
GS
[0.75 0 0 0.75 0 0.5] CT
0.149 GC
2 setlinecap
1 LJ
0.667 LW
N
242.15 682 M
242.15 674.37 L
S
GR
GS
[0.75 0 0 0.75 0 0.5] CT
0.149 GC
2 setlinecap
1 LJ
0.667 LW
N
362.307 682 M
362.307 674.37 L
S
GR
GS
[0.75 0 0 0.75 0 0.5] CT
0.149 GC
2 setlinecap
1 LJ
0.667 LW
N
482.465 682 M
482.465 674.37 L
S
GR
GS
[0.75 0 0 0.75 0 0.5] CT
0.149 GC
2 setlinecap
1 LJ
0.667 LW
N
602.622 682 M
602.622 674.37 L
S
GR
GS
[0.75 0 0 0.75 0 0.5] CT
0.149 GC
2 setlinecap
1 LJ
0.667 LW
N
722.78 682 M
722.78 674.37 L
S
GR
GS
[0.75 0 0 0.75 0 0.5] CT
0.149 GC
2 setlinecap
1 LJ
0.667 LW
N
842.937 682 M
842.937 674.37 L
S
GR
GS
[0.75 0 0 0.75 0 0.5] CT
0.149 GC
2 setlinecap
1 LJ
0.667 LW
N
242.15 57 M
242.15 64.63 L
S
GR
GS
[0.75 0 0 0.75 0 0.5] CT
0.149 GC
2 setlinecap
1 LJ
0.667 LW
N
362.307 57 M
362.307 64.63 L
S
GR
GS
[0.75 0 0 0.75 0 0.5] CT
0.149 GC
2 setlinecap
1 LJ
0.667 LW
N
482.465 57 M
482.465 64.63 L
S
GR
GS
[0.75 0 0 0.75 0 0.5] CT
0.149 GC
2 setlinecap
1 LJ
0.667 LW
N
602.622 57 M
602.622 64.63 L
S
GR
GS
[0.75 0 0 0.75 0 0.5] CT
0.149 GC
2 setlinecap
1 LJ
0.667 LW
N
722.78 57 M
722.78 64.63 L
S
GR
GS
[0.75 0 0 0.75 0 0.5] CT
0.149 GC
2 setlinecap
1 LJ
0.667 LW
N
842.937 57 M
842.937 64.63 L
S
GR
GS
[0.75 0 0 0.75 181.61221 517.60001] CT
0.149 GC
/Helvetica 24 F
GS
[1 0 0 1 0 0] CT
-13.5 25 moveto 
1 -1 scale
(20) t 
GR
GR
GS
[0.75 0 0 0.75 271.73032 517.60001] CT
0.149 GC
/Helvetica 24 F
GS
[1 0 0 1 0 0] CT
-13.5 25 moveto 
1 -1 scale
(40) t 
GR
GR
GS
[0.75 0 0 0.75 361.84843 517.60001] CT
0.149 GC
/Helvetica 24 F
GS
[1 0 0 1 0 0] CT
-13.5 25 moveto 
1 -1 scale
(60) t 
GR
GR
GS
[0.75 0 0 0.75 451.96655 517.60001] CT
0.149 GC
/Helvetica 24 F
GS
[1 0 0 1 0 0] CT
-13.5 25 moveto 
1 -1 scale
(80) t 
GR
GR
GS
[0.75 0 0 0.75 542.08466 517.60001] CT
0.149 GC
/Helvetica 24 F
GS
[1 0 0 1 0 0] CT
-20.5 25 moveto 
1 -1 scale
(100) t 
GR
GR
GS
[0.75 0 0 0.75 632.20276 517.60001] CT
0.149 GC
/Helvetica 24 F
GS
[1 0 0 1 0 0] CT
-20.5 25 moveto 
1 -1 scale
(120) t 
GR
GR
GS
[0.75 0 0 0.75 382.12527 541.84999] CT
0.149 GC
/Helvetica 26.4 F
GS
[1 0 0 1 0 0] CT
-94 27 moveto 
1 -1 scale
(Sequence Index) t 
GR
GR
GS
[0.75 0 0 0.75 0 0.5] CT
0.149 GC
2 setlinecap
1 LJ
0.667 LW
N
128 682 M
128 57 L
S
GR
GS
[0.75 0 0 0.75 0 0.5] CT
0.149 GC
2 setlinecap
1 LJ
0.667 LW
N
891 682 M
891 57 L
S
GR
GS
[0.75 0 0 0.75 0 0.5] CT
0.149 GC
2 setlinecap
1 LJ
0.667 LW
N
128 628.851 M
135.63 628.851 L
S
GR
GS
[0.75 0 0 0.75 0 0.5] CT
0.149 GC
2 setlinecap
1 LJ
0.667 LW
N
128 542.295 M
135.63 542.295 L
S
GR
GS
[0.75 0 0 0.75 0 0.5] CT
0.149 GC
2 setlinecap
1 LJ
0.667 LW
N
128 455.739 M
135.63 455.739 L
S
GR
GS
[0.75 0 0 0.75 0 0.5] CT
0.149 GC
2 setlinecap
1 LJ
0.667 LW
N
128 369.183 M
135.63 369.183 L
S
GR
GS
[0.75 0 0 0.75 0 0.5] CT
0.149 GC
2 setlinecap
1 LJ
0.667 LW
N
128 282.627 M
135.63 282.627 L
S
GR
GS
[0.75 0 0 0.75 0 0.5] CT
0.149 GC
2 setlinecap
1 LJ
0.667 LW
N
128 196.07 M
135.63 196.07 L
S
GR
GS
[0.75 0 0 0.75 0 0.5] CT
0.149 GC
2 setlinecap
1 LJ
0.667 LW
N
128 109.514 M
135.63 109.514 L
S
GR
GS
[0.75 0 0 0.75 0 0.5] CT
0.149 GC
2 setlinecap
1 LJ
0.667 LW
N
891 628.851 M
883.37 628.851 L
S
GR
GS
[0.75 0 0 0.75 0 0.5] CT
0.149 GC
2 setlinecap
1 LJ
0.667 LW
N
891 542.295 M
883.37 542.295 L
S
GR
GS
[0.75 0 0 0.75 0 0.5] CT
0.149 GC
2 setlinecap
1 LJ
0.667 LW
N
891 455.739 M
883.37 455.739 L
S
GR
GS
[0.75 0 0 0.75 0 0.5] CT
0.149 GC
2 setlinecap
1 LJ
0.667 LW
N
891 369.183 M
883.37 369.183 L
S
GR
GS
[0.75 0 0 0.75 0 0.5] CT
0.149 GC
2 setlinecap
1 LJ
0.667 LW
N
891 282.627 M
883.37 282.627 L
S
GR
GS
[0.75 0 0 0.75 0 0.5] CT
0.149 GC
2 setlinecap
1 LJ
0.667 LW
N
891 196.07 M
883.37 196.07 L
S
GR
GS
[0.75 0 0 0.75 0 0.5] CT
0.149 GC
2 setlinecap
1 LJ
0.667 LW
N
891 109.514 M
883.37 109.514 L
S
GR
GS
[0.75 0 0 0.75 90.4 472.13835] CT
0.149 GC
/Helvetica 24 F
GS
[1 0 0 1 0 0] CT
-55 9.5 moveto 
1 -1 scale
(-0.05) t 
GR
GR
GS
[0.75 0 0 0.75 90.4 407.22124] CT
0.149 GC
/Helvetica 24 F
GS
[1 0 0 1 0 0] CT
-14 9.5 moveto 
1 -1 scale
(0) t 
GR
GR
GS
[0.75 0 0 0.75 90.4 342.30412] CT
0.149 GC
/Helvetica 24 F
GS
[1 0 0 1 0 0] CT
-47 9.5 moveto 
1 -1 scale
(0.05) t 
GR
GR
GS
[0.75 0 0 0.75 90.4 277.38701] CT
0.149 GC
/Helvetica 24 F
GS
[1 0 0 1 0 0] CT
-34 9.5 moveto 
1 -1 scale
(0.1) t 
GR
GR
GS
[0.75 0 0 0.75 90.4 212.46989] CT
0.149 GC
/Helvetica 24 F
GS
[1 0 0 1 0 0] CT
-47 9.5 moveto 
1 -1 scale
(0.15) t 
GR
GR
GS
[0.75 0 0 0.75 90.4 147.55278] CT
0.149 GC
/Helvetica 24 F
GS
[1 0 0 1 0 0] CT
-34 9.5 moveto 
1 -1 scale
(0.2) t 
GR
GR
GS
[0.75 0 0 0.75 90.4 82.63568] CT
0.149 GC
/Helvetica 24 F
GS
[1 0 0 1 0 0] CT
-47 9.5 moveto 
1 -1 scale
(0.25) t 
GR
GR
GS
[0.75 0 0 0.75 382.12539 39.5375] CT
/Helvetica-Bold 26.4 F
GS
[1 0 0 1 0 0] CT
-108.5 -6 moveto 
1 -1 scale
(Scaling functions) t 
GR
GR
GS
[0.75 0 0 0.75 0 0.5] CT
0 0.447 0.741 RC
1 LJ
2.667 LW
N
128 542.183 M
134.008 542.307 L
140.016 542.35 L
146.024 542.329 L
152.031 542.319 L
158.039 542.287 L
164.047 542.276 L
170.055 542.292 L
176.063 542.296 L
182.071 542.296 L
188.079 542.297 L
194.087 542.295 L
200.094 542.294 L
206.102 542.295 L
212.11 542.295 L
218.118 542.295 L
224.126 542.295 L
230.134 542.295 L
236.142 542.295 L
242.15 542.295 L
248.157 542.295 L
254.165 542.295 L
260.173 542.295 L
266.181 542.295 L
272.189 542.295 L
278.197 542.295 L
284.205 542.295 L
290.213 542.295 L
296.22 542.295 L
302.228 542.295 L
308.236 542.295 L
314.244 542.295 L
320.252 542.295 L
326.26 542.295 L
332.268 542.295 L
338.276 542.295 L
344.283 542.295 L
350.291 542.295 L
356.299 542.295 L
362.307 542.295 L
368.315 542.295 L
374.323 542.295 L
380.331 542.295 L
386.339 542.295 L
392.346 542.295 L
398.354 542.295 L
404.362 542.295 L
410.37 542.295 L
416.378 542.295 L
422.386 542.295 L
428.394 542.295 L
434.402 542.295 L
440.409 542.295 L
446.417 542.295 L
452.425 542.295 L
458.433 542.295 L
464.441 542.295 L
470.449 542.295 L
476.457 542.295 L
482.465 542.295 L
488.472 542.295 L
494.48 542.295 L
500.488 542.295 L
506.496 542.295 L
512.504 542.295 L
518.512 542.295 L
524.52 542.295 L
530.528 542.295 L
536.535 542.295 L
542.543 542.295 L
548.551 542.295 L
554.559 542.295 L
560.567 542.295 L
566.575 542.295 L
572.583 542.295 L
578.591 542.295 L
584.598 542.295 L
590.606 542.295 L
596.614 542.295 L
602.622 542.295 L
608.63 542.295 L
614.638 542.295 L
620.646 542.295 L
626.654 542.295 L
632.661 542.295 L
638.669 542.295 L
644.677 542.295 L
650.685 542.295 L
656.693 542.295 L
662.701 542.295 L
668.709 542.295 L
674.717 542.295 L
680.724 542.295 L
686.732 542.295 L
692.74 542.295 L
698.748 542.295 L
704.756 542.295 L
710.764 542.295 L
716.772 542.295 L
722.78 542.295 L
728.787 542.295 L
734.795 542.295 L
740.803 542.295 L
746.811 542.295 L
752.819 542.295 L
758.827 542.295 L
764.835 542.295 L
770.843 542.295 L
776.85 542.295 L
782.858 542.295 L
788.866 542.295 L
794.874 542.295 L
800.882 542.295 L
806.89 542.295 L
812.898 542.295 L
818.906 542.295 L
824.913 542.295 L
830.921 542.295 L
836.929 542.295 L
842.937 542.295 L
848.945 542.295 L
854.953 542.295 L
860.961 542.295 L
866.969 542.295 L
872.976 542.295 L
878.984 542.295 L
884.992 542.295 L
891 542.295 L
S
GR
GS
[0.75 0 0 0.75 0 0.5] CT
0.851 0.325 0.098 RC
1 LJ
2.667 LW
N
128 540.19 M
134.008 535.258 L
140.016 535.196 L
146.024 540.803 L
152.031 544.09 L
158.039 547.378 L
164.047 549.87 L
170.055 550.603 L
176.063 551.62 L
182.071 552.466 L
188.079 551.745 L
194.087 549.583 L
200.094 546.22 L
206.102 541.338 L
212.11 538.624 L
218.118 538.35 L
224.126 538.489 L
230.134 540.008 L
236.142 540.828 L
242.15 540.73 L
248.157 541.555 L
254.165 542.827 L
260.173 543.448 L
266.181 543.54 L
272.189 543.294 L
278.197 542.469 L
284.205 542.126 L
290.213 542.295 L
296.22 542.256 L
302.228 542.24 L
308.236 542.228 L
314.244 542.151 L
320.252 542.183 L
326.26 542.307 L
332.268 542.35 L
338.276 542.329 L
344.283 542.319 L
350.291 542.287 L
356.299 542.276 L
362.307 542.292 L
368.315 542.296 L
374.323 542.296 L
380.331 542.297 L
386.339 542.295 L
392.346 542.294 L
398.354 542.295 L
404.362 542.295 L
410.37 542.295 L
416.378 542.295 L
422.386 542.295 L
428.394 542.295 L
434.402 542.295 L
440.409 542.295 L
446.417 542.295 L
452.425 542.295 L
458.433 542.295 L
464.441 542.295 L
470.449 542.295 L
476.457 542.295 L
482.465 542.295 L
488.472 542.295 L
494.48 542.295 L
500.488 542.295 L
506.496 542.295 L
512.504 542.295 L
518.512 542.295 L
524.52 542.295 L
530.528 542.295 L
536.535 542.295 L
542.543 542.295 L
548.551 542.295 L
554.559 542.295 L
560.567 542.295 L
566.575 542.295 L
572.583 542.295 L
578.591 542.295 L
584.598 542.295 L
590.606 542.295 L
596.614 542.295 L
602.622 542.295 L
608.63 542.295 L
614.638 542.295 L
620.646 542.295 L
626.654 542.295 L
632.661 542.295 L
638.669 542.295 L
644.677 542.295 L
650.685 542.295 L
656.693 542.295 L
662.701 542.295 L
668.709 542.295 L
674.717 542.295 L
680.724 542.295 L
686.732 542.295 L
692.74 542.295 L
698.748 542.295 L
704.756 542.295 L
710.764 542.295 L
716.772 542.295 L
722.78 542.295 L
728.787 542.295 L
734.795 542.295 L
740.803 542.295 L
746.811 542.295 L
752.819 542.295 L
758.827 542.295 L
764.835 542.295 L
770.843 542.295 L
776.85 542.295 L
782.858 542.295 L
788.866 542.295 L
794.874 542.295 L
800.882 542.295 L
806.89 542.295 L
812.898 542.295 L
818.906 542.295 L
824.913 542.295 L
830.921 542.295 L
836.929 542.295 L
842.937 542.295 L
848.945 542.295 L
854.953 542.295 L
860.961 542.295 L
866.969 542.295 L
872.976 542.295 L
878.984 542.295 L
884.992 542.295 L
891 542.295 L
S
GR
GS
[0.75 0 0 0.75 0 0.5] CT
0.929 0.694 0.125 RC
1 LJ
2.667 LW
N
128 272.635 M
134.008 310.462 L
140.016 359.466 L
146.024 420.566 L
152.031 485.618 L
158.039 557.312 L
164.047 610.471 L
170.055 641.796 L
176.063 665.145 L
182.071 673.118 L
188.079 678.46 L
194.087 682 L
200.094 670.674 L
206.102 646.848 L
212.11 631.905 L
218.118 625.767 L
224.126 619.457 L
230.134 618.118 L
236.142 605.487 L
242.15 580.298 L
248.157 554.743 L
254.165 525.025 L
260.173 504.579 L
266.181 495.987 L
272.189 490.118 L
278.197 491.102 L
284.205 493.918 L
290.213 497.962 L
296.22 509.487 L
302.228 527.573 L
308.236 537.783 L
314.244 539.835 L
320.252 540.19 L
326.26 535.258 L
332.268 535.196 L
338.276 540.803 L
344.283 544.09 L
350.291 547.378 L
356.299 549.87 L
362.307 550.603 L
368.315 551.62 L
374.323 552.466 L
380.331 551.745 L
386.339 549.583 L
392.346 546.22 L
398.354 541.338 L
404.362 538.624 L
410.37 538.35 L
416.378 538.489 L
422.386 540.008 L
428.394 540.828 L
434.402 540.73 L
440.409 541.555 L
446.417 542.827 L
452.425 543.448 L
458.433 543.54 L
464.441 543.294 L
470.449 542.469 L
476.457 542.126 L
482.465 542.295 L
488.472 542.256 L
494.48 542.24 L
500.488 542.228 L
506.496 542.151 L
512.504 542.183 L
518.512 542.307 L
524.52 542.35 L
530.528 542.329 L
536.535 542.319 L
542.543 542.287 L
548.551 542.276 L
554.559 542.292 L
560.567 542.296 L
566.575 542.296 L
572.583 542.297 L
578.591 542.295 L
584.598 542.294 L
590.606 542.295 L
596.614 542.295 L
602.622 542.295 L
608.63 542.295 L
614.638 542.295 L
620.646 542.295 L
626.654 542.295 L
632.661 542.295 L
638.669 542.295 L
644.677 542.295 L
650.685 542.295 L
656.693 542.295 L
662.701 542.295 L
668.709 542.295 L
674.717 542.295 L
680.724 542.295 L
686.732 542.295 L
692.74 542.295 L
698.748 542.295 L
704.756 542.295 L
710.764 542.295 L
716.772 542.295 L
722.78 542.295 L
728.787 542.295 L
734.795 542.295 L
740.803 542.295 L
746.811 542.295 L
752.819 542.295 L
758.827 542.295 L
764.835 542.295 L
770.843 542.295 L
776.85 542.295 L
782.858 542.295 L
788.866 542.295 L
794.874 542.295 L
800.882 542.295 L
806.89 542.295 L
812.898 542.295 L
818.906 542.295 L
824.913 542.295 L
830.921 542.295 L
836.929 542.295 L
842.937 542.295 L
848.945 542.295 L
854.953 542.295 L
860.961 542.295 L
866.969 542.295 L
872.976 542.295 L
878.984 542.295 L
884.992 542.295 L
891 542.295 L
S
GR
GS
[0.75 0 0 0.75 0 0.5] CT
0.494 0.184 0.557 RC
1 LJ
2.667 LW
N
128 542.295 M
134.008 542.295 L
140.016 542.295 L
146.024 542.295 L
152.031 542.295 L
158.039 542.295 L
164.047 537.419 L
170.055 527.164 L
176.063 513.811 L
182.071 495.937 L
188.079 476.334 L
194.087 455.095 L
200.094 429.522 L
206.102 400.109 L
212.11 370.351 L
218.118 340.137 L
224.126 308.034 L
230.134 274.836 L
236.142 237.662 L
242.15 196.263 L
248.157 152.664 L
254.165 106.161 L
260.173 75.221 L
266.181 61.901 L
272.189 57 L
278.197 65.896 L
284.205 78.404 L
290.213 94.054 L
296.22 122.83 L
302.228 162.882 L
308.236 200.097 L
314.244 234.749 L
320.252 272.635 L
326.26 310.462 L
332.268 359.466 L
338.276 420.566 L
344.283 485.618 L
350.291 557.312 L
356.299 610.471 L
362.307 641.796 L
368.315 665.145 L
374.323 673.118 L
380.331 678.46 L
386.339 682 L
392.346 670.674 L
398.354 646.848 L
404.362 631.905 L
410.37 625.767 L
416.378 619.457 L
422.386 618.118 L
428.394 605.487 L
434.402 580.298 L
440.409 554.743 L
446.417 525.025 L
452.425 504.579 L
458.433 495.987 L
464.441 490.118 L
470.449 491.102 L
476.457 493.918 L
482.465 497.962 L
488.472 509.487 L
494.48 527.573 L
500.488 537.783 L
506.496 539.835 L
512.504 540.19 L
518.512 535.258 L
524.52 535.196 L
530.528 540.803 L
536.535 544.09 L
542.543 547.378 L
548.551 549.87 L
554.559 550.603 L
560.567 551.62 L
566.575 552.466 L
572.583 551.745 L
578.591 549.583 L
584.598 546.22 L
590.606 541.338 L
596.614 538.624 L
602.622 538.35 L
608.63 538.489 L
614.638 540.008 L
620.646 540.828 L
626.654 540.73 L
632.661 541.555 L
638.669 542.827 L
644.677 543.448 L
650.685 543.54 L
656.693 543.294 L
662.701 542.469 L
668.709 542.126 L
674.717 542.295 L
680.724 542.256 L
686.732 542.24 L
692.74 542.228 L
698.748 542.151 L
704.756 542.183 L
710.764 542.307 L
716.772 542.35 L
722.78 542.329 L
728.787 542.319 L
734.795 542.287 L
740.803 542.276 L
746.811 542.292 L
752.819 542.296 L
758.827 542.296 L
764.835 542.297 L
770.843 542.295 L
776.85 542.294 L
782.858 542.295 L
788.866 542.295 L
794.874 542.295 L
800.882 542.295 L
806.89 542.295 L
812.898 542.295 L
818.906 542.295 L
824.913 542.295 L
830.921 542.295 L
836.929 542.295 L
842.937 542.295 L
848.945 542.295 L
854.953 542.295 L
860.961 542.295 L
866.969 542.295 L
872.976 542.295 L
878.984 542.295 L
884.992 542.295 L
891 542.295 L
S
GR
GS
[0.75 0 0 0.75 0 0.5] CT
0.467 0.675 0.188 RC
1 LJ
2.667 LW
N
128 542.295 M
134.008 542.295 L
140.016 542.295 L
146.024 542.295 L
152.031 542.295 L
158.039 542.295 L
164.047 542.295 L
170.055 542.295 L
176.063 542.295 L
182.071 542.295 L
188.079 542.295 L
194.087 542.295 L
200.094 542.295 L
206.102 542.295 L
212.11 542.295 L
218.118 542.295 L
224.126 542.295 L
230.134 542.295 L
236.142 542.295 L
242.15 542.295 L
248.157 542.295 L
254.165 542.295 L
260.173 542.295 L
266.181 542.295 L
272.189 542.295 L
278.197 542.295 L
284.205 542.295 L
290.213 542.295 L
296.22 542.295 L
302.228 542.295 L
308.236 542.295 L
314.244 542.295 L
320.252 542.295 L
326.26 542.295 L
332.268 542.295 L
338.276 542.295 L
344.283 542.295 L
350.291 542.295 L
356.299 537.419 L
362.307 527.164 L
368.315 513.811 L
374.323 495.937 L
380.331 476.334 L
386.339 455.095 L
392.346 429.522 L
398.354 400.109 L
404.362 370.351 L
410.37 340.137 L
416.378 308.034 L
422.386 274.836 L
428.394 237.662 L
434.402 196.263 L
440.409 152.664 L
446.417 106.161 L
452.425 75.221 L
458.433 61.901 L
464.441 57 L
470.449 65.896 L
476.457 78.404 L
482.465 94.054 L
488.472 122.83 L
494.48 162.882 L
500.488 200.097 L
506.496 234.749 L
512.504 272.635 L
518.512 310.462 L
524.52 359.466 L
530.528 420.566 L
536.535 485.618 L
542.543 557.312 L
548.551 610.471 L
554.559 641.796 L
560.567 665.145 L
566.575 673.118 L
572.583 678.46 L
578.591 682 L
584.598 670.674 L
590.606 646.848 L
596.614 631.905 L
602.622 625.767 L
608.63 619.457 L
614.638 618.118 L
620.646 605.487 L
626.654 580.298 L
632.661 554.743 L
638.669 525.025 L
644.677 504.579 L
650.685 495.987 L
656.693 490.118 L
662.701 491.102 L
668.709 493.918 L
674.717 497.962 L
680.724 509.487 L
686.732 527.573 L
692.74 537.783 L
698.748 539.835 L
704.756 540.19 L
710.764 535.258 L
716.772 535.196 L
722.78 540.803 L
728.787 544.09 L
734.795 547.378 L
740.803 549.87 L
746.811 550.603 L
752.819 551.62 L
758.827 552.466 L
764.835 551.745 L
770.843 549.583 L
776.85 546.22 L
782.858 541.338 L
788.866 538.624 L
794.874 538.35 L
800.882 538.489 L
806.89 540.008 L
812.898 540.828 L
818.906 540.73 L
824.913 541.555 L
830.921 542.827 L
836.929 543.448 L
842.937 543.54 L
848.945 543.294 L
854.953 542.469 L
860.961 542.126 L
866.969 542.295 L
872.976 542.256 L
878.984 542.24 L
884.992 542.228 L
891 542.151 L
S
GR
GS
[0.75 0 0 0.75 0 0.5] CT
0.302 0.745 0.933 RC
1 LJ
2.667 LW
N
128 542.295 M
134.008 542.295 L
140.016 542.295 L
146.024 542.295 L
152.031 542.295 L
158.039 542.295 L
164.047 542.295 L
170.055 542.295 L
176.063 542.295 L
182.071 542.295 L
188.079 542.295 L
194.087 542.295 L
200.094 542.295 L
206.102 542.295 L
212.11 542.295 L
218.118 542.295 L
224.126 542.295 L
230.134 542.295 L
236.142 542.295 L
242.15 542.295 L
248.157 542.295 L
254.165 542.295 L
260.173 542.295 L
266.181 542.295 L
272.189 542.295 L
278.197 542.295 L
284.205 542.295 L
290.213 542.295 L
296.22 542.295 L
302.228 542.295 L
308.236 542.295 L
314.244 542.295 L
320.252 542.295 L
326.26 542.295 L
332.268 542.295 L
338.276 542.295 L
344.283 542.295 L
350.291 542.295 L
356.299 542.295 L
362.307 542.295 L
368.315 542.295 L
374.323 542.295 L
380.331 542.295 L
386.339 542.295 L
392.346 542.295 L
398.354 542.295 L
404.362 542.295 L
410.37 542.295 L
416.378 542.295 L
422.386 542.295 L
428.394 542.295 L
434.402 542.295 L
440.409 542.295 L
446.417 542.295 L
452.425 542.295 L
458.433 542.295 L
464.441 542.295 L
470.449 542.295 L
476.457 542.295 L
482.465 542.295 L
488.472 542.295 L
494.48 542.295 L
500.488 542.295 L
506.496 542.295 L
512.504 542.295 L
518.512 542.295 L
524.52 542.295 L
530.528 542.295 L
536.535 542.295 L
542.543 542.295 L
548.551 537.419 L
554.559 527.164 L
560.567 513.811 L
566.575 495.937 L
572.583 476.334 L
578.591 455.095 L
584.598 429.522 L
590.606 400.109 L
596.614 370.351 L
602.622 340.137 L
608.63 308.034 L
614.638 274.836 L
620.646 237.662 L
626.654 196.263 L
632.661 152.664 L
638.669 106.161 L
644.677 75.221 L
650.685 61.901 L
656.693 57 L
662.701 65.896 L
668.709 78.404 L
674.717 94.054 L
680.724 122.83 L
686.732 162.882 L
692.74 200.097 L
698.748 234.749 L
704.756 272.635 L
710.764 310.462 L
716.772 359.466 L
722.78 420.566 L
728.787 485.618 L
734.795 557.312 L
740.803 610.471 L
746.811 641.796 L
752.819 665.145 L
758.827 673.118 L
764.835 678.46 L
770.843 682 L
776.85 670.674 L
782.858 646.848 L
788.866 631.905 L
794.874 625.767 L
800.882 619.457 L
806.89 618.118 L
812.898 605.487 L
818.906 580.298 L
824.913 554.743 L
830.921 525.025 L
836.929 504.579 L
842.937 495.987 L
848.945 490.118 L
854.953 491.102 L
860.961 493.918 L
866.969 497.962 L
872.976 509.487 L
878.984 527.573 L
884.992 537.783 L
891 539.835 L
S
GR
GS
[0.75 0 0 0.75 0 0.5] CT
0.635 0.078 0.184 RC
1 LJ
2.667 LW
N
128 542.295 M
134.008 542.295 L
140.016 542.295 L
146.024 542.295 L
152.031 542.295 L
158.039 542.295 L
164.047 542.295 L
170.055 542.295 L
176.063 542.295 L
182.071 542.295 L
188.079 542.295 L
194.087 542.295 L
200.094 542.295 L
206.102 542.295 L
212.11 542.295 L
218.118 542.295 L
224.126 542.295 L
230.134 542.295 L
236.142 542.295 L
242.15 542.295 L
248.157 542.295 L
254.165 542.295 L
260.173 542.295 L
266.181 542.295 L
272.189 542.295 L
278.197 542.295 L
284.205 542.295 L
290.213 542.295 L
296.22 542.295 L
302.228 542.295 L
308.236 542.295 L
314.244 542.295 L
320.252 542.295 L
326.26 542.295 L
332.268 542.295 L
338.276 542.295 L
344.283 542.295 L
350.291 542.295 L
356.299 542.295 L
362.307 542.295 L
368.315 542.295 L
374.323 542.295 L
380.331 542.295 L
386.339 542.295 L
392.346 542.295 L
398.354 542.295 L
404.362 542.295 L
410.37 542.295 L
416.378 542.295 L
422.386 542.295 L
428.394 542.295 L
434.402 542.295 L
440.409 542.295 L
446.417 542.295 L
452.425 542.295 L
458.433 542.295 L
464.441 542.295 L
470.449 542.295 L
476.457 542.295 L
482.465 542.295 L
488.472 542.295 L
494.48 542.295 L
500.488 542.295 L
506.496 542.295 L
512.504 542.295 L
518.512 542.295 L
524.52 542.295 L
530.528 542.295 L
536.535 542.295 L
542.543 542.295 L
548.551 542.295 L
554.559 542.295 L
560.567 542.295 L
566.575 542.295 L
572.583 542.295 L
578.591 542.295 L
584.598 542.295 L
590.606 542.295 L
596.614 542.295 L
602.622 542.295 L
608.63 542.295 L
614.638 542.295 L
620.646 542.295 L
626.654 542.295 L
632.661 542.295 L
638.669 542.295 L
644.677 542.295 L
650.685 542.295 L
656.693 542.295 L
662.701 542.295 L
668.709 542.295 L
674.717 542.295 L
680.724 542.295 L
686.732 542.295 L
692.74 542.295 L
698.748 542.295 L
704.756 542.295 L
710.764 542.295 L
716.772 542.295 L
722.78 542.295 L
728.787 542.295 L
734.795 542.295 L
740.803 537.419 L
746.811 527.164 L
752.819 513.811 L
758.827 495.937 L
764.835 476.334 L
770.843 455.095 L
776.85 429.522 L
782.858 400.109 L
788.866 370.351 L
794.874 340.137 L
800.882 308.034 L
806.89 274.836 L
812.898 237.662 L
818.906 196.263 L
824.913 152.664 L
830.921 106.161 L
836.929 75.221 L
842.937 61.901 L
848.945 57 L
854.953 65.896 L
860.961 78.404 L
866.969 94.054 L
872.976 122.83 L
878.984 162.882 L
884.992 200.097 L
891 234.749 L
S
GR
GS
[0.75 0 0 0.75 0 0.5] CT
0 0.447 0.741 RC
1 LJ
2.667 LW
N
128 539.869 M
134.008 542.567 L
140.016 543.492 L
146.024 543.044 L
152.031 542.815 L
158.039 542.121 L
164.047 541.873 L
170.055 542.238 L
176.063 542.308 L
182.071 542.31 L
188.079 542.34 L
194.087 542.292 L
200.094 542.282 L
206.102 542.298 L
212.11 542.296 L
218.118 542.294 L
224.126 542.295 L
230.134 542.295 L
236.142 542.295 L
242.15 542.295 L
248.157 542.295 L
254.165 542.295 L
260.173 542.295 L
266.181 542.295 L
272.189 542.295 L
278.197 542.295 L
284.205 542.295 L
290.213 542.295 L
296.22 542.295 L
302.228 542.295 L
308.236 542.295 L
314.244 542.295 L
320.252 542.295 L
326.26 542.295 L
332.268 542.295 L
338.276 542.295 L
344.283 542.295 L
350.291 542.295 L
356.299 542.295 L
362.307 542.295 L
368.315 542.295 L
374.323 542.295 L
380.331 542.295 L
386.339 542.295 L
392.346 542.295 L
398.354 542.295 L
404.362 542.295 L
410.37 542.295 L
416.378 542.295 L
422.386 542.295 L
428.394 542.295 L
434.402 542.295 L
440.409 542.295 L
446.417 542.295 L
452.425 542.295 L
458.433 542.295 L
464.441 542.295 L
470.449 542.295 L
476.457 542.295 L
482.465 542.295 L
488.472 542.295 L
494.48 542.295 L
500.488 542.295 L
506.496 542.295 L
512.504 542.295 L
518.512 542.295 L
524.52 542.295 L
530.528 542.295 L
536.535 542.295 L
542.543 542.295 L
548.551 542.295 L
554.559 542.295 L
560.567 542.295 L
566.575 542.295 L
572.583 542.295 L
578.591 542.295 L
584.598 542.295 L
590.606 542.295 L
596.614 542.295 L
602.622 542.295 L
608.63 542.295 L
614.638 542.295 L
620.646 542.295 L
626.654 542.295 L
632.661 542.295 L
638.669 542.295 L
644.677 542.295 L
650.685 542.295 L
656.693 542.295 L
662.701 542.295 L
668.709 542.295 L
674.717 542.295 L
680.724 542.295 L
686.732 542.295 L
692.74 542.295 L
698.748 542.295 L
704.756 542.295 L
710.764 542.295 L
716.772 542.295 L
722.78 542.295 L
728.787 542.295 L
734.795 542.295 L
740.803 542.295 L
746.811 542.295 L
752.819 542.295 L
758.827 542.295 L
764.835 542.295 L
770.843 542.295 L
776.85 542.295 L
782.858 542.295 L
788.866 542.295 L
794.874 542.295 L
800.882 542.295 L
806.89 542.295 L
812.898 542.295 L
818.906 542.295 L
824.913 542.295 L
830.921 542.295 L
836.929 542.295 L
842.937 542.295 L
848.945 542.295 L
854.953 542.295 L
860.961 542.295 L
866.969 542.295 L
872.976 542.295 L
878.984 542.295 L
884.992 542.295 L
891 542.295 L
S
GR
%%Trailer
%%Pages: 1
%%EOF
