%!PS-Adobe-3.0 EPSF-3.0
%%Creator: (MATLAB, The Mathworks, Inc. Version 9.1.0.441655 \(R2016b\). Operating System: Windows 8)
%%Title: C:/Users/Eigenaar/WIT/Wavelets/wavelets/report/plots/waveletdb43.eps
%%CreationDate: 2017-11-29T16:08:07
%%Pages: (atend)
%%BoundingBox: 0 0 951 666
%%LanguageLevel: 3
%%EndComments
%%BeginProlog
%%BeginResource: procset (Apache XML Graphics Std ProcSet) 1.2 0
%%Version: 1.2 0
%%Copyright: (Copyright 2001-2003,2010 The Apache Software Foundation. License terms: http://www.apache.org/licenses/LICENSE-2.0)
/bd{bind def}bind def
/ld{load def}bd
/GR/grestore ld
/M/moveto ld
/LJ/setlinejoin ld
/C/curveto ld
/f/fill ld
/LW/setlinewidth ld
/GC/setgray ld
/t/show ld
/N/newpath ld
/CT/concat ld
/cp/closepath ld
/S/stroke ld
/L/lineto ld
/CC/setcmykcolor ld
/A/ashow ld
/GS/gsave ld
/RC/setrgbcolor ld
/RM/rmoveto ld
/ML/setmiterlimit ld
/re {4 2 roll M
1 index 0 rlineto
0 exch rlineto
neg 0 rlineto
cp } bd
/_ctm matrix def
/_tm matrix def
/BT { _ctm currentmatrix pop matrix _tm copy pop 0 0 moveto } bd
/ET { _ctm setmatrix } bd
/iTm { _ctm setmatrix _tm concat } bd
/Tm { _tm astore pop iTm 0 0 moveto } bd
/ux 0.0 def
/uy 0.0 def
/F {
  /Tp exch def
  /Tf exch def
  Tf findfont Tp scalefont setfont
  /cf Tf def  /cs Tp def
} bd
/ULS {currentpoint /uy exch def /ux exch def} bd
/ULE {
  /Tcx currentpoint pop def
  gsave
  newpath
  cf findfont cs scalefont dup
  /FontMatrix get 0 get /Ts exch def /FontInfo get dup
  /UnderlinePosition get Ts mul /To exch def
  /UnderlineThickness get Ts mul /Tt exch def
  ux uy To add moveto  Tcx uy To add lineto
  Tt setlinewidth stroke
  grestore
} bd
/OLE {
  /Tcx currentpoint pop def
  gsave
  newpath
  cf findfont cs scalefont dup
  /FontMatrix get 0 get /Ts exch def /FontInfo get dup
  /UnderlinePosition get Ts mul /To exch def
  /UnderlineThickness get Ts mul /Tt exch def
  ux uy To add cs add moveto Tcx uy To add cs add lineto
  Tt setlinewidth stroke
  grestore
} bd
/SOE {
  /Tcx currentpoint pop def
  gsave
  newpath
  cf findfont cs scalefont dup
  /FontMatrix get 0 get /Ts exch def /FontInfo get dup
  /UnderlinePosition get Ts mul /To exch def
  /UnderlineThickness get Ts mul /Tt exch def
  ux uy To add cs 10 mul 26 idiv add moveto Tcx uy To add cs 10 mul 26 idiv add lineto
  Tt setlinewidth stroke
  grestore
} bd
/QT {
/Y22 exch store
/X22 exch store
/Y21 exch store
/X21 exch store
currentpoint
/Y21 load 2 mul add 3 div exch
/X21 load 2 mul add 3 div exch
/X21 load 2 mul /X22 load add 3 div
/Y21 load 2 mul /Y22 load add 3 div
/X22 load /Y22 load curveto
} bd
/SSPD {
dup length /d exch dict def
{
/v exch def
/k exch def
currentpagedevice k known {
/cpdv currentpagedevice k get def
v cpdv ne {
/upd false def
/nullv v type /nulltype eq def
/nullcpdv cpdv type /nulltype eq def
nullv nullcpdv or
{
/upd true def
} {
/sametype v type cpdv type eq def
sametype {
v type /arraytype eq {
/vlen v length def
/cpdvlen cpdv length def
vlen cpdvlen eq {
0 1 vlen 1 sub {
/i exch def
/obj v i get def
/cpdobj cpdv i get def
obj cpdobj ne {
/upd true def
exit
} if
} for
} {
/upd true def
} ifelse
} {
v type /dicttype eq {
v {
/dv exch def
/dk exch def
/cpddv cpdv dk get def
dv cpddv ne {
/upd true def
exit
} if
} forall
} {
/upd true def
} ifelse
} ifelse
} if
} ifelse
upd true eq {
d k v put
} if
} if
} if
} forall
d length 0 gt {
d setpagedevice
} if
} bd
/RE { % /NewFontName [NewEncodingArray] /FontName RE -
  findfont dup length dict begin
  {
    1 index /FID ne
    {def} {pop pop} ifelse
  } forall
  /Encoding exch def
  /FontName 1 index def
  currentdict definefont pop
  end
} bind def
%%EndResource
%%BeginResource: procset (Apache XML Graphics EPS ProcSet) 1.0 0
%%Version: 1.0 0
%%Copyright: (Copyright 2002-2003 The Apache Software Foundation. License terms: http://www.apache.org/licenses/LICENSE-2.0)
/BeginEPSF { %def
/b4_Inc_state save def         % Save state for cleanup
/dict_count countdictstack def % Count objects on dict stack
/op_count count 1 sub def      % Count objects on operand stack
userdict begin                 % Push userdict on dict stack
/showpage { } def              % Redefine showpage, { } = null proc
0 setgray 0 setlinecap         % Prepare graphics state
1 setlinewidth 0 setlinejoin
10 setmiterlimit [ ] 0 setdash newpath
/languagelevel where           % If level not equal to 1 then
{pop languagelevel             % set strokeadjust and
1 ne                           % overprint to their defaults.
{false setstrokeadjust false setoverprint
} if
} if
} bd
/EndEPSF { %def
count op_count sub {pop} repeat            % Clean up stacks
countdictstack dict_count sub {end} repeat
b4_Inc_state restore
} bd
%%EndResource
%FOPBeginFontDict
%%IncludeResource: font Courier-Bold
%%IncludeResource: font Helvetica
%%IncludeResource: font Courier-BoldOblique
%%IncludeResource: font Courier-Oblique
%%IncludeResource: font Times-Roman
%%IncludeResource: font Helvetica-BoldOblique
%%IncludeResource: font Helvetica-Bold
%%IncludeResource: font Helvetica-Oblique
%%IncludeResource: font Times-BoldItalic
%%IncludeResource: font Courier
%%IncludeResource: font Times-Italic
%%IncludeResource: font Times-Bold
%%IncludeResource: font Symbol
%%IncludeResource: font ZapfDingbats
%FOPEndFontDict
%%BeginResource: encoding WinAnsiEncoding
/WinAnsiEncoding [
/.notdef /.notdef /.notdef /.notdef /.notdef
/.notdef /.notdef /.notdef /.notdef /.notdef
/.notdef /.notdef /.notdef /.notdef /.notdef
/.notdef /.notdef /.notdef /.notdef /.notdef
/.notdef /.notdef /.notdef /.notdef /.notdef
/.notdef /.notdef /.notdef /.notdef /.notdef
/.notdef /.notdef /space /exclam /quotedbl
/numbersign /dollar /percent /ampersand /quotesingle
/parenleft /parenright /asterisk /plus /comma
/hyphen /period /slash /zero /one
/two /three /four /five /six
/seven /eight /nine /colon /semicolon
/less /equal /greater /question /at
/A /B /C /D /E
/F /G /H /I /J
/K /L /M /N /O
/P /Q /R /S /T
/U /V /W /X /Y
/Z /bracketleft /backslash /bracketright /asciicircum
/underscore /quoteleft /a /b /c
/d /e /f /g /h
/i /j /k /l /m
/n /o /p /q /r
/s /t /u /v /w
/x /y /z /braceleft /bar
/braceright /asciitilde /bullet /Euro /bullet
/quotesinglbase /florin /quotedblbase /ellipsis /dagger
/daggerdbl /circumflex /perthousand /Scaron /guilsinglleft
/OE /bullet /Zcaron /bullet /bullet
/quoteleft /quoteright /quotedblleft /quotedblright /bullet
/endash /emdash /asciitilde /trademark /scaron
/guilsinglright /oe /bullet /zcaron /Ydieresis
/space /exclamdown /cent /sterling /currency
/yen /brokenbar /section /dieresis /copyright
/ordfeminine /guillemotleft /logicalnot /sfthyphen /registered
/macron /degree /plusminus /twosuperior /threesuperior
/acute /mu /paragraph /middot /cedilla
/onesuperior /ordmasculine /guillemotright /onequarter /onehalf
/threequarters /questiondown /Agrave /Aacute /Acircumflex
/Atilde /Adieresis /Aring /AE /Ccedilla
/Egrave /Eacute /Ecircumflex /Edieresis /Igrave
/Iacute /Icircumflex /Idieresis /Eth /Ntilde
/Ograve /Oacute /Ocircumflex /Otilde /Odieresis
/multiply /Oslash /Ugrave /Uacute /Ucircumflex
/Udieresis /Yacute /Thorn /germandbls /agrave
/aacute /acircumflex /atilde /adieresis /aring
/ae /ccedilla /egrave /eacute /ecircumflex
/edieresis /igrave /iacute /icircumflex /idieresis
/eth /ntilde /ograve /oacute /ocircumflex
/otilde /odieresis /divide /oslash /ugrave
/uacute /ucircumflex /udieresis /yacute /thorn
/ydieresis
] def
%%EndResource
%FOPBeginFontReencode
/Courier-Bold findfont
dup length dict begin
  {1 index /FID ne {def} {pop pop} ifelse} forall
  /Encoding WinAnsiEncoding def
  currentdict
end
/Courier-Bold exch definefont pop
/Helvetica findfont
dup length dict begin
  {1 index /FID ne {def} {pop pop} ifelse} forall
  /Encoding WinAnsiEncoding def
  currentdict
end
/Helvetica exch definefont pop
/Courier-BoldOblique findfont
dup length dict begin
  {1 index /FID ne {def} {pop pop} ifelse} forall
  /Encoding WinAnsiEncoding def
  currentdict
end
/Courier-BoldOblique exch definefont pop
/Courier-Oblique findfont
dup length dict begin
  {1 index /FID ne {def} {pop pop} ifelse} forall
  /Encoding WinAnsiEncoding def
  currentdict
end
/Courier-Oblique exch definefont pop
/Times-Roman findfont
dup length dict begin
  {1 index /FID ne {def} {pop pop} ifelse} forall
  /Encoding WinAnsiEncoding def
  currentdict
end
/Times-Roman exch definefont pop
/Helvetica-BoldOblique findfont
dup length dict begin
  {1 index /FID ne {def} {pop pop} ifelse} forall
  /Encoding WinAnsiEncoding def
  currentdict
end
/Helvetica-BoldOblique exch definefont pop
/Helvetica-Bold findfont
dup length dict begin
  {1 index /FID ne {def} {pop pop} ifelse} forall
  /Encoding WinAnsiEncoding def
  currentdict
end
/Helvetica-Bold exch definefont pop
/Helvetica-Oblique findfont
dup length dict begin
  {1 index /FID ne {def} {pop pop} ifelse} forall
  /Encoding WinAnsiEncoding def
  currentdict
end
/Helvetica-Oblique exch definefont pop
/Times-BoldItalic findfont
dup length dict begin
  {1 index /FID ne {def} {pop pop} ifelse} forall
  /Encoding WinAnsiEncoding def
  currentdict
end
/Times-BoldItalic exch definefont pop
/Courier findfont
dup length dict begin
  {1 index /FID ne {def} {pop pop} ifelse} forall
  /Encoding WinAnsiEncoding def
  currentdict
end
/Courier exch definefont pop
/Times-Italic findfont
dup length dict begin
  {1 index /FID ne {def} {pop pop} ifelse} forall
  /Encoding WinAnsiEncoding def
  currentdict
end
/Times-Italic exch definefont pop
/Times-Bold findfont
dup length dict begin
  {1 index /FID ne {def} {pop pop} ifelse} forall
  /Encoding WinAnsiEncoding def
  currentdict
end
/Times-Bold exch definefont pop
%FOPEndFontReencode
%%EndProlog
%%Page: 1 1
%%PageBoundingBox: 0 0 951 666
%%BeginPageSetup
[1 0 0 -1 0 666] CT
%%EndPageSetup
GS
[0.75 0 0 0.75 0 0] CT
1 GC
N
0 0 1268 888 re
f
GR
GS
[0.75 0 0 0.75 0 0] CT
1 GC
N
0 0 1268 888 re
f
GR
GS
[0.75 0 0 0.75 0 0] CT
1 GC
N
165 790 M
1148 790 L
1148 67 L
165 67 L
cp
f
GR
GS
[0.75 0 0 0.75 0 0] CT
0.149 GC
2 setlinecap
1 LJ
0.667 LW
N
165 790 M
1148 790 L
S
GR
GS
[0.75 0 0 0.75 0 0] CT
0.149 GC
2 setlinecap
1 LJ
0.667 LW
N
165 67 M
1148 67 L
S
GR
GS
[0.75 0 0 0.75 0 0] CT
0.149 GC
2 setlinecap
1 LJ
0.667 LW
N
312.063 790 M
312.063 780.17 L
S
GR
GS
[0.75 0 0 0.75 0 0] CT
0.149 GC
2 setlinecap
1 LJ
0.667 LW
N
466.866 790 M
466.866 780.17 L
S
GR
GS
[0.75 0 0 0.75 0 0] CT
0.149 GC
2 setlinecap
1 LJ
0.667 LW
N
621.669 790 M
621.669 780.17 L
S
GR
GS
[0.75 0 0 0.75 0 0] CT
0.149 GC
2 setlinecap
1 LJ
0.667 LW
N
776.472 790 M
776.472 780.17 L
S
GR
GS
[0.75 0 0 0.75 0 0] CT
0.149 GC
2 setlinecap
1 LJ
0.667 LW
N
931.276 790 M
931.276 780.17 L
S
GR
GS
[0.75 0 0 0.75 0 0] CT
0.149 GC
2 setlinecap
1 LJ
0.667 LW
N
1086.079 790 M
1086.079 780.17 L
S
GR
GS
[0.75 0 0 0.75 0 0] CT
0.149 GC
2 setlinecap
1 LJ
0.667 LW
N
312.063 67 M
312.063 76.83 L
S
GR
GS
[0.75 0 0 0.75 0 0] CT
0.149 GC
2 setlinecap
1 LJ
0.667 LW
N
466.866 67 M
466.866 76.83 L
S
GR
GS
[0.75 0 0 0.75 0 0] CT
0.149 GC
2 setlinecap
1 LJ
0.667 LW
N
621.669 67 M
621.669 76.83 L
S
GR
GS
[0.75 0 0 0.75 0 0] CT
0.149 GC
2 setlinecap
1 LJ
0.667 LW
N
776.472 67 M
776.472 76.83 L
S
GR
GS
[0.75 0 0 0.75 0 0] CT
0.149 GC
2 setlinecap
1 LJ
0.667 LW
N
931.276 67 M
931.276 76.83 L
S
GR
GS
[0.75 0 0 0.75 0 0] CT
0.149 GC
2 setlinecap
1 LJ
0.667 LW
N
1086.079 67 M
1086.079 76.83 L
S
GR
GS
[0.75 0 0 0.75 234.04724 598.10001] CT
0.149 GC
/Helvetica 24 F
GS
[1 0 0 1 0 0] CT
-13.5 25 moveto 
1 -1 scale
(20) t 
GR
GR
GS
[0.75 0 0 0.75 350.14961 598.10001] CT
0.149 GC
/Helvetica 24 F
GS
[1 0 0 1 0 0] CT
-13.5 25 moveto 
1 -1 scale
(40) t 
GR
GR
GS
[0.75 0 0 0.75 466.25198 598.10001] CT
0.149 GC
/Helvetica 24 F
GS
[1 0 0 1 0 0] CT
-13.5 25 moveto 
1 -1 scale
(60) t 
GR
GR
GS
[0.75 0 0 0.75 582.35431 598.10001] CT
0.149 GC
/Helvetica 24 F
GS
[1 0 0 1 0 0] CT
-13.5 25 moveto 
1 -1 scale
(80) t 
GR
GR
GS
[0.75 0 0 0.75 698.45668 598.10001] CT
0.149 GC
/Helvetica 24 F
GS
[1 0 0 1 0 0] CT
-20.5 25 moveto 
1 -1 scale
(100) t 
GR
GR
GS
[0.75 0 0 0.75 814.55905 598.10001] CT
0.149 GC
/Helvetica 24 F
GS
[1 0 0 1 0 0] CT
-20.5 25 moveto 
1 -1 scale
(120) t 
GR
GR
GS
[0.75 0 0 0.75 492.37537 622.34999] CT
0.149 GC
/Helvetica 26.4 F
GS
[1 0 0 1 0 0] CT
-94 27 moveto 
1 -1 scale
(Sequence Index) t 
GR
GR
GS
[0.75 0 0 0.75 0 0] CT
0.149 GC
2 setlinecap
1 LJ
0.667 LW
N
165 790 M
165 67 L
S
GR
GS
[0.75 0 0 0.75 0 0] CT
0.149 GC
2 setlinecap
1 LJ
0.667 LW
N
1148 790 M
1148 67 L
S
GR
GS
[0.75 0 0 0.75 0 0] CT
0.149 GC
2 setlinecap
1 LJ
0.667 LW
N
165 751.548 M
174.83 751.548 L
S
GR
GS
[0.75 0 0 0.75 0 0] CT
0.149 GC
2 setlinecap
1 LJ
0.667 LW
N
165 687.475 M
174.83 687.475 L
S
GR
GS
[0.75 0 0 0.75 0 0] CT
0.149 GC
2 setlinecap
1 LJ
0.667 LW
N
165 623.401 M
174.83 623.401 L
S
GR
GS
[0.75 0 0 0.75 0 0] CT
0.149 GC
2 setlinecap
1 LJ
0.667 LW
N
165 559.328 M
174.83 559.328 L
S
GR
GS
[0.75 0 0 0.75 0 0] CT
0.149 GC
2 setlinecap
1 LJ
0.667 LW
N
165 495.255 M
174.83 495.255 L
S
GR
GS
[0.75 0 0 0.75 0 0] CT
0.149 GC
2 setlinecap
1 LJ
0.667 LW
N
165 431.181 M
174.83 431.181 L
S
GR
GS
[0.75 0 0 0.75 0 0] CT
0.149 GC
2 setlinecap
1 LJ
0.667 LW
N
165 367.108 M
174.83 367.108 L
S
GR
GS
[0.75 0 0 0.75 0 0] CT
0.149 GC
2 setlinecap
1 LJ
0.667 LW
N
165 303.034 M
174.83 303.034 L
S
GR
GS
[0.75 0 0 0.75 0 0] CT
0.149 GC
2 setlinecap
1 LJ
0.667 LW
N
165 238.961 M
174.83 238.961 L
S
GR
GS
[0.75 0 0 0.75 0 0] CT
0.149 GC
2 setlinecap
1 LJ
0.667 LW
N
165 174.888 M
174.83 174.888 L
S
GR
GS
[0.75 0 0 0.75 0 0] CT
0.149 GC
2 setlinecap
1 LJ
0.667 LW
N
165 110.814 M
174.83 110.814 L
S
GR
GS
[0.75 0 0 0.75 0 0] CT
0.149 GC
2 setlinecap
1 LJ
0.667 LW
N
1148 751.548 M
1138.17 751.548 L
S
GR
GS
[0.75 0 0 0.75 0 0] CT
0.149 GC
2 setlinecap
1 LJ
0.667 LW
N
1148 687.475 M
1138.17 687.475 L
S
GR
GS
[0.75 0 0 0.75 0 0] CT
0.149 GC
2 setlinecap
1 LJ
0.667 LW
N
1148 623.401 M
1138.17 623.401 L
S
GR
GS
[0.75 0 0 0.75 0 0] CT
0.149 GC
2 setlinecap
1 LJ
0.667 LW
N
1148 559.328 M
1138.17 559.328 L
S
GR
GS
[0.75 0 0 0.75 0 0] CT
0.149 GC
2 setlinecap
1 LJ
0.667 LW
N
1148 495.255 M
1138.17 495.255 L
S
GR
GS
[0.75 0 0 0.75 0 0] CT
0.149 GC
2 setlinecap
1 LJ
0.667 LW
N
1148 431.181 M
1138.17 431.181 L
S
GR
GS
[0.75 0 0 0.75 0 0] CT
0.149 GC
2 setlinecap
1 LJ
0.667 LW
N
1148 367.108 M
1138.17 367.108 L
S
GR
GS
[0.75 0 0 0.75 0 0] CT
0.149 GC
2 setlinecap
1 LJ
0.667 LW
N
1148 303.034 M
1138.17 303.034 L
S
GR
GS
[0.75 0 0 0.75 0 0] CT
0.149 GC
2 setlinecap
1 LJ
0.667 LW
N
1148 238.961 M
1138.17 238.961 L
S
GR
GS
[0.75 0 0 0.75 0 0] CT
0.149 GC
2 setlinecap
1 LJ
0.667 LW
N
1148 174.888 M
1138.17 174.888 L
S
GR
GS
[0.75 0 0 0.75 0 0] CT
0.149 GC
2 setlinecap
1 LJ
0.667 LW
N
1148 110.814 M
1138.17 110.814 L
S
GR
GS
[0.75 0 0 0.75 118.15001 563.66103] CT
0.149 GC
/Helvetica 24 F
GS
[1 0 0 1 0 0] CT
-42 9.5 moveto 
1 -1 scale
(-0.2) t 
GR
GR
GS
[0.75 0 0 0.75 118.15001 515.606] CT
0.149 GC
/Helvetica 24 F
GS
[1 0 0 1 0 0] CT
-55 9.5 moveto 
1 -1 scale
(-0.15) t 
GR
GR
GS
[0.75 0 0 0.75 118.15001 467.55098] CT
0.149 GC
/Helvetica 24 F
GS
[1 0 0 1 0 0] CT
-42 9.5 moveto 
1 -1 scale
(-0.1) t 
GR
GR
GS
[0.75 0 0 0.75 118.15001 419.49596] CT
0.149 GC
/Helvetica 24 F
GS
[1 0 0 1 0 0] CT
-55 9.5 moveto 
1 -1 scale
(-0.05) t 
GR
GR
GS
[0.75 0 0 0.75 118.15001 371.44093] CT
0.149 GC
/Helvetica 24 F
GS
[1 0 0 1 0 0] CT
-14 9.5 moveto 
1 -1 scale
(0) t 
GR
GR
GS
[0.75 0 0 0.75 118.15001 323.38591] CT
0.149 GC
/Helvetica 24 F
GS
[1 0 0 1 0 0] CT
-47 9.5 moveto 
1 -1 scale
(0.05) t 
GR
GR
GS
[0.75 0 0 0.75 118.15001 275.33089] CT
0.149 GC
/Helvetica 24 F
GS
[1 0 0 1 0 0] CT
-34 9.5 moveto 
1 -1 scale
(0.1) t 
GR
GR
GS
[0.75 0 0 0.75 118.15001 227.27584] CT
0.149 GC
/Helvetica 24 F
GS
[1 0 0 1 0 0] CT
-47 9.5 moveto 
1 -1 scale
(0.15) t 
GR
GR
GS
[0.75 0 0 0.75 118.15001 179.22083] CT
0.149 GC
/Helvetica 24 F
GS
[1 0 0 1 0 0] CT
-34 9.5 moveto 
1 -1 scale
(0.2) t 
GR
GR
GS
[0.75 0 0 0.75 118.15001 131.16581] CT
0.149 GC
/Helvetica 24 F
GS
[1 0 0 1 0 0] CT
-47 9.5 moveto 
1 -1 scale
(0.25) t 
GR
GR
GS
[0.75 0 0 0.75 118.15001 83.11077] CT
0.149 GC
/Helvetica 24 F
GS
[1 0 0 1 0 0] CT
-34 9.5 moveto 
1 -1 scale
(0.3) t 
GR
GR
GS
[0.75 0 0 0.75 492.3755 46.5375] CT
/Helvetica-Bold 26.4 F
GS
[1 0 0 1 0 0] CT
-174.5 -6 moveto 
1 -1 scale
(Wavelet functions on level 6) t 
GR
GR
GS
[0.75 0 0 0.75 0 0] CT
0 0.447 0.741 RC
1 LJ
2.667 LW
N
165 493.459 M
172.74 495.456 L
180.48 496.141 L
188.22 495.809 L
195.961 495.64 L
203.701 495.126 L
211.441 494.942 L
219.181 495.213 L
226.921 495.264 L
234.661 495.265 L
242.402 495.288 L
250.142 495.253 L
257.882 495.245 L
265.622 495.257 L
273.362 495.256 L
281.102 495.254 L
288.843 495.255 L
296.583 495.255 L
304.323 495.255 L
312.063 495.255 L
319.803 495.255 L
327.543 495.255 L
335.283 495.255 L
343.024 495.255 L
350.764 495.255 L
358.504 495.255 L
366.244 495.255 L
373.984 495.255 L
381.724 495.255 L
389.465 495.255 L
397.205 495.255 L
404.945 495.255 L
412.685 495.255 L
420.425 495.255 L
428.165 495.255 L
435.906 495.255 L
443.646 495.255 L
451.386 495.255 L
459.126 495.255 L
466.866 495.255 L
474.606 495.255 L
482.346 495.255 L
490.087 495.255 L
497.827 495.255 L
505.567 495.255 L
513.307 495.255 L
521.047 495.255 L
528.787 495.255 L
536.528 495.255 L
544.268 495.255 L
552.008 495.255 L
559.748 495.255 L
567.488 495.255 L
575.228 495.255 L
582.969 495.255 L
590.709 495.255 L
598.449 495.255 L
606.189 495.255 L
613.929 495.255 L
621.669 495.255 L
629.409 495.255 L
637.15 495.255 L
644.89 495.255 L
652.63 495.255 L
660.37 495.255 L
668.11 495.255 L
675.85 495.255 L
683.591 495.255 L
691.331 495.255 L
699.071 495.255 L
706.811 495.255 L
714.551 495.255 L
722.291 495.255 L
730.031 495.255 L
737.772 495.255 L
745.512 495.255 L
753.252 495.255 L
760.992 495.255 L
768.732 495.255 L
776.472 495.255 L
784.213 495.255 L
791.953 495.255 L
799.693 495.255 L
807.433 495.255 L
815.173 495.255 L
822.913 495.255 L
830.654 495.255 L
838.394 495.255 L
846.134 495.255 L
853.874 495.255 L
861.614 495.255 L
869.354 495.255 L
877.094 495.255 L
884.835 495.255 L
892.575 495.255 L
900.315 495.255 L
908.055 495.255 L
915.795 495.255 L
923.535 495.255 L
931.276 495.255 L
939.016 495.255 L
946.756 495.255 L
954.496 495.255 L
962.236 495.255 L
969.976 495.255 L
977.717 495.255 L
985.457 495.255 L
993.197 495.255 L
1000.937 495.255 L
1008.677 495.255 L
1016.417 495.255 L
1024.157 495.255 L
1031.898 495.255 L
1039.638 495.255 L
1047.378 495.255 L
1055.118 495.255 L
1062.858 495.255 L
1070.598 495.255 L
1078.339 495.255 L
1086.079 495.255 L
1093.819 495.255 L
1101.559 495.255 L
1109.299 495.255 L
1117.039 495.255 L
1124.78 495.255 L
1132.52 495.255 L
1140.26 495.255 L
1148 495.255 L
S
GR
GS
[0.75 0 0 0.75 0 0] CT
0.851 0.325 0.098 RC
1 LJ
2.667 LW
N
165 92.063 M
172.74 176.713 L
180.48 259.167 L
188.22 336.196 L
195.961 461.846 L
203.701 623.71 L
211.441 717.881 L
219.181 741.61 L
226.921 736.302 L
234.661 674.908 L
242.402 632.394 L
250.142 612.547 L
257.882 554.792 L
265.622 474.853 L
273.362 430.145 L
281.102 418.714 L
288.843 423.857 L
296.583 459.583 L
304.323 476.651 L
312.063 473.203 L
319.803 485.516 L
327.543 503.085 L
335.283 512.038 L
343.024 515.057 L
350.764 511.393 L
358.504 498.12 L
366.244 492.724 L
373.984 495.249 L
381.724 494.581 L
389.465 494.377 L
397.205 494.191 L
404.945 492.943 L
412.685 493.459 L
420.425 495.456 L
428.165 496.141 L
435.906 495.809 L
443.646 495.64 L
451.386 495.126 L
459.126 494.942 L
466.866 495.213 L
474.606 495.264 L
482.346 495.265 L
490.087 495.288 L
497.827 495.253 L
505.567 495.245 L
513.307 495.257 L
521.047 495.256 L
528.787 495.254 L
536.528 495.255 L
544.268 495.255 L
552.008 495.255 L
559.748 495.255 L
567.488 495.255 L
575.228 495.255 L
582.969 495.255 L
590.709 495.255 L
598.449 495.255 L
606.189 495.255 L
613.929 495.255 L
621.669 495.255 L
629.409 495.255 L
637.15 495.255 L
644.89 495.255 L
652.63 495.255 L
660.37 495.255 L
668.11 495.255 L
675.85 495.255 L
683.591 495.255 L
691.331 495.255 L
699.071 495.255 L
706.811 495.255 L
714.551 495.255 L
722.291 495.255 L
730.031 495.255 L
737.772 495.255 L
745.512 495.255 L
753.252 495.255 L
760.992 495.255 L
768.732 495.255 L
776.472 495.255 L
784.213 495.255 L
791.953 495.255 L
799.693 495.255 L
807.433 495.255 L
815.173 495.255 L
822.913 495.255 L
830.654 495.255 L
838.394 495.255 L
846.134 495.255 L
853.874 495.255 L
861.614 495.255 L
869.354 495.255 L
877.094 495.255 L
884.835 495.255 L
892.575 495.255 L
900.315 495.255 L
908.055 495.255 L
915.795 495.255 L
923.535 495.255 L
931.276 495.255 L
939.016 495.255 L
946.756 495.255 L
954.496 495.255 L
962.236 495.255 L
969.976 495.255 L
977.717 495.255 L
985.457 495.255 L
993.197 495.255 L
1000.937 495.255 L
1008.677 495.255 L
1016.417 495.255 L
1024.157 495.255 L
1031.898 495.255 L
1039.638 495.255 L
1047.378 495.255 L
1055.118 495.255 L
1062.858 495.255 L
1070.598 495.255 L
1078.339 495.255 L
1086.079 495.255 L
1093.819 495.255 L
1101.559 495.255 L
1109.299 495.255 L
1117.039 495.255 L
1124.78 495.255 L
1132.52 495.255 L
1140.26 495.255 L
1148 495.255 L
S
GR
GS
[0.75 0 0 0.75 0 0] CT
0.929 0.694 0.125 RC
1 LJ
2.667 LW
N
165 459.377 M
172.74 451.703 L
180.48 442.884 L
188.22 432.841 L
195.961 422.239 L
203.701 410.853 L
211.441 406.234 L
219.181 409.212 L
226.921 416.078 L
234.661 429.033 L
242.402 443.888 L
250.142 460.462 L
257.882 482.859 L
265.622 510.325 L
273.362 537.165 L
281.102 563.507 L
288.843 591.693 L
296.583 620.405 L
304.323 654.212 L
312.063 693.496 L
319.803 734.969 L
327.543 779.734 L
335.283 790 L
343.024 761.602 L
350.764 713.067 L
358.504 633.368 L
366.244 543.469 L
373.984 444.249 L
381.724 315.159 L
389.465 159.962 L
397.205 75.127 L
404.945 67 L
412.685 92.063 L
420.425 176.713 L
428.165 259.167 L
435.906 336.196 L
443.646 461.846 L
451.386 623.71 L
459.126 717.881 L
466.866 741.61 L
474.606 736.302 L
482.346 674.908 L
490.087 632.394 L
497.827 612.547 L
505.567 554.792 L
513.307 474.853 L
521.047 430.145 L
528.787 418.714 L
536.528 423.857 L
544.268 459.583 L
552.008 476.651 L
559.748 473.203 L
567.488 485.516 L
575.228 503.085 L
582.969 512.038 L
590.709 515.057 L
598.449 511.393 L
606.189 498.12 L
613.929 492.724 L
621.669 495.249 L
629.409 494.581 L
637.15 494.377 L
644.89 494.191 L
652.63 492.943 L
660.37 493.459 L
668.11 495.456 L
675.85 496.141 L
683.591 495.809 L
691.331 495.64 L
699.071 495.126 L
706.811 494.942 L
714.551 495.213 L
722.291 495.264 L
730.031 495.265 L
737.772 495.288 L
745.512 495.253 L
753.252 495.245 L
760.992 495.257 L
768.732 495.256 L
776.472 495.254 L
784.213 495.255 L
791.953 495.255 L
799.693 495.255 L
807.433 495.255 L
815.173 495.255 L
822.913 495.255 L
830.654 495.255 L
838.394 495.255 L
846.134 495.255 L
853.874 495.255 L
861.614 495.255 L
869.354 495.255 L
877.094 495.255 L
884.835 495.255 L
892.575 495.255 L
900.315 495.255 L
908.055 495.255 L
915.795 495.255 L
923.535 495.255 L
931.276 495.255 L
939.016 495.255 L
946.756 495.255 L
954.496 495.255 L
962.236 495.255 L
969.976 495.255 L
977.717 495.255 L
985.457 495.255 L
993.197 495.255 L
1000.937 495.255 L
1008.677 495.255 L
1016.417 495.255 L
1024.157 495.255 L
1031.898 495.255 L
1039.638 495.255 L
1047.378 495.255 L
1055.118 495.255 L
1062.858 495.255 L
1070.598 495.255 L
1078.339 495.255 L
1086.079 495.255 L
1093.819 495.255 L
1101.559 495.255 L
1109.299 495.255 L
1117.039 495.255 L
1124.78 495.255 L
1132.52 495.255 L
1140.26 495.255 L
1148 495.255 L
S
GR
GS
[0.75 0 0 0.75 0 0] CT
0.494 0.184 0.557 RC
1 LJ
2.667 LW
N
165 495.255 M
172.74 495.255 L
180.48 495.255 L
188.22 495.255 L
195.961 495.255 L
203.701 495.255 L
211.441 495.421 L
219.181 495.77 L
226.921 496.225 L
234.661 496.833 L
242.402 497.501 L
250.142 498.224 L
257.882 499.095 L
265.622 500.096 L
273.362 501.11 L
281.102 502.138 L
288.843 503.232 L
296.583 504.362 L
304.323 505.628 L
312.063 507.038 L
319.803 508.522 L
327.543 510.106 L
335.283 510.221 L
343.024 508.702 L
350.764 506.301 L
358.504 502.56 L
366.244 498.363 L
373.984 493.745 L
381.724 487.846 L
389.465 480.825 L
397.205 473.834 L
404.945 466.842 L
412.685 459.377 L
420.425 451.703 L
428.165 442.884 L
435.906 432.841 L
443.646 422.239 L
451.386 410.853 L
459.126 406.234 L
466.866 409.212 L
474.606 416.078 L
482.346 429.033 L
490.087 443.888 L
497.827 460.462 L
505.567 482.859 L
513.307 510.325 L
521.047 537.165 L
528.787 563.507 L
536.528 591.693 L
544.268 620.405 L
552.008 654.212 L
559.748 693.496 L
567.488 734.969 L
575.228 779.734 L
582.969 790 L
590.709 761.602 L
598.449 713.067 L
606.189 633.368 L
613.929 543.469 L
621.669 444.249 L
629.409 315.159 L
637.15 159.962 L
644.89 75.127 L
652.63 67 L
660.37 92.063 L
668.11 176.713 L
675.85 259.167 L
683.591 336.196 L
691.331 461.846 L
699.071 623.71 L
706.811 717.881 L
714.551 741.61 L
722.291 736.302 L
730.031 674.908 L
737.772 632.394 L
745.512 612.547 L
753.252 554.792 L
760.992 474.853 L
768.732 430.145 L
776.472 418.714 L
784.213 423.857 L
791.953 459.583 L
799.693 476.651 L
807.433 473.203 L
815.173 485.516 L
822.913 503.085 L
830.654 512.038 L
838.394 515.057 L
846.134 511.393 L
853.874 498.12 L
861.614 492.724 L
869.354 495.249 L
877.094 494.581 L
884.835 494.377 L
892.575 494.191 L
900.315 492.943 L
908.055 493.459 L
915.795 495.456 L
923.535 496.141 L
931.276 495.809 L
939.016 495.64 L
946.756 495.126 L
954.496 494.942 L
962.236 495.213 L
969.976 495.264 L
977.717 495.265 L
985.457 495.288 L
993.197 495.253 L
1000.937 495.245 L
1008.677 495.257 L
1016.417 495.256 L
1024.157 495.254 L
1031.898 495.255 L
1039.638 495.255 L
1047.378 495.255 L
1055.118 495.255 L
1062.858 495.255 L
1070.598 495.255 L
1078.339 495.255 L
1086.079 495.255 L
1093.819 495.255 L
1101.559 495.255 L
1109.299 495.255 L
1117.039 495.255 L
1124.78 495.255 L
1132.52 495.255 L
1140.26 495.255 L
1148 495.255 L
S
GR
GS
[0.75 0 0 0.75 0 0] CT
0.467 0.675 0.188 RC
1 LJ
2.667 LW
N
165 495.255 M
172.74 495.255 L
180.48 495.255 L
188.22 495.255 L
195.961 495.255 L
203.701 495.255 L
211.441 495.255 L
219.181 495.255 L
226.921 495.255 L
234.661 495.255 L
242.402 495.255 L
250.142 495.255 L
257.882 495.255 L
265.622 495.255 L
273.362 495.255 L
281.102 495.255 L
288.843 495.255 L
296.583 495.255 L
304.323 495.255 L
312.063 495.255 L
319.803 495.255 L
327.543 495.255 L
335.283 495.255 L
343.024 495.255 L
350.764 495.255 L
358.504 495.255 L
366.244 495.255 L
373.984 495.255 L
381.724 495.255 L
389.465 495.255 L
397.205 495.255 L
404.945 495.255 L
412.685 495.255 L
420.425 495.255 L
428.165 495.255 L
435.906 495.255 L
443.646 495.255 L
451.386 495.255 L
459.126 495.421 L
466.866 495.77 L
474.606 496.225 L
482.346 496.833 L
490.087 497.501 L
497.827 498.224 L
505.567 499.095 L
513.307 500.096 L
521.047 501.11 L
528.787 502.138 L
536.528 503.232 L
544.268 504.362 L
552.008 505.628 L
559.748 507.038 L
567.488 508.522 L
575.228 510.106 L
582.969 510.221 L
590.709 508.702 L
598.449 506.301 L
606.189 502.56 L
613.929 498.363 L
621.669 493.745 L
629.409 487.846 L
637.15 480.825 L
644.89 473.834 L
652.63 466.842 L
660.37 459.377 L
668.11 451.703 L
675.85 442.884 L
683.591 432.841 L
691.331 422.239 L
699.071 410.853 L
706.811 406.234 L
714.551 409.212 L
722.291 416.078 L
730.031 429.033 L
737.772 443.888 L
745.512 460.462 L
753.252 482.859 L
760.992 510.325 L
768.732 537.165 L
776.472 563.507 L
784.213 591.693 L
791.953 620.405 L
799.693 654.212 L
807.433 693.496 L
815.173 734.969 L
822.913 779.734 L
830.654 790 L
838.394 761.602 L
846.134 713.067 L
853.874 633.368 L
861.614 543.469 L
869.354 444.249 L
877.094 315.159 L
884.835 159.962 L
892.575 75.127 L
900.315 67 L
908.055 92.063 L
915.795 176.713 L
923.535 259.167 L
931.276 336.196 L
939.016 461.846 L
946.756 623.71 L
954.496 717.881 L
962.236 741.61 L
969.976 736.302 L
977.717 674.908 L
985.457 632.394 L
993.197 612.547 L
1000.937 554.792 L
1008.677 474.853 L
1016.417 430.145 L
1024.157 418.714 L
1031.898 423.857 L
1039.638 459.583 L
1047.378 476.651 L
1055.118 473.203 L
1062.858 485.516 L
1070.598 503.085 L
1078.339 512.038 L
1086.079 515.057 L
1093.819 511.393 L
1101.559 498.12 L
1109.299 492.724 L
1117.039 495.249 L
1124.78 494.581 L
1132.52 494.377 L
1140.26 494.191 L
1148 492.943 L
S
GR
GS
[0.75 0 0 0.75 0 0] CT
0.302 0.745 0.933 RC
1 LJ
2.667 LW
N
165 495.255 M
172.74 495.255 L
180.48 495.255 L
188.22 495.255 L
195.961 495.255 L
203.701 495.255 L
211.441 495.255 L
219.181 495.255 L
226.921 495.255 L
234.661 495.255 L
242.402 495.255 L
250.142 495.255 L
257.882 495.255 L
265.622 495.255 L
273.362 495.255 L
281.102 495.255 L
288.843 495.255 L
296.583 495.255 L
304.323 495.255 L
312.063 495.255 L
319.803 495.255 L
327.543 495.255 L
335.283 495.255 L
343.024 495.255 L
350.764 495.255 L
358.504 495.255 L
366.244 495.255 L
373.984 495.255 L
381.724 495.255 L
389.465 495.255 L
397.205 495.255 L
404.945 495.255 L
412.685 495.255 L
420.425 495.255 L
428.165 495.255 L
435.906 495.255 L
443.646 495.255 L
451.386 495.255 L
459.126 495.255 L
466.866 495.255 L
474.606 495.255 L
482.346 495.255 L
490.087 495.255 L
497.827 495.255 L
505.567 495.255 L
513.307 495.255 L
521.047 495.255 L
528.787 495.255 L
536.528 495.255 L
544.268 495.255 L
552.008 495.255 L
559.748 495.255 L
567.488 495.255 L
575.228 495.255 L
582.969 495.255 L
590.709 495.255 L
598.449 495.255 L
606.189 495.255 L
613.929 495.255 L
621.669 495.255 L
629.409 495.255 L
637.15 495.255 L
644.89 495.255 L
652.63 495.255 L
660.37 495.255 L
668.11 495.255 L
675.85 495.255 L
683.591 495.255 L
691.331 495.255 L
699.071 495.255 L
706.811 495.421 L
714.551 495.77 L
722.291 496.225 L
730.031 496.833 L
737.772 497.501 L
745.512 498.224 L
753.252 499.095 L
760.992 500.096 L
768.732 501.11 L
776.472 502.138 L
784.213 503.232 L
791.953 504.362 L
799.693 505.628 L
807.433 507.038 L
815.173 508.522 L
822.913 510.106 L
830.654 510.221 L
838.394 508.702 L
846.134 506.301 L
853.874 502.56 L
861.614 498.363 L
869.354 493.745 L
877.094 487.846 L
884.835 480.825 L
892.575 473.834 L
900.315 466.842 L
908.055 459.377 L
915.795 451.703 L
923.535 442.884 L
931.276 432.841 L
939.016 422.239 L
946.756 410.853 L
954.496 406.234 L
962.236 409.212 L
969.976 416.078 L
977.717 429.033 L
985.457 443.888 L
993.197 460.462 L
1000.937 482.859 L
1008.677 510.325 L
1016.417 537.165 L
1024.157 563.507 L
1031.898 591.693 L
1039.638 620.405 L
1047.378 654.212 L
1055.118 693.496 L
1062.858 734.969 L
1070.598 779.734 L
1078.339 790 L
1086.079 761.602 L
1093.819 713.067 L
1101.559 633.368 L
1109.299 543.469 L
1117.039 444.249 L
1124.78 315.159 L
1132.52 159.962 L
1140.26 75.127 L
1148 67 L
S
GR
%%Trailer
%%Pages: 1
%%EOF
