%!PS-Adobe-3.0 EPSF-3.0
%%Creator: (MATLAB, The Mathworks, Inc. Version 9.3.0.713579 \(R2017b\). Operating System: Windows 10)
%%Title: C:/Users/simon/Documents/Unief/M2/Wavelets/Project/report/plots/waveletDB2SCALE.eps
%%CreationDate: 2017-11-29T22:10:35
%%Pages: (atend)
%%BoundingBox: 0 0 420 315
%%LanguageLevel: 3
%%EndComments
%%BeginProlog
%%BeginResource: procset (Apache XML Graphics Std ProcSet) 1.2 0
%%Version: 1.2 0
%%Copyright: (Copyright 2001-2003,2010 The Apache Software Foundation. License terms: http://www.apache.org/licenses/LICENSE-2.0)
/bd{bind def}bind def
/ld{load def}bd
/GR/grestore ld
/GS/gsave ld
/RM/rmoveto ld
/C/curveto ld
/t/show ld
/L/lineto ld
/ML/setmiterlimit ld
/CT/concat ld
/f/fill ld
/N/newpath ld
/S/stroke ld
/CC/setcmykcolor ld
/A/ashow ld
/cp/closepath ld
/RC/setrgbcolor ld
/LJ/setlinejoin ld
/GC/setgray ld
/LW/setlinewidth ld
/M/moveto ld
/re {4 2 roll M
1 index 0 rlineto
0 exch rlineto
neg 0 rlineto
cp } bd
/_ctm matrix def
/_tm matrix def
/BT { _ctm currentmatrix pop matrix _tm copy pop 0 0 moveto } bd
/ET { _ctm setmatrix } bd
/iTm { _ctm setmatrix _tm concat } bd
/Tm { _tm astore pop iTm 0 0 moveto } bd
/ux 0.0 def
/uy 0.0 def
/F {
  /Tp exch def
  /Tf exch def
  Tf findfont Tp scalefont setfont
  /cf Tf def  /cs Tp def
} bd
/ULS {currentpoint /uy exch def /ux exch def} bd
/ULE {
  /Tcx currentpoint pop def
  gsave
  newpath
  cf findfont cs scalefont dup
  /FontMatrix get 0 get /Ts exch def /FontInfo get dup
  /UnderlinePosition get Ts mul /To exch def
  /UnderlineThickness get Ts mul /Tt exch def
  ux uy To add moveto  Tcx uy To add lineto
  Tt setlinewidth stroke
  grestore
} bd
/OLE {
  /Tcx currentpoint pop def
  gsave
  newpath
  cf findfont cs scalefont dup
  /FontMatrix get 0 get /Ts exch def /FontInfo get dup
  /UnderlinePosition get Ts mul /To exch def
  /UnderlineThickness get Ts mul /Tt exch def
  ux uy To add cs add moveto Tcx uy To add cs add lineto
  Tt setlinewidth stroke
  grestore
} bd
/SOE {
  /Tcx currentpoint pop def
  gsave
  newpath
  cf findfont cs scalefont dup
  /FontMatrix get 0 get /Ts exch def /FontInfo get dup
  /UnderlinePosition get Ts mul /To exch def
  /UnderlineThickness get Ts mul /Tt exch def
  ux uy To add cs 10 mul 26 idiv add moveto Tcx uy To add cs 10 mul 26 idiv add lineto
  Tt setlinewidth stroke
  grestore
} bd
/QT {
/Y22 exch store
/X22 exch store
/Y21 exch store
/X21 exch store
currentpoint
/Y21 load 2 mul add 3 div exch
/X21 load 2 mul add 3 div exch
/X21 load 2 mul /X22 load add 3 div
/Y21 load 2 mul /Y22 load add 3 div
/X22 load /Y22 load curveto
} bd
/SSPD {
dup length /d exch dict def
{
/v exch def
/k exch def
currentpagedevice k known {
/cpdv currentpagedevice k get def
v cpdv ne {
/upd false def
/nullv v type /nulltype eq def
/nullcpdv cpdv type /nulltype eq def
nullv nullcpdv or
{
/upd true def
} {
/sametype v type cpdv type eq def
sametype {
v type /arraytype eq {
/vlen v length def
/cpdvlen cpdv length def
vlen cpdvlen eq {
0 1 vlen 1 sub {
/i exch def
/obj v i get def
/cpdobj cpdv i get def
obj cpdobj ne {
/upd true def
exit
} if
} for
} {
/upd true def
} ifelse
} {
v type /dicttype eq {
v {
/dv exch def
/dk exch def
/cpddv cpdv dk get def
dv cpddv ne {
/upd true def
exit
} if
} forall
} {
/upd true def
} ifelse
} ifelse
} if
} ifelse
upd true eq {
d k v put
} if
} if
} if
} forall
d length 0 gt {
d setpagedevice
} if
} bd
/RE { % /NewFontName [NewEncodingArray] /FontName RE -
  findfont dup length dict begin
  {
    1 index /FID ne
    {def} {pop pop} ifelse
  } forall
  /Encoding exch def
  /FontName 1 index def
  currentdict definefont pop
  end
} bind def
%%EndResource
%%BeginResource: procset (Apache XML Graphics EPS ProcSet) 1.0 0
%%Version: 1.0 0
%%Copyright: (Copyright 2002-2003 The Apache Software Foundation. License terms: http://www.apache.org/licenses/LICENSE-2.0)
/BeginEPSF { %def
/b4_Inc_state save def         % Save state for cleanup
/dict_count countdictstack def % Count objects on dict stack
/op_count count 1 sub def      % Count objects on operand stack
userdict begin                 % Push userdict on dict stack
/showpage { } def              % Redefine showpage, { } = null proc
0 setgray 0 setlinecap         % Prepare graphics state
1 setlinewidth 0 setlinejoin
10 setmiterlimit [ ] 0 setdash newpath
/languagelevel where           % If level not equal to 1 then
{pop languagelevel             % set strokeadjust and
1 ne                           % overprint to their defaults.
{false setstrokeadjust false setoverprint
} if
} if
} bd
/EndEPSF { %def
count op_count sub {pop} repeat            % Clean up stacks
countdictstack dict_count sub {end} repeat
b4_Inc_state restore
} bd
%%EndResource
%FOPBeginFontDict
%%IncludeResource: font Courier-Oblique
%%IncludeResource: font Courier-BoldOblique
%%IncludeResource: font Courier-Bold
%%IncludeResource: font ZapfDingbats
%%IncludeResource: font Symbol
%%IncludeResource: font Helvetica
%%IncludeResource: font Helvetica-Oblique
%%IncludeResource: font Helvetica-Bold
%%IncludeResource: font Helvetica-BoldOblique
%%IncludeResource: font Times-Roman
%%IncludeResource: font Times-Italic
%%IncludeResource: font Times-Bold
%%IncludeResource: font Times-BoldItalic
%%IncludeResource: font Courier
%FOPEndFontDict
%%BeginResource: encoding WinAnsiEncoding
/WinAnsiEncoding [
/.notdef /.notdef /.notdef /.notdef /.notdef
/.notdef /.notdef /.notdef /.notdef /.notdef
/.notdef /.notdef /.notdef /.notdef /.notdef
/.notdef /.notdef /.notdef /.notdef /.notdef
/.notdef /.notdef /.notdef /.notdef /.notdef
/.notdef /.notdef /.notdef /.notdef /.notdef
/.notdef /.notdef /space /exclam /quotedbl
/numbersign /dollar /percent /ampersand /quotesingle
/parenleft /parenright /asterisk /plus /comma
/hyphen /period /slash /zero /one
/two /three /four /five /six
/seven /eight /nine /colon /semicolon
/less /equal /greater /question /at
/A /B /C /D /E
/F /G /H /I /J
/K /L /M /N /O
/P /Q /R /S /T
/U /V /W /X /Y
/Z /bracketleft /backslash /bracketright /asciicircum
/underscore /quoteleft /a /b /c
/d /e /f /g /h
/i /j /k /l /m
/n /o /p /q /r
/s /t /u /v /w
/x /y /z /braceleft /bar
/braceright /asciitilde /bullet /Euro /bullet
/quotesinglbase /florin /quotedblbase /ellipsis /dagger
/daggerdbl /circumflex /perthousand /Scaron /guilsinglleft
/OE /bullet /Zcaron /bullet /bullet
/quoteleft /quoteright /quotedblleft /quotedblright /bullet
/endash /emdash /asciitilde /trademark /scaron
/guilsinglright /oe /bullet /zcaron /Ydieresis
/space /exclamdown /cent /sterling /currency
/yen /brokenbar /section /dieresis /copyright
/ordfeminine /guillemotleft /logicalnot /sfthyphen /registered
/macron /degree /plusminus /twosuperior /threesuperior
/acute /mu /paragraph /middot /cedilla
/onesuperior /ordmasculine /guillemotright /onequarter /onehalf
/threequarters /questiondown /Agrave /Aacute /Acircumflex
/Atilde /Adieresis /Aring /AE /Ccedilla
/Egrave /Eacute /Ecircumflex /Edieresis /Igrave
/Iacute /Icircumflex /Idieresis /Eth /Ntilde
/Ograve /Oacute /Ocircumflex /Otilde /Odieresis
/multiply /Oslash /Ugrave /Uacute /Ucircumflex
/Udieresis /Yacute /Thorn /germandbls /agrave
/aacute /acircumflex /atilde /adieresis /aring
/ae /ccedilla /egrave /eacute /ecircumflex
/edieresis /igrave /iacute /icircumflex /idieresis
/eth /ntilde /ograve /oacute /ocircumflex
/otilde /odieresis /divide /oslash /ugrave
/uacute /ucircumflex /udieresis /yacute /thorn
/ydieresis
] def
%%EndResource
%FOPBeginFontReencode
/Courier-Oblique findfont
dup length dict begin
  {1 index /FID ne {def} {pop pop} ifelse} forall
  /Encoding WinAnsiEncoding def
  currentdict
end
/Courier-Oblique exch definefont pop
/Courier-BoldOblique findfont
dup length dict begin
  {1 index /FID ne {def} {pop pop} ifelse} forall
  /Encoding WinAnsiEncoding def
  currentdict
end
/Courier-BoldOblique exch definefont pop
/Courier-Bold findfont
dup length dict begin
  {1 index /FID ne {def} {pop pop} ifelse} forall
  /Encoding WinAnsiEncoding def
  currentdict
end
/Courier-Bold exch definefont pop
/Helvetica findfont
dup length dict begin
  {1 index /FID ne {def} {pop pop} ifelse} forall
  /Encoding WinAnsiEncoding def
  currentdict
end
/Helvetica exch definefont pop
/Helvetica-Oblique findfont
dup length dict begin
  {1 index /FID ne {def} {pop pop} ifelse} forall
  /Encoding WinAnsiEncoding def
  currentdict
end
/Helvetica-Oblique exch definefont pop
/Helvetica-Bold findfont
dup length dict begin
  {1 index /FID ne {def} {pop pop} ifelse} forall
  /Encoding WinAnsiEncoding def
  currentdict
end
/Helvetica-Bold exch definefont pop
/Helvetica-BoldOblique findfont
dup length dict begin
  {1 index /FID ne {def} {pop pop} ifelse} forall
  /Encoding WinAnsiEncoding def
  currentdict
end
/Helvetica-BoldOblique exch definefont pop
/Times-Roman findfont
dup length dict begin
  {1 index /FID ne {def} {pop pop} ifelse} forall
  /Encoding WinAnsiEncoding def
  currentdict
end
/Times-Roman exch definefont pop
/Times-Italic findfont
dup length dict begin
  {1 index /FID ne {def} {pop pop} ifelse} forall
  /Encoding WinAnsiEncoding def
  currentdict
end
/Times-Italic exch definefont pop
/Times-Bold findfont
dup length dict begin
  {1 index /FID ne {def} {pop pop} ifelse} forall
  /Encoding WinAnsiEncoding def
  currentdict
end
/Times-Bold exch definefont pop
/Times-BoldItalic findfont
dup length dict begin
  {1 index /FID ne {def} {pop pop} ifelse} forall
  /Encoding WinAnsiEncoding def
  currentdict
end
/Times-BoldItalic exch definefont pop
/Courier findfont
dup length dict begin
  {1 index /FID ne {def} {pop pop} ifelse} forall
  /Encoding WinAnsiEncoding def
  currentdict
end
/Courier exch definefont pop
%FOPEndFontReencode
%%EndProlog
%%Page: 1 1
%%PageBoundingBox: 0 0 420 315
%%BeginPageSetup
[1 0 0 -1 0 315] CT
%%EndPageSetup
GS
[0.75 0 0 0.75 0 0] CT
1 GC
N
0 0 560 420 re
f
GR
GS
[0.75 0 0 0.75 0 0] CT
1 GC
N
0 0 560 420 re
f
GR
GS
[0.75 0 0 0.75 0 0] CT
1 GC
N
73 374 M
507 374 L
507 31 L
73 31 L
cp
f
GR
GS
[0.75 0 0 0.75 0 0] CT
0.149 GC
2 setlinecap
1 LJ
0.667 LW
N
73 374 M
507 374 L
S
GR
GS
[0.75 0 0 0.75 0 0] CT
0.149 GC
2 setlinecap
1 LJ
0.667 LW
N
112.221 374 M
112.221 369.66 L
S
GR
GS
[0.75 0 0 0.75 0 0] CT
0.149 GC
2 setlinecap
1 LJ
0.667 LW
N
155.147 374 M
155.147 369.66 L
S
GR
GS
[0.75 0 0 0.75 0 0] CT
0.149 GC
2 setlinecap
1 LJ
0.667 LW
N
198.073 374 M
198.073 369.66 L
S
GR
GS
[0.75 0 0 0.75 0 0] CT
0.149 GC
2 setlinecap
1 LJ
0.667 LW
N
240.998 374 M
240.998 369.66 L
S
GR
GS
[0.75 0 0 0.75 0 0] CT
0.149 GC
2 setlinecap
1 LJ
0.667 LW
N
283.924 374 M
283.924 369.66 L
S
GR
GS
[0.75 0 0 0.75 0 0] CT
0.149 GC
2 setlinecap
1 LJ
0.667 LW
N
326.85 374 M
326.85 369.66 L
S
GR
GS
[0.75 0 0 0.75 0 0] CT
0.149 GC
2 setlinecap
1 LJ
0.667 LW
N
369.776 374 M
369.776 369.66 L
S
GR
GS
[0.75 0 0 0.75 0 0] CT
0.149 GC
2 setlinecap
1 LJ
0.667 LW
N
412.702 374 M
412.702 369.66 L
S
GR
GS
[0.75 0 0 0.75 0 0] CT
0.149 GC
2 setlinecap
1 LJ
0.667 LW
N
455.628 374 M
455.628 369.66 L
S
GR
GS
[0.75 0 0 0.75 0 0] CT
0.149 GC
2 setlinecap
1 LJ
0.667 LW
N
498.554 374 M
498.554 369.66 L
S
GR
GS
[0.75 0 0 0.75 84.16558 284.50001] CT
0.149 GC
/Helvetica 13.333 F
GS
[1 0 0 1 0 0] CT
-11.5 14 moveto 
1 -1 scale
(360) t 
GR
GR
GS
[0.75 0 0 0.75 116.35999 284.50001] CT
0.149 GC
/Helvetica 13.333 F
GS
[1 0 0 1 0 0] CT
-11.5 14 moveto 
1 -1 scale
(370) t 
GR
GR
GS
[0.75 0 0 0.75 148.55439 284.50001] CT
0.149 GC
/Helvetica 13.333 F
GS
[1 0 0 1 0 0] CT
-11.5 14 moveto 
1 -1 scale
(380) t 
GR
GR
GS
[0.75 0 0 0.75 180.74881 284.50001] CT
0.149 GC
/Helvetica 13.333 F
GS
[1 0 0 1 0 0] CT
-11.5 14 moveto 
1 -1 scale
(390) t 
GR
GR
GS
[0.75 0 0 0.75 212.94321 284.50001] CT
0.149 GC
/Helvetica 13.333 F
GS
[1 0 0 1 0 0] CT
-11.5 14 moveto 
1 -1 scale
(400) t 
GR
GR
GS
[0.75 0 0 0.75 245.13764 284.50001] CT
0.149 GC
/Helvetica 13.333 F
GS
[1 0 0 1 0 0] CT
-11.5 14 moveto 
1 -1 scale
(410) t 
GR
GR
GS
[0.75 0 0 0.75 277.33205 284.50001] CT
0.149 GC
/Helvetica 13.333 F
GS
[1 0 0 1 0 0] CT
-11.5 14 moveto 
1 -1 scale
(420) t 
GR
GR
GS
[0.75 0 0 0.75 309.52645 284.50001] CT
0.149 GC
/Helvetica 13.333 F
GS
[1 0 0 1 0 0] CT
-11.5 14 moveto 
1 -1 scale
(430) t 
GR
GR
GS
[0.75 0 0 0.75 341.72086 284.50001] CT
0.149 GC
/Helvetica 13.333 F
GS
[1 0 0 1 0 0] CT
-11.5 14 moveto 
1 -1 scale
(440) t 
GR
GR
GS
[0.75 0 0 0.75 373.91528 284.50001] CT
0.149 GC
/Helvetica 13.333 F
GS
[1 0 0 1 0 0] CT
-11.5 14 moveto 
1 -1 scale
(450) t 
GR
GR
GS
[0.75 0 0 0.75 217.50014 298.24999] CT
0.149 GC
N
-47.254 12.32 M
-47.254 11.789 L
-46.504 11.789 -45.793 11.703 QT
-45.082 11.617 -45.082 11.32 QT
-45.082 3.07 L
-45.082 2.757 -45.262 2.679 QT
-45.442 2.601 -45.832 2.601 QT
-46.473 2.601 L
-47.707 2.601 -48.223 3.148 QT
-48.488 3.414 -48.606 4.007 QT
-48.723 4.601 -48.817 5.507 QT
-49.238 5.507 L
-48.957 2.07 L
-39.801 2.07 L
-39.504 5.507 L
-39.942 5.507 L
-40.035 4.539 -40.145 3.976 QT
-40.254 3.414 -40.52 3.148 QT
-41.051 2.601 -42.285 2.601 QT
-42.91 2.601 L
-43.192 2.601 -43.34 2.625 QT
-43.488 2.648 -43.582 2.75 QT
-43.676 2.851 -43.676 3.07 QT
-43.676 11.32 L
-43.676 11.617 -42.965 11.703 QT
-42.254 11.789 -41.504 11.789 QT
-41.504 12.32 L
-47.254 12.32 L
cp
f
GR
GS
[0.75 0 0 0.75 217.50014 298.24999] CT
0.149 GC
N
-38.724 12.32 M
-38.724 11.789 L
-38.224 11.789 -37.888 11.711 QT
-37.552 11.632 -37.552 11.32 QT
-37.552 7.226 L
-37.552 6.648 -37.779 6.515 QT
-38.005 6.382 -38.661 6.382 QT
-38.661 5.851 L
-36.505 5.695 L
-36.505 11.32 L
-36.505 11.632 -36.216 11.711 QT
-35.927 11.789 -35.458 11.789 QT
-35.458 12.32 L
-38.724 12.32 L
cp
-38.099 3.117 M
-38.099 2.789 -37.849 2.539 QT
-37.599 2.289 -37.271 2.289 QT
-37.068 2.289 -36.865 2.398 QT
-36.661 2.507 -36.552 2.703 QT
-36.443 2.898 -36.443 3.117 QT
-36.443 3.429 -36.693 3.679 QT
-36.943 3.929 -37.271 3.929 QT
-37.599 3.929 -37.849 3.679 QT
-38.099 3.429 -38.099 3.117 QT
cp
f
GR
GS
[0.75 0 0 0.75 217.50014 298.24999] CT
0.149 GC
N
-34.665 12.32 M
-34.665 11.789 L
-34.165 11.789 -33.83 11.711 QT
-33.494 11.632 -33.494 11.32 QT
-33.494 7.226 L
-33.494 6.82 -33.619 6.64 QT
-33.744 6.461 -33.97 6.422 QT
-34.197 6.382 -34.665 6.382 QT
-34.665 5.851 L
-32.494 5.695 L
-32.494 7.164 L
-32.197 6.507 -31.603 6.101 QT
-31.009 5.695 -30.322 5.695 QT
-28.587 5.695 -28.29 7.101 QT
-27.994 6.461 -27.415 6.078 QT
-26.837 5.695 -26.15 5.695 QT
-25.462 5.695 -25.001 5.914 QT
-24.54 6.132 -24.306 6.586 QT
-24.072 7.039 -24.072 7.711 QT
-24.072 11.32 L
-24.072 11.632 -23.736 11.711 QT
-23.4 11.789 -22.9 11.789 QT
-22.9 12.32 L
-26.322 12.32 L
-26.322 11.789 L
-25.822 11.789 -25.486 11.711 QT
-25.15 11.632 -25.15 11.32 QT
-25.15 7.757 L
-25.15 7.007 -25.369 6.547 QT
-25.587 6.086 -26.244 6.086 QT
-27.103 6.086 -27.665 6.781 QT
-28.228 7.476 -28.228 8.351 QT
-28.228 11.32 L
-28.228 11.632 -27.9 11.711 QT
-27.572 11.789 -27.056 11.789 QT
-27.056 12.32 L
-30.494 12.32 L
-30.494 11.789 L
-29.978 11.789 -29.65 11.711 QT
-29.322 11.632 -29.322 11.32 QT
-29.322 7.757 L
-29.322 7.023 -29.533 6.554 QT
-29.744 6.086 -30.415 6.086 QT
-31.275 6.086 -31.837 6.781 QT
-32.4 7.476 -32.4 8.351 QT
-32.4 11.32 L
-32.4 11.632 -32.072 11.711 QT
-31.744 11.789 -31.244 11.789 QT
-31.244 12.32 L
-34.665 12.32 L
cp
f
GR
GS
[0.75 0 0 0.75 217.50014 298.24999] CT
0.149 GC
N
-19.162 12.492 M
-20.084 12.492 -20.842 12.007 QT
-21.599 11.523 -22.037 10.726 QT
-22.474 9.929 -22.474 9.039 QT
-22.474 8.148 -22.076 7.359 QT
-21.678 6.57 -20.967 6.086 QT
-20.256 5.601 -19.381 5.601 QT
-18.678 5.601 -18.17 5.828 QT
-17.662 6.054 -17.334 6.468 QT
-17.006 6.882 -16.842 7.437 QT
-16.678 7.992 -16.678 8.664 QT
-16.678 8.851 -16.818 8.851 QT
-21.162 8.851 L
-21.162 9.023 L
-21.162 10.257 -20.662 11.156 QT
-20.162 12.054 -19.021 12.054 QT
-18.568 12.054 -18.178 11.843 QT
-17.787 11.632 -17.498 11.273 QT
-17.209 10.914 -17.099 10.492 QT
-17.084 10.445 -17.045 10.398 QT
-17.006 10.351 -16.959 10.351 QT
-16.818 10.351 L
-16.678 10.351 -16.678 10.554 QT
-16.881 11.398 -17.584 11.945 QT
-18.287 12.492 -19.162 12.492 QT
cp
-21.146 8.476 M
-17.74 8.476 L
-17.74 7.914 -17.896 7.336 QT
-18.053 6.757 -18.42 6.375 QT
-18.787 5.992 -19.381 5.992 QT
-20.224 5.992 -20.685 6.789 QT
-21.146 7.586 -21.146 8.476 QT
cp
f
GR
GS
[0.75 0 0 0.75 217.50014 298.24999] CT
0.149 GC
N
-6.833 16.039 M
-7.676 15.382 -8.278 14.531 QT
-8.88 13.679 -9.262 12.711 QT
-9.645 11.742 -9.84 10.687 QT
-10.036 9.632 -10.036 8.57 QT
-10.036 7.492 -9.84 6.437 QT
-9.645 5.382 -9.255 4.406 QT
-8.864 3.429 -8.255 2.586 QT
-7.645 1.742 -6.833 1.101 QT
-6.833 1.07 -6.77 1.07 QT
-6.63 1.07 L
-6.583 1.07 -6.544 1.109 QT
-6.505 1.148 -6.505 1.195 QT
-6.505 1.273 -6.536 1.304 QT
-7.27 2.007 -7.755 2.828 QT
-8.239 3.648 -8.536 4.578 QT
-8.833 5.507 -8.965 6.5 QT
-9.098 7.492 -9.098 8.57 QT
-9.098 13.336 -6.551 15.82 QT
-6.505 15.851 -6.505 15.945 QT
-6.505 15.976 -6.544 16.023 QT
-6.583 16.07 -6.63 16.07 QT
-6.77 16.07 L
-6.833 16.07 -6.833 16.039 QT
cp
f
GR
GS
[0.75 0 0 0.75 217.50014 298.24999] CT
0.149 GC
N
-5.285 12.367 M
-5.285 9.914 L
-5.285 9.804 -5.16 9.804 QT
-4.973 9.804 L
-4.879 9.804 -4.848 9.914 QT
-4.441 12.086 -2.832 12.086 QT
-2.129 12.086 -1.645 11.765 QT
-1.16 11.445 -1.16 10.773 QT
-1.16 10.289 -1.535 9.953 QT
-1.91 9.617 -2.426 9.492 QT
-3.426 9.289 L
-3.926 9.179 -4.34 8.953 QT
-4.754 8.726 -5.02 8.351 QT
-5.285 7.976 -5.285 7.476 QT
-5.285 6.804 -4.941 6.39 QT
-4.598 5.976 -4.035 5.789 QT
-3.473 5.601 -2.832 5.601 QT
-2.066 5.601 -1.488 6.007 QT
-1.066 5.632 L
-1.066 5.601 -0.988 5.601 QT
-0.879 5.601 L
-0.832 5.601 -0.793 5.64 QT
-0.754 5.679 -0.754 5.726 QT
-0.754 7.679 L
-0.754 7.82 -0.879 7.82 QT
-1.066 7.82 L
-1.191 7.82 -1.191 7.679 QT
-1.191 6.898 -1.629 6.422 QT
-2.066 5.945 -2.848 5.945 QT
-3.52 5.945 -4.012 6.195 QT
-4.504 6.445 -4.504 7.054 QT
-4.504 7.476 -4.152 7.742 QT
-3.801 8.007 -3.316 8.117 QT
-2.301 8.32 L
-1.801 8.429 -1.356 8.711 QT
-0.91 8.992 -0.652 9.414 QT
-0.395 9.836 -0.395 10.367 QT
-0.395 10.914 -0.574 11.312 QT
-0.754 11.711 -1.09 11.976 QT
-1.426 12.242 -1.879 12.367 QT
-2.332 12.492 -2.832 12.492 QT
-3.77 12.492 -4.441 11.851 QT
-4.988 12.445 L
-4.988 12.492 -5.066 12.492 QT
-5.16 12.492 L
-5.285 12.492 -5.285 12.367 QT
cp
f
GR
GS
[0.75 0 0 0.75 217.50014 298.24999] CT
0.149 GC
N
0.594 10.851 M
0.594 9.961 1.297 9.398 QT
2 8.836 2.992 8.601 QT
3.984 8.367 4.859 8.367 QT
4.859 7.757 L
4.859 7.32 4.672 6.914 QT
4.484 6.507 4.125 6.25 QT
3.766 5.992 3.328 5.992 QT
2.344 5.992 1.812 6.445 QT
2.109 6.445 2.289 6.656 QT
2.469 6.867 2.469 7.164 QT
2.469 7.461 2.258 7.672 QT
2.047 7.882 1.766 7.882 QT
1.453 7.882 1.242 7.672 QT
1.031 7.461 1.031 7.164 QT
1.031 6.367 1.75 5.984 QT
2.469 5.601 3.328 5.601 QT
3.937 5.601 4.555 5.859 QT
5.172 6.117 5.562 6.601 QT
5.953 7.086 5.953 7.726 QT
5.953 11.101 L
5.953 11.398 6.078 11.64 QT
6.203 11.882 6.469 11.882 QT
6.719 11.882 6.836 11.632 QT
6.953 11.382 6.953 11.101 QT
6.953 10.148 L
7.391 10.148 L
7.391 11.101 L
7.391 11.445 7.219 11.75 QT
7.047 12.054 6.75 12.234 QT
6.453 12.414 6.109 12.414 QT
5.672 12.414 5.352 12.07 QT
5.031 11.726 5 11.257 QT
4.719 11.82 4.18 12.156 QT
3.641 12.492 3.016 12.492 QT
2.453 12.492 1.898 12.32 QT
1.344 12.148 0.969 11.789 QT
0.594 11.429 0.594 10.851 QT
cp
1.812 10.851 M
1.812 11.382 2.203 11.734 QT
2.594 12.086 3.125 12.086 QT
3.609 12.086 4 11.851 QT
4.391 11.617 4.625 11.195 QT
4.859 10.773 4.859 10.32 QT
4.859 8.757 L
4.187 8.757 3.469 8.976 QT
2.75 9.195 2.281 9.672 QT
1.812 10.148 1.812 10.851 QT
cp
f
GR
GS
[0.75 0 0 0.75 217.50014 298.24999] CT
0.149 GC
N
7.786 12.32 M
7.786 11.789 L
8.286 11.789 8.622 11.711 QT
8.958 11.632 8.958 11.32 QT
8.958 7.226 L
8.958 6.82 8.833 6.64 QT
8.708 6.461 8.482 6.422 QT
8.255 6.382 7.786 6.382 QT
7.786 5.851 L
9.958 5.695 L
9.958 7.164 L
10.255 6.507 10.849 6.101 QT
11.443 5.695 12.13 5.695 QT
13.865 5.695 14.161 7.101 QT
14.458 6.461 15.036 6.078 QT
15.615 5.695 16.302 5.695 QT
16.99 5.695 17.451 5.914 QT
17.911 6.132 18.146 6.586 QT
18.38 7.039 18.38 7.711 QT
18.38 11.32 L
18.38 11.632 18.716 11.711 QT
19.052 11.789 19.552 11.789 QT
19.552 12.32 L
16.13 12.32 L
16.13 11.789 L
16.63 11.789 16.966 11.711 QT
17.302 11.632 17.302 11.32 QT
17.302 7.757 L
17.302 7.007 17.083 6.547 QT
16.865 6.086 16.208 6.086 QT
15.349 6.086 14.786 6.781 QT
14.224 7.476 14.224 8.351 QT
14.224 11.32 L
14.224 11.632 14.552 11.711 QT
14.88 11.789 15.396 11.789 QT
15.396 12.32 L
11.958 12.32 L
11.958 11.789 L
12.474 11.789 12.802 11.711 QT
13.13 11.632 13.13 11.32 QT
13.13 7.757 L
13.13 7.023 12.919 6.554 QT
12.708 6.086 12.036 6.086 QT
11.177 6.086 10.615 6.781 QT
10.052 7.476 10.052 8.351 QT
10.052 11.32 L
10.052 11.632 10.38 11.711 QT
10.708 11.789 11.208 11.789 QT
11.208 12.32 L
7.786 12.32 L
cp
f
GR
GS
[0.75 0 0 0.75 217.50014 298.24999] CT
0.149 GC
N
19.946 15.226 M
19.946 14.711 L
20.462 14.711 20.79 14.625 QT
21.118 14.539 21.118 14.226 QT
21.118 6.992 L
21.118 6.586 20.821 6.484 QT
20.524 6.382 19.946 6.382 QT
19.946 5.851 L
22.165 5.695 L
22.165 6.617 L
22.571 6.164 23.118 5.929 QT
23.665 5.695 24.274 5.695 QT
25.165 5.695 25.876 6.172 QT
26.587 6.648 26.985 7.429 QT
27.384 8.211 27.384 9.086 QT
27.384 9.992 26.938 10.773 QT
26.493 11.554 25.727 12.023 QT
24.962 12.492 24.056 12.492 QT
22.962 12.492 22.212 11.601 QT
22.212 14.226 L
22.212 14.539 22.54 14.625 QT
22.868 14.711 23.384 14.711 QT
23.384 15.226 L
19.946 15.226 L
cp
22.212 10.867 M
22.477 11.398 22.946 11.742 QT
23.415 12.086 23.962 12.086 QT
24.477 12.086 24.884 11.812 QT
25.29 11.539 25.556 11.07 QT
25.821 10.601 25.954 10.086 QT
26.087 9.57 26.087 9.086 QT
26.087 8.476 25.868 7.781 QT
25.649 7.086 25.204 6.601 QT
24.759 6.117 24.134 6.117 QT
23.524 6.117 23.017 6.429 QT
22.509 6.742 22.212 7.273 QT
22.212 10.867 L
cp
f
GR
GS
[0.75 0 0 0.75 217.50014 298.24999] CT
0.149 GC
N
28.173 12.32 M
28.173 11.789 L
28.673 11.789 29.008 11.711 QT
29.344 11.632 29.344 11.32 QT
29.344 3.445 L
29.344 3.039 29.219 2.859 QT
29.094 2.679 28.868 2.64 QT
28.641 2.601 28.173 2.601 QT
28.173 2.07 L
30.391 1.914 L
30.391 11.32 L
30.391 11.632 30.719 11.711 QT
31.048 11.789 31.563 11.789 QT
31.563 12.32 L
28.173 12.32 L
cp
f
GR
GS
[0.75 0 0 0.75 217.50014 298.24999] CT
0.149 GC
N
35.512 12.492 M
34.59 12.492 33.833 12.007 QT
33.075 11.523 32.637 10.726 QT
32.2 9.929 32.2 9.039 QT
32.2 8.148 32.598 7.359 QT
32.997 6.57 33.708 6.086 QT
34.418 5.601 35.293 5.601 QT
35.997 5.601 36.504 5.828 QT
37.012 6.054 37.34 6.468 QT
37.668 6.882 37.833 7.437 QT
37.997 7.992 37.997 8.664 QT
37.997 8.851 37.856 8.851 QT
33.512 8.851 L
33.512 9.023 L
33.512 10.257 34.012 11.156 QT
34.512 12.054 35.653 12.054 QT
36.106 12.054 36.497 11.843 QT
36.887 11.632 37.176 11.273 QT
37.465 10.914 37.575 10.492 QT
37.59 10.445 37.629 10.398 QT
37.668 10.351 37.715 10.351 QT
37.856 10.351 L
37.997 10.351 37.997 10.554 QT
37.793 11.398 37.09 11.945 QT
36.387 12.492 35.512 12.492 QT
cp
33.528 8.476 M
36.934 8.476 L
36.934 7.914 36.778 7.336 QT
36.622 6.757 36.254 6.375 QT
35.887 5.992 35.293 5.992 QT
34.45 5.992 33.989 6.789 QT
33.528 7.586 33.528 8.476 QT
cp
f
GR
GS
[0.75 0 0 0.75 217.50014 298.24999] CT
0.149 GC
N
38.796 12.367 M
38.796 9.914 L
38.796 9.804 38.921 9.804 QT
39.109 9.804 L
39.203 9.804 39.234 9.914 QT
39.64 12.086 41.249 12.086 QT
41.953 12.086 42.437 11.765 QT
42.921 11.445 42.921 10.773 QT
42.921 10.289 42.546 9.953 QT
42.171 9.617 41.656 9.492 QT
40.656 9.289 L
40.156 9.179 39.742 8.953 QT
39.328 8.726 39.062 8.351 QT
38.796 7.976 38.796 7.476 QT
38.796 6.804 39.14 6.39 QT
39.484 5.976 40.046 5.789 QT
40.609 5.601 41.249 5.601 QT
42.015 5.601 42.593 6.007 QT
43.015 5.632 L
43.015 5.601 43.093 5.601 QT
43.203 5.601 L
43.249 5.601 43.289 5.64 QT
43.328 5.679 43.328 5.726 QT
43.328 7.679 L
43.328 7.82 43.203 7.82 QT
43.015 7.82 L
42.89 7.82 42.89 7.679 QT
42.89 6.898 42.453 6.422 QT
42.015 5.945 41.234 5.945 QT
40.562 5.945 40.07 6.195 QT
39.578 6.445 39.578 7.054 QT
39.578 7.476 39.929 7.742 QT
40.281 8.007 40.765 8.117 QT
41.781 8.32 L
42.281 8.429 42.726 8.711 QT
43.171 8.992 43.429 9.414 QT
43.687 9.836 43.687 10.367 QT
43.687 10.914 43.507 11.312 QT
43.328 11.711 42.992 11.976 QT
42.656 12.242 42.203 12.367 QT
41.749 12.492 41.249 12.492 QT
40.312 12.492 39.64 11.851 QT
39.093 12.445 L
39.093 12.492 39.015 12.492 QT
38.921 12.492 L
38.796 12.492 38.796 12.367 QT
cp
f
GR
GS
[0.75 0 0 0.75 217.50014 298.24999] CT
0.149 GC
N
45.05 16.07 M
44.925 16.07 44.925 15.945 QT
44.925 15.867 44.957 15.836 QT
47.519 13.336 47.519 8.57 QT
47.519 3.804 44.988 1.32 QT
44.925 1.289 44.925 1.195 QT
44.925 1.148 44.964 1.109 QT
45.003 1.07 45.05 1.07 QT
45.191 1.07 L
45.238 1.07 45.269 1.101 QT
46.347 1.945 47.066 3.164 QT
47.785 4.382 48.113 5.757 QT
48.441 7.132 48.441 8.57 QT
48.441 9.632 48.261 10.664 QT
48.082 11.695 47.691 12.695 QT
47.3 13.695 46.699 14.539 QT
46.097 15.382 45.269 16.039 QT
45.238 16.07 45.191 16.07 QT
45.05 16.07 L
cp
f
GR
GS
[0.75 0 0 0.75 0 0] CT
0.149 GC
2 setlinecap
1 LJ
0.667 LW
N
73 374 M
73 31 L
S
GR
GS
[0.75 0 0 0.75 0 0] CT
0.149 GC
2 setlinecap
1 LJ
0.667 LW
N
73 364.563 M
77.34 364.563 L
S
GR
GS
[0.75 0 0 0.75 0 0] CT
0.149 GC
2 setlinecap
1 LJ
0.667 LW
N
73 317.757 M
77.34 317.757 L
S
GR
GS
[0.75 0 0 0.75 0 0] CT
0.149 GC
2 setlinecap
1 LJ
0.667 LW
N
73 270.951 M
77.34 270.951 L
S
GR
GS
[0.75 0 0 0.75 0 0] CT
0.149 GC
2 setlinecap
1 LJ
0.667 LW
N
73 224.145 M
77.34 224.145 L
S
GR
GS
[0.75 0 0 0.75 0 0] CT
0.149 GC
2 setlinecap
1 LJ
0.667 LW
N
73 177.34 M
77.34 177.34 L
S
GR
GS
[0.75 0 0 0.75 0 0] CT
0.149 GC
2 setlinecap
1 LJ
0.667 LW
N
73 130.534 M
77.34 130.534 L
S
GR
GS
[0.75 0 0 0.75 0 0] CT
0.149 GC
2 setlinecap
1 LJ
0.667 LW
N
73 83.728 M
77.34 83.728 L
S
GR
GS
[0.75 0 0 0.75 0 0] CT
0.149 GC
2 setlinecap
1 LJ
0.667 LW
N
73 36.922 M
77.34 36.922 L
S
GR
GS
[0.75 0 0 0.75 50.74992 273.4222] CT
0.149 GC
/Helvetica 13.333 F
GS
[1 0 0 1 0 0] CT
-23 5.5 moveto 
1 -1 scale
(-0.3) t 
GR
GR
GS
[0.75 0 0 0.75 50.74992 238.31779] CT
0.149 GC
/Helvetica 13.333 F
GS
[1 0 0 1 0 0] CT
-23 5.5 moveto 
1 -1 scale
(-0.2) t 
GR
GR
GS
[0.75 0 0 0.75 50.74992 203.2134] CT
0.149 GC
/Helvetica 13.333 F
GS
[1 0 0 1 0 0] CT
-23 5.5 moveto 
1 -1 scale
(-0.1) t 
GR
GR
GS
[0.75 0 0 0.75 50.74992 168.10902] CT
0.149 GC
/Helvetica 13.333 F
GS
[1 0 0 1 0 0] CT
-8 5.5 moveto 
1 -1 scale
(0) t 
GR
GR
GS
[0.75 0 0 0.75 50.74992 133.00463] CT
0.149 GC
/Helvetica 13.333 F
GS
[1 0 0 1 0 0] CT
-19 5.5 moveto 
1 -1 scale
(0.1) t 
GR
GR
GS
[0.75 0 0 0.75 50.74992 97.90023] CT
0.149 GC
/Helvetica 13.333 F
GS
[1 0 0 1 0 0] CT
-19 5.5 moveto 
1 -1 scale
(0.2) t 
GR
GR
GS
[0.75 0 0 0.75 50.74992 62.79584] CT
0.149 GC
/Helvetica 13.333 F
GS
[1 0 0 1 0 0] CT
-19 5.5 moveto 
1 -1 scale
(0.3) t 
GR
GR
GS
[0.75 0 0 0.75 50.74992 27.69146] CT
0.149 GC
/Helvetica 13.333 F
GS
[1 0 0 1 0 0] CT
-19 5.5 moveto 
1 -1 scale
(0.4) t 
GR
GR
GS
[0 -0.75 0.75 0 30.5 151.87487] CT
0.149 GC
N
-33.534 -5.28 M
-33.534 -5.811 L
-32.19 -5.811 -31.894 -6.686 QT
-28.737 -15.858 L
-28.69 -16.014 -28.503 -16.014 QT
-28.3 -16.014 L
-28.112 -16.014 -28.065 -15.858 QT
-24.769 -6.28 L
-24.644 -5.968 -24.245 -5.889 QT
-23.847 -5.811 -23.269 -5.811 QT
-23.269 -5.28 L
-27.456 -5.28 L
-27.456 -5.811 L
-26.206 -5.811 -26.206 -6.218 QT
-26.206 -6.28 L
-27.019 -8.624 L
-30.659 -8.624 L
-31.331 -6.686 L
-31.347 -6.639 -31.347 -6.546 QT
-31.347 -6.171 -30.987 -5.991 QT
-30.628 -5.811 -30.222 -5.811 QT
-30.222 -5.28 L
-33.534 -5.28 L
cp
-30.487 -9.155 M
-27.19 -9.155 L
-28.847 -13.936 L
-30.487 -9.155 L
cp
f
GR
GS
[0 -0.75 0.75 0 30.5 151.87487] CT
0.149 GC
N
-22.565 -5.28 M
-22.565 -5.811 L
-22.065 -5.811 -21.73 -5.889 QT
-21.394 -5.968 -21.394 -6.28 QT
-21.394 -10.374 L
-21.394 -10.78 -21.519 -10.96 QT
-21.644 -11.139 -21.87 -11.178 QT
-22.097 -11.218 -22.565 -11.218 QT
-22.565 -11.749 L
-20.394 -11.905 L
-20.394 -10.436 L
-20.097 -11.093 -19.503 -11.499 QT
-18.909 -11.905 -18.222 -11.905 QT
-16.487 -11.905 -16.19 -10.499 QT
-15.894 -11.139 -15.315 -11.522 QT
-14.737 -11.905 -14.05 -11.905 QT
-13.362 -11.905 -12.901 -11.686 QT
-12.44 -11.468 -12.206 -11.014 QT
-11.972 -10.561 -11.972 -9.889 QT
-11.972 -6.28 L
-11.972 -5.968 -11.636 -5.889 QT
-11.3 -5.811 -10.8 -5.811 QT
-10.8 -5.28 L
-14.222 -5.28 L
-14.222 -5.811 L
-13.722 -5.811 -13.386 -5.889 QT
-13.05 -5.968 -13.05 -6.28 QT
-13.05 -9.843 L
-13.05 -10.593 -13.269 -11.053 QT
-13.487 -11.514 -14.144 -11.514 QT
-15.003 -11.514 -15.565 -10.819 QT
-16.128 -10.124 -16.128 -9.249 QT
-16.128 -6.28 L
-16.128 -5.968 -15.8 -5.889 QT
-15.472 -5.811 -14.956 -5.811 QT
-14.956 -5.28 L
-18.394 -5.28 L
-18.394 -5.811 L
-17.878 -5.811 -17.55 -5.889 QT
-17.222 -5.968 -17.222 -6.28 QT
-17.222 -9.843 L
-17.222 -10.577 -17.433 -11.046 QT
-17.644 -11.514 -18.315 -11.514 QT
-19.175 -11.514 -19.737 -10.819 QT
-20.3 -10.124 -20.3 -9.249 QT
-20.3 -6.28 L
-20.3 -5.968 -19.972 -5.889 QT
-19.644 -5.811 -19.144 -5.811 QT
-19.144 -5.28 L
-22.565 -5.28 L
cp
f
GR
GS
[0 -0.75 0.75 0 30.5 151.87487] CT
0.149 GC
N
-10.406 -2.374 M
-10.406 -2.889 L
-9.89 -2.889 -9.562 -2.975 QT
-9.234 -3.061 -9.234 -3.374 QT
-9.234 -10.608 L
-9.234 -11.014 -9.531 -11.116 QT
-9.828 -11.218 -10.406 -11.218 QT
-10.406 -11.749 L
-8.187 -11.905 L
-8.187 -10.983 L
-7.781 -11.436 -7.234 -11.671 QT
-6.687 -11.905 -6.078 -11.905 QT
-5.187 -11.905 -4.476 -11.428 QT
-3.765 -10.952 -3.367 -10.171 QT
-2.968 -9.389 -2.968 -8.514 QT
-2.968 -7.608 -3.414 -6.827 QT
-3.859 -6.046 -4.624 -5.577 QT
-5.39 -5.108 -6.296 -5.108 QT
-7.39 -5.108 -8.14 -5.999 QT
-8.14 -3.374 L
-8.14 -3.061 -7.812 -2.975 QT
-7.484 -2.889 -6.968 -2.889 QT
-6.968 -2.374 L
-10.406 -2.374 L
cp
-8.14 -6.733 M
-7.874 -6.202 -7.406 -5.858 QT
-6.937 -5.514 -6.39 -5.514 QT
-5.874 -5.514 -5.468 -5.788 QT
-5.062 -6.061 -4.796 -6.53 QT
-4.531 -6.999 -4.398 -7.514 QT
-4.265 -8.03 -4.265 -8.514 QT
-4.265 -9.124 -4.484 -9.819 QT
-4.703 -10.514 -5.148 -10.999 QT
-5.593 -11.483 -6.218 -11.483 QT
-6.828 -11.483 -7.335 -11.171 QT
-7.843 -10.858 -8.14 -10.327 QT
-8.14 -6.733 L
cp
f
GR
GS
[0 -0.75 0.75 0 30.5 151.87487] CT
0.149 GC
N
-2.179 -5.28 M
-2.179 -5.811 L
-1.679 -5.811 -1.343 -5.889 QT
-1.008 -5.968 -1.008 -6.28 QT
-1.008 -14.155 L
-1.008 -14.561 -1.133 -14.741 QT
-1.258 -14.921 -1.484 -14.96 QT
-1.711 -14.999 -2.179 -14.999 QT
-2.179 -15.53 L
0.039 -15.686 L
0.039 -6.28 L
0.039 -5.968 0.367 -5.889 QT
0.696 -5.811 1.211 -5.811 QT
1.211 -5.28 L
-2.179 -5.28 L
cp
f
GR
GS
[0 -0.75 0.75 0 30.5 151.87487] CT
0.149 GC
N
1.895 -5.28 M
1.895 -5.811 L
2.395 -5.811 2.731 -5.889 QT
3.067 -5.968 3.067 -6.28 QT
3.067 -10.374 L
3.067 -10.952 2.84 -11.085 QT
2.613 -11.218 1.957 -11.218 QT
1.957 -11.749 L
4.113 -11.905 L
4.113 -6.28 L
4.113 -5.968 4.402 -5.889 QT
4.692 -5.811 5.16 -5.811 QT
5.16 -5.28 L
1.895 -5.28 L
cp
2.52 -14.483 M
2.52 -14.811 2.77 -15.061 QT
3.02 -15.311 3.348 -15.311 QT
3.551 -15.311 3.754 -15.202 QT
3.957 -15.093 4.067 -14.897 QT
4.176 -14.702 4.176 -14.483 QT
4.176 -14.171 3.926 -13.921 QT
3.676 -13.671 3.348 -13.671 QT
3.02 -13.671 2.77 -13.921 QT
2.52 -14.171 2.52 -14.483 QT
cp
f
GR
GS
[0 -0.75 0.75 0 30.5 151.87487] CT
0.149 GC
N
7.031 -7.077 M
7.031 -11.218 L
5.781 -11.218 L
5.781 -11.608 L
6.766 -11.608 7.227 -12.522 QT
7.688 -13.436 7.688 -14.514 QT
8.125 -14.514 L
8.125 -11.749 L
10.234 -11.749 L
10.234 -11.218 L
8.125 -11.218 L
8.125 -7.108 L
8.125 -6.483 8.336 -6.014 QT
8.547 -5.546 9.078 -5.546 QT
9.594 -5.546 9.82 -6.046 QT
10.047 -6.546 10.047 -7.108 QT
10.047 -7.999 L
10.484 -7.999 L
10.484 -7.077 L
10.484 -6.608 10.313 -6.155 QT
10.141 -5.702 9.805 -5.405 QT
9.469 -5.108 8.984 -5.108 QT
8.078 -5.108 7.555 -5.647 QT
7.031 -6.186 7.031 -7.077 QT
cp
f
GR
GS
[0 -0.75 0.75 0 30.5 151.87487] CT
0.149 GC
N
12.829 -7.061 M
12.829 -10.374 L
12.829 -10.78 12.704 -10.96 QT
12.579 -11.139 12.352 -11.178 QT
12.126 -11.218 11.657 -11.218 QT
11.657 -11.749 L
13.922 -11.905 L
13.922 -7.061 L
13.922 -6.483 14.008 -6.155 QT
14.094 -5.827 14.368 -5.671 QT
14.641 -5.514 15.235 -5.514 QT
16.047 -5.514 16.524 -6.186 QT
17.001 -6.858 17.001 -7.718 QT
17.001 -10.374 L
17.001 -10.78 16.876 -10.96 QT
16.751 -11.139 16.524 -11.178 QT
16.297 -11.218 15.829 -11.218 QT
15.829 -11.749 L
18.094 -11.905 L
18.094 -6.639 L
18.094 -6.249 18.212 -6.069 QT
18.329 -5.889 18.555 -5.85 QT
18.782 -5.811 19.266 -5.811 QT
19.266 -5.28 L
17.047 -5.108 L
17.047 -6.374 L
16.766 -5.811 16.266 -5.46 QT
15.766 -5.108 15.172 -5.108 QT
14.094 -5.108 13.462 -5.569 QT
12.829 -6.03 12.829 -7.061 QT
cp
f
GR
GS
[0 -0.75 0.75 0 30.5 151.87487] CT
0.149 GC
N
23.008 -5.108 M
22.133 -5.108 21.399 -5.593 QT
20.664 -6.077 20.258 -6.858 QT
19.852 -7.639 19.852 -8.514 QT
19.852 -9.421 20.297 -10.202 QT
20.743 -10.983 21.5 -11.444 QT
22.258 -11.905 23.18 -11.905 QT
23.727 -11.905 24.219 -11.678 QT
24.711 -11.452 25.071 -11.03 QT
25.071 -14.155 L
25.071 -14.561 24.946 -14.741 QT
24.821 -14.921 24.602 -14.96 QT
24.383 -14.999 23.899 -14.999 QT
23.899 -15.53 L
26.118 -15.686 L
26.118 -6.639 L
26.118 -6.249 26.243 -6.069 QT
26.368 -5.889 26.586 -5.85 QT
26.805 -5.811 27.289 -5.811 QT
27.289 -5.28 L
25.024 -5.108 L
25.024 -6.061 L
24.633 -5.608 24.102 -5.358 QT
23.571 -5.108 23.008 -5.108 QT
cp
21.477 -6.577 M
21.743 -6.093 22.172 -5.803 QT
22.602 -5.514 23.102 -5.514 QT
23.727 -5.514 24.243 -5.866 QT
24.758 -6.218 25.024 -6.796 QT
25.024 -10.389 L
24.852 -10.718 24.578 -10.983 QT
24.305 -11.249 23.977 -11.382 QT
23.649 -11.514 23.274 -11.514 QT
22.493 -11.514 22.016 -11.077 QT
21.539 -10.639 21.344 -9.952 QT
21.149 -9.264 21.149 -8.499 QT
21.149 -7.905 21.211 -7.46 QT
21.274 -7.014 21.477 -6.577 QT
cp
f
GR
GS
[0 -0.75 0.75 0 30.5 151.87487] CT
0.149 GC
N
31.234 -5.108 M
30.313 -5.108 29.555 -5.593 QT
28.797 -6.077 28.359 -6.874 QT
27.922 -7.671 27.922 -8.561 QT
27.922 -9.452 28.32 -10.241 QT
28.719 -11.03 29.43 -11.514 QT
30.141 -11.999 31.016 -11.999 QT
31.719 -11.999 32.227 -11.772 QT
32.734 -11.546 33.063 -11.132 QT
33.391 -10.718 33.555 -10.163 QT
33.719 -9.608 33.719 -8.936 QT
33.719 -8.749 33.578 -8.749 QT
29.234 -8.749 L
29.234 -8.577 L
29.234 -7.343 29.734 -6.444 QT
30.234 -5.546 31.375 -5.546 QT
31.828 -5.546 32.219 -5.757 QT
32.609 -5.968 32.899 -6.327 QT
33.188 -6.686 33.297 -7.108 QT
33.313 -7.155 33.352 -7.202 QT
33.391 -7.249 33.438 -7.249 QT
33.578 -7.249 L
33.719 -7.249 33.719 -7.046 QT
33.516 -6.202 32.813 -5.655 QT
32.109 -5.108 31.234 -5.108 QT
cp
29.25 -9.124 M
32.656 -9.124 L
32.656 -9.686 32.5 -10.264 QT
32.344 -10.843 31.977 -11.225 QT
31.609 -11.608 31.016 -11.608 QT
30.172 -11.608 29.711 -10.811 QT
29.25 -10.014 29.25 -9.124 QT
cp
f
GR
GS
[0.75 0 0 0.75 0 0] CT
0 0.447 0.741 RC
1 LJ
2.667 LW
N
72.948 224.145 M
73.587 224.145 L
77.88 224.145 L
82.173 224.145 L
86.465 224.145 L
90.758 227.441 L
95.05 229.853 L
99.343 231.383 L
103.636 233.149 L
107.928 234.032 L
112.221 235.151 L
116.513 236.508 L
120.806 237.801 L
125.099 238.21 L
129.391 238.857 L
133.684 239.74 L
137.976 240.559 L
142.269 241.616 L
146.561 242.609 L
150.854 243.538 L
155.147 244.484 L
159.439 244.548 L
163.732 244.848 L
168.024 245.384 L
172.317 245.858 L
176.61 246.567 L
180.902 247.214 L
185.195 247.797 L
189.487 248.397 L
193.78 249.234 L
198.073 250.007 L
202.365 250.717 L
206.658 251.443 L
210.95 252.107 L
215.243 252.787 L
219.535 253.485 L
223.828 254.177 L
228.121 225.447 L
232.413 204.601 L
236.706 191.639 L
240.998 176.564 L
245.291 169.373 L
249.584 160.069 L
253.876 148.653 L
258.169 137.803 L
262.461 134.837 L
266.754 129.759 L
271.047 122.568 L
275.339 115.943 L
279.632 107.205 L
283.924 99.034 L
288.217 91.429 L
292.509 83.672 L
296.802 136.526 L
301.095 173.14 L
305.387 193.513 L
309.68 218.238 L
313.972 226.722 L
318.265 239.558 L
322.558 256.745 L
326.85 272.766 L
331.143 272.547 L
335.435 276.679 L
339.728 285.162 L
344.021 292.48 L
348.313 304.15 L
352.606 314.653 L
356.898 323.991 L
361.191 333.641 L
365.483 297.39 L
369.776 273.439 L
374.069 261.786 L
378.361 246.838 L
382.654 244.189 L
386.946 238.244 L
391.239 229.004 L
395.532 220.647 L
399.824 224.589 L
404.117 225.236 L
408.409 222.586 L
412.702 220.82 L
416.995 215.759 L
421.287 211.58 L
425.58 208.285 L
429.872 204.753 L
434.165 213.52 L
438.457 218.991 L
442.75 221.167 L
447.043 224.226 L
451.335 223.989 L
455.628 224.636 L
459.92 226.165 L
464.213 227.458 L
468.506 225.455 L
472.798 224.336 L
477.091 224.099 L
481.383 223.626 L
485.676 224.036 L
489.969 224.209 L
494.261 224.145 L
498.554 224.145 L
502.846 224.145 L
507.052 224.145 L
S
GR
GS
[0.75 0 0 0.75 0 0] CT
0.851 0.325 0.098 RC
1 LJ
2.667 LW
N
72.948 224.145 M
73.587 224.145 L
77.88 224.145 L
82.173 224.145 L
86.465 224.145 L
90.758 224.145 L
95.05 224.145 L
99.343 224.145 L
103.636 224.145 L
107.928 224.145 L
112.221 224.145 L
116.513 224.145 L
120.806 224.145 L
125.099 224.145 L
129.391 224.145 L
133.684 224.145 L
137.976 224.145 L
142.269 224.145 L
146.561 224.145 L
150.854 224.145 L
155.147 224.145 L
159.439 230.969 L
163.732 235.964 L
168.024 239.131 L
172.317 242.788 L
176.61 244.616 L
180.902 246.934 L
185.195 249.742 L
189.487 252.419 L
193.78 253.268 L
198.073 254.606 L
202.365 256.435 L
206.658 258.132 L
210.95 260.319 L
215.243 262.374 L
219.535 264.299 L
223.828 266.258 L
228.121 207.296 L
232.413 164.658 L
236.706 138.344 L
240.998 107.656 L
245.291 93.292 L
249.584 74.553 L
253.876 51.441 L
257.883 30.959 L
S
GR
GS
[0.75 0 0 0.75 0 0] CT
0.851 0.325 0.098 RC
1 LJ
2.667 LW
N
258.229 30.959 M
262.461 133.061 L
266.754 202.993 L
271.047 239.297 L
275.339 284.612 L
279.632 296.3 L
283.924 316.998 L
288.217 346.706 L
292.509 374 L
296.802 306.255 L
301.095 263.975 L
305.387 247.161 L
309.68 223.524 L
313.972 225.353 L
318.265 220.357 L
322.558 208.539 L
326.85 198.548 L
331.143 214.024 L
335.435 222.676 L
339.728 224.504 L
344.021 228.161 L
348.313 224.994 L
352.606 223.655 L
356.898 224.145 L
361.191 224.145 L
365.483 224.145 L
369.776 224.145 L
374.069 224.145 L
378.361 224.145 L
382.654 224.145 L
386.946 224.145 L
391.239 224.145 L
395.532 224.145 L
399.824 224.145 L
404.117 224.145 L
408.409 224.145 L
412.702 224.145 L
416.995 224.145 L
421.287 224.145 L
425.58 224.145 L
429.872 224.145 L
434.165 224.145 L
438.457 224.145 L
442.75 224.145 L
447.043 224.145 L
451.335 224.145 L
455.628 224.145 L
459.92 224.145 L
464.213 224.145 L
468.506 224.145 L
472.798 224.145 L
477.091 224.145 L
481.383 224.145 L
485.676 224.145 L
489.969 224.145 L
494.261 224.145 L
498.554 224.145 L
502.846 224.145 L
507.052 224.145 L
S
GR
GS
[0.75 0 0 0.75 0 0] CT
1 GC
N
494 78 M
494 44 L
378 44 L
378 78 L
cp
f
GR
GS
[0.75 0 0 0.75 318.95373 40.04505] CT
N
0.406 2.88 M
0.406 2.458 L
1.641 2.458 1.641 2.083 QT
1.641 -4.511 L
1.641 -4.901 0.406 -4.901 QT
0.406 -5.323 L
4.828 -5.323 L
5.641 -5.323 6.32 -4.964 QT
7 -4.604 7.484 -4.018 QT
7.969 -3.433 8.227 -2.683 QT
8.484 -1.933 8.484 -1.136 QT
8.484 -0.386 8.219 0.333 QT
7.953 1.052 7.461 1.63 QT
6.969 2.208 6.289 2.544 QT
5.609 2.88 4.828 2.88 QT
0.406 2.88 L
cp
2.719 2.083 M
2.719 2.333 2.859 2.396 QT
3 2.458 3.328 2.458 QT
4.516 2.458 L
5.125 2.458 5.68 2.192 QT
6.234 1.927 6.594 1.442 QT
6.984 0.942 7.109 0.317 QT
7.234 -0.308 7.234 -1.136 QT
7.234 -2.011 7.109 -2.667 QT
6.984 -3.323 6.594 -3.839 QT
6.234 -4.354 5.688 -4.628 QT
5.141 -4.901 4.516 -4.901 QT
3.328 -4.901 L
3.109 -4.901 2.984 -4.878 QT
2.859 -4.854 2.789 -4.776 QT
2.719 -4.698 2.719 -4.511 QT
2.719 2.083 L
cp
f
GR
GS
[0.75 0 0 0.75 318.95373 40.04505] CT
N
9.573 2.88 M
9.573 2.458 L
10.807 2.458 10.807 2.083 QT
10.807 -4.511 L
10.807 -4.901 9.573 -4.901 QT
9.573 -5.323 L
13.995 -5.323 L
14.604 -5.323 15.221 -5.081 QT
15.839 -4.839 16.245 -4.378 QT
16.651 -3.917 16.651 -3.276 QT
16.651 -2.542 16.049 -2.05 QT
15.448 -1.558 14.651 -1.401 QT
15.167 -1.401 15.721 -1.112 QT
16.276 -0.823 16.628 -0.347 QT
16.979 0.13 16.979 0.677 QT
16.979 1.333 16.589 1.833 QT
16.198 2.333 15.581 2.607 QT
14.964 2.88 14.323 2.88 QT
9.573 2.88 L
cp
11.854 2.083 M
11.854 2.333 12.003 2.396 QT
12.151 2.458 12.464 2.458 QT
13.995 2.458 L
14.464 2.458 14.862 2.208 QT
15.26 1.958 15.495 1.552 QT
15.729 1.146 15.729 0.677 QT
15.729 0.208 15.534 -0.229 QT
15.339 -0.667 14.979 -0.948 QT
14.62 -1.229 14.167 -1.229 QT
11.854 -1.229 L
11.854 2.083 L
cp
11.854 -1.542 M
13.651 -1.542 L
14.026 -1.542 14.339 -1.675 QT
14.651 -1.808 14.909 -2.058 QT
15.167 -2.308 15.307 -2.62 QT
15.448 -2.933 15.448 -3.276 QT
15.448 -3.589 15.346 -3.878 QT
15.245 -4.167 15.042 -4.401 QT
14.839 -4.636 14.573 -4.768 QT
14.307 -4.901 13.995 -4.901 QT
12.464 -4.901 L
12.245 -4.901 12.128 -4.878 QT
12.01 -4.854 11.932 -4.776 QT
11.854 -4.698 11.854 -4.511 QT
11.854 -1.542 L
cp
f
GR
GS
[0.75 0 0 0.75 318.95373 40.04505] CT
N
18.26 2.88 M
18.26 2.552 L
18.26 2.521 18.292 2.489 QT
20.151 0.427 L
20.573 -0.026 20.839 -0.339 QT
21.104 -0.651 21.362 -1.058 QT
21.62 -1.464 21.768 -1.878 QT
21.917 -2.292 21.917 -2.761 QT
21.917 -3.261 21.737 -3.706 QT
21.557 -4.151 21.198 -4.425 QT
20.839 -4.698 20.323 -4.698 QT
19.807 -4.698 19.385 -4.378 QT
18.964 -4.058 18.792 -3.573 QT
18.839 -3.573 18.932 -3.573 QT
19.198 -3.573 19.385 -3.393 QT
19.573 -3.214 19.573 -2.933 QT
19.573 -2.651 19.385 -2.464 QT
19.198 -2.276 18.932 -2.276 QT
18.651 -2.276 18.456 -2.472 QT
18.26 -2.667 18.26 -2.933 QT
18.26 -3.386 18.432 -3.776 QT
18.604 -4.167 18.925 -4.479 QT
19.245 -4.792 19.643 -4.956 QT
20.042 -5.12 20.495 -5.12 QT
21.182 -5.12 21.776 -4.823 QT
22.37 -4.526 22.714 -4.003 QT
23.057 -3.479 23.057 -2.761 QT
23.057 -2.245 22.831 -1.776 QT
22.604 -1.308 22.245 -0.925 QT
21.885 -0.542 21.331 -0.05 QT
20.776 0.442 20.604 0.599 QT
19.245 1.911 L
20.385 1.911 L
21.245 1.911 21.815 1.896 QT
22.385 1.88 22.417 1.849 QT
22.557 1.692 22.714 0.739 QT
23.057 0.739 L
22.714 2.88 L
18.26 2.88 L
cp
f
GR
GS
[0.75 0 0 0.75 318.95373 40.04505] CT
N
24.854 5.036 M
24.854 4.989 24.901 4.942 QT
25.339 4.521 25.581 3.982 QT
25.823 3.442 25.823 2.833 QT
25.823 2.692 L
25.62 2.88 25.339 2.88 QT
25.057 2.88 24.87 2.685 QT
24.682 2.489 24.682 2.224 QT
24.682 1.942 24.87 1.755 QT
25.057 1.567 25.339 1.567 QT
25.76 1.567 25.948 1.958 QT
26.135 2.349 26.135 2.833 QT
26.135 3.505 25.862 4.107 QT
25.589 4.708 25.104 5.177 QT
25.057 5.208 25.026 5.208 QT
24.979 5.208 24.917 5.153 QT
24.854 5.099 24.854 5.036 QT
cp
f
GR
GS
[0.75 0 0 0.75 318.95373 40.04505] CT
N
31.375 2.88 M
31.375 2.458 L
31.781 2.458 32.047 2.396 QT
32.313 2.333 32.313 2.083 QT
32.313 -4.229 L
32.313 -4.542 32.211 -4.69 QT
32.109 -4.839 31.93 -4.87 QT
31.75 -4.901 31.375 -4.901 QT
31.375 -5.323 L
33.156 -5.448 L
33.156 2.083 L
33.156 2.333 33.414 2.396 QT
33.672 2.458 34.078 2.458 QT
34.078 2.88 L
31.375 2.88 L
cp
f
GR
GS
[0.75 0 0 0.75 318.95373 40.04505] CT
N
37.318 3.021 M
36.583 3.021 35.974 2.63 QT
35.365 2.239 35.013 1.599 QT
34.662 0.958 34.662 0.255 QT
34.662 -0.448 34.982 -1.081 QT
35.302 -1.714 35.872 -2.104 QT
36.443 -2.495 37.146 -2.495 QT
37.708 -2.495 38.115 -2.315 QT
38.521 -2.136 38.787 -1.808 QT
39.052 -1.479 39.185 -1.034 QT
39.318 -0.589 39.318 -0.058 QT
39.318 0.114 39.193 0.114 QT
35.724 0.114 L
35.724 0.239 L
35.724 1.239 36.122 1.95 QT
36.521 2.661 37.427 2.661 QT
37.802 2.661 38.115 2.497 QT
38.427 2.333 38.654 2.044 QT
38.88 1.755 38.974 1.411 QT
38.974 1.38 39.013 1.341 QT
39.052 1.302 39.083 1.302 QT
39.193 1.302 L
39.318 1.302 39.318 1.458 QT
39.146 2.146 38.583 2.583 QT
38.021 3.021 37.318 3.021 QT
cp
35.724 -0.198 M
38.458 -0.198 L
38.458 -0.636 38.333 -1.104 QT
38.208 -1.573 37.919 -1.878 QT
37.63 -2.183 37.146 -2.183 QT
36.474 -2.183 36.099 -1.55 QT
35.724 -0.917 35.724 -0.198 QT
cp
f
GR
GS
[0.75 0 0 0.75 318.95373 40.04505] CT
N
42.604 2.88 M
40.839 -1.526 L
40.729 -1.745 40.503 -1.808 QT
40.276 -1.87 39.901 -1.87 QT
39.901 -2.292 L
42.417 -2.292 L
42.417 -1.87 L
41.745 -1.87 41.745 -1.589 QT
41.745 -1.542 41.76 -1.511 QT
43.104 1.864 L
44.307 -1.183 L
44.354 -1.276 44.354 -1.386 QT
44.354 -1.604 44.182 -1.737 QT
44.01 -1.87 43.776 -1.87 QT
43.776 -2.292 L
45.76 -2.292 L
45.76 -1.87 L
45.385 -1.87 45.112 -1.698 QT
44.839 -1.526 44.682 -1.198 QT
43.073 2.88 L
43.026 3.021 42.87 3.021 QT
42.792 3.021 L
42.635 3.021 42.604 2.88 QT
cp
f
GR
GS
[0.75 0 0 0.75 318.95373 40.04505] CT
N
48.651 3.021 M
47.917 3.021 47.307 2.63 QT
46.698 2.239 46.346 1.599 QT
45.995 0.958 45.995 0.255 QT
45.995 -0.448 46.315 -1.081 QT
46.636 -1.714 47.206 -2.104 QT
47.776 -2.495 48.479 -2.495 QT
49.042 -2.495 49.448 -2.315 QT
49.854 -2.136 50.12 -1.808 QT
50.386 -1.479 50.518 -1.034 QT
50.651 -0.589 50.651 -0.058 QT
50.651 0.114 50.526 0.114 QT
47.057 0.114 L
47.057 0.239 L
47.057 1.239 47.456 1.95 QT
47.854 2.661 48.761 2.661 QT
49.136 2.661 49.448 2.497 QT
49.761 2.333 49.987 2.044 QT
50.214 1.755 50.307 1.411 QT
50.307 1.38 50.346 1.341 QT
50.386 1.302 50.417 1.302 QT
50.526 1.302 L
50.651 1.302 50.651 1.458 QT
50.479 2.146 49.917 2.583 QT
49.354 3.021 48.651 3.021 QT
cp
47.057 -0.198 M
49.792 -0.198 L
49.792 -0.636 49.667 -1.104 QT
49.542 -1.573 49.253 -1.878 QT
48.964 -2.183 48.479 -2.183 QT
47.807 -2.183 47.432 -1.55 QT
47.057 -0.917 47.057 -0.198 QT
cp
f
GR
GS
[0.75 0 0 0.75 318.95373 40.04505] CT
N
51.375 2.88 M
51.375 2.458 L
51.781 2.458 52.047 2.396 QT
52.313 2.333 52.313 2.083 QT
52.313 -4.229 L
52.313 -4.542 52.211 -4.69 QT
52.109 -4.839 51.93 -4.87 QT
51.75 -4.901 51.375 -4.901 QT
51.375 -5.323 L
53.156 -5.448 L
53.156 2.083 L
53.156 2.333 53.414 2.396 QT
53.672 2.458 54.078 2.458 QT
54.078 2.88 L
51.375 2.88 L
cp
f
GR
GS
[0.75 0 0 0.75 318.95373 40.04505] CT
N
59.38 1.521 M
59.505 1.864 59.755 2.153 QT
60.005 2.442 60.357 2.599 QT
60.708 2.755 61.083 2.755 QT
61.943 2.755 62.271 2.083 QT
62.599 1.411 62.599 0.458 QT
62.599 0.036 62.591 -0.245 QT
62.583 -0.526 62.505 -0.792 QT
62.396 -1.214 62.122 -1.534 QT
61.849 -1.854 61.443 -1.854 QT
61.037 -1.854 60.747 -1.729 QT
60.458 -1.604 60.279 -1.44 QT
60.099 -1.276 59.958 -1.097 QT
59.818 -0.917 59.771 -0.901 QT
59.646 -0.901 L
59.615 -0.901 59.568 -0.94 QT
59.521 -0.979 59.521 -1.011 QT
59.521 -5.026 L
59.521 -5.042 59.56 -5.081 QT
59.599 -5.12 59.646 -5.12 QT
59.677 -5.12 L
60.49 -4.729 61.396 -4.729 QT
62.287 -4.729 63.115 -5.12 QT
63.146 -5.12 L
63.193 -5.12 63.224 -5.089 QT
63.255 -5.058 63.255 -5.026 QT
63.255 -4.901 L
63.255 -4.854 63.24 -4.854 QT
62.818 -4.308 62.201 -4.003 QT
61.583 -3.698 60.927 -3.698 QT
60.443 -3.698 59.943 -3.823 QT
59.943 -1.558 L
60.333 -1.886 60.646 -2.026 QT
60.958 -2.167 61.458 -2.167 QT
62.115 -2.167 62.638 -1.784 QT
63.162 -1.401 63.443 -0.784 QT
63.724 -0.167 63.724 0.458 QT
63.724 1.192 63.372 1.802 QT
63.021 2.411 62.412 2.778 QT
61.802 3.146 61.083 3.146 QT
60.49 3.146 59.997 2.841 QT
59.505 2.536 59.216 2.021 QT
58.927 1.505 58.927 0.927 QT
58.927 0.646 59.107 0.482 QT
59.287 0.317 59.552 0.317 QT
59.818 0.317 59.99 0.489 QT
60.162 0.661 60.162 0.927 QT
60.162 1.177 59.99 1.357 QT
59.818 1.536 59.552 1.536 QT
59.505 1.536 59.451 1.528 QT
59.396 1.521 59.38 1.521 QT
cp
f
GR
GS
[0.75 0 0 0.75 0 0] CT
0 0.447 0.741 RC
1 LJ
2.667 LW
N
382.023 53.393 M
422.254 53.393 L
S
GR
GS
[0.75 0 0 0.75 318.95373 51.45495] CT
N
/f-1994808563{0.406 2.88 M
0.406 2.458 L
1.641 2.458 1.641 2.083 QT
1.641 -4.511 L
1.641 -4.901 0.406 -4.901 QT
0.406 -5.323 L
4.828 -5.323 L
5.641 -5.323 6.32 -4.964 QT
7 -4.604 7.484 -4.018 QT
7.969 -3.433 8.227 -2.683 QT
8.484 -1.933 8.484 -1.136 QT
8.484 -0.386 8.219 0.333 QT
7.953 1.052 7.461 1.63 QT
6.969 2.208 6.289 2.544 QT
5.609 2.88 4.828 2.88 QT
0.406 2.88 L
cp
2.719 2.083 M
2.719 2.333 2.859 2.396 QT
3 2.458 3.328 2.458 QT
4.516 2.458 L
5.125 2.458 5.68 2.192 QT
6.234 1.927 6.594 1.442 QT
6.984 0.942 7.109 0.317 QT
7.234 -0.308 7.234 -1.136 QT
7.234 -2.011 7.109 -2.667 QT
6.984 -3.323 6.594 -3.839 QT
6.234 -4.354 5.688 -4.628 QT
5.141 -4.901 4.516 -4.901 QT
3.328 -4.901 L
3.109 -4.901 2.984 -4.878 QT
2.859 -4.854 2.789 -4.776 QT
2.719 -4.698 2.719 -4.511 QT
2.719 2.083 L
cp}def
f-1994808563
f
GR
GS
[0.75 0 0 0.75 318.95373 51.45495] CT
N
/f-2000781366{9.573 2.88 M
9.573 2.458 L
10.807 2.458 10.807 2.083 QT
10.807 -4.511 L
10.807 -4.901 9.573 -4.901 QT
9.573 -5.323 L
13.995 -5.323 L
14.604 -5.323 15.221 -5.081 QT
15.839 -4.839 16.245 -4.378 QT
16.651 -3.917 16.651 -3.276 QT
16.651 -2.542 16.049 -2.05 QT
15.448 -1.558 14.651 -1.401 QT
15.167 -1.401 15.721 -1.112 QT
16.276 -0.823 16.628 -0.347 QT
16.979 0.13 16.979 0.677 QT
16.979 1.333 16.589 1.833 QT
16.198 2.333 15.581 2.607 QT
14.964 2.88 14.323 2.88 QT
9.573 2.88 L
cp
11.854 2.083 M
11.854 2.333 12.003 2.396 QT
12.151 2.458 12.464 2.458 QT
13.995 2.458 L
14.464 2.458 14.862 2.208 QT
15.26 1.958 15.495 1.552 QT
15.729 1.146 15.729 0.677 QT
15.729 0.208 15.534 -0.229 QT
15.339 -0.667 14.979 -0.948 QT
14.62 -1.229 14.167 -1.229 QT
11.854 -1.229 L
11.854 2.083 L
cp
11.854 -1.542 M
13.651 -1.542 L
14.026 -1.542 14.339 -1.675 QT
14.651 -1.808 14.909 -2.058 QT
15.167 -2.308 15.307 -2.62 QT
15.448 -2.933 15.448 -3.276 QT
15.448 -3.589 15.346 -3.878 QT
15.245 -4.167 15.042 -4.401 QT
14.839 -4.636 14.573 -4.768 QT
14.307 -4.901 13.995 -4.901 QT
12.464 -4.901 L
12.245 -4.901 12.128 -4.878 QT
12.01 -4.854 11.932 -4.776 QT
11.854 -4.698 11.854 -4.511 QT
11.854 -1.542 L
cp}def
f-2000781366
f
GR
GS
[0.75 0 0 0.75 318.95373 51.45495] CT
N
/f259807349{18.26 2.88 M
18.26 2.552 L
18.26 2.521 18.292 2.489 QT
20.151 0.427 L
20.573 -0.026 20.839 -0.339 QT
21.104 -0.651 21.362 -1.058 QT
21.62 -1.464 21.768 -1.878 QT
21.917 -2.292 21.917 -2.761 QT
21.917 -3.261 21.737 -3.706 QT
21.557 -4.151 21.198 -4.425 QT
20.839 -4.698 20.323 -4.698 QT
19.807 -4.698 19.385 -4.378 QT
18.964 -4.058 18.792 -3.573 QT
18.839 -3.573 18.932 -3.573 QT
19.198 -3.573 19.385 -3.393 QT
19.573 -3.214 19.573 -2.933 QT
19.573 -2.651 19.385 -2.464 QT
19.198 -2.276 18.932 -2.276 QT
18.651 -2.276 18.456 -2.472 QT
18.26 -2.667 18.26 -2.933 QT
18.26 -3.386 18.432 -3.776 QT
18.604 -4.167 18.925 -4.479 QT
19.245 -4.792 19.643 -4.956 QT
20.042 -5.12 20.495 -5.12 QT
21.182 -5.12 21.776 -4.823 QT
22.37 -4.526 22.714 -4.003 QT
23.057 -3.479 23.057 -2.761 QT
23.057 -2.245 22.831 -1.776 QT
22.604 -1.308 22.245 -0.925 QT
21.885 -0.542 21.331 -0.05 QT
20.776 0.442 20.604 0.599 QT
19.245 1.911 L
20.385 1.911 L
21.245 1.911 21.815 1.896 QT
22.385 1.88 22.417 1.849 QT
22.557 1.692 22.714 0.739 QT
23.057 0.739 L
22.714 2.88 L
18.26 2.88 L
cp}def
f259807349
f
GR
GS
[0.75 0 0 0.75 318.95373 51.45495] CT
N
/f2139946161{24.854 5.036 M
24.854 4.989 24.901 4.942 QT
25.339 4.521 25.581 3.982 QT
25.823 3.442 25.823 2.833 QT
25.823 2.692 L
25.62 2.88 25.339 2.88 QT
25.057 2.88 24.87 2.685 QT
24.682 2.489 24.682 2.224 QT
24.682 1.942 24.87 1.755 QT
25.057 1.567 25.339 1.567 QT
25.76 1.567 25.948 1.958 QT
26.135 2.349 26.135 2.833 QT
26.135 3.505 25.862 4.107 QT
25.589 4.708 25.104 5.177 QT
25.057 5.208 25.026 5.208 QT
24.979 5.208 24.917 5.153 QT
24.854 5.099 24.854 5.036 QT
cp}def
f2139946161
f
GR
GS
[0.75 0 0 0.75 318.95373 51.45495] CT
N
/f-436755079{31.375 2.88 M
31.375 2.458 L
31.781 2.458 32.047 2.396 QT
32.313 2.333 32.313 2.083 QT
32.313 -4.229 L
32.313 -4.542 32.211 -4.69 QT
32.109 -4.839 31.93 -4.87 QT
31.75 -4.901 31.375 -4.901 QT
31.375 -5.323 L
33.156 -5.448 L
33.156 2.083 L
33.156 2.333 33.414 2.396 QT
33.672 2.458 34.078 2.458 QT
34.078 2.88 L
31.375 2.88 L
cp}def
f-436755079
f
GR
GS
[0.75 0 0 0.75 318.95373 51.45495] CT
N
/f1118946150{37.318 3.021 M
36.583 3.021 35.974 2.63 QT
35.365 2.239 35.013 1.599 QT
34.662 0.958 34.662 0.255 QT
34.662 -0.448 34.982 -1.081 QT
35.302 -1.714 35.872 -2.104 QT
36.443 -2.495 37.146 -2.495 QT
37.708 -2.495 38.115 -2.315 QT
38.521 -2.136 38.787 -1.808 QT
39.052 -1.479 39.185 -1.034 QT
39.318 -0.589 39.318 -0.058 QT
39.318 0.114 39.193 0.114 QT
35.724 0.114 L
35.724 0.239 L
35.724 1.239 36.122 1.95 QT
36.521 2.661 37.427 2.661 QT
37.802 2.661 38.115 2.497 QT
38.427 2.333 38.654 2.044 QT
38.88 1.755 38.974 1.411 QT
38.974 1.38 39.013 1.341 QT
39.052 1.302 39.083 1.302 QT
39.193 1.302 L
39.318 1.302 39.318 1.458 QT
39.146 2.146 38.583 2.583 QT
38.021 3.021 37.318 3.021 QT
cp
35.724 -0.198 M
38.458 -0.198 L
38.458 -0.636 38.333 -1.104 QT
38.208 -1.573 37.919 -1.878 QT
37.63 -2.183 37.146 -2.183 QT
36.474 -2.183 36.099 -1.55 QT
35.724 -0.917 35.724 -0.198 QT
cp}def
f1118946150
f
GR
GS
[0.75 0 0 0.75 318.95373 51.45495] CT
N
/f544920275{42.604 2.88 M
40.839 -1.526 L
40.729 -1.745 40.503 -1.808 QT
40.276 -1.87 39.901 -1.87 QT
39.901 -2.292 L
42.417 -2.292 L
42.417 -1.87 L
41.745 -1.87 41.745 -1.589 QT
41.745 -1.542 41.76 -1.511 QT
43.104 1.864 L
44.307 -1.183 L
44.354 -1.276 44.354 -1.386 QT
44.354 -1.604 44.182 -1.737 QT
44.01 -1.87 43.776 -1.87 QT
43.776 -2.292 L
45.76 -2.292 L
45.76 -1.87 L
45.385 -1.87 45.112 -1.698 QT
44.839 -1.526 44.682 -1.198 QT
43.073 2.88 L
43.026 3.021 42.87 3.021 QT
42.792 3.021 L
42.635 3.021 42.604 2.88 QT
cp}def
f544920275
f
GR
GS
[0.75 0 0 0.75 318.95373 51.45495] CT
N
/f1131545573{48.651 3.021 M
47.917 3.021 47.307 2.63 QT
46.698 2.239 46.346 1.599 QT
45.995 0.958 45.995 0.255 QT
45.995 -0.448 46.315 -1.081 QT
46.636 -1.714 47.206 -2.104 QT
47.776 -2.495 48.479 -2.495 QT
49.042 -2.495 49.448 -2.315 QT
49.854 -2.136 50.12 -1.808 QT
50.386 -1.479 50.518 -1.034 QT
50.651 -0.589 50.651 -0.058 QT
50.651 0.114 50.526 0.114 QT
47.057 0.114 L
47.057 0.239 L
47.057 1.239 47.456 1.95 QT
47.854 2.661 48.761 2.661 QT
49.136 2.661 49.448 2.497 QT
49.761 2.333 49.987 2.044 QT
50.214 1.755 50.307 1.411 QT
50.307 1.38 50.346 1.341 QT
50.386 1.302 50.417 1.302 QT
50.526 1.302 L
50.651 1.302 50.651 1.458 QT
50.479 2.146 49.917 2.583 QT
49.354 3.021 48.651 3.021 QT
cp
47.057 -0.198 M
49.792 -0.198 L
49.792 -0.636 49.667 -1.104 QT
49.542 -1.573 49.253 -1.878 QT
48.964 -2.183 48.479 -2.183 QT
47.807 -2.183 47.432 -1.55 QT
47.057 -0.917 47.057 -0.198 QT
cp}def
f1131545573
f
GR
GS
[0.75 0 0 0.75 318.95373 51.45495] CT
N
/f-701541899{51.375 2.88 M
51.375 2.458 L
51.781 2.458 52.047 2.396 QT
52.313 2.333 52.313 2.083 QT
52.313 -4.229 L
52.313 -4.542 52.211 -4.69 QT
52.109 -4.839 51.93 -4.87 QT
51.75 -4.901 51.375 -4.901 QT
51.375 -5.323 L
53.156 -5.448 L
53.156 2.083 L
53.156 2.333 53.414 2.396 QT
53.672 2.458 54.078 2.458 QT
54.078 2.88 L
51.375 2.88 L
cp}def
f-701541899
f
GR
GS
[0.75 0 0 0.75 318.95373 51.45495] CT
N
/f2120434569{61.333 3.146 M
60.583 3.146 60.091 2.747 QT
59.599 2.349 59.326 1.724 QT
59.052 1.099 58.943 0.403 QT
58.833 -0.292 58.833 -0.995 QT
58.833 -1.948 59.208 -2.901 QT
59.583 -3.854 60.294 -4.487 QT
61.005 -5.12 61.99 -5.12 QT
62.412 -5.12 62.763 -4.964 QT
63.115 -4.808 63.318 -4.503 QT
63.521 -4.198 63.521 -3.776 QT
63.521 -3.526 63.357 -3.362 QT
63.193 -3.198 62.943 -3.198 QT
62.708 -3.198 62.537 -3.362 QT
62.365 -3.526 62.365 -3.776 QT
62.365 -4.011 62.537 -4.175 QT
62.708 -4.339 62.943 -4.339 QT
63.005 -4.339 L
62.849 -4.558 62.576 -4.659 QT
62.302 -4.761 61.99 -4.761 QT
61.63 -4.761 61.326 -4.604 QT
61.021 -4.448 60.771 -4.183 QT
60.521 -3.917 60.357 -3.589 QT
60.193 -3.261 60.107 -2.847 QT
60.021 -2.433 59.997 -2.065 QT
59.974 -1.698 59.974 -1.151 QT
60.177 -1.651 60.568 -1.964 QT
60.958 -2.276 61.443 -2.276 QT
61.974 -2.276 62.412 -2.058 QT
62.849 -1.839 63.169 -1.456 QT
63.49 -1.073 63.654 -0.581 QT
63.818 -0.089 63.818 0.411 QT
63.818 1.114 63.505 1.755 QT
63.193 2.396 62.622 2.771 QT
62.052 3.146 61.333 3.146 QT
cp
61.333 2.755 M
61.802 2.755 62.083 2.544 QT
62.365 2.333 62.497 1.989 QT
62.63 1.646 62.662 1.286 QT
62.693 0.927 62.693 0.411 QT
62.693 -0.261 62.622 -0.745 QT
62.552 -1.229 62.271 -1.589 QT
61.99 -1.948 61.396 -1.948 QT
60.912 -1.948 60.599 -1.62 QT
60.287 -1.292 60.138 -0.792 QT
59.99 -0.292 59.99 0.161 QT
59.99 0.317 60.005 0.411 QT
60.005 0.427 60.005 0.435 QT
60.005 0.442 59.99 0.458 QT
59.99 0.974 60.099 1.505 QT
60.208 2.036 60.505 2.396 QT
60.802 2.755 61.333 2.755 QT
cp}def
f2120434569
f
GR
GS
[0.75 0 0 0.75 0 0] CT
0.851 0.325 0.098 RC
1 LJ
2.667 LW
N
382.023 68.607 M
422.254 68.607 L
S
GR
GS
[0.75 0 0 0.75 0 0] CT
0.149 GC
10.0 ML
0.667 LW
N
378 78 M
378 44 L
494 44 L
494 78 L
cp
S
GR
%%Trailer
%%Pages: 1
%%EOF
