%!PS-Adobe-3.0 EPSF-3.0
%%Creator: (MATLAB, The Mathworks, Inc. Version 9.3.0.713579 \(R2017b\). Operating System: Mac OS X)
%%Title: /Users/hannesvdc/WIT/Wavelets/wavelets/report/plots/wavelet6.eps
%%CreationDate: 2017-11-25T20:55:15
%%Pages: (atend)
%%BoundingBox: 0 0 727 563
%%LanguageLevel: 3
%%EndComments
%%BeginProlog
%%BeginResource: procset (Apache XML Graphics Std ProcSet) 1.2 0
%%Version: 1.2 0
%%Copyright: (Copyright 2001-2003,2010 The Apache Software Foundation. License terms: http://www.apache.org/licenses/LICENSE-2.0)
/bd{bind def}bind def
/ld{load def}bd
/GR/grestore ld
/GS/gsave ld
/RM/rmoveto ld
/C/curveto ld
/t/show ld
/L/lineto ld
/ML/setmiterlimit ld
/CT/concat ld
/f/fill ld
/N/newpath ld
/S/stroke ld
/CC/setcmykcolor ld
/A/ashow ld
/cp/closepath ld
/RC/setrgbcolor ld
/LJ/setlinejoin ld
/GC/setgray ld
/LW/setlinewidth ld
/M/moveto ld
/re {4 2 roll M
1 index 0 rlineto
0 exch rlineto
neg 0 rlineto
cp } bd
/_ctm matrix def
/_tm matrix def
/BT { _ctm currentmatrix pop matrix _tm copy pop 0 0 moveto } bd
/ET { _ctm setmatrix } bd
/iTm { _ctm setmatrix _tm concat } bd
/Tm { _tm astore pop iTm 0 0 moveto } bd
/ux 0.0 def
/uy 0.0 def
/F {
  /Tp exch def
  /Tf exch def
  Tf findfont Tp scalefont setfont
  /cf Tf def  /cs Tp def
} bd
/ULS {currentpoint /uy exch def /ux exch def} bd
/ULE {
  /Tcx currentpoint pop def
  gsave
  newpath
  cf findfont cs scalefont dup
  /FontMatrix get 0 get /Ts exch def /FontInfo get dup
  /UnderlinePosition get Ts mul /To exch def
  /UnderlineThickness get Ts mul /Tt exch def
  ux uy To add moveto  Tcx uy To add lineto
  Tt setlinewidth stroke
  grestore
} bd
/OLE {
  /Tcx currentpoint pop def
  gsave
  newpath
  cf findfont cs scalefont dup
  /FontMatrix get 0 get /Ts exch def /FontInfo get dup
  /UnderlinePosition get Ts mul /To exch def
  /UnderlineThickness get Ts mul /Tt exch def
  ux uy To add cs add moveto Tcx uy To add cs add lineto
  Tt setlinewidth stroke
  grestore
} bd
/SOE {
  /Tcx currentpoint pop def
  gsave
  newpath
  cf findfont cs scalefont dup
  /FontMatrix get 0 get /Ts exch def /FontInfo get dup
  /UnderlinePosition get Ts mul /To exch def
  /UnderlineThickness get Ts mul /Tt exch def
  ux uy To add cs 10 mul 26 idiv add moveto Tcx uy To add cs 10 mul 26 idiv add lineto
  Tt setlinewidth stroke
  grestore
} bd
/QT {
/Y22 exch store
/X22 exch store
/Y21 exch store
/X21 exch store
currentpoint
/Y21 load 2 mul add 3 div exch
/X21 load 2 mul add 3 div exch
/X21 load 2 mul /X22 load add 3 div
/Y21 load 2 mul /Y22 load add 3 div
/X22 load /Y22 load curveto
} bd
/SSPD {
dup length /d exch dict def
{
/v exch def
/k exch def
currentpagedevice k known {
/cpdv currentpagedevice k get def
v cpdv ne {
/upd false def
/nullv v type /nulltype eq def
/nullcpdv cpdv type /nulltype eq def
nullv nullcpdv or
{
/upd true def
} {
/sametype v type cpdv type eq def
sametype {
v type /arraytype eq {
/vlen v length def
/cpdvlen cpdv length def
vlen cpdvlen eq {
0 1 vlen 1 sub {
/i exch def
/obj v i get def
/cpdobj cpdv i get def
obj cpdobj ne {
/upd true def
exit
} if
} for
} {
/upd true def
} ifelse
} {
v type /dicttype eq {
v {
/dv exch def
/dk exch def
/cpddv cpdv dk get def
dv cpddv ne {
/upd true def
exit
} if
} forall
} {
/upd true def
} ifelse
} ifelse
} if
} ifelse
upd true eq {
d k v put
} if
} if
} if
} forall
d length 0 gt {
d setpagedevice
} if
} bd
/RE { % /NewFontName [NewEncodingArray] /FontName RE -
  findfont dup length dict begin
  {
    1 index /FID ne
    {def} {pop pop} ifelse
  } forall
  /Encoding exch def
  /FontName 1 index def
  currentdict definefont pop
  end
} bind def
%%EndResource
%%BeginResource: procset (Apache XML Graphics EPS ProcSet) 1.0 0
%%Version: 1.0 0
%%Copyright: (Copyright 2002-2003 The Apache Software Foundation. License terms: http://www.apache.org/licenses/LICENSE-2.0)
/BeginEPSF { %def
/b4_Inc_state save def         % Save state for cleanup
/dict_count countdictstack def % Count objects on dict stack
/op_count count 1 sub def      % Count objects on operand stack
userdict begin                 % Push userdict on dict stack
/showpage { } def              % Redefine showpage, { } = null proc
0 setgray 0 setlinecap         % Prepare graphics state
1 setlinewidth 0 setlinejoin
10 setmiterlimit [ ] 0 setdash newpath
/languagelevel where           % If level not equal to 1 then
{pop languagelevel             % set strokeadjust and
1 ne                           % overprint to their defaults.
{false setstrokeadjust false setoverprint
} if
} if
} bd
/EndEPSF { %def
count op_count sub {pop} repeat            % Clean up stacks
countdictstack dict_count sub {end} repeat
b4_Inc_state restore
} bd
%%EndResource
%FOPBeginFontDict
%%IncludeResource: font Courier-Oblique
%%IncludeResource: font Courier-BoldOblique
%%IncludeResource: font Courier-Bold
%%IncludeResource: font ZapfDingbats
%%IncludeResource: font Symbol
%%IncludeResource: font Helvetica
%%IncludeResource: font Helvetica-Oblique
%%IncludeResource: font Helvetica-Bold
%%IncludeResource: font Helvetica-BoldOblique
%%IncludeResource: font Times-Roman
%%IncludeResource: font Times-Italic
%%IncludeResource: font Times-Bold
%%IncludeResource: font Times-BoldItalic
%%IncludeResource: font Courier
%FOPEndFontDict
%%BeginResource: encoding WinAnsiEncoding
/WinAnsiEncoding [
/.notdef /.notdef /.notdef /.notdef /.notdef
/.notdef /.notdef /.notdef /.notdef /.notdef
/.notdef /.notdef /.notdef /.notdef /.notdef
/.notdef /.notdef /.notdef /.notdef /.notdef
/.notdef /.notdef /.notdef /.notdef /.notdef
/.notdef /.notdef /.notdef /.notdef /.notdef
/.notdef /.notdef /space /exclam /quotedbl
/numbersign /dollar /percent /ampersand /quotesingle
/parenleft /parenright /asterisk /plus /comma
/hyphen /period /slash /zero /one
/two /three /four /five /six
/seven /eight /nine /colon /semicolon
/less /equal /greater /question /at
/A /B /C /D /E
/F /G /H /I /J
/K /L /M /N /O
/P /Q /R /S /T
/U /V /W /X /Y
/Z /bracketleft /backslash /bracketright /asciicircum
/underscore /quoteleft /a /b /c
/d /e /f /g /h
/i /j /k /l /m
/n /o /p /q /r
/s /t /u /v /w
/x /y /z /braceleft /bar
/braceright /asciitilde /bullet /Euro /bullet
/quotesinglbase /florin /quotedblbase /ellipsis /dagger
/daggerdbl /circumflex /perthousand /Scaron /guilsinglleft
/OE /bullet /Zcaron /bullet /bullet
/quoteleft /quoteright /quotedblleft /quotedblright /bullet
/endash /emdash /asciitilde /trademark /scaron
/guilsinglright /oe /bullet /zcaron /Ydieresis
/space /exclamdown /cent /sterling /currency
/yen /brokenbar /section /dieresis /copyright
/ordfeminine /guillemotleft /logicalnot /sfthyphen /registered
/macron /degree /plusminus /twosuperior /threesuperior
/acute /mu /paragraph /middot /cedilla
/onesuperior /ordmasculine /guillemotright /onequarter /onehalf
/threequarters /questiondown /Agrave /Aacute /Acircumflex
/Atilde /Adieresis /Aring /AE /Ccedilla
/Egrave /Eacute /Ecircumflex /Edieresis /Igrave
/Iacute /Icircumflex /Idieresis /Eth /Ntilde
/Ograve /Oacute /Ocircumflex /Otilde /Odieresis
/multiply /Oslash /Ugrave /Uacute /Ucircumflex
/Udieresis /Yacute /Thorn /germandbls /agrave
/aacute /acircumflex /atilde /adieresis /aring
/ae /ccedilla /egrave /eacute /ecircumflex
/edieresis /igrave /iacute /icircumflex /idieresis
/eth /ntilde /ograve /oacute /ocircumflex
/otilde /odieresis /divide /oslash /ugrave
/uacute /ucircumflex /udieresis /yacute /thorn
/ydieresis
] def
%%EndResource
%FOPBeginFontReencode
/Courier-Oblique findfont
dup length dict begin
  {1 index /FID ne {def} {pop pop} ifelse} forall
  /Encoding WinAnsiEncoding def
  currentdict
end
/Courier-Oblique exch definefont pop
/Courier-BoldOblique findfont
dup length dict begin
  {1 index /FID ne {def} {pop pop} ifelse} forall
  /Encoding WinAnsiEncoding def
  currentdict
end
/Courier-BoldOblique exch definefont pop
/Courier-Bold findfont
dup length dict begin
  {1 index /FID ne {def} {pop pop} ifelse} forall
  /Encoding WinAnsiEncoding def
  currentdict
end
/Courier-Bold exch definefont pop
/Helvetica findfont
dup length dict begin
  {1 index /FID ne {def} {pop pop} ifelse} forall
  /Encoding WinAnsiEncoding def
  currentdict
end
/Helvetica exch definefont pop
/Helvetica-Oblique findfont
dup length dict begin
  {1 index /FID ne {def} {pop pop} ifelse} forall
  /Encoding WinAnsiEncoding def
  currentdict
end
/Helvetica-Oblique exch definefont pop
/Helvetica-Bold findfont
dup length dict begin
  {1 index /FID ne {def} {pop pop} ifelse} forall
  /Encoding WinAnsiEncoding def
  currentdict
end
/Helvetica-Bold exch definefont pop
/Helvetica-BoldOblique findfont
dup length dict begin
  {1 index /FID ne {def} {pop pop} ifelse} forall
  /Encoding WinAnsiEncoding def
  currentdict
end
/Helvetica-BoldOblique exch definefont pop
/Times-Roman findfont
dup length dict begin
  {1 index /FID ne {def} {pop pop} ifelse} forall
  /Encoding WinAnsiEncoding def
  currentdict
end
/Times-Roman exch definefont pop
/Times-Italic findfont
dup length dict begin
  {1 index /FID ne {def} {pop pop} ifelse} forall
  /Encoding WinAnsiEncoding def
  currentdict
end
/Times-Italic exch definefont pop
/Times-Bold findfont
dup length dict begin
  {1 index /FID ne {def} {pop pop} ifelse} forall
  /Encoding WinAnsiEncoding def
  currentdict
end
/Times-Bold exch definefont pop
/Times-BoldItalic findfont
dup length dict begin
  {1 index /FID ne {def} {pop pop} ifelse} forall
  /Encoding WinAnsiEncoding def
  currentdict
end
/Times-BoldItalic exch definefont pop
/Courier findfont
dup length dict begin
  {1 index /FID ne {def} {pop pop} ifelse} forall
  /Encoding WinAnsiEncoding def
  currentdict
end
/Courier exch definefont pop
%FOPEndFontReencode
%%EndProlog
%%Page: 1 1
%%PageBoundingBox: 0 0 727 563
%%BeginPageSetup
[1 0 0 -1 0 563] CT
%%EndPageSetup
GS
1 GC
N
0 0 727 563 re
f
GR
GS
1 GC
N
0 0 727 563 re
f
GR
GS
1 GC
N
94.5 501 M
658 501 L
658 42 L
94.5 42 L
cp
f
GR
GS
0.149 GC
2 setlinecap
1 LJ
0.5 LW
N
94.5 501 M
658 501 L
S
GR
GS
0.149 GC
2 setlinecap
1 LJ
0.5 LW
N
94.5 42 M
658 42 L
S
GR
GS
0.149 GC
2 setlinecap
1 LJ
0.5 LW
N
94.5 501 M
94.5 495.365 L
S
GR
GS
0.149 GC
2 setlinecap
1 LJ
0.5 LW
N
175 501 M
175 495.365 L
S
GR
GS
0.149 GC
2 setlinecap
1 LJ
0.5 LW
N
255.5 501 M
255.5 495.365 L
S
GR
GS
0.149 GC
2 setlinecap
1 LJ
0.5 LW
N
336 501 M
336 495.365 L
S
GR
GS
0.149 GC
2 setlinecap
1 LJ
0.5 LW
N
416.5 501 M
416.5 495.365 L
S
GR
GS
0.149 GC
2 setlinecap
1 LJ
0.5 LW
N
497 501 M
497 495.365 L
S
GR
GS
0.149 GC
2 setlinecap
1 LJ
0.5 LW
N
577.5 501 M
577.5 495.365 L
S
GR
GS
0.149 GC
2 setlinecap
1 LJ
0.5 LW
N
658 501 M
658 495.365 L
S
GR
GS
0.149 GC
2 setlinecap
1 LJ
0.5 LW
N
94.5 42 M
94.5 47.635 L
S
GR
GS
0.149 GC
2 setlinecap
1 LJ
0.5 LW
N
175 42 M
175 47.635 L
S
GR
GS
0.149 GC
2 setlinecap
1 LJ
0.5 LW
N
255.5 42 M
255.5 47.635 L
S
GR
GS
0.149 GC
2 setlinecap
1 LJ
0.5 LW
N
336 42 M
336 47.635 L
S
GR
GS
0.149 GC
2 setlinecap
1 LJ
0.5 LW
N
416.5 42 M
416.5 47.635 L
S
GR
GS
0.149 GC
2 setlinecap
1 LJ
0.5 LW
N
497 42 M
497 47.635 L
S
GR
GS
0.149 GC
2 setlinecap
1 LJ
0.5 LW
N
577.5 42 M
577.5 47.635 L
S
GR
GS
0.149 GC
2 setlinecap
1 LJ
0.5 LW
N
658 42 M
658 47.635 L
S
GR
GS
[1 0 0 1 94.5 506.60001] CT
0.149 GC
/Helvetica 18 F
GS
[1 0 0 1 0 0] CT
-5.5 18 moveto 
1 -1 scale
(0) t 
GR
GR
GS
[1 0 0 1 175 506.60001] CT
0.149 GC
/Helvetica 18 F
GS
[1 0 0 1 0 0] CT
-10.5 18 moveto 
1 -1 scale
(20) t 
GR
GR
GS
[1 0 0 1 255.5 506.60001] CT
0.149 GC
/Helvetica 18 F
GS
[1 0 0 1 0 0] CT
-10.5 18 moveto 
1 -1 scale
(40) t 
GR
GR
GS
[1 0 0 1 336 506.60001] CT
0.149 GC
/Helvetica 18 F
GS
[1 0 0 1 0 0] CT
-10.5 18 moveto 
1 -1 scale
(60) t 
GR
GR
GS
[1 0 0 1 416.5 506.60001] CT
0.149 GC
/Helvetica 18 F
GS
[1 0 0 1 0 0] CT
-10.5 18 moveto 
1 -1 scale
(80) t 
GR
GR
GS
[1 0 0 1 497 506.60001] CT
0.149 GC
/Helvetica 18 F
GS
[1 0 0 1 0 0] CT
-15.5 18 moveto 
1 -1 scale
(100) t 
GR
GR
GS
[1 0 0 1 577.5 506.60001] CT
0.149 GC
/Helvetica 18 F
GS
[1 0 0 1 0 0] CT
-15.5 18 moveto 
1 -1 scale
(120) t 
GR
GR
GS
[1 0 0 1 658 506.60001] CT
0.149 GC
/Helvetica 18 F
GS
[1 0 0 1 0 0] CT
-15.5 18 moveto 
1 -1 scale
(140) t 
GR
GR
GS
[1 0 0 1 376.25027 529.09998] CT
0.149 GC
/Helvetica 19.8 F
GS
[1 0 0 1 0 0] CT
-71.5 19 moveto 
1 -1 scale
(Sequence index) t 
GR
GR
GS
0.149 GC
2 setlinecap
1 LJ
0.5 LW
N
94.5 501 M
94.5 42 L
S
GR
GS
0.149 GC
2 setlinecap
1 LJ
0.5 LW
N
658 501 M
658 42 L
S
GR
GS
0.149 GC
2 setlinecap
1 LJ
0.5 LW
N
94.5 501 M
100.135 501 L
S
GR
GS
0.149 GC
2 setlinecap
1 LJ
0.5 LW
N
94.5 348 M
100.135 348 L
S
GR
GS
0.149 GC
2 setlinecap
1 LJ
0.5 LW
N
94.5 195 M
100.135 195 L
S
GR
GS
0.149 GC
2 setlinecap
1 LJ
0.5 LW
N
94.5 42 M
100.135 42 L
S
GR
GS
0.149 GC
2 setlinecap
1 LJ
0.5 LW
N
658 501 M
652.365 501 L
S
GR
GS
0.149 GC
2 setlinecap
1 LJ
0.5 LW
N
658 348 M
652.365 348 L
S
GR
GS
0.149 GC
2 setlinecap
1 LJ
0.5 LW
N
658 195 M
652.365 195 L
S
GR
GS
0.149 GC
2 setlinecap
1 LJ
0.5 LW
N
658 42 M
652.365 42 L
S
GR
GS
[1 0 0 1 88.9 501] CT
0.149 GC
/Helvetica 18 F
GS
[1 0 0 1 0 0] CT
-33 7 moveto 
1 -1 scale
(-0.5) t 
GR
GR
GS
[1 0 0 1 88.9 348] CT
0.149 GC
/Helvetica 18 F
GS
[1 0 0 1 0 0] CT
-11 7 moveto 
1 -1 scale
(0) t 
GR
GR
GS
[1 0 0 1 88.9 195] CT
0.149 GC
/Helvetica 18 F
GS
[1 0 0 1 0 0] CT
-26 7 moveto 
1 -1 scale
(0.5) t 
GR
GR
GS
[1 0 0 1 88.9 42] CT
0.149 GC
/Helvetica 18 F
GS
[1 0 0 1 0 0] CT
-11 7 moveto 
1 -1 scale
(1) t 
GR
GR
GS
[1 0 0 1 376.25037 39.525] CT
/Helvetica-Bold 19.8 F
GS
[1 0 0 1 0 0] CT
-132 -5 moveto 
1 -1 scale
(Wavelet functions on level 6) t 
GR
GR
GS
0 0.447 0.741 RC
1 LJ
2 LW
N
98.525 92.026 M
102.55 495.787 L
106.575 348 L
110.6 348 L
114.625 348 L
118.65 348 L
122.675 348 L
126.7 348 L
130.725 348 L
134.75 348 L
138.775 348 L
142.8 348 L
146.825 348 L
150.85 348 L
154.875 348 L
158.9 348 L
162.925 348 L
166.95 348 L
170.975 348 L
175 348 L
179.025 348 L
183.05 348 L
187.075 348 L
191.1 348 L
195.125 348 L
199.15 348 L
203.175 348 L
207.2 348 L
211.225 348 L
215.25 348 L
219.275 348 L
223.3 348 L
227.325 348 L
231.35 348 L
235.375 348 L
239.4 348 L
243.425 348 L
247.45 348 L
251.475 348 L
255.5 348 L
259.525 348 L
263.55 348 L
267.575 348 L
271.6 348 L
275.625 348 L
279.65 348 L
283.675 348 L
287.7 348 L
291.725 348 L
295.75 348 L
299.775 348 L
303.8 348 L
307.825 348 L
311.85 348 L
315.875 348 L
319.9 348 L
323.925 348 L
327.95 348 L
331.975 348 L
336 348 L
340.025 348 L
344.05 348 L
348.075 348 L
352.1 348 L
356.125 348 L
360.15 348 L
364.175 348 L
368.2 348 L
372.225 348 L
376.25 348 L
380.275 348 L
384.3 348 L
388.325 348 L
392.35 348 L
396.375 348 L
400.4 348 L
404.425 348 L
408.45 348 L
412.475 348 L
416.5 348 L
420.525 348 L
424.55 348 L
428.575 348 L
432.6 348 L
436.625 348 L
440.65 348 L
444.675 348 L
448.7 348 L
452.725 348 L
456.75 348 L
460.775 348 L
464.8 348 L
468.825 348 L
472.85 348 L
476.875 348 L
480.9 348 L
484.925 348 L
488.95 348 L
492.975 348 L
497 348 L
501.025 348 L
505.05 348 L
509.075 348 L
513.1 348 L
517.125 348 L
521.15 348 L
525.175 348 L
529.2 348 L
533.225 348 L
537.25 348 L
541.275 348 L
545.3 348 L
549.325 348 L
553.35 348 L
557.375 348 L
561.4 348 L
565.425 348 L
569.45 348 L
573.475 348 L
577.5 348 L
581.525 348 L
585.55 348 L
589.575 348 L
593.6 348 L
597.625 348 L
601.65 348 L
605.675 348 L
609.7 348 L
S
GR
GS
0.851 0.325 0.098 RC
1 LJ
2 LW
N
98.525 348 M
102.55 348 L
106.575 348 L
110.6 348 L
114.625 348 L
118.65 348 L
122.675 348 L
126.7 348 L
130.725 348 L
134.75 348 L
138.775 348 L
142.8 348 L
146.825 348 L
150.85 348 L
154.875 348 L
158.9 348 L
162.925 348 L
166.95 348 L
170.975 387.599 L
175 416.588 L
179.025 92.026 L
183.05 495.787 L
187.075 348 L
191.1 348 L
195.125 348 L
199.15 348 L
203.175 348 L
207.2 348 L
211.225 348 L
215.25 348 L
219.275 348 L
223.3 348 L
227.325 348 L
231.35 348 L
235.375 348 L
239.4 348 L
243.425 348 L
247.45 348 L
251.475 348 L
255.5 348 L
259.525 348 L
263.55 348 L
267.575 348 L
271.6 348 L
275.625 348 L
279.65 348 L
283.675 348 L
287.7 348 L
291.725 348 L
295.75 348 L
299.775 348 L
303.8 348 L
307.825 348 L
311.85 348 L
315.875 348 L
319.9 348 L
323.925 348 L
327.95 348 L
331.975 348 L
336 348 L
340.025 348 L
344.05 348 L
348.075 348 L
352.1 348 L
356.125 348 L
360.15 348 L
364.175 348 L
368.2 348 L
372.225 348 L
376.25 348 L
380.275 348 L
384.3 348 L
388.325 348 L
392.35 348 L
396.375 348 L
400.4 348 L
404.425 348 L
408.45 348 L
412.475 348 L
416.5 348 L
420.525 348 L
424.55 348 L
428.575 348 L
432.6 348 L
436.625 348 L
440.65 348 L
444.675 348 L
448.7 348 L
452.725 348 L
456.75 348 L
460.775 348 L
464.8 348 L
468.825 348 L
472.85 348 L
476.875 348 L
480.9 348 L
484.925 348 L
488.95 348 L
492.975 348 L
497 348 L
501.025 348 L
505.05 348 L
509.075 348 L
513.1 348 L
517.125 348 L
521.15 348 L
525.175 348 L
529.2 348 L
533.225 348 L
537.25 348 L
541.275 348 L
545.3 348 L
549.325 348 L
553.35 348 L
557.375 348 L
561.4 348 L
565.425 348 L
569.45 348 L
573.475 348 L
577.5 348 L
581.525 348 L
585.55 348 L
589.575 348 L
593.6 348 L
597.625 348 L
601.65 348 L
605.675 348 L
609.7 348 L
S
GR
GS
0.929 0.694 0.125 RC
1 LJ
2 LW
N
98.525 348 M
102.55 348 L
106.575 348 L
110.6 348 L
114.625 348 L
118.65 348 L
122.675 348 L
126.7 348 L
130.725 348 L
134.75 348 L
138.775 348 L
142.8 348 L
146.825 348 L
150.85 348 L
154.875 348 L
158.9 348 L
162.925 348 L
166.95 348 L
170.975 348 L
175 348 L
179.025 348 L
183.05 348 L
187.075 348 L
191.1 348 L
195.125 348 L
199.15 348 L
203.175 348 L
207.2 348 L
211.225 348 L
215.25 348 L
219.275 348 L
223.3 348 L
227.325 348 L
231.35 348 L
235.375 348 L
239.4 348 L
243.425 348 L
247.45 348 L
251.475 387.599 L
255.5 416.588 L
259.525 92.026 L
263.55 495.787 L
267.575 348 L
271.6 348 L
275.625 348 L
279.65 348 L
283.675 348 L
287.7 348 L
291.725 348 L
295.75 348 L
299.775 348 L
303.8 348 L
307.825 348 L
311.85 348 L
315.875 348 L
319.9 348 L
323.925 348 L
327.95 348 L
331.975 348 L
336 348 L
340.025 348 L
344.05 348 L
348.075 348 L
352.1 348 L
356.125 348 L
360.15 348 L
364.175 348 L
368.2 348 L
372.225 348 L
376.25 348 L
380.275 348 L
384.3 348 L
388.325 348 L
392.35 348 L
396.375 348 L
400.4 348 L
404.425 348 L
408.45 348 L
412.475 348 L
416.5 348 L
420.525 348 L
424.55 348 L
428.575 348 L
432.6 348 L
436.625 348 L
440.65 348 L
444.675 348 L
448.7 348 L
452.725 348 L
456.75 348 L
460.775 348 L
464.8 348 L
468.825 348 L
472.85 348 L
476.875 348 L
480.9 348 L
484.925 348 L
488.95 348 L
492.975 348 L
497 348 L
501.025 348 L
505.05 348 L
509.075 348 L
513.1 348 L
517.125 348 L
521.15 348 L
525.175 348 L
529.2 348 L
533.225 348 L
537.25 348 L
541.275 348 L
545.3 348 L
549.325 348 L
553.35 348 L
557.375 348 L
561.4 348 L
565.425 348 L
569.45 348 L
573.475 348 L
577.5 348 L
581.525 348 L
585.55 348 L
589.575 348 L
593.6 348 L
597.625 348 L
601.65 348 L
605.675 348 L
609.7 348 L
S
GR
GS
0.494 0.184 0.557 RC
1 LJ
2 LW
N
98.525 348 M
102.55 348 L
106.575 348 L
110.6 348 L
114.625 348 L
118.65 348 L
122.675 348 L
126.7 348 L
130.725 348 L
134.75 348 L
138.775 348 L
142.8 348 L
146.825 348 L
150.85 348 L
154.875 348 L
158.9 348 L
162.925 348 L
166.95 348 L
170.975 348 L
175 348 L
179.025 348 L
183.05 348 L
187.075 348 L
191.1 348 L
195.125 348 L
199.15 348 L
203.175 348 L
207.2 348 L
211.225 348 L
215.25 348 L
219.275 348 L
223.3 348 L
227.325 348 L
231.35 348 L
235.375 348 L
239.4 348 L
243.425 348 L
247.45 348 L
251.475 348 L
255.5 348 L
259.525 348 L
263.55 348 L
267.575 348 L
271.6 348 L
275.625 348 L
279.65 348 L
283.675 348 L
287.7 348 L
291.725 348 L
295.75 348 L
299.775 348 L
303.8 348 L
307.825 348 L
311.85 348 L
315.875 348 L
319.9 348 L
323.925 348 L
327.95 348 L
331.975 387.599 L
336 416.588 L
340.025 92.026 L
344.05 495.787 L
348.075 348 L
352.1 348 L
356.125 348 L
360.15 348 L
364.175 348 L
368.2 348 L
372.225 348 L
376.25 348 L
380.275 348 L
384.3 348 L
388.325 348 L
392.35 348 L
396.375 348 L
400.4 348 L
404.425 348 L
408.45 348 L
412.475 348 L
416.5 348 L
420.525 348 L
424.55 348 L
428.575 348 L
432.6 348 L
436.625 348 L
440.65 348 L
444.675 348 L
448.7 348 L
452.725 348 L
456.75 348 L
460.775 348 L
464.8 348 L
468.825 348 L
472.85 348 L
476.875 348 L
480.9 348 L
484.925 348 L
488.95 348 L
492.975 348 L
497 348 L
501.025 348 L
505.05 348 L
509.075 348 L
513.1 348 L
517.125 348 L
521.15 348 L
525.175 348 L
529.2 348 L
533.225 348 L
537.25 348 L
541.275 348 L
545.3 348 L
549.325 348 L
553.35 348 L
557.375 348 L
561.4 348 L
565.425 348 L
569.45 348 L
573.475 348 L
577.5 348 L
581.525 348 L
585.55 348 L
589.575 348 L
593.6 348 L
597.625 348 L
601.65 348 L
605.675 348 L
609.7 348 L
S
GR
GS
0.467 0.675 0.188 RC
1 LJ
2 LW
N
98.525 348 M
102.55 348 L
106.575 348 L
110.6 348 L
114.625 348 L
118.65 348 L
122.675 348 L
126.7 348 L
130.725 348 L
134.75 348 L
138.775 348 L
142.8 348 L
146.825 348 L
150.85 348 L
154.875 348 L
158.9 348 L
162.925 348 L
166.95 348 L
170.975 348 L
175 348 L
179.025 348 L
183.05 348 L
187.075 348 L
191.1 348 L
195.125 348 L
199.15 348 L
203.175 348 L
207.2 348 L
211.225 348 L
215.25 348 L
219.275 348 L
223.3 348 L
227.325 348 L
231.35 348 L
235.375 348 L
239.4 348 L
243.425 348 L
247.45 348 L
251.475 348 L
255.5 348 L
259.525 348 L
263.55 348 L
267.575 348 L
271.6 348 L
275.625 348 L
279.65 348 L
283.675 348 L
287.7 348 L
291.725 348 L
295.75 348 L
299.775 348 L
303.8 348 L
307.825 348 L
311.85 348 L
315.875 348 L
319.9 348 L
323.925 348 L
327.95 348 L
331.975 348 L
336 348 L
340.025 348 L
344.05 348 L
348.075 348 L
352.1 348 L
356.125 348 L
360.15 348 L
364.175 348 L
368.2 348 L
372.225 348 L
376.25 348 L
380.275 348 L
384.3 348 L
388.325 348 L
392.35 348 L
396.375 348 L
400.4 348 L
404.425 348 L
408.45 348 L
412.475 387.599 L
416.5 416.588 L
420.525 92.026 L
424.55 495.787 L
428.575 348 L
432.6 348 L
436.625 348 L
440.65 348 L
444.675 348 L
448.7 348 L
452.725 348 L
456.75 348 L
460.775 348 L
464.8 348 L
468.825 348 L
472.85 348 L
476.875 348 L
480.9 348 L
484.925 348 L
488.95 348 L
492.975 348 L
497 348 L
501.025 348 L
505.05 348 L
509.075 348 L
513.1 348 L
517.125 348 L
521.15 348 L
525.175 348 L
529.2 348 L
533.225 348 L
537.25 348 L
541.275 348 L
545.3 348 L
549.325 348 L
553.35 348 L
557.375 348 L
561.4 348 L
565.425 348 L
569.45 348 L
573.475 348 L
577.5 348 L
581.525 348 L
585.55 348 L
589.575 348 L
593.6 348 L
597.625 348 L
601.65 348 L
605.675 348 L
609.7 348 L
S
GR
GS
0.302 0.745 0.933 RC
1 LJ
2 LW
N
98.525 348 M
102.55 348 L
106.575 348 L
110.6 348 L
114.625 348 L
118.65 348 L
122.675 348 L
126.7 348 L
130.725 348 L
134.75 348 L
138.775 348 L
142.8 348 L
146.825 348 L
150.85 348 L
154.875 348 L
158.9 348 L
162.925 348 L
166.95 348 L
170.975 348 L
175 348 L
179.025 348 L
183.05 348 L
187.075 348 L
191.1 348 L
195.125 348 L
199.15 348 L
203.175 348 L
207.2 348 L
211.225 348 L
215.25 348 L
219.275 348 L
223.3 348 L
227.325 348 L
231.35 348 L
235.375 348 L
239.4 348 L
243.425 348 L
247.45 348 L
251.475 348 L
255.5 348 L
259.525 348 L
263.55 348 L
267.575 348 L
271.6 348 L
275.625 348 L
279.65 348 L
283.675 348 L
287.7 348 L
291.725 348 L
295.75 348 L
299.775 348 L
303.8 348 L
307.825 348 L
311.85 348 L
315.875 348 L
319.9 348 L
323.925 348 L
327.95 348 L
331.975 348 L
336 348 L
340.025 348 L
344.05 348 L
348.075 348 L
352.1 348 L
356.125 348 L
360.15 348 L
364.175 348 L
368.2 348 L
372.225 348 L
376.25 348 L
380.275 348 L
384.3 348 L
388.325 348 L
392.35 348 L
396.375 348 L
400.4 348 L
404.425 348 L
408.45 348 L
412.475 348 L
416.5 348 L
420.525 348 L
424.55 348 L
428.575 348 L
432.6 348 L
436.625 348 L
440.65 348 L
444.675 348 L
448.7 348 L
452.725 348 L
456.75 348 L
460.775 348 L
464.8 348 L
468.825 348 L
472.85 348 L
476.875 348 L
480.9 348 L
484.925 348 L
488.95 348 L
492.975 387.599 L
497 416.588 L
501.025 92.026 L
505.05 495.787 L
509.075 348 L
513.1 348 L
517.125 348 L
521.15 348 L
525.175 348 L
529.2 348 L
533.225 348 L
537.25 348 L
541.275 348 L
545.3 348 L
549.325 348 L
553.35 348 L
557.375 348 L
561.4 348 L
565.425 348 L
569.45 348 L
573.475 348 L
577.5 348 L
581.525 348 L
585.55 348 L
589.575 348 L
593.6 348 L
597.625 348 L
601.65 348 L
605.675 348 L
609.7 348 L
S
GR
GS
0.635 0.078 0.184 RC
1 LJ
2 LW
N
98.525 348 M
102.55 348 L
106.575 348 L
110.6 348 L
114.625 348 L
118.65 348 L
122.675 348 L
126.7 348 L
130.725 348 L
134.75 348 L
138.775 348 L
142.8 348 L
146.825 348 L
150.85 348 L
154.875 348 L
158.9 348 L
162.925 348 L
166.95 348 L
170.975 348 L
175 348 L
179.025 348 L
183.05 348 L
187.075 348 L
191.1 348 L
195.125 348 L
199.15 348 L
203.175 348 L
207.2 348 L
211.225 348 L
215.25 348 L
219.275 348 L
223.3 348 L
227.325 348 L
231.35 348 L
235.375 348 L
239.4 348 L
243.425 348 L
247.45 348 L
251.475 348 L
255.5 348 L
259.525 348 L
263.55 348 L
267.575 348 L
271.6 348 L
275.625 348 L
279.65 348 L
283.675 348 L
287.7 348 L
291.725 348 L
295.75 348 L
299.775 348 L
303.8 348 L
307.825 348 L
311.85 348 L
315.875 348 L
319.9 348 L
323.925 348 L
327.95 348 L
331.975 348 L
336 348 L
340.025 348 L
344.05 348 L
348.075 348 L
352.1 348 L
356.125 348 L
360.15 348 L
364.175 348 L
368.2 348 L
372.225 348 L
376.25 348 L
380.275 348 L
384.3 348 L
388.325 348 L
392.35 348 L
396.375 348 L
400.4 348 L
404.425 348 L
408.45 348 L
412.475 348 L
416.5 348 L
420.525 348 L
424.55 348 L
428.575 348 L
432.6 348 L
436.625 348 L
440.65 348 L
444.675 348 L
448.7 348 L
452.725 348 L
456.75 348 L
460.775 348 L
464.8 348 L
468.825 348 L
472.85 348 L
476.875 348 L
480.9 348 L
484.925 348 L
488.95 348 L
492.975 348 L
497 348 L
501.025 348 L
505.05 348 L
509.075 348 L
513.1 348 L
517.125 348 L
521.15 348 L
525.175 348 L
529.2 348 L
533.225 348 L
537.25 348 L
541.275 348 L
545.3 348 L
549.325 348 L
553.35 348 L
557.375 348 L
561.4 348 L
565.425 348 L
569.45 348 L
573.475 387.599 L
577.5 416.588 L
581.525 92.026 L
585.55 495.787 L
589.575 348 L
593.6 348 L
597.625 348 L
601.65 348 L
605.675 348 L
609.7 348 L
S
GR
%%Trailer
%%Pages: 1
%%EOF
