%!PS-Adobe-3.0 EPSF-3.0
%%Creator: (MATLAB, The Mathworks, Inc. Version 9.3.0.713579 \(R2017b\). Operating System: Windows 10)
%%Title: C:/Users/simon/Documents/Unief/M2/Wavelets/Project/report/plots/waveletCOIFS.eps
%%CreationDate: 2017-11-29T22:44:29
%%Pages: (atend)
%%BoundingBox: 0 0 420 315
%%LanguageLevel: 3
%%EndComments
%%BeginProlog
%%BeginResource: procset (Apache XML Graphics Std ProcSet) 1.2 0
%%Version: 1.2 0
%%Copyright: (Copyright 2001-2003,2010 The Apache Software Foundation. License terms: http://www.apache.org/licenses/LICENSE-2.0)
/bd{bind def}bind def
/ld{load def}bd
/GR/grestore ld
/GS/gsave ld
/RM/rmoveto ld
/C/curveto ld
/t/show ld
/L/lineto ld
/ML/setmiterlimit ld
/CT/concat ld
/f/fill ld
/N/newpath ld
/S/stroke ld
/CC/setcmykcolor ld
/A/ashow ld
/cp/closepath ld
/RC/setrgbcolor ld
/LJ/setlinejoin ld
/GC/setgray ld
/LW/setlinewidth ld
/M/moveto ld
/re {4 2 roll M
1 index 0 rlineto
0 exch rlineto
neg 0 rlineto
cp } bd
/_ctm matrix def
/_tm matrix def
/BT { _ctm currentmatrix pop matrix _tm copy pop 0 0 moveto } bd
/ET { _ctm setmatrix } bd
/iTm { _ctm setmatrix _tm concat } bd
/Tm { _tm astore pop iTm 0 0 moveto } bd
/ux 0.0 def
/uy 0.0 def
/F {
  /Tp exch def
  /Tf exch def
  Tf findfont Tp scalefont setfont
  /cf Tf def  /cs Tp def
} bd
/ULS {currentpoint /uy exch def /ux exch def} bd
/ULE {
  /Tcx currentpoint pop def
  gsave
  newpath
  cf findfont cs scalefont dup
  /FontMatrix get 0 get /Ts exch def /FontInfo get dup
  /UnderlinePosition get Ts mul /To exch def
  /UnderlineThickness get Ts mul /Tt exch def
  ux uy To add moveto  Tcx uy To add lineto
  Tt setlinewidth stroke
  grestore
} bd
/OLE {
  /Tcx currentpoint pop def
  gsave
  newpath
  cf findfont cs scalefont dup
  /FontMatrix get 0 get /Ts exch def /FontInfo get dup
  /UnderlinePosition get Ts mul /To exch def
  /UnderlineThickness get Ts mul /Tt exch def
  ux uy To add cs add moveto Tcx uy To add cs add lineto
  Tt setlinewidth stroke
  grestore
} bd
/SOE {
  /Tcx currentpoint pop def
  gsave
  newpath
  cf findfont cs scalefont dup
  /FontMatrix get 0 get /Ts exch def /FontInfo get dup
  /UnderlinePosition get Ts mul /To exch def
  /UnderlineThickness get Ts mul /Tt exch def
  ux uy To add cs 10 mul 26 idiv add moveto Tcx uy To add cs 10 mul 26 idiv add lineto
  Tt setlinewidth stroke
  grestore
} bd
/QT {
/Y22 exch store
/X22 exch store
/Y21 exch store
/X21 exch store
currentpoint
/Y21 load 2 mul add 3 div exch
/X21 load 2 mul add 3 div exch
/X21 load 2 mul /X22 load add 3 div
/Y21 load 2 mul /Y22 load add 3 div
/X22 load /Y22 load curveto
} bd
/SSPD {
dup length /d exch dict def
{
/v exch def
/k exch def
currentpagedevice k known {
/cpdv currentpagedevice k get def
v cpdv ne {
/upd false def
/nullv v type /nulltype eq def
/nullcpdv cpdv type /nulltype eq def
nullv nullcpdv or
{
/upd true def
} {
/sametype v type cpdv type eq def
sametype {
v type /arraytype eq {
/vlen v length def
/cpdvlen cpdv length def
vlen cpdvlen eq {
0 1 vlen 1 sub {
/i exch def
/obj v i get def
/cpdobj cpdv i get def
obj cpdobj ne {
/upd true def
exit
} if
} for
} {
/upd true def
} ifelse
} {
v type /dicttype eq {
v {
/dv exch def
/dk exch def
/cpddv cpdv dk get def
dv cpddv ne {
/upd true def
exit
} if
} forall
} {
/upd true def
} ifelse
} ifelse
} if
} ifelse
upd true eq {
d k v put
} if
} if
} if
} forall
d length 0 gt {
d setpagedevice
} if
} bd
/RE { % /NewFontName [NewEncodingArray] /FontName RE -
  findfont dup length dict begin
  {
    1 index /FID ne
    {def} {pop pop} ifelse
  } forall
  /Encoding exch def
  /FontName 1 index def
  currentdict definefont pop
  end
} bind def
%%EndResource
%%BeginResource: procset (Apache XML Graphics EPS ProcSet) 1.0 0
%%Version: 1.0 0
%%Copyright: (Copyright 2002-2003 The Apache Software Foundation. License terms: http://www.apache.org/licenses/LICENSE-2.0)
/BeginEPSF { %def
/b4_Inc_state save def         % Save state for cleanup
/dict_count countdictstack def % Count objects on dict stack
/op_count count 1 sub def      % Count objects on operand stack
userdict begin                 % Push userdict on dict stack
/showpage { } def              % Redefine showpage, { } = null proc
0 setgray 0 setlinecap         % Prepare graphics state
1 setlinewidth 0 setlinejoin
10 setmiterlimit [ ] 0 setdash newpath
/languagelevel where           % If level not equal to 1 then
{pop languagelevel             % set strokeadjust and
1 ne                           % overprint to their defaults.
{false setstrokeadjust false setoverprint
} if
} if
} bd
/EndEPSF { %def
count op_count sub {pop} repeat            % Clean up stacks
countdictstack dict_count sub {end} repeat
b4_Inc_state restore
} bd
%%EndResource
%FOPBeginFontDict
%%IncludeResource: font Courier-Oblique
%%IncludeResource: font Courier-BoldOblique
%%IncludeResource: font Courier-Bold
%%IncludeResource: font ZapfDingbats
%%IncludeResource: font Symbol
%%IncludeResource: font Helvetica
%%IncludeResource: font Helvetica-Oblique
%%IncludeResource: font Helvetica-Bold
%%IncludeResource: font Helvetica-BoldOblique
%%IncludeResource: font Times-Roman
%%IncludeResource: font Times-Italic
%%IncludeResource: font Times-Bold
%%IncludeResource: font Times-BoldItalic
%%IncludeResource: font Courier
%FOPEndFontDict
%%BeginResource: encoding WinAnsiEncoding
/WinAnsiEncoding [
/.notdef /.notdef /.notdef /.notdef /.notdef
/.notdef /.notdef /.notdef /.notdef /.notdef
/.notdef /.notdef /.notdef /.notdef /.notdef
/.notdef /.notdef /.notdef /.notdef /.notdef
/.notdef /.notdef /.notdef /.notdef /.notdef
/.notdef /.notdef /.notdef /.notdef /.notdef
/.notdef /.notdef /space /exclam /quotedbl
/numbersign /dollar /percent /ampersand /quotesingle
/parenleft /parenright /asterisk /plus /comma
/hyphen /period /slash /zero /one
/two /three /four /five /six
/seven /eight /nine /colon /semicolon
/less /equal /greater /question /at
/A /B /C /D /E
/F /G /H /I /J
/K /L /M /N /O
/P /Q /R /S /T
/U /V /W /X /Y
/Z /bracketleft /backslash /bracketright /asciicircum
/underscore /quoteleft /a /b /c
/d /e /f /g /h
/i /j /k /l /m
/n /o /p /q /r
/s /t /u /v /w
/x /y /z /braceleft /bar
/braceright /asciitilde /bullet /Euro /bullet
/quotesinglbase /florin /quotedblbase /ellipsis /dagger
/daggerdbl /circumflex /perthousand /Scaron /guilsinglleft
/OE /bullet /Zcaron /bullet /bullet
/quoteleft /quoteright /quotedblleft /quotedblright /bullet
/endash /emdash /asciitilde /trademark /scaron
/guilsinglright /oe /bullet /zcaron /Ydieresis
/space /exclamdown /cent /sterling /currency
/yen /brokenbar /section /dieresis /copyright
/ordfeminine /guillemotleft /logicalnot /sfthyphen /registered
/macron /degree /plusminus /twosuperior /threesuperior
/acute /mu /paragraph /middot /cedilla
/onesuperior /ordmasculine /guillemotright /onequarter /onehalf
/threequarters /questiondown /Agrave /Aacute /Acircumflex
/Atilde /Adieresis /Aring /AE /Ccedilla
/Egrave /Eacute /Ecircumflex /Edieresis /Igrave
/Iacute /Icircumflex /Idieresis /Eth /Ntilde
/Ograve /Oacute /Ocircumflex /Otilde /Odieresis
/multiply /Oslash /Ugrave /Uacute /Ucircumflex
/Udieresis /Yacute /Thorn /germandbls /agrave
/aacute /acircumflex /atilde /adieresis /aring
/ae /ccedilla /egrave /eacute /ecircumflex
/edieresis /igrave /iacute /icircumflex /idieresis
/eth /ntilde /ograve /oacute /ocircumflex
/otilde /odieresis /divide /oslash /ugrave
/uacute /ucircumflex /udieresis /yacute /thorn
/ydieresis
] def
%%EndResource
%FOPBeginFontReencode
/Courier-Oblique findfont
dup length dict begin
  {1 index /FID ne {def} {pop pop} ifelse} forall
  /Encoding WinAnsiEncoding def
  currentdict
end
/Courier-Oblique exch definefont pop
/Courier-BoldOblique findfont
dup length dict begin
  {1 index /FID ne {def} {pop pop} ifelse} forall
  /Encoding WinAnsiEncoding def
  currentdict
end
/Courier-BoldOblique exch definefont pop
/Courier-Bold findfont
dup length dict begin
  {1 index /FID ne {def} {pop pop} ifelse} forall
  /Encoding WinAnsiEncoding def
  currentdict
end
/Courier-Bold exch definefont pop
/Helvetica findfont
dup length dict begin
  {1 index /FID ne {def} {pop pop} ifelse} forall
  /Encoding WinAnsiEncoding def
  currentdict
end
/Helvetica exch definefont pop
/Helvetica-Oblique findfont
dup length dict begin
  {1 index /FID ne {def} {pop pop} ifelse} forall
  /Encoding WinAnsiEncoding def
  currentdict
end
/Helvetica-Oblique exch definefont pop
/Helvetica-Bold findfont
dup length dict begin
  {1 index /FID ne {def} {pop pop} ifelse} forall
  /Encoding WinAnsiEncoding def
  currentdict
end
/Helvetica-Bold exch definefont pop
/Helvetica-BoldOblique findfont
dup length dict begin
  {1 index /FID ne {def} {pop pop} ifelse} forall
  /Encoding WinAnsiEncoding def
  currentdict
end
/Helvetica-BoldOblique exch definefont pop
/Times-Roman findfont
dup length dict begin
  {1 index /FID ne {def} {pop pop} ifelse} forall
  /Encoding WinAnsiEncoding def
  currentdict
end
/Times-Roman exch definefont pop
/Times-Italic findfont
dup length dict begin
  {1 index /FID ne {def} {pop pop} ifelse} forall
  /Encoding WinAnsiEncoding def
  currentdict
end
/Times-Italic exch definefont pop
/Times-Bold findfont
dup length dict begin
  {1 index /FID ne {def} {pop pop} ifelse} forall
  /Encoding WinAnsiEncoding def
  currentdict
end
/Times-Bold exch definefont pop
/Times-BoldItalic findfont
dup length dict begin
  {1 index /FID ne {def} {pop pop} ifelse} forall
  /Encoding WinAnsiEncoding def
  currentdict
end
/Times-BoldItalic exch definefont pop
/Courier findfont
dup length dict begin
  {1 index /FID ne {def} {pop pop} ifelse} forall
  /Encoding WinAnsiEncoding def
  currentdict
end
/Courier exch definefont pop
%FOPEndFontReencode
%%EndProlog
%%Page: 1 1
%%PageBoundingBox: 0 0 420 315
%%BeginPageSetup
[1 0 0 -1 0 315] CT
%%EndPageSetup
GS
[0.75 0 0 0.75 0 0] CT
1 GC
N
0 0 560 420 re
f
GR
GS
[0.75 0 0 0.75 0 0] CT
1 GC
N
0 0 560 420 re
f
GR
GS
[0.75 0 0 0.75 0 0] CT
1 GC
N
73 374 M
507 374 L
507 31 L
73 31 L
cp
f
GR
GS
[0.75 0 0 0.75 0 0] CT
0.149 GC
2 setlinecap
1 LJ
0.667 LW
N
73 374 M
507 374 L
S
GR
GS
[0.75 0 0 0.75 0 0] CT
0.149 GC
2 setlinecap
1 LJ
0.667 LW
N
133.794 374 M
133.794 369.66 L
S
GR
GS
[0.75 0 0 0.75 0 0] CT
0.149 GC
2 setlinecap
1 LJ
0.667 LW
N
218.23 374 M
218.23 369.66 L
S
GR
GS
[0.75 0 0 0.75 0 0] CT
0.149 GC
2 setlinecap
1 LJ
0.667 LW
N
302.665 374 M
302.665 369.66 L
S
GR
GS
[0.75 0 0 0.75 0 0] CT
0.149 GC
2 setlinecap
1 LJ
0.667 LW
N
387.101 374 M
387.101 369.66 L
S
GR
GS
[0.75 0 0 0.75 0 0] CT
0.149 GC
2 setlinecap
1 LJ
0.667 LW
N
471.537 374 M
471.537 369.66 L
S
GR
GS
[0.75 0 0 0.75 100.34533 284.49998] CT
0.149 GC
/Helvetica 13.333 F
GS
[1 0 0 1 0 0] CT
-11.5 14 moveto 
1 -1 scale
(100) t 
GR
GR
GS
[0.75 0 0 0.75 163.67218 284.49998] CT
0.149 GC
/Helvetica 13.333 F
GS
[1 0 0 1 0 0] CT
-11.5 14 moveto 
1 -1 scale
(150) t 
GR
GR
GS
[0.75 0 0 0.75 226.99903 284.49998] CT
0.149 GC
/Helvetica 13.333 F
GS
[1 0 0 1 0 0] CT
-11.5 14 moveto 
1 -1 scale
(200) t 
GR
GR
GS
[0.75 0 0 0.75 290.32587 284.49998] CT
0.149 GC
/Helvetica 13.333 F
GS
[1 0 0 1 0 0] CT
-11.5 14 moveto 
1 -1 scale
(250) t 
GR
GR
GS
[0.75 0 0 0.75 353.65272 284.49998] CT
0.149 GC
/Helvetica 13.333 F
GS
[1 0 0 1 0 0] CT
-11.5 14 moveto 
1 -1 scale
(300) t 
GR
GR
GS
[0.75 0 0 0.75 217.50016 298.25002] CT
0.149 GC
N
-47.254 12.32 M
-47.254 11.789 L
-46.504 11.789 -45.793 11.703 QT
-45.082 11.617 -45.082 11.32 QT
-45.082 3.07 L
-45.082 2.757 -45.262 2.679 QT
-45.442 2.601 -45.832 2.601 QT
-46.473 2.601 L
-47.707 2.601 -48.223 3.148 QT
-48.488 3.414 -48.606 4.007 QT
-48.723 4.601 -48.817 5.507 QT
-49.238 5.507 L
-48.957 2.07 L
-39.801 2.07 L
-39.504 5.507 L
-39.942 5.507 L
-40.035 4.539 -40.145 3.976 QT
-40.254 3.414 -40.52 3.148 QT
-41.051 2.601 -42.285 2.601 QT
-42.91 2.601 L
-43.192 2.601 -43.34 2.625 QT
-43.488 2.648 -43.582 2.75 QT
-43.676 2.851 -43.676 3.07 QT
-43.676 11.32 L
-43.676 11.617 -42.965 11.703 QT
-42.254 11.789 -41.504 11.789 QT
-41.504 12.32 L
-47.254 12.32 L
cp
f
GR
GS
[0.75 0 0 0.75 217.50016 298.25002] CT
0.149 GC
N
-38.724 12.32 M
-38.724 11.789 L
-38.224 11.789 -37.888 11.711 QT
-37.552 11.632 -37.552 11.32 QT
-37.552 7.226 L
-37.552 6.648 -37.779 6.515 QT
-38.005 6.382 -38.661 6.382 QT
-38.661 5.851 L
-36.505 5.695 L
-36.505 11.32 L
-36.505 11.632 -36.216 11.711 QT
-35.927 11.789 -35.458 11.789 QT
-35.458 12.32 L
-38.724 12.32 L
cp
-38.099 3.117 M
-38.099 2.789 -37.849 2.539 QT
-37.599 2.289 -37.271 2.289 QT
-37.068 2.289 -36.865 2.398 QT
-36.661 2.507 -36.552 2.703 QT
-36.443 2.898 -36.443 3.117 QT
-36.443 3.429 -36.693 3.679 QT
-36.943 3.929 -37.271 3.929 QT
-37.599 3.929 -37.849 3.679 QT
-38.099 3.429 -38.099 3.117 QT
cp
f
GR
GS
[0.75 0 0 0.75 217.50016 298.25002] CT
0.149 GC
N
-34.665 12.32 M
-34.665 11.789 L
-34.165 11.789 -33.83 11.711 QT
-33.494 11.632 -33.494 11.32 QT
-33.494 7.226 L
-33.494 6.82 -33.619 6.64 QT
-33.744 6.461 -33.97 6.422 QT
-34.197 6.382 -34.665 6.382 QT
-34.665 5.851 L
-32.494 5.695 L
-32.494 7.164 L
-32.197 6.507 -31.603 6.101 QT
-31.009 5.695 -30.322 5.695 QT
-28.587 5.695 -28.29 7.101 QT
-27.994 6.461 -27.415 6.078 QT
-26.837 5.695 -26.15 5.695 QT
-25.462 5.695 -25.001 5.914 QT
-24.54 6.132 -24.306 6.586 QT
-24.072 7.039 -24.072 7.711 QT
-24.072 11.32 L
-24.072 11.632 -23.736 11.711 QT
-23.4 11.789 -22.9 11.789 QT
-22.9 12.32 L
-26.322 12.32 L
-26.322 11.789 L
-25.822 11.789 -25.486 11.711 QT
-25.15 11.632 -25.15 11.32 QT
-25.15 7.757 L
-25.15 7.007 -25.369 6.547 QT
-25.587 6.086 -26.244 6.086 QT
-27.103 6.086 -27.665 6.781 QT
-28.228 7.476 -28.228 8.351 QT
-28.228 11.32 L
-28.228 11.632 -27.9 11.711 QT
-27.572 11.789 -27.056 11.789 QT
-27.056 12.32 L
-30.494 12.32 L
-30.494 11.789 L
-29.978 11.789 -29.65 11.711 QT
-29.322 11.632 -29.322 11.32 QT
-29.322 7.757 L
-29.322 7.023 -29.533 6.554 QT
-29.744 6.086 -30.415 6.086 QT
-31.275 6.086 -31.837 6.781 QT
-32.4 7.476 -32.4 8.351 QT
-32.4 11.32 L
-32.4 11.632 -32.072 11.711 QT
-31.744 11.789 -31.244 11.789 QT
-31.244 12.32 L
-34.665 12.32 L
cp
f
GR
GS
[0.75 0 0 0.75 217.50016 298.25002] CT
0.149 GC
N
-19.162 12.492 M
-20.084 12.492 -20.842 12.007 QT
-21.599 11.523 -22.037 10.726 QT
-22.474 9.929 -22.474 9.039 QT
-22.474 8.148 -22.076 7.359 QT
-21.678 6.57 -20.967 6.086 QT
-20.256 5.601 -19.381 5.601 QT
-18.678 5.601 -18.17 5.828 QT
-17.662 6.054 -17.334 6.468 QT
-17.006 6.882 -16.842 7.437 QT
-16.678 7.992 -16.678 8.664 QT
-16.678 8.851 -16.818 8.851 QT
-21.162 8.851 L
-21.162 9.023 L
-21.162 10.257 -20.662 11.156 QT
-20.162 12.054 -19.021 12.054 QT
-18.568 12.054 -18.178 11.843 QT
-17.787 11.632 -17.498 11.273 QT
-17.209 10.914 -17.099 10.492 QT
-17.084 10.445 -17.045 10.398 QT
-17.006 10.351 -16.959 10.351 QT
-16.818 10.351 L
-16.678 10.351 -16.678 10.554 QT
-16.881 11.398 -17.584 11.945 QT
-18.287 12.492 -19.162 12.492 QT
cp
-21.146 8.476 M
-17.74 8.476 L
-17.74 7.914 -17.896 7.336 QT
-18.053 6.757 -18.42 6.375 QT
-18.787 5.992 -19.381 5.992 QT
-20.224 5.992 -20.685 6.789 QT
-21.146 7.586 -21.146 8.476 QT
cp
f
GR
GS
[0.75 0 0 0.75 217.50016 298.25002] CT
0.149 GC
N
-6.833 16.039 M
-7.676 15.382 -8.278 14.531 QT
-8.88 13.679 -9.262 12.711 QT
-9.645 11.742 -9.84 10.687 QT
-10.036 9.632 -10.036 8.57 QT
-10.036 7.492 -9.84 6.437 QT
-9.645 5.382 -9.255 4.406 QT
-8.864 3.429 -8.255 2.586 QT
-7.645 1.742 -6.833 1.101 QT
-6.833 1.07 -6.77 1.07 QT
-6.63 1.07 L
-6.583 1.07 -6.544 1.109 QT
-6.505 1.148 -6.505 1.195 QT
-6.505 1.273 -6.536 1.304 QT
-7.27 2.007 -7.755 2.828 QT
-8.239 3.648 -8.536 4.578 QT
-8.833 5.507 -8.965 6.5 QT
-9.098 7.492 -9.098 8.57 QT
-9.098 13.336 -6.551 15.82 QT
-6.505 15.851 -6.505 15.945 QT
-6.505 15.976 -6.544 16.023 QT
-6.583 16.07 -6.63 16.07 QT
-6.77 16.07 L
-6.833 16.07 -6.833 16.039 QT
cp
f
GR
GS
[0.75 0 0 0.75 217.50016 298.25002] CT
0.149 GC
N
-5.285 12.367 M
-5.285 9.914 L
-5.285 9.804 -5.16 9.804 QT
-4.973 9.804 L
-4.879 9.804 -4.848 9.914 QT
-4.441 12.086 -2.832 12.086 QT
-2.129 12.086 -1.645 11.765 QT
-1.16 11.445 -1.16 10.773 QT
-1.16 10.289 -1.535 9.953 QT
-1.91 9.617 -2.426 9.492 QT
-3.426 9.289 L
-3.926 9.179 -4.34 8.953 QT
-4.754 8.726 -5.02 8.351 QT
-5.285 7.976 -5.285 7.476 QT
-5.285 6.804 -4.941 6.39 QT
-4.598 5.976 -4.035 5.789 QT
-3.473 5.601 -2.832 5.601 QT
-2.066 5.601 -1.488 6.007 QT
-1.066 5.632 L
-1.066 5.601 -0.988 5.601 QT
-0.879 5.601 L
-0.832 5.601 -0.793 5.64 QT
-0.754 5.679 -0.754 5.726 QT
-0.754 7.679 L
-0.754 7.82 -0.879 7.82 QT
-1.066 7.82 L
-1.191 7.82 -1.191 7.679 QT
-1.191 6.898 -1.629 6.422 QT
-2.066 5.945 -2.848 5.945 QT
-3.52 5.945 -4.012 6.195 QT
-4.504 6.445 -4.504 7.054 QT
-4.504 7.476 -4.152 7.742 QT
-3.801 8.007 -3.316 8.117 QT
-2.301 8.32 L
-1.801 8.429 -1.356 8.711 QT
-0.91 8.992 -0.652 9.414 QT
-0.395 9.836 -0.395 10.367 QT
-0.395 10.914 -0.574 11.312 QT
-0.754 11.711 -1.09 11.976 QT
-1.426 12.242 -1.879 12.367 QT
-2.332 12.492 -2.832 12.492 QT
-3.77 12.492 -4.441 11.851 QT
-4.988 12.445 L
-4.988 12.492 -5.066 12.492 QT
-5.16 12.492 L
-5.285 12.492 -5.285 12.367 QT
cp
f
GR
GS
[0.75 0 0 0.75 217.50016 298.25002] CT
0.149 GC
N
0.594 10.851 M
0.594 9.961 1.297 9.398 QT
2 8.836 2.992 8.601 QT
3.984 8.367 4.859 8.367 QT
4.859 7.757 L
4.859 7.32 4.672 6.914 QT
4.484 6.507 4.125 6.25 QT
3.766 5.992 3.328 5.992 QT
2.344 5.992 1.812 6.445 QT
2.109 6.445 2.289 6.656 QT
2.469 6.867 2.469 7.164 QT
2.469 7.461 2.258 7.672 QT
2.047 7.882 1.766 7.882 QT
1.453 7.882 1.242 7.672 QT
1.031 7.461 1.031 7.164 QT
1.031 6.367 1.75 5.984 QT
2.469 5.601 3.328 5.601 QT
3.937 5.601 4.555 5.859 QT
5.172 6.117 5.562 6.601 QT
5.953 7.086 5.953 7.726 QT
5.953 11.101 L
5.953 11.398 6.078 11.64 QT
6.203 11.882 6.469 11.882 QT
6.719 11.882 6.836 11.632 QT
6.953 11.382 6.953 11.101 QT
6.953 10.148 L
7.391 10.148 L
7.391 11.101 L
7.391 11.445 7.219 11.75 QT
7.047 12.054 6.75 12.234 QT
6.453 12.414 6.109 12.414 QT
5.672 12.414 5.352 12.07 QT
5.031 11.726 5 11.257 QT
4.719 11.82 4.18 12.156 QT
3.641 12.492 3.016 12.492 QT
2.453 12.492 1.898 12.32 QT
1.344 12.148 0.969 11.789 QT
0.594 11.429 0.594 10.851 QT
cp
1.812 10.851 M
1.812 11.382 2.203 11.734 QT
2.594 12.086 3.125 12.086 QT
3.609 12.086 4 11.851 QT
4.391 11.617 4.625 11.195 QT
4.859 10.773 4.859 10.32 QT
4.859 8.757 L
4.187 8.757 3.469 8.976 QT
2.75 9.195 2.281 9.672 QT
1.812 10.148 1.812 10.851 QT
cp
f
GR
GS
[0.75 0 0 0.75 217.50016 298.25002] CT
0.149 GC
N
7.786 12.32 M
7.786 11.789 L
8.286 11.789 8.622 11.711 QT
8.958 11.632 8.958 11.32 QT
8.958 7.226 L
8.958 6.82 8.833 6.64 QT
8.708 6.461 8.482 6.422 QT
8.255 6.382 7.786 6.382 QT
7.786 5.851 L
9.958 5.695 L
9.958 7.164 L
10.255 6.507 10.849 6.101 QT
11.443 5.695 12.13 5.695 QT
13.865 5.695 14.161 7.101 QT
14.458 6.461 15.036 6.078 QT
15.615 5.695 16.302 5.695 QT
16.99 5.695 17.451 5.914 QT
17.911 6.132 18.146 6.586 QT
18.38 7.039 18.38 7.711 QT
18.38 11.32 L
18.38 11.632 18.716 11.711 QT
19.052 11.789 19.552 11.789 QT
19.552 12.32 L
16.13 12.32 L
16.13 11.789 L
16.63 11.789 16.966 11.711 QT
17.302 11.632 17.302 11.32 QT
17.302 7.757 L
17.302 7.007 17.083 6.547 QT
16.865 6.086 16.208 6.086 QT
15.349 6.086 14.786 6.781 QT
14.224 7.476 14.224 8.351 QT
14.224 11.32 L
14.224 11.632 14.552 11.711 QT
14.88 11.789 15.396 11.789 QT
15.396 12.32 L
11.958 12.32 L
11.958 11.789 L
12.474 11.789 12.802 11.711 QT
13.13 11.632 13.13 11.32 QT
13.13 7.757 L
13.13 7.023 12.919 6.554 QT
12.708 6.086 12.036 6.086 QT
11.177 6.086 10.615 6.781 QT
10.052 7.476 10.052 8.351 QT
10.052 11.32 L
10.052 11.632 10.38 11.711 QT
10.708 11.789 11.208 11.789 QT
11.208 12.32 L
7.786 12.32 L
cp
f
GR
GS
[0.75 0 0 0.75 217.50016 298.25002] CT
0.149 GC
N
19.946 15.226 M
19.946 14.711 L
20.462 14.711 20.79 14.625 QT
21.118 14.539 21.118 14.226 QT
21.118 6.992 L
21.118 6.586 20.821 6.484 QT
20.524 6.382 19.946 6.382 QT
19.946 5.851 L
22.165 5.695 L
22.165 6.617 L
22.571 6.164 23.118 5.929 QT
23.665 5.695 24.274 5.695 QT
25.165 5.695 25.876 6.172 QT
26.587 6.648 26.985 7.429 QT
27.384 8.211 27.384 9.086 QT
27.384 9.992 26.938 10.773 QT
26.493 11.554 25.727 12.023 QT
24.962 12.492 24.056 12.492 QT
22.962 12.492 22.212 11.601 QT
22.212 14.226 L
22.212 14.539 22.54 14.625 QT
22.868 14.711 23.384 14.711 QT
23.384 15.226 L
19.946 15.226 L
cp
22.212 10.867 M
22.477 11.398 22.946 11.742 QT
23.415 12.086 23.962 12.086 QT
24.477 12.086 24.884 11.812 QT
25.29 11.539 25.556 11.07 QT
25.821 10.601 25.954 10.086 QT
26.087 9.57 26.087 9.086 QT
26.087 8.476 25.868 7.781 QT
25.649 7.086 25.204 6.601 QT
24.759 6.117 24.134 6.117 QT
23.524 6.117 23.017 6.429 QT
22.509 6.742 22.212 7.273 QT
22.212 10.867 L
cp
f
GR
GS
[0.75 0 0 0.75 217.50016 298.25002] CT
0.149 GC
N
28.173 12.32 M
28.173 11.789 L
28.673 11.789 29.008 11.711 QT
29.344 11.632 29.344 11.32 QT
29.344 3.445 L
29.344 3.039 29.219 2.859 QT
29.094 2.679 28.868 2.64 QT
28.641 2.601 28.173 2.601 QT
28.173 2.07 L
30.391 1.914 L
30.391 11.32 L
30.391 11.632 30.719 11.711 QT
31.048 11.789 31.563 11.789 QT
31.563 12.32 L
28.173 12.32 L
cp
f
GR
GS
[0.75 0 0 0.75 217.50016 298.25002] CT
0.149 GC
N
35.512 12.492 M
34.59 12.492 33.833 12.007 QT
33.075 11.523 32.637 10.726 QT
32.2 9.929 32.2 9.039 QT
32.2 8.148 32.598 7.359 QT
32.997 6.57 33.708 6.086 QT
34.418 5.601 35.293 5.601 QT
35.997 5.601 36.504 5.828 QT
37.012 6.054 37.34 6.468 QT
37.668 6.882 37.833 7.437 QT
37.997 7.992 37.997 8.664 QT
37.997 8.851 37.856 8.851 QT
33.512 8.851 L
33.512 9.023 L
33.512 10.257 34.012 11.156 QT
34.512 12.054 35.653 12.054 QT
36.106 12.054 36.497 11.843 QT
36.887 11.632 37.176 11.273 QT
37.465 10.914 37.575 10.492 QT
37.59 10.445 37.629 10.398 QT
37.668 10.351 37.715 10.351 QT
37.856 10.351 L
37.997 10.351 37.997 10.554 QT
37.793 11.398 37.09 11.945 QT
36.387 12.492 35.512 12.492 QT
cp
33.528 8.476 M
36.934 8.476 L
36.934 7.914 36.778 7.336 QT
36.622 6.757 36.254 6.375 QT
35.887 5.992 35.293 5.992 QT
34.45 5.992 33.989 6.789 QT
33.528 7.586 33.528 8.476 QT
cp
f
GR
GS
[0.75 0 0 0.75 217.50016 298.25002] CT
0.149 GC
N
38.796 12.367 M
38.796 9.914 L
38.796 9.804 38.921 9.804 QT
39.109 9.804 L
39.203 9.804 39.234 9.914 QT
39.64 12.086 41.249 12.086 QT
41.953 12.086 42.437 11.765 QT
42.921 11.445 42.921 10.773 QT
42.921 10.289 42.546 9.953 QT
42.171 9.617 41.656 9.492 QT
40.656 9.289 L
40.156 9.179 39.742 8.953 QT
39.328 8.726 39.062 8.351 QT
38.796 7.976 38.796 7.476 QT
38.796 6.804 39.14 6.39 QT
39.484 5.976 40.046 5.789 QT
40.609 5.601 41.249 5.601 QT
42.015 5.601 42.593 6.007 QT
43.015 5.632 L
43.015 5.601 43.093 5.601 QT
43.203 5.601 L
43.249 5.601 43.289 5.64 QT
43.328 5.679 43.328 5.726 QT
43.328 7.679 L
43.328 7.82 43.203 7.82 QT
43.015 7.82 L
42.89 7.82 42.89 7.679 QT
42.89 6.898 42.453 6.422 QT
42.015 5.945 41.234 5.945 QT
40.562 5.945 40.07 6.195 QT
39.578 6.445 39.578 7.054 QT
39.578 7.476 39.929 7.742 QT
40.281 8.007 40.765 8.117 QT
41.781 8.32 L
42.281 8.429 42.726 8.711 QT
43.171 8.992 43.429 9.414 QT
43.687 9.836 43.687 10.367 QT
43.687 10.914 43.507 11.312 QT
43.328 11.711 42.992 11.976 QT
42.656 12.242 42.203 12.367 QT
41.749 12.492 41.249 12.492 QT
40.312 12.492 39.64 11.851 QT
39.093 12.445 L
39.093 12.492 39.015 12.492 QT
38.921 12.492 L
38.796 12.492 38.796 12.367 QT
cp
f
GR
GS
[0.75 0 0 0.75 217.50016 298.25002] CT
0.149 GC
N
45.05 16.07 M
44.925 16.07 44.925 15.945 QT
44.925 15.867 44.957 15.836 QT
47.519 13.336 47.519 8.57 QT
47.519 3.804 44.988 1.32 QT
44.925 1.289 44.925 1.195 QT
44.925 1.148 44.964 1.109 QT
45.003 1.07 45.05 1.07 QT
45.191 1.07 L
45.238 1.07 45.269 1.101 QT
46.347 1.945 47.066 3.164 QT
47.785 4.382 48.113 5.757 QT
48.441 7.132 48.441 8.57 QT
48.441 9.632 48.261 10.664 QT
48.082 11.695 47.691 12.695 QT
47.3 13.695 46.699 14.539 QT
46.097 15.382 45.269 16.039 QT
45.238 16.07 45.191 16.07 QT
45.05 16.07 L
cp
f
GR
GS
[0.75 0 0 0.75 0 0] CT
0.149 GC
2 setlinecap
1 LJ
0.667 LW
N
73 374 M
73 31 L
S
GR
GS
[0.75 0 0 0.75 0 0] CT
0.149 GC
2 setlinecap
1 LJ
0.667 LW
N
73 351.133 M
77.34 351.133 L
S
GR
GS
[0.75 0 0 0.75 0 0] CT
0.149 GC
2 setlinecap
1 LJ
0.667 LW
N
73 305.4 M
77.34 305.4 L
S
GR
GS
[0.75 0 0 0.75 0 0] CT
0.149 GC
2 setlinecap
1 LJ
0.667 LW
N
73 259.667 M
77.34 259.667 L
S
GR
GS
[0.75 0 0 0.75 0 0] CT
0.149 GC
2 setlinecap
1 LJ
0.667 LW
N
73 213.933 M
77.34 213.933 L
S
GR
GS
[0.75 0 0 0.75 0 0] CT
0.149 GC
2 setlinecap
1 LJ
0.667 LW
N
73 168.2 M
77.34 168.2 L
S
GR
GS
[0.75 0 0 0.75 0 0] CT
0.149 GC
2 setlinecap
1 LJ
0.667 LW
N
73 122.467 M
77.34 122.467 L
S
GR
GS
[0.75 0 0 0.75 0 0] CT
0.149 GC
2 setlinecap
1 LJ
0.667 LW
N
73 76.733 M
77.34 76.733 L
S
GR
GS
[0.75 0 0 0.75 0 0] CT
0.149 GC
2 setlinecap
1 LJ
0.667 LW
N
73 31 M
77.34 31 L
S
GR
GS
[0.75 0 0 0.75 50.75 263.35] CT
0.149 GC
/Helvetica 13.333 F
GS
[1 0 0 1 0 0] CT
-23 5.5 moveto 
1 -1 scale
(-0.3) t 
GR
GR
GS
[0.75 0 0 0.75 50.75 229.05] CT
0.149 GC
/Helvetica 13.333 F
GS
[1 0 0 1 0 0] CT
-23 5.5 moveto 
1 -1 scale
(-0.2) t 
GR
GR
GS
[0.75 0 0 0.75 50.75 194.74999] CT
0.149 GC
/Helvetica 13.333 F
GS
[1 0 0 1 0 0] CT
-23 5.5 moveto 
1 -1 scale
(-0.1) t 
GR
GR
GS
[0.75 0 0 0.75 50.75 160.45] CT
0.149 GC
/Helvetica 13.333 F
GS
[1 0 0 1 0 0] CT
-8 5.5 moveto 
1 -1 scale
(0) t 
GR
GR
GS
[0.75 0 0 0.75 50.75 126.15] CT
0.149 GC
/Helvetica 13.333 F
GS
[1 0 0 1 0 0] CT
-19 5.5 moveto 
1 -1 scale
(0.1) t 
GR
GR
GS
[0.75 0 0 0.75 50.75 91.85] CT
0.149 GC
/Helvetica 13.333 F
GS
[1 0 0 1 0 0] CT
-19 5.5 moveto 
1 -1 scale
(0.2) t 
GR
GR
GS
[0.75 0 0 0.75 50.75 57.55] CT
0.149 GC
/Helvetica 13.333 F
GS
[1 0 0 1 0 0] CT
-19 5.5 moveto 
1 -1 scale
(0.3) t 
GR
GR
GS
[0.75 0 0 0.75 50.75 23.25] CT
0.149 GC
/Helvetica 13.333 F
GS
[1 0 0 1 0 0] CT
-19 5.5 moveto 
1 -1 scale
(0.4) t 
GR
GR
GS
[0 -0.75 0.75 0 30.5 151.87487] CT
0.149 GC
N
-33.534 -5.28 M
-33.534 -5.811 L
-32.19 -5.811 -31.894 -6.686 QT
-28.737 -15.858 L
-28.69 -16.014 -28.503 -16.014 QT
-28.3 -16.014 L
-28.112 -16.014 -28.065 -15.858 QT
-24.769 -6.28 L
-24.644 -5.968 -24.245 -5.889 QT
-23.847 -5.811 -23.269 -5.811 QT
-23.269 -5.28 L
-27.456 -5.28 L
-27.456 -5.811 L
-26.206 -5.811 -26.206 -6.218 QT
-26.206 -6.28 L
-27.019 -8.624 L
-30.659 -8.624 L
-31.331 -6.686 L
-31.347 -6.639 -31.347 -6.546 QT
-31.347 -6.171 -30.987 -5.991 QT
-30.628 -5.811 -30.222 -5.811 QT
-30.222 -5.28 L
-33.534 -5.28 L
cp
-30.487 -9.155 M
-27.19 -9.155 L
-28.847 -13.936 L
-30.487 -9.155 L
cp
f
GR
GS
[0 -0.75 0.75 0 30.5 151.87487] CT
0.149 GC
N
-22.565 -5.28 M
-22.565 -5.811 L
-22.065 -5.811 -21.73 -5.889 QT
-21.394 -5.968 -21.394 -6.28 QT
-21.394 -10.374 L
-21.394 -10.78 -21.519 -10.96 QT
-21.644 -11.139 -21.87 -11.178 QT
-22.097 -11.218 -22.565 -11.218 QT
-22.565 -11.749 L
-20.394 -11.905 L
-20.394 -10.436 L
-20.097 -11.093 -19.503 -11.499 QT
-18.909 -11.905 -18.222 -11.905 QT
-16.487 -11.905 -16.19 -10.499 QT
-15.894 -11.139 -15.315 -11.522 QT
-14.737 -11.905 -14.05 -11.905 QT
-13.362 -11.905 -12.901 -11.686 QT
-12.44 -11.468 -12.206 -11.014 QT
-11.972 -10.561 -11.972 -9.889 QT
-11.972 -6.28 L
-11.972 -5.968 -11.636 -5.889 QT
-11.3 -5.811 -10.8 -5.811 QT
-10.8 -5.28 L
-14.222 -5.28 L
-14.222 -5.811 L
-13.722 -5.811 -13.386 -5.889 QT
-13.05 -5.968 -13.05 -6.28 QT
-13.05 -9.843 L
-13.05 -10.593 -13.269 -11.053 QT
-13.487 -11.514 -14.144 -11.514 QT
-15.003 -11.514 -15.565 -10.819 QT
-16.128 -10.124 -16.128 -9.249 QT
-16.128 -6.28 L
-16.128 -5.968 -15.8 -5.889 QT
-15.472 -5.811 -14.956 -5.811 QT
-14.956 -5.28 L
-18.394 -5.28 L
-18.394 -5.811 L
-17.878 -5.811 -17.55 -5.889 QT
-17.222 -5.968 -17.222 -6.28 QT
-17.222 -9.843 L
-17.222 -10.577 -17.433 -11.046 QT
-17.644 -11.514 -18.315 -11.514 QT
-19.175 -11.514 -19.737 -10.819 QT
-20.3 -10.124 -20.3 -9.249 QT
-20.3 -6.28 L
-20.3 -5.968 -19.972 -5.889 QT
-19.644 -5.811 -19.144 -5.811 QT
-19.144 -5.28 L
-22.565 -5.28 L
cp
f
GR
GS
[0 -0.75 0.75 0 30.5 151.87487] CT
0.149 GC
N
-10.406 -2.374 M
-10.406 -2.889 L
-9.89 -2.889 -9.562 -2.975 QT
-9.234 -3.061 -9.234 -3.374 QT
-9.234 -10.608 L
-9.234 -11.014 -9.531 -11.116 QT
-9.828 -11.218 -10.406 -11.218 QT
-10.406 -11.749 L
-8.187 -11.905 L
-8.187 -10.983 L
-7.781 -11.436 -7.234 -11.671 QT
-6.687 -11.905 -6.078 -11.905 QT
-5.187 -11.905 -4.476 -11.428 QT
-3.765 -10.952 -3.367 -10.171 QT
-2.968 -9.389 -2.968 -8.514 QT
-2.968 -7.608 -3.414 -6.827 QT
-3.859 -6.046 -4.624 -5.577 QT
-5.39 -5.108 -6.296 -5.108 QT
-7.39 -5.108 -8.14 -5.999 QT
-8.14 -3.374 L
-8.14 -3.061 -7.812 -2.975 QT
-7.484 -2.889 -6.968 -2.889 QT
-6.968 -2.374 L
-10.406 -2.374 L
cp
-8.14 -6.733 M
-7.874 -6.202 -7.406 -5.858 QT
-6.937 -5.514 -6.39 -5.514 QT
-5.874 -5.514 -5.468 -5.788 QT
-5.062 -6.061 -4.796 -6.53 QT
-4.531 -6.999 -4.398 -7.514 QT
-4.265 -8.03 -4.265 -8.514 QT
-4.265 -9.124 -4.484 -9.819 QT
-4.703 -10.514 -5.148 -10.999 QT
-5.593 -11.483 -6.218 -11.483 QT
-6.828 -11.483 -7.335 -11.171 QT
-7.843 -10.858 -8.14 -10.327 QT
-8.14 -6.733 L
cp
f
GR
GS
[0 -0.75 0.75 0 30.5 151.87487] CT
0.149 GC
N
-2.179 -5.28 M
-2.179 -5.811 L
-1.679 -5.811 -1.343 -5.889 QT
-1.008 -5.968 -1.008 -6.28 QT
-1.008 -14.155 L
-1.008 -14.561 -1.133 -14.741 QT
-1.258 -14.921 -1.484 -14.96 QT
-1.711 -14.999 -2.179 -14.999 QT
-2.179 -15.53 L
0.039 -15.686 L
0.039 -6.28 L
0.039 -5.968 0.367 -5.889 QT
0.696 -5.811 1.211 -5.811 QT
1.211 -5.28 L
-2.179 -5.28 L
cp
f
GR
GS
[0 -0.75 0.75 0 30.5 151.87487] CT
0.149 GC
N
1.895 -5.28 M
1.895 -5.811 L
2.395 -5.811 2.731 -5.889 QT
3.067 -5.968 3.067 -6.28 QT
3.067 -10.374 L
3.067 -10.952 2.84 -11.085 QT
2.613 -11.218 1.957 -11.218 QT
1.957 -11.749 L
4.113 -11.905 L
4.113 -6.28 L
4.113 -5.968 4.402 -5.889 QT
4.692 -5.811 5.16 -5.811 QT
5.16 -5.28 L
1.895 -5.28 L
cp
2.52 -14.483 M
2.52 -14.811 2.77 -15.061 QT
3.02 -15.311 3.348 -15.311 QT
3.551 -15.311 3.754 -15.202 QT
3.957 -15.093 4.067 -14.897 QT
4.176 -14.702 4.176 -14.483 QT
4.176 -14.171 3.926 -13.921 QT
3.676 -13.671 3.348 -13.671 QT
3.02 -13.671 2.77 -13.921 QT
2.52 -14.171 2.52 -14.483 QT
cp
f
GR
GS
[0 -0.75 0.75 0 30.5 151.87487] CT
0.149 GC
N
7.031 -7.077 M
7.031 -11.218 L
5.781 -11.218 L
5.781 -11.608 L
6.766 -11.608 7.227 -12.522 QT
7.688 -13.436 7.688 -14.514 QT
8.125 -14.514 L
8.125 -11.749 L
10.234 -11.749 L
10.234 -11.218 L
8.125 -11.218 L
8.125 -7.108 L
8.125 -6.483 8.336 -6.014 QT
8.547 -5.546 9.078 -5.546 QT
9.594 -5.546 9.82 -6.046 QT
10.047 -6.546 10.047 -7.108 QT
10.047 -7.999 L
10.484 -7.999 L
10.484 -7.077 L
10.484 -6.608 10.313 -6.155 QT
10.141 -5.702 9.805 -5.405 QT
9.469 -5.108 8.984 -5.108 QT
8.078 -5.108 7.555 -5.647 QT
7.031 -6.186 7.031 -7.077 QT
cp
f
GR
GS
[0 -0.75 0.75 0 30.5 151.87487] CT
0.149 GC
N
12.829 -7.061 M
12.829 -10.374 L
12.829 -10.78 12.704 -10.96 QT
12.579 -11.139 12.352 -11.178 QT
12.126 -11.218 11.657 -11.218 QT
11.657 -11.749 L
13.922 -11.905 L
13.922 -7.061 L
13.922 -6.483 14.008 -6.155 QT
14.094 -5.827 14.368 -5.671 QT
14.641 -5.514 15.235 -5.514 QT
16.047 -5.514 16.524 -6.186 QT
17.001 -6.858 17.001 -7.718 QT
17.001 -10.374 L
17.001 -10.78 16.876 -10.96 QT
16.751 -11.139 16.524 -11.178 QT
16.297 -11.218 15.829 -11.218 QT
15.829 -11.749 L
18.094 -11.905 L
18.094 -6.639 L
18.094 -6.249 18.212 -6.069 QT
18.329 -5.889 18.555 -5.85 QT
18.782 -5.811 19.266 -5.811 QT
19.266 -5.28 L
17.047 -5.108 L
17.047 -6.374 L
16.766 -5.811 16.266 -5.46 QT
15.766 -5.108 15.172 -5.108 QT
14.094 -5.108 13.462 -5.569 QT
12.829 -6.03 12.829 -7.061 QT
cp
f
GR
GS
[0 -0.75 0.75 0 30.5 151.87487] CT
0.149 GC
N
23.008 -5.108 M
22.133 -5.108 21.399 -5.593 QT
20.664 -6.077 20.258 -6.858 QT
19.852 -7.639 19.852 -8.514 QT
19.852 -9.421 20.297 -10.202 QT
20.743 -10.983 21.5 -11.444 QT
22.258 -11.905 23.18 -11.905 QT
23.727 -11.905 24.219 -11.678 QT
24.711 -11.452 25.071 -11.03 QT
25.071 -14.155 L
25.071 -14.561 24.946 -14.741 QT
24.821 -14.921 24.602 -14.96 QT
24.383 -14.999 23.899 -14.999 QT
23.899 -15.53 L
26.118 -15.686 L
26.118 -6.639 L
26.118 -6.249 26.243 -6.069 QT
26.368 -5.889 26.586 -5.85 QT
26.805 -5.811 27.289 -5.811 QT
27.289 -5.28 L
25.024 -5.108 L
25.024 -6.061 L
24.633 -5.608 24.102 -5.358 QT
23.571 -5.108 23.008 -5.108 QT
cp
21.477 -6.577 M
21.743 -6.093 22.172 -5.803 QT
22.602 -5.514 23.102 -5.514 QT
23.727 -5.514 24.243 -5.866 QT
24.758 -6.218 25.024 -6.796 QT
25.024 -10.389 L
24.852 -10.718 24.578 -10.983 QT
24.305 -11.249 23.977 -11.382 QT
23.649 -11.514 23.274 -11.514 QT
22.493 -11.514 22.016 -11.077 QT
21.539 -10.639 21.344 -9.952 QT
21.149 -9.264 21.149 -8.499 QT
21.149 -7.905 21.211 -7.46 QT
21.274 -7.014 21.477 -6.577 QT
cp
f
GR
GS
[0 -0.75 0.75 0 30.5 151.87487] CT
0.149 GC
N
31.234 -5.108 M
30.313 -5.108 29.555 -5.593 QT
28.797 -6.077 28.359 -6.874 QT
27.922 -7.671 27.922 -8.561 QT
27.922 -9.452 28.32 -10.241 QT
28.719 -11.03 29.43 -11.514 QT
30.141 -11.999 31.016 -11.999 QT
31.719 -11.999 32.227 -11.772 QT
32.734 -11.546 33.063 -11.132 QT
33.391 -10.718 33.555 -10.163 QT
33.719 -9.608 33.719 -8.936 QT
33.719 -8.749 33.578 -8.749 QT
29.234 -8.749 L
29.234 -8.577 L
29.234 -7.343 29.734 -6.444 QT
30.234 -5.546 31.375 -5.546 QT
31.828 -5.546 32.219 -5.757 QT
32.609 -5.968 32.899 -6.327 QT
33.188 -6.686 33.297 -7.108 QT
33.313 -7.155 33.352 -7.202 QT
33.391 -7.249 33.438 -7.249 QT
33.578 -7.249 L
33.719 -7.249 33.719 -7.046 QT
33.516 -6.202 32.813 -5.655 QT
32.109 -5.108 31.234 -5.108 QT
cp
29.25 -9.124 M
32.656 -9.124 L
32.656 -9.686 32.5 -10.264 QT
32.344 -10.843 31.977 -11.225 QT
31.609 -11.608 31.016 -11.608 QT
30.172 -11.608 29.711 -10.811 QT
29.25 -10.014 29.25 -9.124 QT
cp
f
GR
GS
[0.75 0 0 0.75 0 0] CT
0 0.447 0.741 RC
1 LJ
2.667 LW
N
72.948 213.933 M
73 213.933 L
74.689 213.933 L
76.377 213.933 L
78.066 213.933 L
79.755 213.933 L
81.444 213.933 L
83.132 213.933 L
84.821 213.933 L
86.51 213.933 L
88.198 213.933 L
89.887 213.933 L
91.576 213.933 L
93.265 213.933 L
94.953 213.933 L
96.642 213.933 L
98.331 213.933 L
100.019 213.933 L
101.708 213.933 L
103.397 213.933 L
105.086 213.933 L
106.774 213.933 L
108.463 213.933 L
110.152 213.933 L
111.84 213.933 L
113.529 213.933 L
115.218 213.933 L
116.907 213.933 L
118.595 213.933 L
120.284 213.933 L
121.973 213.933 L
123.661 213.933 L
125.35 213.933 L
127.039 213.933 L
128.728 213.933 L
130.416 213.933 L
132.105 213.933 L
133.794 213.933 L
135.482 213.933 L
137.171 213.933 L
138.86 213.933 L
140.549 213.933 L
142.237 213.933 L
143.926 213.933 L
145.615 213.933 L
147.303 213.933 L
148.992 213.933 L
150.681 213.933 L
152.37 213.933 L
154.058 213.933 L
155.747 213.933 L
157.436 213.933 L
159.125 213.933 L
160.813 213.933 L
162.502 213.933 L
164.191 213.933 L
165.879 213.933 L
167.568 213.933 L
169.257 213.933 L
170.946 213.933 L
172.634 213.933 L
174.323 213.933 L
176.012 213.933 L
177.7 213.933 L
179.389 213.933 L
181.078 213.933 L
182.767 213.933 L
184.455 213.933 L
186.144 213.933 L
187.833 213.933 L
189.521 213.933 L
191.21 213.933 L
192.899 213.933 L
194.588 213.933 L
196.276 213.933 L
197.965 213.933 L
199.654 213.933 L
201.342 213.933 L
203.031 213.933 L
204.72 213.933 L
206.409 213.933 L
208.097 213.933 L
209.786 213.933 L
211.475 213.933 L
213.163 213.933 L
214.852 213.933 L
216.541 213.34 L
218.23 212.495 L
219.918 211.675 L
221.607 210.685 L
223.296 209.838 L
224.984 208.976 L
226.673 207.932 L
228.362 206.818 L
230.051 205.928 L
231.739 205.08 L
233.428 204.15 L
235.117 203.228 L
236.805 202.131 L
238.494 200.955 L
240.183 199.795 L
241.872 198.586 L
243.56 202.165 L
245.249 207.76 L
246.938 213.097 L
248.626 219.778 L
250.315 225.255 L
252.004 230.823 L
253.693 237.831 L
255.381 245.365 L
257.07 251.013 L
258.759 256.257 L
260.447 262.14 L
262.136 267.906 L
263.825 275.06 L
265.514 282.817 L
267.202 290.399 L
268.891 298.335 L
270.58 277.845 L
272.268 245.407 L
273.957 214.561 L
275.646 175.783 L
277.335 144.179 L
279.023 112.08 L
280.712 71.474 L
282.278 30.959 L
S
GR
GS
[0.75 0 0 0.75 0 0] CT
0 0.447 0.741 RC
1 LJ
2.667 LW
N
282.696 30.959 M
284.09 46.015 L
285.778 88.259 L
287.467 124.564 L
289.156 176.15 L
290.844 207.239 L
292.533 236.139 L
294.222 281.694 L
295.91 331.138 L
297.599 324.554 L
299.288 297.715 L
300.977 277.452 L
302.665 244.561 L
304.354 233.942 L
306.043 227.577 L
307.732 207.234 L
309.42 185.295 L
311.109 186.926 L
312.798 196.358 L
314.486 203.011 L
316.175 214.633 L
317.864 214.822 L
319.553 212.182 L
321.241 215.155 L
322.93 217.981 L
324.619 217.489 L
326.307 216.11 L
327.996 214.766 L
329.685 212.67 L
331.374 212.932 L
333.062 213.849 L
334.751 213.887 L
336.44 214.106 L
338.128 214.059 L
339.817 213.892 L
341.506 213.917 L
343.195 213.94 L
344.883 213.933 L
346.572 213.933 L
348.261 213.933 L
349.949 213.933 L
351.638 213.933 L
353.327 213.933 L
355.016 213.933 L
356.704 213.933 L
358.393 213.933 L
360.082 213.933 L
361.77 213.933 L
363.459 213.933 L
365.148 213.933 L
366.837 213.933 L
368.525 213.933 L
370.214 213.933 L
371.903 213.933 L
373.591 213.933 L
375.28 213.933 L
376.969 213.933 L
378.658 213.933 L
380.346 213.933 L
382.035 213.933 L
383.724 213.933 L
385.412 213.933 L
387.101 213.933 L
388.79 213.933 L
390.479 213.933 L
392.167 213.933 L
393.856 213.933 L
395.545 213.933 L
397.233 213.933 L
398.922 213.933 L
400.611 213.933 L
402.3 213.933 L
403.988 213.933 L
405.677 213.933 L
407.366 213.933 L
409.054 213.933 L
410.743 213.933 L
412.432 213.933 L
414.121 213.933 L
415.809 213.933 L
417.498 213.933 L
419.187 213.933 L
420.875 213.933 L
422.564 213.933 L
424.253 213.933 L
425.942 213.933 L
427.63 213.933 L
429.319 213.933 L
431.008 213.933 L
432.697 213.933 L
434.385 213.933 L
436.074 213.933 L
437.763 213.933 L
439.451 213.933 L
441.14 213.933 L
442.829 213.933 L
444.518 213.933 L
446.206 213.933 L
447.895 213.933 L
449.584 213.933 L
451.272 213.933 L
452.961 213.933 L
454.65 213.933 L
456.339 213.933 L
458.027 213.933 L
459.716 213.933 L
461.405 213.933 L
463.093 213.933 L
464.782 213.933 L
466.471 213.933 L
468.16 213.933 L
469.848 213.933 L
471.537 213.933 L
473.226 213.933 L
474.914 213.933 L
476.603 213.933 L
478.292 213.933 L
479.981 213.933 L
481.669 213.933 L
483.358 213.933 L
485.047 213.933 L
486.735 213.933 L
488.424 213.933 L
490.113 213.933 L
491.802 213.933 L
493.49 213.933 L
495.179 213.933 L
496.868 213.933 L
498.556 213.933 L
500.245 213.933 L
501.934 213.933 L
503.623 213.933 L
505.311 213.933 L
507 213.933 L
507.052 213.933 L
S
GR
GS
[0.75 0 0 0.75 0 0] CT
0.851 0.325 0.098 RC
1 LJ
2.667 LW
N
72.948 213.933 M
73 213.933 L
74.689 213.933 L
76.377 213.933 L
78.066 213.933 L
79.755 213.933 L
81.444 213.933 L
83.132 213.933 L
84.821 213.933 L
86.51 213.933 L
88.198 213.933 L
89.887 213.933 L
91.576 213.933 L
93.265 213.933 L
94.953 213.933 L
96.642 213.933 L
98.331 213.933 L
100.019 213.933 L
101.708 213.933 L
103.397 213.933 L
105.086 213.933 L
106.774 213.933 L
108.463 213.933 L
110.152 213.933 L
111.84 213.933 L
113.529 213.933 L
115.218 213.934 L
116.907 213.934 L
118.595 213.934 L
120.284 213.933 L
121.973 213.933 L
123.661 213.933 L
125.35 213.933 L
127.039 213.933 L
128.728 213.932 L
130.416 213.932 L
132.105 213.933 L
133.794 213.934 L
135.482 213.935 L
137.171 213.936 L
138.86 213.937 L
140.549 213.937 L
142.237 213.937 L
143.926 213.937 L
145.615 213.937 L
147.303 213.938 L
148.992 213.938 L
150.681 213.938 L
152.37 213.938 L
154.058 213.939 L
155.747 213.94 L
157.436 213.938 L
159.125 213.933 L
160.813 213.919 L
162.502 213.902 L
164.191 213.884 L
165.879 213.869 L
167.568 213.859 L
169.257 213.853 L
170.946 213.85 L
172.634 213.854 L
174.323 213.868 L
176.012 213.888 L
177.7 213.917 L
179.389 213.945 L
181.078 213.965 L
182.767 213.986 L
184.455 214.014 L
186.144 214.061 L
187.833 214.142 L
189.521 214.237 L
191.21 214.324 L
192.899 214.399 L
194.588 214.45 L
196.276 214.472 L
197.965 214.464 L
199.654 214.404 L
201.342 214.269 L
203.031 214.079 L
204.72 213.845 L
206.409 213.599 L
208.097 213.386 L
209.786 213.17 L
211.475 212.931 L
213.163 212.64 L
214.852 212.251 L
216.541 211.834 L
218.23 211.463 L
219.918 211.157 L
221.607 210.952 L
223.296 210.877 L
224.984 210.933 L
226.673 211.195 L
228.362 211.732 L
230.051 212.488 L
231.739 213.434 L
233.428 214.474 L
235.117 215.49 L
236.805 216.564 L
238.494 217.712 L
240.183 219.066 L
241.872 220.796 L
243.56 222.628 L
245.249 224.365 L
246.938 225.742 L
248.626 226.369 L
250.315 226.53 L
252.004 226.542 L
253.693 226.25 L
255.381 225.707 L
257.07 224.828 L
258.759 222.999 L
260.447 221.37 L
262.136 221.26 L
263.825 220.597 L
265.514 218.061 L
267.202 212.016 L
268.891 199.882 L
270.58 184.543 L
272.268 169.984 L
273.957 154.81 L
275.646 138.216 L
277.335 124.819 L
279.023 116.944 L
280.712 120.35 L
282.401 142.464 L
284.09 176.027 L
285.778 212.683 L
287.467 252.475 L
289.156 293.288 L
290.844 329.851 L
292.533 360.292 L
294.068 374.041 L
S
GR
GS
[0.75 0 0 0.75 0 0] CT
0.851 0.325 0.098 RC
1 LJ
2.667 LW
N
294.435 374.041 M
295.91 364.536 L
297.599 336.877 L
299.288 301.981 L
300.977 261.628 L
302.665 220.808 L
304.354 182.391 L
306.043 146.315 L
307.732 120.967 L
309.42 115.199 L
311.109 122.212 L
312.798 135.69 L
314.486 153.354 L
316.175 170.274 L
317.864 186.545 L
319.553 203.71 L
321.241 217.455 L
322.93 223.843 L
324.619 225.609 L
326.307 224.863 L
327.996 223.028 L
329.685 222.709 L
331.374 222.865 L
333.062 222.167 L
334.751 221.554 L
336.44 221.513 L
338.128 221.701 L
339.817 222.074 L
341.506 222.174 L
343.195 221.373 L
344.883 220.125 L
346.572 218.831 L
348.261 217.584 L
349.949 216.636 L
351.638 215.872 L
353.327 215.136 L
355.016 214.475 L
356.704 213.877 L
358.393 213.366 L
360.082 212.983 L
361.77 212.715 L
363.459 212.552 L
365.148 212.486 L
366.837 212.496 L
368.525 212.588 L
370.214 212.765 L
371.903 212.988 L
373.591 213.231 L
375.28 213.444 L
376.969 213.57 L
378.658 213.643 L
380.346 213.695 L
382.035 213.735 L
383.724 213.787 L
385.412 213.84 L
387.101 213.875 L
388.79 213.904 L
390.479 213.93 L
392.167 213.95 L
393.856 213.967 L
395.545 213.975 L
397.233 213.967 L
398.922 213.952 L
400.611 213.934 L
402.3 213.92 L
403.988 213.916 L
405.677 213.919 L
407.366 213.923 L
409.054 213.928 L
410.743 213.931 L
412.432 213.934 L
414.121 213.937 L
415.809 213.939 L
417.498 213.939 L
419.187 213.938 L
420.875 213.936 L
422.564 213.934 L
424.253 213.933 L
425.942 213.933 L
427.63 213.933 L
429.319 213.933 L
431.008 213.933 L
432.697 213.933 L
434.385 213.933 L
436.074 213.933 L
437.763 213.933 L
439.451 213.933 L
441.14 213.933 L
442.829 213.933 L
444.518 213.933 L
446.206 213.933 L
447.895 213.933 L
449.584 213.933 L
451.272 213.933 L
452.961 213.933 L
454.65 213.933 L
456.339 213.933 L
458.027 213.933 L
459.716 213.933 L
461.405 213.933 L
463.093 213.933 L
464.782 213.933 L
466.471 213.933 L
468.16 213.933 L
469.848 213.933 L
471.537 213.933 L
473.226 213.933 L
474.914 213.933 L
476.603 213.933 L
478.292 213.933 L
479.981 213.933 L
481.669 213.933 L
483.358 213.933 L
485.047 213.933 L
486.735 213.933 L
488.424 213.933 L
490.113 213.933 L
491.802 213.933 L
493.49 213.933 L
495.179 213.933 L
496.868 213.933 L
498.556 213.933 L
500.245 213.933 L
501.934 213.933 L
503.623 213.933 L
505.311 213.933 L
507 213.933 L
507.052 213.933 L
S
GR
GS
[0.75 0 0 0.75 0 0] CT
1 GC
N
494 81 M
494 44 L
414 44 L
414 81 L
cp
f
GR
GS
[0.75 0 0 0.75 345.75 40.60274] CT
/Helvetica 12 F
GS
[1 0 0 1 0 0] CT
0 5 moveto 
1 -1 scale
(DB3) t 
GR
GR
GS
[0.75 0 0 0.75 0 0] CT
0 0.447 0.741 RC
1 LJ
2.667 LW
N
418 54.137 M
458 54.137 L
S
GR
GS
[0.75 0 0 0.75 345.75 53.14726] CT
/Helvetica 12 F
GS
[1 0 0 1 0 0] CT
0 5 moveto 
1 -1 scale
(Coif3) t 
GR
GR
GS
[0.75 0 0 0.75 0 0] CT
0.851 0.325 0.098 RC
1 LJ
2.667 LW
N
418 70.863 M
458 70.863 L
S
GR
GS
[0.75 0 0 0.75 0 0] CT
0.149 GC
10.0 ML
0.667 LW
N
414 81 M
414 44 L
494 44 L
494 81 L
cp
S
GR
%%Trailer
%%Pages: 1
%%EOF
