%!PS-Adobe-3.0 EPSF-3.0
%%Creator: (MATLAB, The Mathworks, Inc. Version 9.1.0.441655 \(R2016b\). Operating System: Windows 8)
%%Title: C:/Users/Eigenaar/WIT/Wavelets/wavelets/report/plots/waveletdb46.eps
%%CreationDate: 2017-11-29T16:06:49
%%Pages: (atend)
%%BoundingBox: 0 0 1010 680
%%LanguageLevel: 3
%%EndComments
%%BeginProlog
%%BeginResource: procset (Apache XML Graphics Std ProcSet) 1.2 0
%%Version: 1.2 0
%%Copyright: (Copyright 2001-2003,2010 The Apache Software Foundation. License terms: http://www.apache.org/licenses/LICENSE-2.0)
/bd{bind def}bind def
/ld{load def}bd
/GR/grestore ld
/M/moveto ld
/LJ/setlinejoin ld
/C/curveto ld
/f/fill ld
/LW/setlinewidth ld
/GC/setgray ld
/t/show ld
/N/newpath ld
/CT/concat ld
/cp/closepath ld
/S/stroke ld
/L/lineto ld
/CC/setcmykcolor ld
/A/ashow ld
/GS/gsave ld
/RC/setrgbcolor ld
/RM/rmoveto ld
/ML/setmiterlimit ld
/re {4 2 roll M
1 index 0 rlineto
0 exch rlineto
neg 0 rlineto
cp } bd
/_ctm matrix def
/_tm matrix def
/BT { _ctm currentmatrix pop matrix _tm copy pop 0 0 moveto } bd
/ET { _ctm setmatrix } bd
/iTm { _ctm setmatrix _tm concat } bd
/Tm { _tm astore pop iTm 0 0 moveto } bd
/ux 0.0 def
/uy 0.0 def
/F {
  /Tp exch def
  /Tf exch def
  Tf findfont Tp scalefont setfont
  /cf Tf def  /cs Tp def
} bd
/ULS {currentpoint /uy exch def /ux exch def} bd
/ULE {
  /Tcx currentpoint pop def
  gsave
  newpath
  cf findfont cs scalefont dup
  /FontMatrix get 0 get /Ts exch def /FontInfo get dup
  /UnderlinePosition get Ts mul /To exch def
  /UnderlineThickness get Ts mul /Tt exch def
  ux uy To add moveto  Tcx uy To add lineto
  Tt setlinewidth stroke
  grestore
} bd
/OLE {
  /Tcx currentpoint pop def
  gsave
  newpath
  cf findfont cs scalefont dup
  /FontMatrix get 0 get /Ts exch def /FontInfo get dup
  /UnderlinePosition get Ts mul /To exch def
  /UnderlineThickness get Ts mul /Tt exch def
  ux uy To add cs add moveto Tcx uy To add cs add lineto
  Tt setlinewidth stroke
  grestore
} bd
/SOE {
  /Tcx currentpoint pop def
  gsave
  newpath
  cf findfont cs scalefont dup
  /FontMatrix get 0 get /Ts exch def /FontInfo get dup
  /UnderlinePosition get Ts mul /To exch def
  /UnderlineThickness get Ts mul /Tt exch def
  ux uy To add cs 10 mul 26 idiv add moveto Tcx uy To add cs 10 mul 26 idiv add lineto
  Tt setlinewidth stroke
  grestore
} bd
/QT {
/Y22 exch store
/X22 exch store
/Y21 exch store
/X21 exch store
currentpoint
/Y21 load 2 mul add 3 div exch
/X21 load 2 mul add 3 div exch
/X21 load 2 mul /X22 load add 3 div
/Y21 load 2 mul /Y22 load add 3 div
/X22 load /Y22 load curveto
} bd
/SSPD {
dup length /d exch dict def
{
/v exch def
/k exch def
currentpagedevice k known {
/cpdv currentpagedevice k get def
v cpdv ne {
/upd false def
/nullv v type /nulltype eq def
/nullcpdv cpdv type /nulltype eq def
nullv nullcpdv or
{
/upd true def
} {
/sametype v type cpdv type eq def
sametype {
v type /arraytype eq {
/vlen v length def
/cpdvlen cpdv length def
vlen cpdvlen eq {
0 1 vlen 1 sub {
/i exch def
/obj v i get def
/cpdobj cpdv i get def
obj cpdobj ne {
/upd true def
exit
} if
} for
} {
/upd true def
} ifelse
} {
v type /dicttype eq {
v {
/dv exch def
/dk exch def
/cpddv cpdv dk get def
dv cpddv ne {
/upd true def
exit
} if
} forall
} {
/upd true def
} ifelse
} ifelse
} if
} ifelse
upd true eq {
d k v put
} if
} if
} if
} forall
d length 0 gt {
d setpagedevice
} if
} bd
/RE { % /NewFontName [NewEncodingArray] /FontName RE -
  findfont dup length dict begin
  {
    1 index /FID ne
    {def} {pop pop} ifelse
  } forall
  /Encoding exch def
  /FontName 1 index def
  currentdict definefont pop
  end
} bind def
%%EndResource
%%BeginResource: procset (Apache XML Graphics EPS ProcSet) 1.0 0
%%Version: 1.0 0
%%Copyright: (Copyright 2002-2003 The Apache Software Foundation. License terms: http://www.apache.org/licenses/LICENSE-2.0)
/BeginEPSF { %def
/b4_Inc_state save def         % Save state for cleanup
/dict_count countdictstack def % Count objects on dict stack
/op_count count 1 sub def      % Count objects on operand stack
userdict begin                 % Push userdict on dict stack
/showpage { } def              % Redefine showpage, { } = null proc
0 setgray 0 setlinecap         % Prepare graphics state
1 setlinewidth 0 setlinejoin
10 setmiterlimit [ ] 0 setdash newpath
/languagelevel where           % If level not equal to 1 then
{pop languagelevel             % set strokeadjust and
1 ne                           % overprint to their defaults.
{false setstrokeadjust false setoverprint
} if
} if
} bd
/EndEPSF { %def
count op_count sub {pop} repeat            % Clean up stacks
countdictstack dict_count sub {end} repeat
b4_Inc_state restore
} bd
%%EndResource
%FOPBeginFontDict
%%IncludeResource: font Courier-Bold
%%IncludeResource: font Helvetica
%%IncludeResource: font Courier-BoldOblique
%%IncludeResource: font Courier-Oblique
%%IncludeResource: font Times-Roman
%%IncludeResource: font Helvetica-BoldOblique
%%IncludeResource: font Helvetica-Bold
%%IncludeResource: font Helvetica-Oblique
%%IncludeResource: font Times-BoldItalic
%%IncludeResource: font Courier
%%IncludeResource: font Times-Italic
%%IncludeResource: font Times-Bold
%%IncludeResource: font Symbol
%%IncludeResource: font ZapfDingbats
%FOPEndFontDict
%%BeginResource: encoding WinAnsiEncoding
/WinAnsiEncoding [
/.notdef /.notdef /.notdef /.notdef /.notdef
/.notdef /.notdef /.notdef /.notdef /.notdef
/.notdef /.notdef /.notdef /.notdef /.notdef
/.notdef /.notdef /.notdef /.notdef /.notdef
/.notdef /.notdef /.notdef /.notdef /.notdef
/.notdef /.notdef /.notdef /.notdef /.notdef
/.notdef /.notdef /space /exclam /quotedbl
/numbersign /dollar /percent /ampersand /quotesingle
/parenleft /parenright /asterisk /plus /comma
/hyphen /period /slash /zero /one
/two /three /four /five /six
/seven /eight /nine /colon /semicolon
/less /equal /greater /question /at
/A /B /C /D /E
/F /G /H /I /J
/K /L /M /N /O
/P /Q /R /S /T
/U /V /W /X /Y
/Z /bracketleft /backslash /bracketright /asciicircum
/underscore /quoteleft /a /b /c
/d /e /f /g /h
/i /j /k /l /m
/n /o /p /q /r
/s /t /u /v /w
/x /y /z /braceleft /bar
/braceright /asciitilde /bullet /Euro /bullet
/quotesinglbase /florin /quotedblbase /ellipsis /dagger
/daggerdbl /circumflex /perthousand /Scaron /guilsinglleft
/OE /bullet /Zcaron /bullet /bullet
/quoteleft /quoteright /quotedblleft /quotedblright /bullet
/endash /emdash /asciitilde /trademark /scaron
/guilsinglright /oe /bullet /zcaron /Ydieresis
/space /exclamdown /cent /sterling /currency
/yen /brokenbar /section /dieresis /copyright
/ordfeminine /guillemotleft /logicalnot /sfthyphen /registered
/macron /degree /plusminus /twosuperior /threesuperior
/acute /mu /paragraph /middot /cedilla
/onesuperior /ordmasculine /guillemotright /onequarter /onehalf
/threequarters /questiondown /Agrave /Aacute /Acircumflex
/Atilde /Adieresis /Aring /AE /Ccedilla
/Egrave /Eacute /Ecircumflex /Edieresis /Igrave
/Iacute /Icircumflex /Idieresis /Eth /Ntilde
/Ograve /Oacute /Ocircumflex /Otilde /Odieresis
/multiply /Oslash /Ugrave /Uacute /Ucircumflex
/Udieresis /Yacute /Thorn /germandbls /agrave
/aacute /acircumflex /atilde /adieresis /aring
/ae /ccedilla /egrave /eacute /ecircumflex
/edieresis /igrave /iacute /icircumflex /idieresis
/eth /ntilde /ograve /oacute /ocircumflex
/otilde /odieresis /divide /oslash /ugrave
/uacute /ucircumflex /udieresis /yacute /thorn
/ydieresis
] def
%%EndResource
%FOPBeginFontReencode
/Courier-Bold findfont
dup length dict begin
  {1 index /FID ne {def} {pop pop} ifelse} forall
  /Encoding WinAnsiEncoding def
  currentdict
end
/Courier-Bold exch definefont pop
/Helvetica findfont
dup length dict begin
  {1 index /FID ne {def} {pop pop} ifelse} forall
  /Encoding WinAnsiEncoding def
  currentdict
end
/Helvetica exch definefont pop
/Courier-BoldOblique findfont
dup length dict begin
  {1 index /FID ne {def} {pop pop} ifelse} forall
  /Encoding WinAnsiEncoding def
  currentdict
end
/Courier-BoldOblique exch definefont pop
/Courier-Oblique findfont
dup length dict begin
  {1 index /FID ne {def} {pop pop} ifelse} forall
  /Encoding WinAnsiEncoding def
  currentdict
end
/Courier-Oblique exch definefont pop
/Times-Roman findfont
dup length dict begin
  {1 index /FID ne {def} {pop pop} ifelse} forall
  /Encoding WinAnsiEncoding def
  currentdict
end
/Times-Roman exch definefont pop
/Helvetica-BoldOblique findfont
dup length dict begin
  {1 index /FID ne {def} {pop pop} ifelse} forall
  /Encoding WinAnsiEncoding def
  currentdict
end
/Helvetica-BoldOblique exch definefont pop
/Helvetica-Bold findfont
dup length dict begin
  {1 index /FID ne {def} {pop pop} ifelse} forall
  /Encoding WinAnsiEncoding def
  currentdict
end
/Helvetica-Bold exch definefont pop
/Helvetica-Oblique findfont
dup length dict begin
  {1 index /FID ne {def} {pop pop} ifelse} forall
  /Encoding WinAnsiEncoding def
  currentdict
end
/Helvetica-Oblique exch definefont pop
/Times-BoldItalic findfont
dup length dict begin
  {1 index /FID ne {def} {pop pop} ifelse} forall
  /Encoding WinAnsiEncoding def
  currentdict
end
/Times-BoldItalic exch definefont pop
/Courier findfont
dup length dict begin
  {1 index /FID ne {def} {pop pop} ifelse} forall
  /Encoding WinAnsiEncoding def
  currentdict
end
/Courier exch definefont pop
/Times-Italic findfont
dup length dict begin
  {1 index /FID ne {def} {pop pop} ifelse} forall
  /Encoding WinAnsiEncoding def
  currentdict
end
/Times-Italic exch definefont pop
/Times-Bold findfont
dup length dict begin
  {1 index /FID ne {def} {pop pop} ifelse} forall
  /Encoding WinAnsiEncoding def
  currentdict
end
/Times-Bold exch definefont pop
%FOPEndFontReencode
%%EndProlog
%%Page: 1 1
%%PageBoundingBox: 0 0 1010 680
%%BeginPageSetup
[1 0 0 -1 0 680] CT
%%EndPageSetup
GS
[0.75 0 0 0.75 0 -0.25] CT
1 GC
N
0 0 1347 907 re
f
GR
GS
[0.75 0 0 0.75 0 -0.25] CT
1 GC
N
0 0 1347 907 re
f
GR
GS
[0.75 0 0 0.75 0 -0.25] CT
1 GC
N
175 807 M
1219 807 L
1219 68 L
175 68 L
cp
f
GR
GS
[0.75 0 0 0.75 0 -0.25] CT
0.149 GC
2 setlinecap
1 LJ
0.667 LW
N
175 807 M
1219 807 L
S
GR
GS
[0.75 0 0 0.75 0 -0.25] CT
0.149 GC
2 setlinecap
1 LJ
0.667 LW
N
175 68 M
1219 68 L
S
GR
GS
[0.75 0 0 0.75 0 -0.25] CT
0.149 GC
2 setlinecap
1 LJ
0.667 LW
N
331.189 807 M
331.189 796.56 L
S
GR
GS
[0.75 0 0 0.75 0 -0.25] CT
0.149 GC
2 setlinecap
1 LJ
0.667 LW
N
495.598 807 M
495.598 796.56 L
S
GR
GS
[0.75 0 0 0.75 0 -0.25] CT
0.149 GC
2 setlinecap
1 LJ
0.667 LW
N
660.008 807 M
660.008 796.56 L
S
GR
GS
[0.75 0 0 0.75 0 -0.25] CT
0.149 GC
2 setlinecap
1 LJ
0.667 LW
N
824.417 807 M
824.417 796.56 L
S
GR
GS
[0.75 0 0 0.75 0 -0.25] CT
0.149 GC
2 setlinecap
1 LJ
0.667 LW
N
988.827 807 M
988.827 796.56 L
S
GR
GS
[0.75 0 0 0.75 0 -0.25] CT
0.149 GC
2 setlinecap
1 LJ
0.667 LW
N
1153.236 807 M
1153.236 796.56 L
S
GR
GS
[0.75 0 0 0.75 0 -0.25] CT
0.149 GC
2 setlinecap
1 LJ
0.667 LW
N
331.189 68 M
331.189 78.44 L
S
GR
GS
[0.75 0 0 0.75 0 -0.25] CT
0.149 GC
2 setlinecap
1 LJ
0.667 LW
N
495.598 68 M
495.598 78.44 L
S
GR
GS
[0.75 0 0 0.75 0 -0.25] CT
0.149 GC
2 setlinecap
1 LJ
0.667 LW
N
660.008 68 M
660.008 78.44 L
S
GR
GS
[0.75 0 0 0.75 0 -0.25] CT
0.149 GC
2 setlinecap
1 LJ
0.667 LW
N
824.417 68 M
824.417 78.44 L
S
GR
GS
[0.75 0 0 0.75 0 -0.25] CT
0.149 GC
2 setlinecap
1 LJ
0.667 LW
N
988.827 68 M
988.827 78.44 L
S
GR
GS
[0.75 0 0 0.75 0 -0.25] CT
0.149 GC
2 setlinecap
1 LJ
0.667 LW
N
1153.236 68 M
1153.236 78.44 L
S
GR
GS
[0.75 0 0 0.75 248.39172 608.99998] CT
0.149 GC
/Helvetica 13.333 F
GS
[1 0 0 1 0 0] CT
-7.5 14 moveto 
1 -1 scale
(20) t 
GR
GR
GS
[0.75 0 0 0.75 371.69881 608.99998] CT
0.149 GC
/Helvetica 13.333 F
GS
[1 0 0 1 0 0] CT
-7.5 14 moveto 
1 -1 scale
(40) t 
GR
GR
GS
[0.75 0 0 0.75 495.00591 608.99998] CT
0.149 GC
/Helvetica 13.333 F
GS
[1 0 0 1 0 0] CT
-7.5 14 moveto 
1 -1 scale
(60) t 
GR
GR
GS
[0.75 0 0 0.75 618.31297 608.99998] CT
0.149 GC
/Helvetica 13.333 F
GS
[1 0 0 1 0 0] CT
-7.5 14 moveto 
1 -1 scale
(80) t 
GR
GR
GS
[0.75 0 0 0.75 741.62009 608.99998] CT
0.149 GC
/Helvetica 13.333 F
GS
[1 0 0 1 0 0] CT
-11 14 moveto 
1 -1 scale
(100) t 
GR
GR
GS
[0.75 0 0 0.75 864.92715 608.99998] CT
0.149 GC
/Helvetica 13.333 F
GS
[1 0 0 1 0 0] CT
-11 14 moveto 
1 -1 scale
(120) t 
GR
GR
GS
[0.75 0 0 0.75 522.75037 622.75002] CT
0.149 GC
/Helvetica 14.667 F
GS
[1 0 0 1 0 0] CT
-54.5 16 moveto 
1 -1 scale
(Sequence Index) t 
GR
GR
GS
[0.75 0 0 0.75 0 -0.25] CT
0.149 GC
2 setlinecap
1 LJ
0.667 LW
N
175 807 M
175 68 L
S
GR
GS
[0.75 0 0 0.75 0 -0.25] CT
0.149 GC
2 setlinecap
1 LJ
0.667 LW
N
1219 807 M
1219 68 L
S
GR
GS
[0.75 0 0 0.75 0 -0.25] CT
0.149 GC
2 setlinecap
1 LJ
0.667 LW
N
175 790.042 M
185.44 790.042 L
S
GR
GS
[0.75 0 0 0.75 0 -0.25] CT
0.149 GC
2 setlinecap
1 LJ
0.667 LW
N
175 680.213 M
185.44 680.213 L
S
GR
GS
[0.75 0 0 0.75 0 -0.25] CT
0.149 GC
2 setlinecap
1 LJ
0.667 LW
N
175 570.384 M
185.44 570.384 L
S
GR
GS
[0.75 0 0 0.75 0 -0.25] CT
0.149 GC
2 setlinecap
1 LJ
0.667 LW
N
175 460.555 M
185.44 460.555 L
S
GR
GS
[0.75 0 0 0.75 0 -0.25] CT
0.149 GC
2 setlinecap
1 LJ
0.667 LW
N
175 350.726 M
185.44 350.726 L
S
GR
GS
[0.75 0 0 0.75 0 -0.25] CT
0.149 GC
2 setlinecap
1 LJ
0.667 LW
N
175 240.897 M
185.44 240.897 L
S
GR
GS
[0.75 0 0 0.75 0 -0.25] CT
0.149 GC
2 setlinecap
1 LJ
0.667 LW
N
175 131.067 M
185.44 131.067 L
S
GR
GS
[0.75 0 0 0.75 0 -0.25] CT
0.149 GC
2 setlinecap
1 LJ
0.667 LW
N
1219 790.042 M
1208.56 790.042 L
S
GR
GS
[0.75 0 0 0.75 0 -0.25] CT
0.149 GC
2 setlinecap
1 LJ
0.667 LW
N
1219 680.213 M
1208.56 680.213 L
S
GR
GS
[0.75 0 0 0.75 0 -0.25] CT
0.149 GC
2 setlinecap
1 LJ
0.667 LW
N
1219 570.384 M
1208.56 570.384 L
S
GR
GS
[0.75 0 0 0.75 0 -0.25] CT
0.149 GC
2 setlinecap
1 LJ
0.667 LW
N
1219 460.555 M
1208.56 460.555 L
S
GR
GS
[0.75 0 0 0.75 0 -0.25] CT
0.149 GC
2 setlinecap
1 LJ
0.667 LW
N
1219 350.726 M
1208.56 350.726 L
S
GR
GS
[0.75 0 0 0.75 0 -0.25] CT
0.149 GC
2 setlinecap
1 LJ
0.667 LW
N
1219 240.897 M
1208.56 240.897 L
S
GR
GS
[0.75 0 0 0.75 0 -0.25] CT
0.149 GC
2 setlinecap
1 LJ
0.667 LW
N
1219 131.067 M
1208.56 131.067 L
S
GR
GS
[0.75 0 0 0.75 127.25 592.28149] CT
0.149 GC
/Helvetica 13.333 F
GS
[1 0 0 1 0 0] CT
-23 5.5 moveto 
1 -1 scale
(-0.6) t 
GR
GR
GS
[0.75 0 0 0.75 127.25 509.90967] CT
0.149 GC
/Helvetica 13.333 F
GS
[1 0 0 1 0 0] CT
-23 5.5 moveto 
1 -1 scale
(-0.4) t 
GR
GR
GS
[0.75 0 0 0.75 127.25 427.53784] CT
0.149 GC
/Helvetica 13.333 F
GS
[1 0 0 1 0 0] CT
-23 5.5 moveto 
1 -1 scale
(-0.2) t 
GR
GR
GS
[0.75 0 0 0.75 127.25 345.16604] CT
0.149 GC
/Helvetica 13.333 F
GS
[1 0 0 1 0 0] CT
-8 5.5 moveto 
1 -1 scale
(0) t 
GR
GR
GS
[0.75 0 0 0.75 127.25 262.79424] CT
0.149 GC
/Helvetica 13.333 F
GS
[1 0 0 1 0 0] CT
-19 5.5 moveto 
1 -1 scale
(0.2) t 
GR
GR
GS
[0.75 0 0 0.75 127.25 180.42241] CT
0.149 GC
/Helvetica 13.333 F
GS
[1 0 0 1 0 0] CT
-19 5.5 moveto 
1 -1 scale
(0.4) t 
GR
GR
GS
[0.75 0 0 0.75 127.25 98.05059] CT
0.149 GC
/Helvetica 13.333 F
GS
[1 0 0 1 0 0] CT
-19 5.5 moveto 
1 -1 scale
(0.6) t 
GR
GR
GS
[0.75 0 0 0.75 522.7505 48.6875] CT
/Helvetica-Bold 14.667 F
GS
[1 0 0 1 0 0] CT
-100.5 -4 moveto 
1 -1 scale
(Wavelet functions on level 6) t 
GR
GR
GS
[0.75 0 0 0.75 0 -0.25] CT
0 0.447 0.741 RC
1 LJ
2.667 LW
N
175 68 M
183.22 587.066 L
191.441 460.555 L
199.661 460.555 L
207.882 460.555 L
216.102 460.555 L
224.323 460.555 L
232.543 460.555 L
240.764 460.555 L
248.984 460.555 L
257.205 460.555 L
265.425 460.555 L
273.646 460.555 L
281.866 460.555 L
290.087 460.555 L
298.307 460.555 L
306.528 460.555 L
314.748 460.555 L
322.969 460.555 L
331.189 460.555 L
339.409 460.555 L
347.63 460.555 L
355.85 460.555 L
364.071 460.555 L
372.291 460.555 L
380.512 460.555 L
388.732 460.555 L
396.953 460.555 L
405.173 460.555 L
413.394 460.555 L
421.614 460.555 L
429.835 460.555 L
438.055 460.555 L
446.276 460.555 L
454.496 460.555 L
462.717 460.555 L
470.937 460.555 L
479.157 460.555 L
487.378 460.555 L
495.598 460.555 L
503.819 460.555 L
512.039 460.555 L
520.26 460.555 L
528.48 460.555 L
536.701 460.555 L
544.921 460.555 L
553.142 460.555 L
561.362 460.555 L
569.583 460.555 L
577.803 460.555 L
586.024 460.555 L
594.244 460.555 L
602.465 460.555 L
610.685 460.555 L
618.906 460.555 L
627.126 460.555 L
635.346 460.555 L
643.567 460.555 L
651.787 460.555 L
660.008 460.555 L
668.228 460.555 L
676.449 460.555 L
684.669 460.555 L
692.89 460.555 L
701.11 460.555 L
709.331 460.555 L
717.551 460.555 L
725.772 460.555 L
733.992 460.555 L
742.213 460.555 L
750.433 460.555 L
758.654 460.555 L
766.874 460.555 L
775.094 460.555 L
783.315 460.555 L
791.535 460.555 L
799.756 460.555 L
807.976 460.555 L
816.197 460.555 L
824.417 460.555 L
832.638 460.555 L
840.858 460.555 L
849.079 460.555 L
857.299 460.555 L
865.52 460.555 L
873.74 460.555 L
881.961 460.555 L
890.181 460.555 L
898.402 460.555 L
906.622 460.555 L
914.843 460.555 L
923.063 460.555 L
931.283 460.555 L
939.504 460.555 L
947.724 460.555 L
955.945 460.555 L
964.165 460.555 L
972.386 460.555 L
980.606 460.555 L
988.827 460.555 L
997.047 460.555 L
1005.268 460.555 L
1013.488 460.555 L
1021.709 460.555 L
1029.929 460.555 L
1038.15 460.555 L
1046.37 460.555 L
1054.591 460.555 L
1062.811 460.555 L
1071.031 460.555 L
1079.252 460.555 L
1087.472 460.555 L
1095.693 460.555 L
1103.913 460.555 L
1112.134 460.555 L
1120.354 460.555 L
1128.575 460.555 L
1136.795 460.555 L
1145.016 460.555 L
1153.236 460.555 L
1161.457 460.555 L
1169.677 460.555 L
1177.898 460.555 L
1186.118 460.555 L
1194.339 460.555 L
1202.559 460.555 L
1210.78 460.555 L
1219 460.555 L
S
GR
GS
[0.75 0 0 0.75 0 -0.25] CT
0.851 0.325 0.098 RC
1 LJ
2.667 LW
N
175 460.555 M
183.22 460.555 L
191.441 460.555 L
199.661 460.555 L
207.882 466.374 L
216.102 478.612 L
224.323 443.618 L
232.543 357.845 L
240.764 475.922 L
248.984 807 L
257.205 68 L
265.425 587.066 L
273.646 460.555 L
281.866 460.555 L
290.087 460.555 L
298.307 460.555 L
306.528 460.555 L
314.748 460.555 L
322.969 460.555 L
331.189 460.555 L
339.409 460.555 L
347.63 460.555 L
355.85 460.555 L
364.071 460.555 L
372.291 460.555 L
380.512 460.555 L
388.732 460.555 L
396.953 460.555 L
405.173 460.555 L
413.394 460.555 L
421.614 460.555 L
429.835 460.555 L
438.055 460.555 L
446.276 460.555 L
454.496 460.555 L
462.717 460.555 L
470.937 460.555 L
479.157 460.555 L
487.378 460.555 L
495.598 460.555 L
503.819 460.555 L
512.039 460.555 L
520.26 460.555 L
528.48 460.555 L
536.701 460.555 L
544.921 460.555 L
553.142 460.555 L
561.362 460.555 L
569.583 460.555 L
577.803 460.555 L
586.024 460.555 L
594.244 460.555 L
602.465 460.555 L
610.685 460.555 L
618.906 460.555 L
627.126 460.555 L
635.346 460.555 L
643.567 460.555 L
651.787 460.555 L
660.008 460.555 L
668.228 460.555 L
676.449 460.555 L
684.669 460.555 L
692.89 460.555 L
701.11 460.555 L
709.331 460.555 L
717.551 460.555 L
725.772 460.555 L
733.992 460.555 L
742.213 460.555 L
750.433 460.555 L
758.654 460.555 L
766.874 460.555 L
775.094 460.555 L
783.315 460.555 L
791.535 460.555 L
799.756 460.555 L
807.976 460.555 L
816.197 460.555 L
824.417 460.555 L
832.638 460.555 L
840.858 460.555 L
849.079 460.555 L
857.299 460.555 L
865.52 460.555 L
873.74 460.555 L
881.961 460.555 L
890.181 460.555 L
898.402 460.555 L
906.622 460.555 L
914.843 460.555 L
923.063 460.555 L
931.283 460.555 L
939.504 460.555 L
947.724 460.555 L
955.945 460.555 L
964.165 460.555 L
972.386 460.555 L
980.606 460.555 L
988.827 460.555 L
997.047 460.555 L
1005.268 460.555 L
1013.488 460.555 L
1021.709 460.555 L
1029.929 460.555 L
1038.15 460.555 L
1046.37 460.555 L
1054.591 460.555 L
1062.811 460.555 L
1071.031 460.555 L
1079.252 460.555 L
1087.472 460.555 L
1095.693 460.555 L
1103.913 460.555 L
1112.134 460.555 L
1120.354 460.555 L
1128.575 460.555 L
1136.795 460.555 L
1145.016 460.555 L
1153.236 460.555 L
1161.457 460.555 L
1169.677 460.555 L
1177.898 460.555 L
1186.118 460.555 L
1194.339 460.555 L
1202.559 460.555 L
1210.78 460.555 L
1219 460.555 L
S
GR
GS
[0.75 0 0 0.75 0 -0.25] CT
0.929 0.694 0.125 RC
1 LJ
2.667 LW
N
175 460.555 M
183.22 460.555 L
191.441 460.555 L
199.661 460.555 L
207.882 460.555 L
216.102 460.555 L
224.323 460.555 L
232.543 460.555 L
240.764 460.555 L
248.984 460.555 L
257.205 460.555 L
265.425 460.555 L
273.646 460.555 L
281.866 460.555 L
290.087 466.374 L
298.307 478.612 L
306.528 443.618 L
314.748 357.845 L
322.969 475.922 L
331.189 807 L
339.409 68 L
347.63 587.066 L
355.85 460.555 L
364.071 460.555 L
372.291 460.555 L
380.512 460.555 L
388.732 460.555 L
396.953 460.555 L
405.173 460.555 L
413.394 460.555 L
421.614 460.555 L
429.835 460.555 L
438.055 460.555 L
446.276 460.555 L
454.496 460.555 L
462.717 460.555 L
470.937 460.555 L
479.157 460.555 L
487.378 460.555 L
495.598 460.555 L
503.819 460.555 L
512.039 460.555 L
520.26 460.555 L
528.48 460.555 L
536.701 460.555 L
544.921 460.555 L
553.142 460.555 L
561.362 460.555 L
569.583 460.555 L
577.803 460.555 L
586.024 460.555 L
594.244 460.555 L
602.465 460.555 L
610.685 460.555 L
618.906 460.555 L
627.126 460.555 L
635.346 460.555 L
643.567 460.555 L
651.787 460.555 L
660.008 460.555 L
668.228 460.555 L
676.449 460.555 L
684.669 460.555 L
692.89 460.555 L
701.11 460.555 L
709.331 460.555 L
717.551 460.555 L
725.772 460.555 L
733.992 460.555 L
742.213 460.555 L
750.433 460.555 L
758.654 460.555 L
766.874 460.555 L
775.094 460.555 L
783.315 460.555 L
791.535 460.555 L
799.756 460.555 L
807.976 460.555 L
816.197 460.555 L
824.417 460.555 L
832.638 460.555 L
840.858 460.555 L
849.079 460.555 L
857.299 460.555 L
865.52 460.555 L
873.74 460.555 L
881.961 460.555 L
890.181 460.555 L
898.402 460.555 L
906.622 460.555 L
914.843 460.555 L
923.063 460.555 L
931.283 460.555 L
939.504 460.555 L
947.724 460.555 L
955.945 460.555 L
964.165 460.555 L
972.386 460.555 L
980.606 460.555 L
988.827 460.555 L
997.047 460.555 L
1005.268 460.555 L
1013.488 460.555 L
1021.709 460.555 L
1029.929 460.555 L
1038.15 460.555 L
1046.37 460.555 L
1054.591 460.555 L
1062.811 460.555 L
1071.031 460.555 L
1079.252 460.555 L
1087.472 460.555 L
1095.693 460.555 L
1103.913 460.555 L
1112.134 460.555 L
1120.354 460.555 L
1128.575 460.555 L
1136.795 460.555 L
1145.016 460.555 L
1153.236 460.555 L
1161.457 460.555 L
1169.677 460.555 L
1177.898 460.555 L
1186.118 460.555 L
1194.339 460.555 L
1202.559 460.555 L
1210.78 460.555 L
1219 460.555 L
S
GR
GS
[0.75 0 0 0.75 0 -0.25] CT
0.494 0.184 0.557 RC
1 LJ
2.667 LW
N
175 460.555 M
183.22 460.555 L
191.441 460.555 L
199.661 460.555 L
207.882 460.555 L
216.102 460.555 L
224.323 460.555 L
232.543 460.555 L
240.764 460.555 L
248.984 460.555 L
257.205 460.555 L
265.425 460.555 L
273.646 460.555 L
281.866 460.555 L
290.087 460.555 L
298.307 460.555 L
306.528 460.555 L
314.748 460.555 L
322.969 460.555 L
331.189 460.555 L
339.409 460.555 L
347.63 460.555 L
355.85 460.555 L
364.071 460.555 L
372.291 466.374 L
380.512 478.612 L
388.732 443.618 L
396.953 357.845 L
405.173 475.922 L
413.394 807 L
421.614 68 L
429.835 587.066 L
438.055 460.555 L
446.276 460.555 L
454.496 460.555 L
462.717 460.555 L
470.937 460.555 L
479.157 460.555 L
487.378 460.555 L
495.598 460.555 L
503.819 460.555 L
512.039 460.555 L
520.26 460.555 L
528.48 460.555 L
536.701 460.555 L
544.921 460.555 L
553.142 460.555 L
561.362 460.555 L
569.583 460.555 L
577.803 460.555 L
586.024 460.555 L
594.244 460.555 L
602.465 460.555 L
610.685 460.555 L
618.906 460.555 L
627.126 460.555 L
635.346 460.555 L
643.567 460.555 L
651.787 460.555 L
660.008 460.555 L
668.228 460.555 L
676.449 460.555 L
684.669 460.555 L
692.89 460.555 L
701.11 460.555 L
709.331 460.555 L
717.551 460.555 L
725.772 460.555 L
733.992 460.555 L
742.213 460.555 L
750.433 460.555 L
758.654 460.555 L
766.874 460.555 L
775.094 460.555 L
783.315 460.555 L
791.535 460.555 L
799.756 460.555 L
807.976 460.555 L
816.197 460.555 L
824.417 460.555 L
832.638 460.555 L
840.858 460.555 L
849.079 460.555 L
857.299 460.555 L
865.52 460.555 L
873.74 460.555 L
881.961 460.555 L
890.181 460.555 L
898.402 460.555 L
906.622 460.555 L
914.843 460.555 L
923.063 460.555 L
931.283 460.555 L
939.504 460.555 L
947.724 460.555 L
955.945 460.555 L
964.165 460.555 L
972.386 460.555 L
980.606 460.555 L
988.827 460.555 L
997.047 460.555 L
1005.268 460.555 L
1013.488 460.555 L
1021.709 460.555 L
1029.929 460.555 L
1038.15 460.555 L
1046.37 460.555 L
1054.591 460.555 L
1062.811 460.555 L
1071.031 460.555 L
1079.252 460.555 L
1087.472 460.555 L
1095.693 460.555 L
1103.913 460.555 L
1112.134 460.555 L
1120.354 460.555 L
1128.575 460.555 L
1136.795 460.555 L
1145.016 460.555 L
1153.236 460.555 L
1161.457 460.555 L
1169.677 460.555 L
1177.898 460.555 L
1186.118 460.555 L
1194.339 460.555 L
1202.559 460.555 L
1210.78 460.555 L
1219 460.555 L
S
GR
GS
[0.75 0 0 0.75 0 -0.25] CT
0.467 0.675 0.188 RC
1 LJ
2.667 LW
N
175 460.555 M
183.22 460.555 L
191.441 460.555 L
199.661 460.555 L
207.882 460.555 L
216.102 460.555 L
224.323 460.555 L
232.543 460.555 L
240.764 460.555 L
248.984 460.555 L
257.205 460.555 L
265.425 460.555 L
273.646 460.555 L
281.866 460.555 L
290.087 460.555 L
298.307 460.555 L
306.528 460.555 L
314.748 460.555 L
322.969 460.555 L
331.189 460.555 L
339.409 460.555 L
347.63 460.555 L
355.85 460.555 L
364.071 460.555 L
372.291 460.555 L
380.512 460.555 L
388.732 460.555 L
396.953 460.555 L
405.173 460.555 L
413.394 460.555 L
421.614 460.555 L
429.835 460.555 L
438.055 460.555 L
446.276 460.555 L
454.496 466.374 L
462.717 478.612 L
470.937 443.618 L
479.157 357.845 L
487.378 475.922 L
495.598 807 L
503.819 68 L
512.039 587.066 L
520.26 460.555 L
528.48 460.555 L
536.701 460.555 L
544.921 460.555 L
553.142 460.555 L
561.362 460.555 L
569.583 460.555 L
577.803 460.555 L
586.024 460.555 L
594.244 460.555 L
602.465 460.555 L
610.685 460.555 L
618.906 460.555 L
627.126 460.555 L
635.346 460.555 L
643.567 460.555 L
651.787 460.555 L
660.008 460.555 L
668.228 460.555 L
676.449 460.555 L
684.669 460.555 L
692.89 460.555 L
701.11 460.555 L
709.331 460.555 L
717.551 460.555 L
725.772 460.555 L
733.992 460.555 L
742.213 460.555 L
750.433 460.555 L
758.654 460.555 L
766.874 460.555 L
775.094 460.555 L
783.315 460.555 L
791.535 460.555 L
799.756 460.555 L
807.976 460.555 L
816.197 460.555 L
824.417 460.555 L
832.638 460.555 L
840.858 460.555 L
849.079 460.555 L
857.299 460.555 L
865.52 460.555 L
873.74 460.555 L
881.961 460.555 L
890.181 460.555 L
898.402 460.555 L
906.622 460.555 L
914.843 460.555 L
923.063 460.555 L
931.283 460.555 L
939.504 460.555 L
947.724 460.555 L
955.945 460.555 L
964.165 460.555 L
972.386 460.555 L
980.606 460.555 L
988.827 460.555 L
997.047 460.555 L
1005.268 460.555 L
1013.488 460.555 L
1021.709 460.555 L
1029.929 460.555 L
1038.15 460.555 L
1046.37 460.555 L
1054.591 460.555 L
1062.811 460.555 L
1071.031 460.555 L
1079.252 460.555 L
1087.472 460.555 L
1095.693 460.555 L
1103.913 460.555 L
1112.134 460.555 L
1120.354 460.555 L
1128.575 460.555 L
1136.795 460.555 L
1145.016 460.555 L
1153.236 460.555 L
1161.457 460.555 L
1169.677 460.555 L
1177.898 460.555 L
1186.118 460.555 L
1194.339 460.555 L
1202.559 460.555 L
1210.78 460.555 L
1219 460.555 L
S
GR
GS
[0.75 0 0 0.75 0 -0.25] CT
0.302 0.745 0.933 RC
1 LJ
2.667 LW
N
175 460.555 M
183.22 460.555 L
191.441 460.555 L
199.661 460.555 L
207.882 460.555 L
216.102 460.555 L
224.323 460.555 L
232.543 460.555 L
240.764 460.555 L
248.984 460.555 L
257.205 460.555 L
265.425 460.555 L
273.646 460.555 L
281.866 460.555 L
290.087 460.555 L
298.307 460.555 L
306.528 460.555 L
314.748 460.555 L
322.969 460.555 L
331.189 460.555 L
339.409 460.555 L
347.63 460.555 L
355.85 460.555 L
364.071 460.555 L
372.291 460.555 L
380.512 460.555 L
388.732 460.555 L
396.953 460.555 L
405.173 460.555 L
413.394 460.555 L
421.614 460.555 L
429.835 460.555 L
438.055 460.555 L
446.276 460.555 L
454.496 460.555 L
462.717 460.555 L
470.937 460.555 L
479.157 460.555 L
487.378 460.555 L
495.598 460.555 L
503.819 460.555 L
512.039 460.555 L
520.26 460.555 L
528.48 460.555 L
536.701 466.374 L
544.921 478.612 L
553.142 443.618 L
561.362 357.845 L
569.583 475.922 L
577.803 807 L
586.024 68 L
594.244 587.066 L
602.465 460.555 L
610.685 460.555 L
618.906 460.555 L
627.126 460.555 L
635.346 460.555 L
643.567 460.555 L
651.787 460.555 L
660.008 460.555 L
668.228 460.555 L
676.449 460.555 L
684.669 460.555 L
692.89 460.555 L
701.11 460.555 L
709.331 460.555 L
717.551 460.555 L
725.772 460.555 L
733.992 460.555 L
742.213 460.555 L
750.433 460.555 L
758.654 460.555 L
766.874 460.555 L
775.094 460.555 L
783.315 460.555 L
791.535 460.555 L
799.756 460.555 L
807.976 460.555 L
816.197 460.555 L
824.417 460.555 L
832.638 460.555 L
840.858 460.555 L
849.079 460.555 L
857.299 460.555 L
865.52 460.555 L
873.74 460.555 L
881.961 460.555 L
890.181 460.555 L
898.402 460.555 L
906.622 460.555 L
914.843 460.555 L
923.063 460.555 L
931.283 460.555 L
939.504 460.555 L
947.724 460.555 L
955.945 460.555 L
964.165 460.555 L
972.386 460.555 L
980.606 460.555 L
988.827 460.555 L
997.047 460.555 L
1005.268 460.555 L
1013.488 460.555 L
1021.709 460.555 L
1029.929 460.555 L
1038.15 460.555 L
1046.37 460.555 L
1054.591 460.555 L
1062.811 460.555 L
1071.031 460.555 L
1079.252 460.555 L
1087.472 460.555 L
1095.693 460.555 L
1103.913 460.555 L
1112.134 460.555 L
1120.354 460.555 L
1128.575 460.555 L
1136.795 460.555 L
1145.016 460.555 L
1153.236 460.555 L
1161.457 460.555 L
1169.677 460.555 L
1177.898 460.555 L
1186.118 460.555 L
1194.339 460.555 L
1202.559 460.555 L
1210.78 460.555 L
1219 460.555 L
S
GR
GS
[0.75 0 0 0.75 0 -0.25] CT
0.635 0.078 0.184 RC
1 LJ
2.667 LW
N
175 460.555 M
183.22 460.555 L
191.441 460.555 L
199.661 460.555 L
207.882 460.555 L
216.102 460.555 L
224.323 460.555 L
232.543 460.555 L
240.764 460.555 L
248.984 460.555 L
257.205 460.555 L
265.425 460.555 L
273.646 460.555 L
281.866 460.555 L
290.087 460.555 L
298.307 460.555 L
306.528 460.555 L
314.748 460.555 L
322.969 460.555 L
331.189 460.555 L
339.409 460.555 L
347.63 460.555 L
355.85 460.555 L
364.071 460.555 L
372.291 460.555 L
380.512 460.555 L
388.732 460.555 L
396.953 460.555 L
405.173 460.555 L
413.394 460.555 L
421.614 460.555 L
429.835 460.555 L
438.055 460.555 L
446.276 460.555 L
454.496 460.555 L
462.717 460.555 L
470.937 460.555 L
479.157 460.555 L
487.378 460.555 L
495.598 460.555 L
503.819 460.555 L
512.039 460.555 L
520.26 460.555 L
528.48 460.555 L
536.701 460.555 L
544.921 460.555 L
553.142 460.555 L
561.362 460.555 L
569.583 460.555 L
577.803 460.555 L
586.024 460.555 L
594.244 460.555 L
602.465 460.555 L
610.685 460.555 L
618.906 466.374 L
627.126 478.612 L
635.346 443.618 L
643.567 357.845 L
651.787 475.922 L
660.008 807 L
668.228 68 L
676.449 587.066 L
684.669 460.555 L
692.89 460.555 L
701.11 460.555 L
709.331 460.555 L
717.551 460.555 L
725.772 460.555 L
733.992 460.555 L
742.213 460.555 L
750.433 460.555 L
758.654 460.555 L
766.874 460.555 L
775.094 460.555 L
783.315 460.555 L
791.535 460.555 L
799.756 460.555 L
807.976 460.555 L
816.197 460.555 L
824.417 460.555 L
832.638 460.555 L
840.858 460.555 L
849.079 460.555 L
857.299 460.555 L
865.52 460.555 L
873.74 460.555 L
881.961 460.555 L
890.181 460.555 L
898.402 460.555 L
906.622 460.555 L
914.843 460.555 L
923.063 460.555 L
931.283 460.555 L
939.504 460.555 L
947.724 460.555 L
955.945 460.555 L
964.165 460.555 L
972.386 460.555 L
980.606 460.555 L
988.827 460.555 L
997.047 460.555 L
1005.268 460.555 L
1013.488 460.555 L
1021.709 460.555 L
1029.929 460.555 L
1038.15 460.555 L
1046.37 460.555 L
1054.591 460.555 L
1062.811 460.555 L
1071.031 460.555 L
1079.252 460.555 L
1087.472 460.555 L
1095.693 460.555 L
1103.913 460.555 L
1112.134 460.555 L
1120.354 460.555 L
1128.575 460.555 L
1136.795 460.555 L
1145.016 460.555 L
1153.236 460.555 L
1161.457 460.555 L
1169.677 460.555 L
1177.898 460.555 L
1186.118 460.555 L
1194.339 460.555 L
1202.559 460.555 L
1210.78 460.555 L
1219 460.555 L
S
GR
GS
[0.75 0 0 0.75 0 -0.25] CT
0 0.447 0.741 RC
1 LJ
2.667 LW
N
175 460.555 M
183.22 460.555 L
191.441 460.555 L
199.661 460.555 L
207.882 460.555 L
216.102 460.555 L
224.323 460.555 L
232.543 460.555 L
240.764 460.555 L
248.984 460.555 L
257.205 460.555 L
265.425 460.555 L
273.646 460.555 L
281.866 460.555 L
290.087 460.555 L
298.307 460.555 L
306.528 460.555 L
314.748 460.555 L
322.969 460.555 L
331.189 460.555 L
339.409 460.555 L
347.63 460.555 L
355.85 460.555 L
364.071 460.555 L
372.291 460.555 L
380.512 460.555 L
388.732 460.555 L
396.953 460.555 L
405.173 460.555 L
413.394 460.555 L
421.614 460.555 L
429.835 460.555 L
438.055 460.555 L
446.276 460.555 L
454.496 460.555 L
462.717 460.555 L
470.937 460.555 L
479.157 460.555 L
487.378 460.555 L
495.598 460.555 L
503.819 460.555 L
512.039 460.555 L
520.26 460.555 L
528.48 460.555 L
536.701 460.555 L
544.921 460.555 L
553.142 460.555 L
561.362 460.555 L
569.583 460.555 L
577.803 460.555 L
586.024 460.555 L
594.244 460.555 L
602.465 460.555 L
610.685 460.555 L
618.906 460.555 L
627.126 460.555 L
635.346 460.555 L
643.567 460.555 L
651.787 460.555 L
660.008 460.555 L
668.228 460.555 L
676.449 460.555 L
684.669 460.555 L
692.89 460.555 L
701.11 466.374 L
709.331 478.612 L
717.551 443.618 L
725.772 357.845 L
733.992 475.922 L
742.213 807 L
750.433 68 L
758.654 587.066 L
766.874 460.555 L
775.094 460.555 L
783.315 460.555 L
791.535 460.555 L
799.756 460.555 L
807.976 460.555 L
816.197 460.555 L
824.417 460.555 L
832.638 460.555 L
840.858 460.555 L
849.079 460.555 L
857.299 460.555 L
865.52 460.555 L
873.74 460.555 L
881.961 460.555 L
890.181 460.555 L
898.402 460.555 L
906.622 460.555 L
914.843 460.555 L
923.063 460.555 L
931.283 460.555 L
939.504 460.555 L
947.724 460.555 L
955.945 460.555 L
964.165 460.555 L
972.386 460.555 L
980.606 460.555 L
988.827 460.555 L
997.047 460.555 L
1005.268 460.555 L
1013.488 460.555 L
1021.709 460.555 L
1029.929 460.555 L
1038.15 460.555 L
1046.37 460.555 L
1054.591 460.555 L
1062.811 460.555 L
1071.031 460.555 L
1079.252 460.555 L
1087.472 460.555 L
1095.693 460.555 L
1103.913 460.555 L
1112.134 460.555 L
1120.354 460.555 L
1128.575 460.555 L
1136.795 460.555 L
1145.016 460.555 L
1153.236 460.555 L
1161.457 460.555 L
1169.677 460.555 L
1177.898 460.555 L
1186.118 460.555 L
1194.339 460.555 L
1202.559 460.555 L
1210.78 460.555 L
1219 460.555 L
S
GR
GS
[0.75 0 0 0.75 0 -0.25] CT
0.851 0.325 0.098 RC
1 LJ
2.667 LW
N
175 460.555 M
183.22 460.555 L
191.441 460.555 L
199.661 460.555 L
207.882 460.555 L
216.102 460.555 L
224.323 460.555 L
232.543 460.555 L
240.764 460.555 L
248.984 460.555 L
257.205 460.555 L
265.425 460.555 L
273.646 460.555 L
281.866 460.555 L
290.087 460.555 L
298.307 460.555 L
306.528 460.555 L
314.748 460.555 L
322.969 460.555 L
331.189 460.555 L
339.409 460.555 L
347.63 460.555 L
355.85 460.555 L
364.071 460.555 L
372.291 460.555 L
380.512 460.555 L
388.732 460.555 L
396.953 460.555 L
405.173 460.555 L
413.394 460.555 L
421.614 460.555 L
429.835 460.555 L
438.055 460.555 L
446.276 460.555 L
454.496 460.555 L
462.717 460.555 L
470.937 460.555 L
479.157 460.555 L
487.378 460.555 L
495.598 460.555 L
503.819 460.555 L
512.039 460.555 L
520.26 460.555 L
528.48 460.555 L
536.701 460.555 L
544.921 460.555 L
553.142 460.555 L
561.362 460.555 L
569.583 460.555 L
577.803 460.555 L
586.024 460.555 L
594.244 460.555 L
602.465 460.555 L
610.685 460.555 L
618.906 460.555 L
627.126 460.555 L
635.346 460.555 L
643.567 460.555 L
651.787 460.555 L
660.008 460.555 L
668.228 460.555 L
676.449 460.555 L
684.669 460.555 L
692.89 460.555 L
701.11 460.555 L
709.331 460.555 L
717.551 460.555 L
725.772 460.555 L
733.992 460.555 L
742.213 460.555 L
750.433 460.555 L
758.654 460.555 L
766.874 460.555 L
775.094 460.555 L
783.315 466.374 L
791.535 478.612 L
799.756 443.618 L
807.976 357.845 L
816.197 475.922 L
824.417 807 L
832.638 68 L
840.858 587.066 L
849.079 460.555 L
857.299 460.555 L
865.52 460.555 L
873.74 460.555 L
881.961 460.555 L
890.181 460.555 L
898.402 460.555 L
906.622 460.555 L
914.843 460.555 L
923.063 460.555 L
931.283 460.555 L
939.504 460.555 L
947.724 460.555 L
955.945 460.555 L
964.165 460.555 L
972.386 460.555 L
980.606 460.555 L
988.827 460.555 L
997.047 460.555 L
1005.268 460.555 L
1013.488 460.555 L
1021.709 460.555 L
1029.929 460.555 L
1038.15 460.555 L
1046.37 460.555 L
1054.591 460.555 L
1062.811 460.555 L
1071.031 460.555 L
1079.252 460.555 L
1087.472 460.555 L
1095.693 460.555 L
1103.913 460.555 L
1112.134 460.555 L
1120.354 460.555 L
1128.575 460.555 L
1136.795 460.555 L
1145.016 460.555 L
1153.236 460.555 L
1161.457 460.555 L
1169.677 460.555 L
1177.898 460.555 L
1186.118 460.555 L
1194.339 460.555 L
1202.559 460.555 L
1210.78 460.555 L
1219 460.555 L
S
GR
GS
[0.75 0 0 0.75 0 -0.25] CT
0.929 0.694 0.125 RC
1 LJ
2.667 LW
N
175 460.555 M
183.22 460.555 L
191.441 460.555 L
199.661 460.555 L
207.882 460.555 L
216.102 460.555 L
224.323 460.555 L
232.543 460.555 L
240.764 460.555 L
248.984 460.555 L
257.205 460.555 L
265.425 460.555 L
273.646 460.555 L
281.866 460.555 L
290.087 460.555 L
298.307 460.555 L
306.528 460.555 L
314.748 460.555 L
322.969 460.555 L
331.189 460.555 L
339.409 460.555 L
347.63 460.555 L
355.85 460.555 L
364.071 460.555 L
372.291 460.555 L
380.512 460.555 L
388.732 460.555 L
396.953 460.555 L
405.173 460.555 L
413.394 460.555 L
421.614 460.555 L
429.835 460.555 L
438.055 460.555 L
446.276 460.555 L
454.496 460.555 L
462.717 460.555 L
470.937 460.555 L
479.157 460.555 L
487.378 460.555 L
495.598 460.555 L
503.819 460.555 L
512.039 460.555 L
520.26 460.555 L
528.48 460.555 L
536.701 460.555 L
544.921 460.555 L
553.142 460.555 L
561.362 460.555 L
569.583 460.555 L
577.803 460.555 L
586.024 460.555 L
594.244 460.555 L
602.465 460.555 L
610.685 460.555 L
618.906 460.555 L
627.126 460.555 L
635.346 460.555 L
643.567 460.555 L
651.787 460.555 L
660.008 460.555 L
668.228 460.555 L
676.449 460.555 L
684.669 460.555 L
692.89 460.555 L
701.11 460.555 L
709.331 460.555 L
717.551 460.555 L
725.772 460.555 L
733.992 460.555 L
742.213 460.555 L
750.433 460.555 L
758.654 460.555 L
766.874 460.555 L
775.094 460.555 L
783.315 460.555 L
791.535 460.555 L
799.756 460.555 L
807.976 460.555 L
816.197 460.555 L
824.417 460.555 L
832.638 460.555 L
840.858 460.555 L
849.079 460.555 L
857.299 460.555 L
865.52 466.374 L
873.74 478.612 L
881.961 443.618 L
890.181 357.845 L
898.402 475.922 L
906.622 807 L
914.843 68 L
923.063 587.066 L
931.283 460.555 L
939.504 460.555 L
947.724 460.555 L
955.945 460.555 L
964.165 460.555 L
972.386 460.555 L
980.606 460.555 L
988.827 460.555 L
997.047 460.555 L
1005.268 460.555 L
1013.488 460.555 L
1021.709 460.555 L
1029.929 460.555 L
1038.15 460.555 L
1046.37 460.555 L
1054.591 460.555 L
1062.811 460.555 L
1071.031 460.555 L
1079.252 460.555 L
1087.472 460.555 L
1095.693 460.555 L
1103.913 460.555 L
1112.134 460.555 L
1120.354 460.555 L
1128.575 460.555 L
1136.795 460.555 L
1145.016 460.555 L
1153.236 460.555 L
1161.457 460.555 L
1169.677 460.555 L
1177.898 460.555 L
1186.118 460.555 L
1194.339 460.555 L
1202.559 460.555 L
1210.78 460.555 L
1219 460.555 L
S
GR
GS
[0.75 0 0 0.75 0 -0.25] CT
0.494 0.184 0.557 RC
1 LJ
2.667 LW
N
175 460.555 M
183.22 460.555 L
191.441 460.555 L
199.661 460.555 L
207.882 460.555 L
216.102 460.555 L
224.323 460.555 L
232.543 460.555 L
240.764 460.555 L
248.984 460.555 L
257.205 460.555 L
265.425 460.555 L
273.646 460.555 L
281.866 460.555 L
290.087 460.555 L
298.307 460.555 L
306.528 460.555 L
314.748 460.555 L
322.969 460.555 L
331.189 460.555 L
339.409 460.555 L
347.63 460.555 L
355.85 460.555 L
364.071 460.555 L
372.291 460.555 L
380.512 460.555 L
388.732 460.555 L
396.953 460.555 L
405.173 460.555 L
413.394 460.555 L
421.614 460.555 L
429.835 460.555 L
438.055 460.555 L
446.276 460.555 L
454.496 460.555 L
462.717 460.555 L
470.937 460.555 L
479.157 460.555 L
487.378 460.555 L
495.598 460.555 L
503.819 460.555 L
512.039 460.555 L
520.26 460.555 L
528.48 460.555 L
536.701 460.555 L
544.921 460.555 L
553.142 460.555 L
561.362 460.555 L
569.583 460.555 L
577.803 460.555 L
586.024 460.555 L
594.244 460.555 L
602.465 460.555 L
610.685 460.555 L
618.906 460.555 L
627.126 460.555 L
635.346 460.555 L
643.567 460.555 L
651.787 460.555 L
660.008 460.555 L
668.228 460.555 L
676.449 460.555 L
684.669 460.555 L
692.89 460.555 L
701.11 460.555 L
709.331 460.555 L
717.551 460.555 L
725.772 460.555 L
733.992 460.555 L
742.213 460.555 L
750.433 460.555 L
758.654 460.555 L
766.874 460.555 L
775.094 460.555 L
783.315 460.555 L
791.535 460.555 L
799.756 460.555 L
807.976 460.555 L
816.197 460.555 L
824.417 460.555 L
832.638 460.555 L
840.858 460.555 L
849.079 460.555 L
857.299 460.555 L
865.52 460.555 L
873.74 460.555 L
881.961 460.555 L
890.181 460.555 L
898.402 460.555 L
906.622 460.555 L
914.843 460.555 L
923.063 460.555 L
931.283 460.555 L
939.504 460.555 L
947.724 466.374 L
955.945 478.612 L
964.165 443.618 L
972.386 357.845 L
980.606 475.922 L
988.827 807 L
997.047 68 L
1005.268 587.066 L
1013.488 460.555 L
1021.709 460.555 L
1029.929 460.555 L
1038.15 460.555 L
1046.37 460.555 L
1054.591 460.555 L
1062.811 460.555 L
1071.031 460.555 L
1079.252 460.555 L
1087.472 460.555 L
1095.693 460.555 L
1103.913 460.555 L
1112.134 460.555 L
1120.354 460.555 L
1128.575 460.555 L
1136.795 460.555 L
1145.016 460.555 L
1153.236 460.555 L
1161.457 460.555 L
1169.677 460.555 L
1177.898 460.555 L
1186.118 460.555 L
1194.339 460.555 L
1202.559 460.555 L
1210.78 460.555 L
1219 460.555 L
S
GR
GS
[0.75 0 0 0.75 0 -0.25] CT
0.467 0.675 0.188 RC
1 LJ
2.667 LW
N
175 460.555 M
183.22 460.555 L
191.441 460.555 L
199.661 460.555 L
207.882 460.555 L
216.102 460.555 L
224.323 460.555 L
232.543 460.555 L
240.764 460.555 L
248.984 460.555 L
257.205 460.555 L
265.425 460.555 L
273.646 460.555 L
281.866 460.555 L
290.087 460.555 L
298.307 460.555 L
306.528 460.555 L
314.748 460.555 L
322.969 460.555 L
331.189 460.555 L
339.409 460.555 L
347.63 460.555 L
355.85 460.555 L
364.071 460.555 L
372.291 460.555 L
380.512 460.555 L
388.732 460.555 L
396.953 460.555 L
405.173 460.555 L
413.394 460.555 L
421.614 460.555 L
429.835 460.555 L
438.055 460.555 L
446.276 460.555 L
454.496 460.555 L
462.717 460.555 L
470.937 460.555 L
479.157 460.555 L
487.378 460.555 L
495.598 460.555 L
503.819 460.555 L
512.039 460.555 L
520.26 460.555 L
528.48 460.555 L
536.701 460.555 L
544.921 460.555 L
553.142 460.555 L
561.362 460.555 L
569.583 460.555 L
577.803 460.555 L
586.024 460.555 L
594.244 460.555 L
602.465 460.555 L
610.685 460.555 L
618.906 460.555 L
627.126 460.555 L
635.346 460.555 L
643.567 460.555 L
651.787 460.555 L
660.008 460.555 L
668.228 460.555 L
676.449 460.555 L
684.669 460.555 L
692.89 460.555 L
701.11 460.555 L
709.331 460.555 L
717.551 460.555 L
725.772 460.555 L
733.992 460.555 L
742.213 460.555 L
750.433 460.555 L
758.654 460.555 L
766.874 460.555 L
775.094 460.555 L
783.315 460.555 L
791.535 460.555 L
799.756 460.555 L
807.976 460.555 L
816.197 460.555 L
824.417 460.555 L
832.638 460.555 L
840.858 460.555 L
849.079 460.555 L
857.299 460.555 L
865.52 460.555 L
873.74 460.555 L
881.961 460.555 L
890.181 460.555 L
898.402 460.555 L
906.622 460.555 L
914.843 460.555 L
923.063 460.555 L
931.283 460.555 L
939.504 460.555 L
947.724 460.555 L
955.945 460.555 L
964.165 460.555 L
972.386 460.555 L
980.606 460.555 L
988.827 460.555 L
997.047 460.555 L
1005.268 460.555 L
1013.488 460.555 L
1021.709 460.555 L
1029.929 466.374 L
1038.15 478.612 L
1046.37 443.618 L
1054.591 357.845 L
1062.811 475.922 L
1071.031 807 L
1079.252 68 L
1087.472 587.066 L
1095.693 460.555 L
1103.913 460.555 L
1112.134 460.555 L
1120.354 460.555 L
1128.575 460.555 L
1136.795 460.555 L
1145.016 460.555 L
1153.236 460.555 L
1161.457 460.555 L
1169.677 460.555 L
1177.898 460.555 L
1186.118 460.555 L
1194.339 460.555 L
1202.559 460.555 L
1210.78 460.555 L
1219 460.555 L
S
GR
GS
[0.75 0 0 0.75 0 -0.25] CT
0.302 0.745 0.933 RC
1 LJ
2.667 LW
N
175 460.555 M
183.22 460.555 L
191.441 460.555 L
199.661 460.555 L
207.882 460.555 L
216.102 460.555 L
224.323 460.555 L
232.543 460.555 L
240.764 460.555 L
248.984 460.555 L
257.205 460.555 L
265.425 460.555 L
273.646 460.555 L
281.866 460.555 L
290.087 460.555 L
298.307 460.555 L
306.528 460.555 L
314.748 460.555 L
322.969 460.555 L
331.189 460.555 L
339.409 460.555 L
347.63 460.555 L
355.85 460.555 L
364.071 460.555 L
372.291 460.555 L
380.512 460.555 L
388.732 460.555 L
396.953 460.555 L
405.173 460.555 L
413.394 460.555 L
421.614 460.555 L
429.835 460.555 L
438.055 460.555 L
446.276 460.555 L
454.496 460.555 L
462.717 460.555 L
470.937 460.555 L
479.157 460.555 L
487.378 460.555 L
495.598 460.555 L
503.819 460.555 L
512.039 460.555 L
520.26 460.555 L
528.48 460.555 L
536.701 460.555 L
544.921 460.555 L
553.142 460.555 L
561.362 460.555 L
569.583 460.555 L
577.803 460.555 L
586.024 460.555 L
594.244 460.555 L
602.465 460.555 L
610.685 460.555 L
618.906 460.555 L
627.126 460.555 L
635.346 460.555 L
643.567 460.555 L
651.787 460.555 L
660.008 460.555 L
668.228 460.555 L
676.449 460.555 L
684.669 460.555 L
692.89 460.555 L
701.11 460.555 L
709.331 460.555 L
717.551 460.555 L
725.772 460.555 L
733.992 460.555 L
742.213 460.555 L
750.433 460.555 L
758.654 460.555 L
766.874 460.555 L
775.094 460.555 L
783.315 460.555 L
791.535 460.555 L
799.756 460.555 L
807.976 460.555 L
816.197 460.555 L
824.417 460.555 L
832.638 460.555 L
840.858 460.555 L
849.079 460.555 L
857.299 460.555 L
865.52 460.555 L
873.74 460.555 L
881.961 460.555 L
890.181 460.555 L
898.402 460.555 L
906.622 460.555 L
914.843 460.555 L
923.063 460.555 L
931.283 460.555 L
939.504 460.555 L
947.724 460.555 L
955.945 460.555 L
964.165 460.555 L
972.386 460.555 L
980.606 460.555 L
988.827 460.555 L
997.047 460.555 L
1005.268 460.555 L
1013.488 460.555 L
1021.709 460.555 L
1029.929 460.555 L
1038.15 460.555 L
1046.37 460.555 L
1054.591 460.555 L
1062.811 460.555 L
1071.031 460.555 L
1079.252 460.555 L
1087.472 460.555 L
1095.693 460.555 L
1103.913 460.555 L
1112.134 466.374 L
1120.354 478.612 L
1128.575 443.618 L
1136.795 357.845 L
1145.016 475.922 L
1153.236 807 L
1161.457 68 L
1169.677 587.066 L
1177.898 460.555 L
1186.118 460.555 L
1194.339 460.555 L
1202.559 460.555 L
1210.78 460.555 L
1219 460.555 L
S
GR
GS
[0.75 0 0 0.75 0 -0.25] CT
0.635 0.078 0.184 RC
1 LJ
2.667 LW
N
175 460.555 M
183.22 460.555 L
191.441 460.555 L
199.661 460.555 L
207.882 460.555 L
216.102 460.555 L
224.323 460.555 L
232.543 460.555 L
240.764 460.555 L
248.984 460.555 L
257.205 460.555 L
265.425 460.555 L
273.646 460.555 L
281.866 460.555 L
290.087 460.555 L
298.307 460.555 L
306.528 460.555 L
314.748 460.555 L
322.969 460.555 L
331.189 460.555 L
339.409 460.555 L
347.63 460.555 L
355.85 460.555 L
364.071 460.555 L
372.291 460.555 L
380.512 460.555 L
388.732 460.555 L
396.953 460.555 L
405.173 460.555 L
413.394 460.555 L
421.614 460.555 L
429.835 460.555 L
438.055 460.555 L
446.276 460.555 L
454.496 460.555 L
462.717 460.555 L
470.937 460.555 L
479.157 460.555 L
487.378 460.555 L
495.598 460.555 L
503.819 460.555 L
512.039 460.555 L
520.26 460.555 L
528.48 460.555 L
536.701 460.555 L
544.921 460.555 L
553.142 460.555 L
561.362 460.555 L
569.583 460.555 L
577.803 460.555 L
586.024 460.555 L
594.244 460.555 L
602.465 460.555 L
610.685 460.555 L
618.906 460.555 L
627.126 460.555 L
635.346 460.555 L
643.567 460.555 L
651.787 460.555 L
660.008 460.555 L
668.228 460.555 L
676.449 460.555 L
684.669 460.555 L
692.89 460.555 L
701.11 460.555 L
709.331 460.555 L
717.551 460.555 L
725.772 460.555 L
733.992 460.555 L
742.213 460.555 L
750.433 460.555 L
758.654 460.555 L
766.874 460.555 L
775.094 460.555 L
783.315 460.555 L
791.535 460.555 L
799.756 460.555 L
807.976 460.555 L
816.197 460.555 L
824.417 460.555 L
832.638 460.555 L
840.858 460.555 L
849.079 460.555 L
857.299 460.555 L
865.52 460.555 L
873.74 460.555 L
881.961 460.555 L
890.181 460.555 L
898.402 460.555 L
906.622 460.555 L
914.843 460.555 L
923.063 460.555 L
931.283 460.555 L
939.504 460.555 L
947.724 460.555 L
955.945 460.555 L
964.165 460.555 L
972.386 460.555 L
980.606 460.555 L
988.827 460.555 L
997.047 460.555 L
1005.268 460.555 L
1013.488 460.555 L
1021.709 460.555 L
1029.929 460.555 L
1038.15 460.555 L
1046.37 460.555 L
1054.591 460.555 L
1062.811 460.555 L
1071.031 460.555 L
1079.252 460.555 L
1087.472 460.555 L
1095.693 460.555 L
1103.913 460.555 L
1112.134 460.555 L
1120.354 460.555 L
1128.575 460.555 L
1136.795 460.555 L
1145.016 460.555 L
1153.236 460.555 L
1161.457 460.555 L
1169.677 460.555 L
1177.898 460.555 L
1186.118 460.555 L
1194.339 466.374 L
1202.559 478.612 L
1210.78 443.618 L
1219 357.845 L
S
GR
%%Trailer
%%Pages: 1
%%EOF
