%!PS-Adobe-3.0 EPSF-3.0
%%Creator: (MATLAB, The Mathworks, Inc. Version 9.3.0.713579 \(R2017b\). Operating System: Mac OS X)
%%Title: /Users/hannesvdc/WIT/Wavelets/wavelets/report/plots/wavelet3.eps
%%CreationDate: 2017-11-25T20:56:07
%%Pages: (atend)
%%BoundingBox: 0 0 710 523
%%LanguageLevel: 3
%%EndComments
%%BeginProlog
%%BeginResource: procset (Apache XML Graphics Std ProcSet) 1.2 0
%%Version: 1.2 0
%%Copyright: (Copyright 2001-2003,2010 The Apache Software Foundation. License terms: http://www.apache.org/licenses/LICENSE-2.0)
/bd{bind def}bind def
/ld{load def}bd
/GR/grestore ld
/GS/gsave ld
/RM/rmoveto ld
/C/curveto ld
/t/show ld
/L/lineto ld
/ML/setmiterlimit ld
/CT/concat ld
/f/fill ld
/N/newpath ld
/S/stroke ld
/CC/setcmykcolor ld
/A/ashow ld
/cp/closepath ld
/RC/setrgbcolor ld
/LJ/setlinejoin ld
/GC/setgray ld
/LW/setlinewidth ld
/M/moveto ld
/re {4 2 roll M
1 index 0 rlineto
0 exch rlineto
neg 0 rlineto
cp } bd
/_ctm matrix def
/_tm matrix def
/BT { _ctm currentmatrix pop matrix _tm copy pop 0 0 moveto } bd
/ET { _ctm setmatrix } bd
/iTm { _ctm setmatrix _tm concat } bd
/Tm { _tm astore pop iTm 0 0 moveto } bd
/ux 0.0 def
/uy 0.0 def
/F {
  /Tp exch def
  /Tf exch def
  Tf findfont Tp scalefont setfont
  /cf Tf def  /cs Tp def
} bd
/ULS {currentpoint /uy exch def /ux exch def} bd
/ULE {
  /Tcx currentpoint pop def
  gsave
  newpath
  cf findfont cs scalefont dup
  /FontMatrix get 0 get /Ts exch def /FontInfo get dup
  /UnderlinePosition get Ts mul /To exch def
  /UnderlineThickness get Ts mul /Tt exch def
  ux uy To add moveto  Tcx uy To add lineto
  Tt setlinewidth stroke
  grestore
} bd
/OLE {
  /Tcx currentpoint pop def
  gsave
  newpath
  cf findfont cs scalefont dup
  /FontMatrix get 0 get /Ts exch def /FontInfo get dup
  /UnderlinePosition get Ts mul /To exch def
  /UnderlineThickness get Ts mul /Tt exch def
  ux uy To add cs add moveto Tcx uy To add cs add lineto
  Tt setlinewidth stroke
  grestore
} bd
/SOE {
  /Tcx currentpoint pop def
  gsave
  newpath
  cf findfont cs scalefont dup
  /FontMatrix get 0 get /Ts exch def /FontInfo get dup
  /UnderlinePosition get Ts mul /To exch def
  /UnderlineThickness get Ts mul /Tt exch def
  ux uy To add cs 10 mul 26 idiv add moveto Tcx uy To add cs 10 mul 26 idiv add lineto
  Tt setlinewidth stroke
  grestore
} bd
/QT {
/Y22 exch store
/X22 exch store
/Y21 exch store
/X21 exch store
currentpoint
/Y21 load 2 mul add 3 div exch
/X21 load 2 mul add 3 div exch
/X21 load 2 mul /X22 load add 3 div
/Y21 load 2 mul /Y22 load add 3 div
/X22 load /Y22 load curveto
} bd
/SSPD {
dup length /d exch dict def
{
/v exch def
/k exch def
currentpagedevice k known {
/cpdv currentpagedevice k get def
v cpdv ne {
/upd false def
/nullv v type /nulltype eq def
/nullcpdv cpdv type /nulltype eq def
nullv nullcpdv or
{
/upd true def
} {
/sametype v type cpdv type eq def
sametype {
v type /arraytype eq {
/vlen v length def
/cpdvlen cpdv length def
vlen cpdvlen eq {
0 1 vlen 1 sub {
/i exch def
/obj v i get def
/cpdobj cpdv i get def
obj cpdobj ne {
/upd true def
exit
} if
} for
} {
/upd true def
} ifelse
} {
v type /dicttype eq {
v {
/dv exch def
/dk exch def
/cpddv cpdv dk get def
dv cpddv ne {
/upd true def
exit
} if
} forall
} {
/upd true def
} ifelse
} ifelse
} if
} ifelse
upd true eq {
d k v put
} if
} if
} if
} forall
d length 0 gt {
d setpagedevice
} if
} bd
/RE { % /NewFontName [NewEncodingArray] /FontName RE -
  findfont dup length dict begin
  {
    1 index /FID ne
    {def} {pop pop} ifelse
  } forall
  /Encoding exch def
  /FontName 1 index def
  currentdict definefont pop
  end
} bind def
%%EndResource
%%BeginResource: procset (Apache XML Graphics EPS ProcSet) 1.0 0
%%Version: 1.0 0
%%Copyright: (Copyright 2002-2003 The Apache Software Foundation. License terms: http://www.apache.org/licenses/LICENSE-2.0)
/BeginEPSF { %def
/b4_Inc_state save def         % Save state for cleanup
/dict_count countdictstack def % Count objects on dict stack
/op_count count 1 sub def      % Count objects on operand stack
userdict begin                 % Push userdict on dict stack
/showpage { } def              % Redefine showpage, { } = null proc
0 setgray 0 setlinecap         % Prepare graphics state
1 setlinewidth 0 setlinejoin
10 setmiterlimit [ ] 0 setdash newpath
/languagelevel where           % If level not equal to 1 then
{pop languagelevel             % set strokeadjust and
1 ne                           % overprint to their defaults.
{false setstrokeadjust false setoverprint
} if
} if
} bd
/EndEPSF { %def
count op_count sub {pop} repeat            % Clean up stacks
countdictstack dict_count sub {end} repeat
b4_Inc_state restore
} bd
%%EndResource
%FOPBeginFontDict
%%IncludeResource: font Courier-Oblique
%%IncludeResource: font Courier-BoldOblique
%%IncludeResource: font Courier-Bold
%%IncludeResource: font ZapfDingbats
%%IncludeResource: font Symbol
%%IncludeResource: font Helvetica
%%IncludeResource: font Helvetica-Oblique
%%IncludeResource: font Helvetica-Bold
%%IncludeResource: font Helvetica-BoldOblique
%%IncludeResource: font Times-Roman
%%IncludeResource: font Times-Italic
%%IncludeResource: font Times-Bold
%%IncludeResource: font Times-BoldItalic
%%IncludeResource: font Courier
%FOPEndFontDict
%%BeginResource: encoding WinAnsiEncoding
/WinAnsiEncoding [
/.notdef /.notdef /.notdef /.notdef /.notdef
/.notdef /.notdef /.notdef /.notdef /.notdef
/.notdef /.notdef /.notdef /.notdef /.notdef
/.notdef /.notdef /.notdef /.notdef /.notdef
/.notdef /.notdef /.notdef /.notdef /.notdef
/.notdef /.notdef /.notdef /.notdef /.notdef
/.notdef /.notdef /space /exclam /quotedbl
/numbersign /dollar /percent /ampersand /quotesingle
/parenleft /parenright /asterisk /plus /comma
/hyphen /period /slash /zero /one
/two /three /four /five /six
/seven /eight /nine /colon /semicolon
/less /equal /greater /question /at
/A /B /C /D /E
/F /G /H /I /J
/K /L /M /N /O
/P /Q /R /S /T
/U /V /W /X /Y
/Z /bracketleft /backslash /bracketright /asciicircum
/underscore /quoteleft /a /b /c
/d /e /f /g /h
/i /j /k /l /m
/n /o /p /q /r
/s /t /u /v /w
/x /y /z /braceleft /bar
/braceright /asciitilde /bullet /Euro /bullet
/quotesinglbase /florin /quotedblbase /ellipsis /dagger
/daggerdbl /circumflex /perthousand /Scaron /guilsinglleft
/OE /bullet /Zcaron /bullet /bullet
/quoteleft /quoteright /quotedblleft /quotedblright /bullet
/endash /emdash /asciitilde /trademark /scaron
/guilsinglright /oe /bullet /zcaron /Ydieresis
/space /exclamdown /cent /sterling /currency
/yen /brokenbar /section /dieresis /copyright
/ordfeminine /guillemotleft /logicalnot /sfthyphen /registered
/macron /degree /plusminus /twosuperior /threesuperior
/acute /mu /paragraph /middot /cedilla
/onesuperior /ordmasculine /guillemotright /onequarter /onehalf
/threequarters /questiondown /Agrave /Aacute /Acircumflex
/Atilde /Adieresis /Aring /AE /Ccedilla
/Egrave /Eacute /Ecircumflex /Edieresis /Igrave
/Iacute /Icircumflex /Idieresis /Eth /Ntilde
/Ograve /Oacute /Ocircumflex /Otilde /Odieresis
/multiply /Oslash /Ugrave /Uacute /Ucircumflex
/Udieresis /Yacute /Thorn /germandbls /agrave
/aacute /acircumflex /atilde /adieresis /aring
/ae /ccedilla /egrave /eacute /ecircumflex
/edieresis /igrave /iacute /icircumflex /idieresis
/eth /ntilde /ograve /oacute /ocircumflex
/otilde /odieresis /divide /oslash /ugrave
/uacute /ucircumflex /udieresis /yacute /thorn
/ydieresis
] def
%%EndResource
%FOPBeginFontReencode
/Courier-Oblique findfont
dup length dict begin
  {1 index /FID ne {def} {pop pop} ifelse} forall
  /Encoding WinAnsiEncoding def
  currentdict
end
/Courier-Oblique exch definefont pop
/Courier-BoldOblique findfont
dup length dict begin
  {1 index /FID ne {def} {pop pop} ifelse} forall
  /Encoding WinAnsiEncoding def
  currentdict
end
/Courier-BoldOblique exch definefont pop
/Courier-Bold findfont
dup length dict begin
  {1 index /FID ne {def} {pop pop} ifelse} forall
  /Encoding WinAnsiEncoding def
  currentdict
end
/Courier-Bold exch definefont pop
/Helvetica findfont
dup length dict begin
  {1 index /FID ne {def} {pop pop} ifelse} forall
  /Encoding WinAnsiEncoding def
  currentdict
end
/Helvetica exch definefont pop
/Helvetica-Oblique findfont
dup length dict begin
  {1 index /FID ne {def} {pop pop} ifelse} forall
  /Encoding WinAnsiEncoding def
  currentdict
end
/Helvetica-Oblique exch definefont pop
/Helvetica-Bold findfont
dup length dict begin
  {1 index /FID ne {def} {pop pop} ifelse} forall
  /Encoding WinAnsiEncoding def
  currentdict
end
/Helvetica-Bold exch definefont pop
/Helvetica-BoldOblique findfont
dup length dict begin
  {1 index /FID ne {def} {pop pop} ifelse} forall
  /Encoding WinAnsiEncoding def
  currentdict
end
/Helvetica-BoldOblique exch definefont pop
/Times-Roman findfont
dup length dict begin
  {1 index /FID ne {def} {pop pop} ifelse} forall
  /Encoding WinAnsiEncoding def
  currentdict
end
/Times-Roman exch definefont pop
/Times-Italic findfont
dup length dict begin
  {1 index /FID ne {def} {pop pop} ifelse} forall
  /Encoding WinAnsiEncoding def
  currentdict
end
/Times-Italic exch definefont pop
/Times-Bold findfont
dup length dict begin
  {1 index /FID ne {def} {pop pop} ifelse} forall
  /Encoding WinAnsiEncoding def
  currentdict
end
/Times-Bold exch definefont pop
/Times-BoldItalic findfont
dup length dict begin
  {1 index /FID ne {def} {pop pop} ifelse} forall
  /Encoding WinAnsiEncoding def
  currentdict
end
/Times-BoldItalic exch definefont pop
/Courier findfont
dup length dict begin
  {1 index /FID ne {def} {pop pop} ifelse} forall
  /Encoding WinAnsiEncoding def
  currentdict
end
/Courier exch definefont pop
%FOPEndFontReencode
%%EndProlog
%%Page: 1 1
%%PageBoundingBox: 0 0 710 523
%%BeginPageSetup
[1 0 0 -1 0 523] CT
%%EndPageSetup
GS
1 GC
N
0 0 710 523 re
f
GR
GS
1 GC
N
0 0 710 523 re
f
GR
GS
1 GC
N
92.5 465.5 M
642.5 465.5 L
642.5 39 L
92.5 39 L
cp
f
GR
GS
0.149 GC
2 setlinecap
1 LJ
0.5 LW
N
92.5 465.5 M
642.5 465.5 L
S
GR
GS
0.149 GC
2 setlinecap
1 LJ
0.5 LW
N
92.5 39 M
642.5 39 L
S
GR
GS
0.149 GC
2 setlinecap
1 LJ
0.5 LW
N
92.5 465.5 M
92.5 460 L
S
GR
GS
0.149 GC
2 setlinecap
1 LJ
0.5 LW
N
171.071 465.5 M
171.071 460 L
S
GR
GS
0.149 GC
2 setlinecap
1 LJ
0.5 LW
N
249.643 465.5 M
249.643 460 L
S
GR
GS
0.149 GC
2 setlinecap
1 LJ
0.5 LW
N
328.214 465.5 M
328.214 460 L
S
GR
GS
0.149 GC
2 setlinecap
1 LJ
0.5 LW
N
406.786 465.5 M
406.786 460 L
S
GR
GS
0.149 GC
2 setlinecap
1 LJ
0.5 LW
N
485.357 465.5 M
485.357 460 L
S
GR
GS
0.149 GC
2 setlinecap
1 LJ
0.5 LW
N
563.929 465.5 M
563.929 460 L
S
GR
GS
0.149 GC
2 setlinecap
1 LJ
0.5 LW
N
642.5 465.5 M
642.5 460 L
S
GR
GS
0.149 GC
2 setlinecap
1 LJ
0.5 LW
N
92.5 39 M
92.5 44.5 L
S
GR
GS
0.149 GC
2 setlinecap
1 LJ
0.5 LW
N
171.071 39 M
171.071 44.5 L
S
GR
GS
0.149 GC
2 setlinecap
1 LJ
0.5 LW
N
249.643 39 M
249.643 44.5 L
S
GR
GS
0.149 GC
2 setlinecap
1 LJ
0.5 LW
N
328.214 39 M
328.214 44.5 L
S
GR
GS
0.149 GC
2 setlinecap
1 LJ
0.5 LW
N
406.786 39 M
406.786 44.5 L
S
GR
GS
0.149 GC
2 setlinecap
1 LJ
0.5 LW
N
485.357 39 M
485.357 44.5 L
S
GR
GS
0.149 GC
2 setlinecap
1 LJ
0.5 LW
N
563.929 39 M
563.929 44.5 L
S
GR
GS
0.149 GC
2 setlinecap
1 LJ
0.5 LW
N
642.5 39 M
642.5 44.5 L
S
GR
GS
[1 0 0 1 92.5 471.10001] CT
0.149 GC
/Helvetica 18 F
GS
[1 0 0 1 0 0] CT
-5.5 18 moveto 
1 -1 scale
(0) t 
GR
GR
GS
[1 0 0 1 171.07143 471.10001] CT
0.149 GC
/Helvetica 18 F
GS
[1 0 0 1 0 0] CT
-10.5 18 moveto 
1 -1 scale
(20) t 
GR
GR
GS
[1 0 0 1 249.64285 471.10001] CT
0.149 GC
/Helvetica 18 F
GS
[1 0 0 1 0 0] CT
-10.5 18 moveto 
1 -1 scale
(40) t 
GR
GR
GS
[1 0 0 1 328.21429 471.10001] CT
0.149 GC
/Helvetica 18 F
GS
[1 0 0 1 0 0] CT
-10.5 18 moveto 
1 -1 scale
(60) t 
GR
GR
GS
[1 0 0 1 406.78571 471.10001] CT
0.149 GC
/Helvetica 18 F
GS
[1 0 0 1 0 0] CT
-10.5 18 moveto 
1 -1 scale
(80) t 
GR
GR
GS
[1 0 0 1 485.35715 471.10001] CT
0.149 GC
/Helvetica 18 F
GS
[1 0 0 1 0 0] CT
-15.5 18 moveto 
1 -1 scale
(100) t 
GR
GR
GS
[1 0 0 1 563.92859 471.10001] CT
0.149 GC
/Helvetica 18 F
GS
[1 0 0 1 0 0] CT
-15.5 18 moveto 
1 -1 scale
(120) t 
GR
GR
GS
[1 0 0 1 642.5 471.10001] CT
0.149 GC
/Helvetica 18 F
GS
[1 0 0 1 0 0] CT
-15.5 18 moveto 
1 -1 scale
(140) t 
GR
GR
GS
[1 0 0 1 367.50027 493.60001] CT
0.149 GC
/Helvetica 19.8 F
GS
[1 0 0 1 0 0] CT
-72 19 moveto 
1 -1 scale
(Sequence Index) t 
GR
GR
GS
0.149 GC
2 setlinecap
1 LJ
0.5 LW
N
92.5 465.5 M
92.5 39 L
S
GR
GS
0.149 GC
2 setlinecap
1 LJ
0.5 LW
N
642.5 465.5 M
642.5 39 L
S
GR
GS
0.149 GC
2 setlinecap
1 LJ
0.5 LW
N
92.5 465.5 M
98 465.5 L
S
GR
GS
0.149 GC
2 setlinecap
1 LJ
0.5 LW
N
92.5 418.111 M
98 418.111 L
S
GR
GS
0.149 GC
2 setlinecap
1 LJ
0.5 LW
N
92.5 370.722 M
98 370.722 L
S
GR
GS
0.149 GC
2 setlinecap
1 LJ
0.5 LW
N
92.5 323.333 M
98 323.333 L
S
GR
GS
0.149 GC
2 setlinecap
1 LJ
0.5 LW
N
92.5 275.944 M
98 275.944 L
S
GR
GS
0.149 GC
2 setlinecap
1 LJ
0.5 LW
N
92.5 228.556 M
98 228.556 L
S
GR
GS
0.149 GC
2 setlinecap
1 LJ
0.5 LW
N
92.5 181.167 M
98 181.167 L
S
GR
GS
0.149 GC
2 setlinecap
1 LJ
0.5 LW
N
92.5 133.778 M
98 133.778 L
S
GR
GS
0.149 GC
2 setlinecap
1 LJ
0.5 LW
N
92.5 86.389 M
98 86.389 L
S
GR
GS
0.149 GC
2 setlinecap
1 LJ
0.5 LW
N
92.5 39 M
98 39 L
S
GR
GS
0.149 GC
2 setlinecap
1 LJ
0.5 LW
N
642.5 465.5 M
637 465.5 L
S
GR
GS
0.149 GC
2 setlinecap
1 LJ
0.5 LW
N
642.5 418.111 M
637 418.111 L
S
GR
GS
0.149 GC
2 setlinecap
1 LJ
0.5 LW
N
642.5 370.722 M
637 370.722 L
S
GR
GS
0.149 GC
2 setlinecap
1 LJ
0.5 LW
N
642.5 323.333 M
637 323.333 L
S
GR
GS
0.149 GC
2 setlinecap
1 LJ
0.5 LW
N
642.5 275.944 M
637 275.944 L
S
GR
GS
0.149 GC
2 setlinecap
1 LJ
0.5 LW
N
642.5 228.556 M
637 228.556 L
S
GR
GS
0.149 GC
2 setlinecap
1 LJ
0.5 LW
N
642.5 181.167 M
637 181.167 L
S
GR
GS
0.149 GC
2 setlinecap
1 LJ
0.5 LW
N
642.5 133.778 M
637 133.778 L
S
GR
GS
0.149 GC
2 setlinecap
1 LJ
0.5 LW
N
642.5 86.389 M
637 86.389 L
S
GR
GS
0.149 GC
2 setlinecap
1 LJ
0.5 LW
N
642.5 39 M
637 39 L
S
GR
GS
[1 0 0 1 86.9 465.5] CT
0.149 GC
/Helvetica 18 F
GS
[1 0 0 1 0 0] CT
-33 7 moveto 
1 -1 scale
(-0.4) t 
GR
GR
GS
[1 0 0 1 86.9 418.11111] CT
0.149 GC
/Helvetica 18 F
GS
[1 0 0 1 0 0] CT
-33 7 moveto 
1 -1 scale
(-0.3) t 
GR
GR
GS
[1 0 0 1 86.9 370.72223] CT
0.149 GC
/Helvetica 18 F
GS
[1 0 0 1 0 0] CT
-33 7 moveto 
1 -1 scale
(-0.2) t 
GR
GR
GS
[1 0 0 1 86.9 323.33334] CT
0.149 GC
/Helvetica 18 F
GS
[1 0 0 1 0 0] CT
-33 7 moveto 
1 -1 scale
(-0.1) t 
GR
GR
GS
[1 0 0 1 86.9 275.94446] CT
0.149 GC
/Helvetica 18 F
GS
[1 0 0 1 0 0] CT
-11 7 moveto 
1 -1 scale
(0) t 
GR
GR
GS
[1 0 0 1 86.9 228.55556] CT
0.149 GC
/Helvetica 18 F
GS
[1 0 0 1 0 0] CT
-26 7 moveto 
1 -1 scale
(0.1) t 
GR
GR
GS
[1 0 0 1 86.9 181.16667] CT
0.149 GC
/Helvetica 18 F
GS
[1 0 0 1 0 0] CT
-26 7 moveto 
1 -1 scale
(0.2) t 
GR
GR
GS
[1 0 0 1 86.9 133.77777] CT
0.149 GC
/Helvetica 18 F
GS
[1 0 0 1 0 0] CT
-26 7 moveto 
1 -1 scale
(0.3) t 
GR
GR
GS
[1 0 0 1 86.9 86.38889] CT
0.149 GC
/Helvetica 18 F
GS
[1 0 0 1 0 0] CT
-26 7 moveto 
1 -1 scale
(0.4) t 
GR
GR
GS
[1 0 0 1 86.9 39] CT
0.149 GC
/Helvetica 18 F
GS
[1 0 0 1 0 0] CT
-26 7 moveto 
1 -1 scale
(0.5) t 
GR
GR
GS
[1 0 0 1 367.50037 36.525] CT
/Helvetica-Bold 19.8 F
GS
[1 0 0 1 0 0] CT
-132 -5 moveto 
1 -1 scale
(Wavelet functions on level 3) t 
GR
GR
GS
0 0.447 0.741 RC
1 LJ
2 LW
N
96.429 400.032 M
100.357 427.666 L
104.286 359.077 L
108.214 316.271 L
112.143 299.247 L
116.071 275.316 L
120 277.167 L
123.929 272.109 L
127.857 260.143 L
131.786 250.029 L
135.714 265.697 L
139.643 274.456 L
143.571 276.308 L
147.5 280.01 L
151.429 276.804 L
155.357 275.448 L
159.286 275.944 L
163.214 275.944 L
167.143 275.944 L
171.071 275.944 L
175 275.944 L
178.929 275.944 L
182.857 275.944 L
186.786 275.944 L
190.714 275.944 L
194.643 275.944 L
198.571 275.944 L
202.5 275.944 L
206.429 275.944 L
210.357 275.944 L
214.286 275.944 L
218.214 275.944 L
222.143 275.944 L
226.071 275.944 L
230 275.944 L
233.929 275.944 L
237.857 275.944 L
241.786 275.944 L
245.714 275.944 L
249.643 275.944 L
253.571 275.944 L
257.5 275.944 L
261.429 275.944 L
265.357 275.944 L
269.286 275.944 L
273.214 275.944 L
277.143 275.944 L
281.071 275.944 L
285 275.944 L
288.929 275.944 L
292.857 275.944 L
296.786 275.944 L
300.714 275.944 L
304.643 275.944 L
308.571 275.944 L
312.5 275.944 L
316.429 275.944 L
320.357 275.944 L
324.286 275.944 L
328.214 275.944 L
332.143 275.944 L
336.071 275.944 L
340 275.944 L
343.929 275.944 L
347.857 275.944 L
351.786 275.944 L
355.714 275.944 L
359.643 275.944 L
363.571 275.944 L
367.5 275.944 L
371.429 275.944 L
375.357 275.944 L
379.286 275.944 L
383.214 275.944 L
387.143 275.944 L
391.071 275.944 L
395 275.944 L
398.929 275.944 L
402.857 275.944 L
406.786 275.944 L
410.714 275.944 L
414.643 275.944 L
418.571 275.944 L
422.5 275.944 L
426.429 275.944 L
430.357 275.944 L
434.286 275.944 L
438.214 275.944 L
442.143 275.944 L
446.071 275.944 L
450 275.944 L
453.929 275.944 L
457.857 275.944 L
461.786 275.944 L
465.714 275.944 L
469.643 275.944 L
473.571 275.944 L
477.5 275.944 L
481.429 275.944 L
485.357 275.944 L
489.286 275.944 L
493.214 275.944 L
497.143 275.944 L
501.071 275.944 L
505 275.944 L
508.929 275.944 L
512.857 275.944 L
516.786 275.944 L
520.714 275.944 L
524.643 275.944 L
528.571 275.944 L
532.5 275.944 L
536.429 275.944 L
540.357 275.944 L
544.286 275.944 L
548.214 275.944 L
552.143 275.944 L
556.071 275.944 L
560 275.944 L
563.929 275.944 L
567.857 275.944 L
571.786 275.944 L
575.714 275.944 L
579.643 275.944 L
583.571 275.944 L
587.5 275.944 L
591.429 275.944 L
595.357 275.944 L
S
GR
GS
0.851 0.325 0.098 RC
1 LJ
2 LW
N
96.429 275.944 M
100.357 275.944 L
104.286 282.853 L
108.214 287.91 L
112.143 291.117 L
116.071 294.819 L
120 296.67 L
123.929 299.017 L
127.857 301.86 L
131.786 304.57 L
135.714 305.43 L
139.643 306.785 L
143.571 308.636 L
147.5 310.354 L
151.429 312.568 L
155.357 314.65 L
159.286 316.598 L
163.214 318.582 L
167.143 258.886 L
171.071 215.716 L
175 189.074 L
178.929 158.004 L
182.857 143.461 L
186.786 124.489 L
190.714 101.089 L
194.643 78.875 L
198.571 183.725 L
202.5 254.528 L
206.429 291.285 L
210.357 337.165 L
214.286 348.998 L
218.214 369.953 L
222.143 400.032 L
226.071 427.666 L
230 359.077 L
233.929 316.271 L
237.857 299.247 L
241.786 275.316 L
245.714 277.167 L
249.643 272.109 L
253.571 260.143 L
257.5 250.029 L
261.429 265.697 L
265.357 274.456 L
269.286 276.308 L
273.214 280.01 L
277.143 276.804 L
281.071 275.448 L
285 275.944 L
288.929 275.944 L
292.857 275.944 L
296.786 275.944 L
300.714 275.944 L
304.643 275.944 L
308.571 275.944 L
312.5 275.944 L
316.429 275.944 L
320.357 275.944 L
324.286 275.944 L
328.214 275.944 L
332.143 275.944 L
336.071 275.944 L
340 275.944 L
343.929 275.944 L
347.857 275.944 L
351.786 275.944 L
355.714 275.944 L
359.643 275.944 L
363.571 275.944 L
367.5 275.944 L
371.429 275.944 L
375.357 275.944 L
379.286 275.944 L
383.214 275.944 L
387.143 275.944 L
391.071 275.944 L
395 275.944 L
398.929 275.944 L
402.857 275.944 L
406.786 275.944 L
410.714 275.944 L
414.643 275.944 L
418.571 275.944 L
422.5 275.944 L
426.429 275.944 L
430.357 275.944 L
434.286 275.944 L
438.214 275.944 L
442.143 275.944 L
446.071 275.944 L
450 275.944 L
453.929 275.944 L
457.857 275.944 L
461.786 275.944 L
465.714 275.944 L
469.643 275.944 L
473.571 275.944 L
477.5 275.944 L
481.429 275.944 L
485.357 275.944 L
489.286 275.944 L
493.214 275.944 L
497.143 275.944 L
501.071 275.944 L
505 275.944 L
508.929 275.944 L
512.857 275.944 L
516.786 275.944 L
520.714 275.944 L
524.643 275.944 L
528.571 275.944 L
532.5 275.944 L
536.429 275.944 L
540.357 275.944 L
544.286 275.944 L
548.214 275.944 L
552.143 275.944 L
556.071 275.944 L
560 275.944 L
563.929 275.944 L
567.857 275.944 L
571.786 275.944 L
575.714 275.944 L
579.643 275.944 L
583.571 275.944 L
587.5 275.944 L
591.429 275.944 L
595.357 275.944 L
S
GR
GS
0.929 0.694 0.125 RC
1 LJ
2 LW
N
96.429 275.944 M
100.357 275.944 L
104.286 275.944 L
108.214 275.944 L
112.143 275.944 L
116.071 275.944 L
120 275.944 L
123.929 275.944 L
127.857 275.944 L
131.786 275.944 L
135.714 275.944 L
139.643 275.944 L
143.571 275.944 L
147.5 275.944 L
151.429 275.944 L
155.357 275.944 L
159.286 275.944 L
163.214 275.944 L
167.143 275.944 L
171.071 275.944 L
175 275.944 L
178.929 275.944 L
182.857 275.944 L
186.786 275.944 L
190.714 275.944 L
194.643 275.944 L
198.571 275.944 L
202.5 275.944 L
206.429 275.944 L
210.357 275.944 L
214.286 275.944 L
218.214 275.944 L
222.143 275.944 L
226.071 275.944 L
230 282.853 L
233.929 287.91 L
237.857 291.117 L
241.786 294.819 L
245.714 296.67 L
249.643 299.017 L
253.571 301.86 L
257.5 304.57 L
261.429 305.43 L
265.357 306.785 L
269.286 308.636 L
273.214 310.354 L
277.143 312.568 L
281.071 314.65 L
285 316.598 L
288.929 318.582 L
292.857 258.886 L
296.786 215.716 L
300.714 189.074 L
304.643 158.004 L
308.571 143.461 L
312.5 124.489 L
316.429 101.089 L
320.357 78.875 L
324.286 183.725 L
328.214 254.528 L
332.143 291.285 L
336.071 337.165 L
340 348.998 L
343.929 369.953 L
347.857 400.032 L
351.786 427.666 L
355.714 359.077 L
359.643 316.271 L
363.571 299.247 L
367.5 275.316 L
371.429 277.167 L
375.357 272.109 L
379.286 260.143 L
383.214 250.029 L
387.143 265.697 L
391.071 274.456 L
395 276.308 L
398.929 280.01 L
402.857 276.804 L
406.786 275.448 L
410.714 275.944 L
414.643 275.944 L
418.571 275.944 L
422.5 275.944 L
426.429 275.944 L
430.357 275.944 L
434.286 275.944 L
438.214 275.944 L
442.143 275.944 L
446.071 275.944 L
450 275.944 L
453.929 275.944 L
457.857 275.944 L
461.786 275.944 L
465.714 275.944 L
469.643 275.944 L
473.571 275.944 L
477.5 275.944 L
481.429 275.944 L
485.357 275.944 L
489.286 275.944 L
493.214 275.944 L
497.143 275.944 L
501.071 275.944 L
505 275.944 L
508.929 275.944 L
512.857 275.944 L
516.786 275.944 L
520.714 275.944 L
524.643 275.944 L
528.571 275.944 L
532.5 275.944 L
536.429 275.944 L
540.357 275.944 L
544.286 275.944 L
548.214 275.944 L
552.143 275.944 L
556.071 275.944 L
560 275.944 L
563.929 275.944 L
567.857 275.944 L
571.786 275.944 L
575.714 275.944 L
579.643 275.944 L
583.571 275.944 L
587.5 275.944 L
591.429 275.944 L
595.357 275.944 L
S
GR
GS
0.494 0.184 0.557 RC
1 LJ
2 LW
N
96.429 275.944 M
100.357 275.944 L
104.286 275.944 L
108.214 275.944 L
112.143 275.944 L
116.071 275.944 L
120 275.944 L
123.929 275.944 L
127.857 275.944 L
131.786 275.944 L
135.714 275.944 L
139.643 275.944 L
143.571 275.944 L
147.5 275.944 L
151.429 275.944 L
155.357 275.944 L
159.286 275.944 L
163.214 275.944 L
167.143 275.944 L
171.071 275.944 L
175 275.944 L
178.929 275.944 L
182.857 275.944 L
186.786 275.944 L
190.714 275.944 L
194.643 275.944 L
198.571 275.944 L
202.5 275.944 L
206.429 275.944 L
210.357 275.944 L
214.286 275.944 L
218.214 275.944 L
222.143 275.944 L
226.071 275.944 L
230 275.944 L
233.929 275.944 L
237.857 275.944 L
241.786 275.944 L
245.714 275.944 L
249.643 275.944 L
253.571 275.944 L
257.5 275.944 L
261.429 275.944 L
265.357 275.944 L
269.286 275.944 L
273.214 275.944 L
277.143 275.944 L
281.071 275.944 L
285 275.944 L
288.929 275.944 L
292.857 275.944 L
296.786 275.944 L
300.714 275.944 L
304.643 275.944 L
308.571 275.944 L
312.5 275.944 L
316.429 275.944 L
320.357 275.944 L
324.286 275.944 L
328.214 275.944 L
332.143 275.944 L
336.071 275.944 L
340 275.944 L
343.929 275.944 L
347.857 275.944 L
351.786 275.944 L
355.714 282.853 L
359.643 287.91 L
363.571 291.117 L
367.5 294.819 L
371.429 296.67 L
375.357 299.017 L
379.286 301.86 L
383.214 304.57 L
387.143 305.43 L
391.071 306.785 L
395 308.636 L
398.929 310.354 L
402.857 312.568 L
406.786 314.65 L
410.714 316.598 L
414.643 318.582 L
418.571 258.886 L
422.5 215.716 L
426.429 189.074 L
430.357 158.004 L
434.286 143.461 L
438.214 124.489 L
442.143 101.089 L
446.071 78.875 L
450 183.725 L
453.929 254.528 L
457.857 291.285 L
461.786 337.165 L
465.714 348.998 L
469.643 369.953 L
473.571 400.032 L
477.5 427.666 L
481.429 359.077 L
485.357 316.271 L
489.286 299.247 L
493.214 275.316 L
497.143 277.167 L
501.071 272.109 L
505 260.143 L
508.929 250.029 L
512.857 265.697 L
516.786 274.456 L
520.714 276.308 L
524.643 280.01 L
528.571 276.804 L
532.5 275.448 L
536.429 275.944 L
540.357 275.944 L
544.286 275.944 L
548.214 275.944 L
552.143 275.944 L
556.071 275.944 L
560 275.944 L
563.929 275.944 L
567.857 275.944 L
571.786 275.944 L
575.714 275.944 L
579.643 275.944 L
583.571 275.944 L
587.5 275.944 L
591.429 275.944 L
595.357 275.944 L
S
GR
GS
0.467 0.675 0.188 RC
1 LJ
2 LW
N
96.429 275.944 M
100.357 275.944 L
104.286 275.944 L
108.214 275.944 L
112.143 275.944 L
116.071 275.944 L
120 275.944 L
123.929 275.944 L
127.857 275.944 L
131.786 275.944 L
135.714 275.944 L
139.643 275.944 L
143.571 275.944 L
147.5 275.944 L
151.429 275.944 L
155.357 275.944 L
159.286 275.944 L
163.214 275.944 L
167.143 275.944 L
171.071 275.944 L
175 275.944 L
178.929 275.944 L
182.857 275.944 L
186.786 275.944 L
190.714 275.944 L
194.643 275.944 L
198.571 275.944 L
202.5 275.944 L
206.429 275.944 L
210.357 275.944 L
214.286 275.944 L
218.214 275.944 L
222.143 275.944 L
226.071 275.944 L
230 275.944 L
233.929 275.944 L
237.857 275.944 L
241.786 275.944 L
245.714 275.944 L
249.643 275.944 L
253.571 275.944 L
257.5 275.944 L
261.429 275.944 L
265.357 275.944 L
269.286 275.944 L
273.214 275.944 L
277.143 275.944 L
281.071 275.944 L
285 275.944 L
288.929 275.944 L
292.857 275.944 L
296.786 275.944 L
300.714 275.944 L
304.643 275.944 L
308.571 275.944 L
312.5 275.944 L
316.429 275.944 L
320.357 275.944 L
324.286 275.944 L
328.214 275.944 L
332.143 275.944 L
336.071 275.944 L
340 275.944 L
343.929 275.944 L
347.857 275.944 L
351.786 275.944 L
355.714 275.944 L
359.643 275.944 L
363.571 275.944 L
367.5 275.944 L
371.429 275.944 L
375.357 275.944 L
379.286 275.944 L
383.214 275.944 L
387.143 275.944 L
391.071 275.944 L
395 275.944 L
398.929 275.944 L
402.857 275.944 L
406.786 275.944 L
410.714 275.944 L
414.643 275.944 L
418.571 275.944 L
422.5 275.944 L
426.429 275.944 L
430.357 275.944 L
434.286 275.944 L
438.214 275.944 L
442.143 275.944 L
446.071 275.944 L
450 275.944 L
453.929 275.944 L
457.857 275.944 L
461.786 275.944 L
465.714 275.944 L
469.643 275.944 L
473.571 275.944 L
477.5 275.944 L
481.429 282.853 L
485.357 287.91 L
489.286 291.117 L
493.214 294.819 L
497.143 296.67 L
501.071 299.017 L
505 301.86 L
508.929 304.57 L
512.857 305.43 L
516.786 306.785 L
520.714 308.636 L
524.643 310.354 L
528.571 312.568 L
532.5 314.65 L
536.429 316.598 L
540.357 318.582 L
544.286 258.886 L
548.214 215.716 L
552.143 189.074 L
556.071 158.004 L
560 143.461 L
563.929 124.489 L
567.857 101.089 L
571.786 78.875 L
575.714 183.725 L
579.643 254.528 L
583.571 291.285 L
587.5 337.165 L
591.429 348.998 L
595.357 369.953 L
S
GR
%%Trailer
%%Pages: 1
%%EOF
