\BOOKMARK [1][-]{section.1}{Time- and frequency localization of wavelets using data}{}% 1
\BOOKMARK [2][-]{subsection.1.1}{The frequency intervals of wavelet scales}{section.1}% 2
\BOOKMARK [2][-]{subsection.1.2}{Time localization}{section.1}% 3
\BOOKMARK [2][-]{subsection.1.3}{Frequency localization, revisited}{section.1}% 4
\BOOKMARK [1][-]{section.2}{Analysis of two data sets}{}% 5
\BOOKMARK [2][-]{subsection.2.1}{Blood oxygen-level dependent imaging \(BOLD\)}{section.2}% 6
\BOOKMARK [2][-]{subsection.2.2}{Human pressure response}{section.2}% 7
