\relax 
\providecommand\hyper@newdestlabel[2]{}
\providecommand\HyperFirstAtBeginDocument{\AtBeginDocument}
\HyperFirstAtBeginDocument{\ifx\hyper@anchor\@undefined
\global\let\oldcontentsline\contentsline
\gdef\contentsline#1#2#3#4{\oldcontentsline{#1}{#2}{#3}}
\global\let\oldnewlabel\newlabel
\gdef\newlabel#1#2{\newlabelxx{#1}#2}
\gdef\newlabelxx#1#2#3#4#5#6{\oldnewlabel{#1}{{#2}{#3}}}
\AtEndDocument{\ifx\hyper@anchor\@undefined
\let\contentsline\oldcontentsline
\let\newlabel\oldnewlabel
\fi}
\fi}
\global\let\hyper@last\relax 
\gdef\HyperFirstAtBeginDocument#1{#1}
\providecommand\HyField@AuxAddToFields[1]{}
\providecommand\HyField@AuxAddToCoFields[2]{}
\select@language{english}
\@writefile{toc}{\select@language{english}}
\@writefile{lof}{\select@language{english}}
\@writefile{lot}{\select@language{english}}
\pgfsyspdfmark {pgfid2}{0}{0}
\pgfsyspdfmark {pgfid1}{6577079}{47493192}
\@writefile{toc}{\contentsline {section}{\numberline {1}Time- and frequency localization of wavelets using data}{1}{section.1}}
\@writefile{toc}{\contentsline {subsection}{\numberline {1.1}The frequency intervals of wavelet scales}{1}{subsection.1.1}}
\newlabel{eq:functionspacedecomposition}{{1}{1}{The frequency intervals of wavelet scales}{equation.1.1}{}}
\@writefile{lof}{\contentsline {figure}{\numberline {1}{\ignorespaces The wavelet filter bank, with corresponding spaces, applied to a signal, sampled at $f_s$. The corresponding bandwiths of the signals is also indicated.\relax }}{1}{figure.caption.2}}
\providecommand*\caption@xref[2]{\@setref\relax\@undefined{#1}}
\newlabel{fig:ex12_filterbank}{{1}{1}{The wavelet filter bank, with corresponding spaces, applied to a signal, sampled at $f_s$. The corresponding bandwiths of the signals is also indicated.\relax }{figure.caption.2}{}}
\@writefile{lot}{\contentsline {table}{\numberline {1}{\ignorespaces The different frequency intervals for $f_s = \SI {1000}{\hertz }$ and $L = 5$.\relax }}{2}{table.caption.3}}
\newlabel{tab:ex12_freqDiv}{{1}{2}{The different frequency intervals for $f_s = \SI {1000}{\hertz }$ and $L = 5$.\relax }{table.caption.3}{}}
\@writefile{lof}{\contentsline {figure}{\numberline {2}{\ignorespaces The division of the frequency domain in wavelet spaces for $f_s = \SI {1000}{\hertz }$ and $L = 5$.\relax }}{2}{figure.caption.4}}
\newlabel{fig:ex12_freqDiv}{{2}{2}{The division of the frequency domain in wavelet spaces for $f_s = \SI {1000}{\hertz }$ and $L = 5$.\relax }{figure.caption.4}{}}
\@writefile{toc}{\contentsline {subsection}{\numberline {1.2}Time localization}{2}{subsection.1.2}}
\newlabel{eq:functiondecomposition}{{2}{2}{Time localization}{equation.1.2}{}}
\@writefile{toc}{\contentsline {subsection}{\numberline {1.3}Frequency localization, revisited}{3}{subsection.1.3}}
\newlabel{sec:freq_loc_rev}{{1.3}{3}{Frequency localization, revisited}{subsection.1.3}{}}
\newlabel{fig:wavelet6}{{3a}{4}{A few different wavelet functions on the sixth level. There should be 65 of these. This is the first step in decomposition (\ref {eq:functiondecomposition}).\relax }{figure.caption.5}{}}
\newlabel{sub@fig:wavelet6}{{a}{4}{A few different wavelet functions on the sixth level. There should be 65 of these. This is the first step in decomposition (\ref {eq:functiondecomposition}).\relax }{figure.caption.5}{}}
\newlabel{fig:wavelet3}{{3b}{4}{A few different wavelet functions on the coarsest level $W_{J_0}$. In total there are 10 of these.\relax }{figure.caption.5}{}}
\newlabel{sub@fig:wavelet3}{{b}{4}{A few different wavelet functions on the coarsest level $W_{J_0}$. In total there are 10 of these.\relax }{figure.caption.5}{}}
\newlabel{fig:scaling3}{{3c}{4}{5 different scaling functions for a signal of length 128 with a 4-level wavelet transform. There should be ten of these scaling functions but only five were plotted.\relax }{figure.caption.5}{}}
\newlabel{sub@fig:scaling3}{{c}{4}{5 different scaling functions for a signal of length 128 with a 4-level wavelet transform. There should be ten of these scaling functions but only five were plotted.\relax }{figure.caption.5}{}}
\@writefile{lof}{\contentsline {figure}{\numberline {3}{\ignorespaces A few scaling and wavelet functions for the Daubechies-2 wavelets.\relax }}{4}{figure.caption.5}}
\newlabel{fig:waveletdb46}{{4a}{5}{A few different wavelet functions on the sixth level.\relax }{figure.caption.6}{}}
\newlabel{sub@fig:waveletdb46}{{a}{5}{A few different wavelet functions on the sixth level.\relax }{figure.caption.6}{}}
\newlabel{fig:waveletdb43}{{4b}{5}{A few different wavelet functions on the coarsest level $W_{J_0}$.\relax }{figure.caption.6}{}}
\newlabel{sub@fig:waveletdb43}{{b}{5}{A few different wavelet functions on the coarsest level $W_{J_0}$.\relax }{figure.caption.6}{}}
\newlabel{fig:scalingdb4}{{4c}{5}{5 different scaling functions for a signal of length 128 with a 4-level wavelet transform.\relax }{figure.caption.6}{}}
\newlabel{sub@fig:scalingdb4}{{c}{5}{5 different scaling functions for a signal of length 128 with a 4-level wavelet transform.\relax }{figure.caption.6}{}}
\@writefile{lof}{\contentsline {figure}{\numberline {4}{\ignorespaces A few scaling and wavelet functions for the Daubechies-4 wavelets.\relax }}{5}{figure.caption.6}}
\@writefile{lof}{\contentsline {figure}{\numberline {5}{\ignorespaces The low- and high-pass filter of the filter bank corresponding to the Daubechies-2 wavelets and scaling functions\relax }}{6}{figure.caption.7}}
\newlabel{fig:filtersdb2}{{5}{6}{The low- and high-pass filter of the filter bank corresponding to the Daubechies-2 wavelets and scaling functions\relax }{figure.caption.7}{}}
\@writefile{lof}{\contentsline {figure}{\numberline {6}{\ignorespaces The low- and high-pass filter of the filter bank corresponding to the Daubechies-4 wavelets and scaling functions\relax }}{6}{figure.caption.8}}
\newlabel{fig:filtersdb4}{{6}{6}{The low- and high-pass filter of the filter bank corresponding to the Daubechies-4 wavelets and scaling functions\relax }{figure.caption.8}{}}
\newlabel{fig:waveletDBTIMESCALE}{{7a}{7}{Time signals\relax }{figure.caption.9}{}}
\newlabel{sub@fig:waveletDBTIMESCALE}{{a}{7}{Time signals\relax }{figure.caption.9}{}}
\newlabel{fig:waveletDFTDBSCALE}{{7b}{7}{Normalized frequency spectrum\relax }{figure.caption.9}{}}
\newlabel{sub@fig:waveletDFTDBSCALE}{{b}{7}{Normalized frequency spectrum\relax }{figure.caption.9}{}}
\@writefile{lof}{\contentsline {figure}{\numberline {7}{\ignorespaces Comparison of the Daubechies-2 wavelet on scale 5 and 6\relax }}{7}{figure.caption.9}}
\newlabel{fig:waveletDBSCALE}{{7}{7}{Comparison of the Daubechies-2 wavelet on scale 5 and 6\relax }{figure.caption.9}{}}
\@writefile{toc}{\contentsline {section}{\numberline {2}Analysis of two data sets}{7}{section.2}}
\@writefile{toc}{\contentsline {subsection}{\numberline {2.1}Blood oxygen-level dependent imaging (BOLD)}{7}{subsection.2.1}}
\newlabel{fig:waveletDBS}{{8a}{8}{Time signals\relax }{figure.caption.10}{}}
\newlabel{sub@fig:waveletDBS}{{a}{8}{Time signals\relax }{figure.caption.10}{}}
\newlabel{fig:waveletDFTDB}{{8b}{8}{Normalized frequency spectrum\relax }{figure.caption.10}{}}
\newlabel{sub@fig:waveletDFTDB}{{b}{8}{Normalized frequency spectrum\relax }{figure.caption.10}{}}
\newlabel{fig:waveletDFTDBZoom}{{8c}{8}{A zoom of the normalized frequency spectrum on the main lobe\relax }{figure.caption.10}{}}
\newlabel{sub@fig:waveletDFTDBZoom}{{c}{8}{A zoom of the normalized frequency spectrum on the main lobe\relax }{figure.caption.10}{}}
\newlabel{fig:waveletDFTDBZoomZoom}{{8d}{8}{A zoom of the ormalized frequency spectrum on the maximal frequency\relax }{figure.caption.10}{}}
\newlabel{sub@fig:waveletDFTDBZoomZoom}{{d}{8}{A zoom of the ormalized frequency spectrum on the maximal frequency\relax }{figure.caption.10}{}}
\@writefile{lof}{\contentsline {figure}{\numberline {8}{\ignorespaces Comparison of three wavelets from the Daubechies family\relax }}{8}{figure.caption.10}}
\newlabel{fig:waveletDB}{{8}{8}{Comparison of three wavelets from the Daubechies family\relax }{figure.caption.10}{}}
\newlabel{fig:waveletCOIFS}{{9a}{8}{Time signals\relax }{figure.caption.11}{}}
\newlabel{sub@fig:waveletCOIFS}{{a}{8}{Time signals\relax }{figure.caption.11}{}}
\newlabel{fig:waveletDFTCOIF}{{9b}{8}{Normalized frequency spectrum\relax }{figure.caption.11}{}}
\newlabel{sub@fig:waveletDFTCOIF}{{b}{8}{Normalized frequency spectrum\relax }{figure.caption.11}{}}
\@writefile{lof}{\contentsline {figure}{\numberline {9}{\ignorespaces Comparison of the Daubechies-3 wavelet with the Coiflet-3 wavelet\relax }}{8}{figure.caption.11}}
\newlabel{fig:waveletCOIF}{{9}{8}{Comparison of the Daubechies-3 wavelet with the Coiflet-3 wavelet\relax }{figure.caption.11}{}}
\@writefile{lof}{\contentsline {figure}{\numberline {10}{\ignorespaces The BOLD signal\relax }}{9}{figure.caption.12}}
\newlabel{fig:ex22_bold}{{10}{9}{The BOLD signal\relax }{figure.caption.12}{}}
\@writefile{lof}{\contentsline {figure}{\numberline {11}{\ignorespaces The Daubechies-4 wavelet for $L = 5, k = 10$ and $f_s = \SI {0.5}{\hertz }$\relax }}{9}{figure.caption.13}}
\newlabel{fig:ex22_db4wavelet5}{{11}{9}{The Daubechies-4 wavelet for $L = 5, k = 10$ and $f_s = \SI {0.5}{\hertz }$\relax }{figure.caption.13}{}}
\@writefile{lof}{\contentsline {figure}{\numberline {12}{\ignorespaces The division of the frequency domain for $f_s = \SI {0.5}{\hertz }$ and $L = 5$\relax }}{10}{figure.caption.14}}
\newlabel{fig:ex22_freqDiv}{{12}{10}{The division of the frequency domain for $f_s = \SI {0.5}{\hertz }$ and $L = 5$\relax }{figure.caption.14}{}}
\@writefile{lof}{\contentsline {figure}{\numberline {13}{\ignorespaces The decomposition of the BOLD signal using 5 levels\relax }}{10}{figure.caption.15}}
\newlabel{fig:ex22_waveletDecomp}{{13}{10}{The decomposition of the BOLD signal using 5 levels\relax }{figure.caption.15}{}}
\@writefile{toc}{\contentsline {subsection}{\numberline {2.2}Human pressure response}{10}{subsection.2.2}}
\@writefile{lof}{\contentsline {figure}{\numberline {14}{\ignorespaces The original and reconstructed BOLD signal\relax }}{11}{figure.caption.16}}
\newlabel{fig:ex22_boldReconstr}{{14}{11}{The original and reconstructed BOLD signal\relax }{figure.caption.16}{}}
\@writefile{lof}{\contentsline {figure}{\numberline {15}{\ignorespaces The measured pressure signal as a function of time. The signal is quite noisy.\relax }}{12}{figure.caption.17}}
\newlabel{fig:pressure}{{15}{12}{The measured pressure signal as a function of time. The signal is quite noisy.\relax }{figure.caption.17}{}}
\@writefile{lof}{\contentsline {figure}{\numberline {16}{\ignorespaces The scaling and wavelet coefficients of the pressure signal with their frequency range indicated on top.\relax }}{12}{figure.caption.18}}
\newlabel{fig:pressurewaveletcoefficients}{{16}{12}{The scaling and wavelet coefficients of the pressure signal with their frequency range indicated on top.\relax }{figure.caption.18}{}}
\@writefile{lof}{\contentsline {figure}{\numberline {17}{\ignorespaces Energy content of the wavelet and scaling coefficients per frequency interval.\relax }}{13}{figure.caption.19}}
\newlabel{fig:waveletenergycoefficients}{{17}{13}{Energy content of the wavelet and scaling coefficients per frequency interval.\relax }{figure.caption.19}{}}
\@writefile{lol}{\contentsline {lstlisting}{../code/waveletbands.m}{13}{lstlisting.-1}}
\@writefile{lol}{\contentsline {lstlisting}{../code/evalscalingfunction.m}{14}{lstlisting.-2}}
\@writefile{lol}{\contentsline {lstlisting}{../code/evalwavelet.m}{14}{lstlisting.-3}}
\@writefile{lol}{\contentsline {lstlisting}{../code/support.m}{14}{lstlisting.-4}}
\@writefile{lol}{\contentsline {lstlisting}{../code/plotscalingfunctions.m}{15}{lstlisting.-5}}
\@writefile{lol}{\contentsline {lstlisting}{../code/plotwaveletfunctions.m}{15}{lstlisting.-6}}
\@writefile{lol}{\contentsline {lstlisting}{../code/spectrum.m}{15}{lstlisting.-7}}
\@writefile{lol}{\contentsline {lstlisting}{../code/plotspectrum.m}{15}{lstlisting.-8}}
\@writefile{lol}{\contentsline {lstlisting}{../code/plotspectra.m}{16}{lstlisting.-9}}
\@writefile{lol}{\contentsline {lstlisting}{../code/fftSignal.m}{16}{lstlisting.-10}}
\@writefile{lol}{\contentsline {lstlisting}{../code/plotDFT.m}{16}{lstlisting.-11}}
\@writefile{lol}{\contentsline {lstlisting}{../code/plotBold.m}{17}{lstlisting.-12}}
\@writefile{lol}{\contentsline {lstlisting}{../code/EX32.m}{18}{lstlisting.-13}}
\@writefile{lol}{\contentsline {lstlisting}{../code/pressure\textunderscore code.m}{18}{lstlisting.-14}}
\newlabel{LastPage}{{}{19}{}{page.19}{}}
\xdef\lastpage@lastpage{19}
\xdef\lastpage@lastpageHy{19}
